1604031
1604047
1604083
1604114
1604137
1604156
1604157
1607011
1607018
1607021
1607034
1607035
1607038
1607050
1607076
1607082
1607096
1610039
1610023
1604064
1604019
1604010
1604017
1604036
1604037
1604041
1604123
1604131
1604175
1604205
1607014
1607019
1607025
1607052
1607064
1607089
1607095
1610043
1607048
1604015
1604020
1604055
1604074
1604079
1604111
1604124
1604126
1604180
1604227
1607001
1607007
1607012
1607015
1607041
1607079
1607087
1607093
1607112
1604001
1604002
1604051
1604082
1604104
1604134
1604142
1604153
1604210
1604220
1604240
1607046
1607066
1607067
1607075
1704059
1704105
1604022
1604029
1604044
1604045
1604158
1604184
1604226
1607040
1610016
1610018
1610026
1610037
1610045
1704081
1704108
1704115
1604023
1604072
1604100
1604117
1604125
1604138
1604152
1604154
1604183
1604189
1604204
1604217
1604221
1604222
1604233
1604239
1607022
1607084
1607091
1607119
1604028
1604034
1604038
1604066
1604068
1604073
1604099
1604110
1604190
1604228
1604259
1607024
1607029
1607042
1607057
1607058
1607060
1607094
1610010
1610048
1604048
1604075
1604077
1604093
1604101
1604133
1604136
1604141
1604143
1604173
1604181
1604238
1607008
1607032
1607056
1607072
1607078
1610014
1610024
1610032
1704091
1604005
1604035
1604042
1604108
1604163
1604166
1604199
1604214
1604218
1607005
1610027
1704025
1704026
1704036
1704049
1704077
1707077
1604006
1604014
1604080
1604087
1604148
1604160
1604162
1604171
1604186
1604193
1604208
1604234
1604235
1607081
1704092
1707041
1604008
1604033
1604040
1604078
1604107
1604109
1604118
1604195
1604224
1604243
1604244
1604261
1607028
1607106
1610004
1610020
1610025
1704021
1704102
9917028
1604094
1604242
1604245
1604246
1610012
1610013
1610022
1610030
1610031
1610042
1704039
1704065
1704089
1704097
1704100
9916026
1707003
1707016
1707040
1604056
1604257
1610001
1610002
1610009
1610011
1610019
1610033
1610038
1610040
1610044
1610053
1704071
1704101
1704119
1704152
1707008
1707022
1707084
1610005
1610015
1610029
1704029
1704041
1704048
1704052
1704079
1707002
1707005
1707006
1707015
1707018
1707030
1707037
1707061
1707064
1707096
9917034
1704007
1704008
1704012
1704013
1704016
1704060
1704072
1704076
1704088
1704099
1707020
1707021
1707028
1707032
1707042
1707059
1707060
1707066
1707087
1707009
1707013
1707019
1707035
1707036
1707038
1707039
1707044
1707046
1707047
1707048
1707050
1707051
1707068
1707081
1707089
1604063
1604069
1604076
1604090
1604116
1604139
1604140
1604188
1604201
1604202
1604231
1604232
1607030
1607031
1607033
1607053
1607086
1607088
1610021
1604012
1604067
1604084
1604105
1604106
1604161
1604169
1604185
1604194
1604200
1604252
1607023
1607061
1607101
1607104
1607105
1607110
1607111
1607115
9916023
1604091
1604128
1604172
1604255
1607036
1607051
1607073
1607099
1607100
1610035
1704014
1704040
1704062
1704064
1704074
1704087
1704090
1704098
1704118
1604052
1604092
1604168
1604258
1607013
1607037
1607085
1607098
1607102
1607113
1610006
1701001
1704020
1704034
1704047
1704057
1704068
1704106
1704109
1607109
1607114
1704005
1704006
1704011
1704019
1704037
1704045
1704046
1704069
1704070
1704086
1704096
1704103
1704120
1704124
1707023
1707057
1707088
1607107
1704051
1704054
1704067
1704080
1704082
1704084
1704085
1704104
1704107
1704111
1704112
1704116
1704123
1704125
1704142
1707014
1707063
9917027
1607020
1610007
1610017
1610049
1610051
1610054
1704010
1704023
1704033
1704035
1704038
1704058
1704063
1704094
1704095
1704113
1704140
1704149
1707026
1707029
1604018
1604209
1607118
1610034
1610047
1610050
1704003
1704004
1704018
1704024
1704028
1704032
1704042
1704053
1704061
1704078
1704128
1704141
1707093
1607108
1704001
1704002
1704017
1704022
1704027
1704031
1704044
1704055
1704056
1704066
1704093
1704110
1704121
1704122
1704144
1707007
1707070
1707082
1707004
1704030
1704129
1704138
1704150
1707010
1707012
1707017
1707025
1707034
1707053
1707056
1707071
1707076
1707079
1707085
1707086
1707092
1707095
9917036
1610046
1704143
1704145
1704151
1707011
1707024
1707027
1707043
1707045
1707049
1707052
1707058
1707062
1707067
1707069
1707073
9917030
9917031
9917033
9917037
