﻿,127,大学A,N1,小林秀彦,1501032,龙苏丹,いつも早めに登校し、予習復習を怠らない模範生である。その努力が実り、11月の日本留学試験で優秀な成績を収めた。,A,A,B,B,A,A,A,A,100
,127,大学A,N1,小林秀彦,1504016,丁広之,冬に入ってから体調を崩して休みがちであった。しかし、授業態度はとても真面目で、着実に日本語力を伸ばしている。,B,C,C,C,A,A,B,B,81
,127,大学A,N1,小林秀彦,1504025,顧鑫石,真面目に学習を続け、上級レベル以上の日本語力を身につけることができた。大学入学後の飛躍が大いに期待できる。,B,B,B,B,A,A,C,B,91
,127,大学A,N1,小林秀彦,1504028,孔繁博,非常に思慮深く、鋭い洞察力がある学生である。自分が考えたことを論理的にわかりやすく述べることができる。,B,B,A,B,A,A,D,B,89
,127,大学A,N1,小林秀彦,1504034,陳金鑫,会話によるコミュニケーション力が高く、自分の意見を相手にしっかり伝えることができる。また、大変礼儀正しい。,C,B,C,A,A,B,C,B,95
,127,大学A,N1,小林秀彦,1504038,韋詩晴,真摯な態度で授業に臨み、課題の提出もほぼ怠らない模範生である。志望校合格に向けて努力を続けている。,B,C,C,C,B,A,A,B,99
,127,大学A,N1,小林秀彦,1504041,張人友,明確な目標を持ち、その達成のために必要な努力を続けている。明るい性格で社交性もあり、友人も多いようである。,A,A,B,A,A,A,C,A,78
,127,大学A,N1,小林秀彦,1504046,許景郁,日本語学習だけではなく、広く社会に関心を持ち、見聞を広げる努力をしている。また、しっかりと自分の意見を持っている。,B,B,B,A,B,B,C,B,96
,127,大学A,N1,小林秀彦,1504063,呉雨奚,熱心に学習しているが、課題の提出率が悪かったのが残念である。自分の意見をわかりやすい言葉で論理的に述べることができる。,B,B,A,A,A,A,C,A,77
,127,大学A,N1,小林秀彦,1504094,劉懐遠,3か月間で大きく日本語力を伸ばした。志望校合格のためにコツコツと努力を重ねている。,D,C,D,C,C,B,C,C,91
,127,大学A,N1,小林秀彦,1504103,金嘉弘,バランス良く日本語力を伸ばしている。社会問題にも関心を持ち、それについて自分の意見を明確に述べることができる。,B,F,B,A,A,B,B,B,88
,127,大学A,N1,小林秀彦,1504112,夏浩然,非常に真面目に努力を重ねている学生である。授業態度も良好で、課題の提出率も非常に高い。,C,B,C,A,A,A,B,B,93
,127,大学A,N1,小林秀彦,1504122,黄德川,先学期に続き遅刻が多かったのが残念である。学習能力は非常に高いので、今後の伸びは十分に期待できる。,C,B,A,A,B,B,D,B,81
,127,大学A,N1,小林秀彦,1507027,王 亭洁,今学期は授業に集中できないことが多く、実力を伸ばすことができなかった。生活習慣を改めれば、成績の向上が望める。,C,C,B,A,A,B,D,B,93
,127,大学A,N1,小林秀彦,1507036,张 钰珩,真面目な態度で学習を続けている。特に聴解と会話の能力が高く、大学の授業にも対応できると思われる。,B,B,B,A,A,A,C,B,94
,127,大学A,N1,小林秀彦,1507045,陈 艾安,言葉に対する鋭いセンスがあり、総合的に日本語力を伸ばしている。体調を崩して休みがちだったので次学期は改善を期待する。,B,B,B,C,A,A,D,B,83
,127,大学A,N1,小林秀彦,1510010,赵 宏亮,非常に真面目で努力を怠らない学生である。課題であった語彙力も伸びており、今後が期待できる。,D,C,A,B,B,A,C,B,98
,127,大学A,N1,小林秀彦,1510039,姜 博天,文章を読んで内容を理解したうえで、そこから考察を深める力がある。また、自分の意見を論理的に述べる力に優れている。,A,A,B,C,A,A,C,A,97
,127,大学A,N1,小林秀彦,1510040,邹   元,自分の目標をしっかりと立てて、その達成に向けて努力ができる学生である。論理的思考力に優れている。,C,C,C,C,B,B,C,C,95
,127,大学A,N1,小林秀彦,1604021,王 旖凌,誰よりも早く登校し、熱心に学習に取り組む模範生である。その努力が実り、11月の日本留学試験では全国最高点を取った。,A,A,A,A,A,A,A,A,100
,127,大学A,N1,小林秀彦,1604132,徐   来,ときどき集中力が続かないときがあるが、概ね熱心に学習に臨んでいる。自分の目標に向かって努力できる学生である。,C,A,B,A,C,B,C,B,95
,127,大学A,N1,小林秀彦,9916032,キム　ジュンヒョン,特に会話の能力が高く、自分の考えを正確でわかりやすい日本語で述べることができる。授業態度も素晴らしい。,C,B,B,A,A,B,B,B,67
,127,大学B,N1,横尾あゆみ,1501021,吴   奇,今学期も遅刻・欠席が多く、授業にも集中していないことが多かった。,C,C,D,C,C,D,C,C,78
,127,大学B,N1,横尾あゆみ,1501022,赵格格,主体的に学習に取り組むことができ、細かいところに注意を払うことができる。,A,A,B,C,A,A,A,A,82
,127,大学B,N1,横尾あゆみ,1501045,谭皓升,まじめに学習に取り組んでおり、自分の意見も積極的に話すことができる。,A,A,B,A,A,A,B,A,84
,127,大学B,N1,横尾あゆみ,1501052,孙旭飞,授業態度に多少むらがあるが、まじめにがんばっている。,B,B,D,D,B,C,C,C,93
,127,大学B,N1,横尾あゆみ,1504001,姜孜恒,積極性には欠けるが、指示されたことはしっかりこなすことができる。,C,C,D,D,B,C,B,C,96
,127,大学B,N1,横尾あゆみ,1504002,張金雷,地道に努力を続けており、実力も伸びてきた。今後の課題は、もう少しスムーズに話せるようになること。,B,C,D,D,B,C,B,C,99
,127,大学B,N1,横尾あゆみ,1504006,宋  曼,授業についていけないためか、授業を放棄してしまうことがある。注意されても、一切反省が見られない。,C,C,D,D,C,D,C,C,89
,127,大学B,N1,横尾あゆみ,1504013,盛麗銘,まじめに授業に参加しているが、基礎的な部分が欠けている。,B,C,D,D,C,C,B,C,99
,127,大学B,N1,横尾あゆみ,1504022,陸蕾蕾,遅刻・欠席が多かったぶん授業の内容が抜けている。そのため、今学期は進歩があまり見られなかった。,C,D,D,D,C,D,D,D,86
,127,大学B,N1,横尾あゆみ,1504024,瞿楽楽,自分が興味があることには真剣に取り組み、日本語力も伸びている。,A,B,B,A,A,A,C,B,79
,127,大学B,N1,横尾あゆみ,1504113,許  賀,まじめに授業に参加している。また、拙いながらも積極的に自分の意見を話すことができる。,D,D,B,D,C,C,C,C,76
,127,大学B,N1,横尾あゆみ,1507052,楊 銘明,進学が決まって気が緩んではいるが、与えられた課題はまじめに取り組んでいる。,B,B,D,D,B,B,B,B,99
,127,大学B,N1,横尾あゆみ,1507077,李　 洁,周りに流されることなく、常に積極的に学習に取り組んでいる。,B,B,C,D,B,B,A,B,93
,127,大学B,N1,横尾あゆみ,1510014,許　馳敏,独創性があり、どんな課題でも工夫をこらして進めることができる。発音がきれいで、音読もすばらしい。,B,B,C,B,A,A,A,B,71
,127,大学B,N1,横尾あゆみ,1604142,邹  涛,基礎がしっかり固まっている。また、自分の意見を積極に話すことができる。,B,B,B,B,A,A,B,B,72
,127,大学B,N1,横尾あゆみ,1604155,賀　寧馨,相変わらず、休みが多い。学校へ来れば、まじめに授業に参加している。,B,B,C,C,A,B,B,B,73
,127,大学B,N1,横尾あゆみ,9915020,林静雯,集中力があり、文の深いところまで読み込む力がある。今後の課題は、難しそうな問題もあきらめないこと。,B,B,B,B,A,A,A,B,76
,127,大学C,N2,福永裕美,1501006,王   泰,授業に積極的に参加することもあるが、集中が続かず日本語能力の向上につながらない。集中して学習する習慣をつけること。,D,D,D,D,B,D,C,D,86
,127,大学C,N2,福永裕美,1501029,蔡胜男,授業に積極的に参加し、よく発言する。模範的である。会話力を向上させるよう、練習の機会を作ること。,A,A,B,B,B,A,A,A,99
,127,大学C,N2,福永裕美,1504003,林  云,語彙、作文などはできるが、集中力が続かず、授業中も話を聞いていないことも多々ある。積極的に参加すること。,B,B,A,B,B,B,C,B,89
,127,大学C,N2,福永裕美,1504011,于寿康,穏やかな性格であるが、授業に積極的に参加、発言はしない。家でもよく復習し、文法をしっかり学ぶようにしたい。,C,C,B,C,C,B,B,C,95
,127,大学C,N2,福永裕美,1504012,王宏宇,明るく積極的に授業に参加している。大学生活に困らぬよう、N2文法をしっかり復習しておくこと。,B,B,C,C,B,C,B,B,88
,127,大学C,N2,福永裕美,1504066,馮宇涛,今学期は休みがちであり、日本語能力の向上に大きくつながらない学期となった。文法など家でもしっかり復習すること。,D,D,C,D,C,C,C,D,72
,127,大学C,N2,福永裕美,1504083,孫愷澤,学習意欲はあるものの、文法の基本的な部分ができていないところがある。授業中は集中し、復習を徹底すること。,B,C,D,B,B,C,C,C,94
,127,大学C,N2,福永裕美,1504097,張義梦,明るい性格で積極的に学習に取り組む。集中力を継続させるようにすること。作文などはよく書けている。,B,C,B,B,B,B,B,B,78
,127,大学C,N2,福永裕美,1504121,孫呈卓,明るい性格で積極的に学習に取り組む。集中力を継続させるようにすること。初級文法の復習をすること。,C,D,D,C,B,B,B,C,88
,127,大学C,N2,福永裕美,1507006,林 奕涛,授業に積極的に参加、発言をすること。新聞日記、作文など真剣に取り組むようにすること。,C,C,C,A,B,C,B,B,82
,127,大学C,N2,福永裕美,1507010,杨   迪,明るく積極的に授業に参加している。大学院生活に困らぬよう、N2文法をしっかり復習しておくこと。,B,B,B,A,B,B,B,B,88
,127,大学C,N2,福永裕美,1507024,许 佳宁,授業に積極的に参加、発言をすること。家でもよく復習し、文法をしっかり学ぶようにしたい。,C,B,B,D,B,B,B,B,100
,127,大学C,N2,福永裕美,1507039,高　瑞,学期後半は前方に座り積極的に学ぶ姿勢が見られた。家でもよく復習し、文法をしっかり学ぶようにしたい。,C,C,D,C,B,C,B,C,90
,127,大学C,N2,福永裕美,1507041,吕 明航,穏やかな性格で自分から積極的に発言などはしないが、家でも復習していた。来学期は積極性を持つこと。,B,B,C,B,B,A,B,B,84
,127,大学C,N2,福永裕美,1507050,徐 造辰,日本文化には興味があるが、集中力が続かず、授業中も話を聞いていないことも多々ある。積極的に参加すること。,C,B,C,B,B,B,C,B,92
,127,大学C,N2,福永裕美,1510001,钟 承恩,穏やかな性格で自分から積極的に発言などはしないが、授業をよく聞き参加していた。来学期は積極性を持つこと。,B,B,A,C,B,B,B,B,82
,127,大学C,N2,福永裕美,1510038,梁 伟海,授業に積極的に参加し、よく発言する。模範的である。家での学習もしっかりできている。来学期もこの調子で続けること。,Ａ,Ａ,Ａ,Ａ,Ａ,Ａ,Ａ,Ａ,100
,127,大学C,N2,福永裕美,1510046,周 紫薇,授業に積極的に参加し、よく発言する。模範的である。今学期は文法、会話力を向上させることができた。,Ａ,Ａ,Ａ,Ｂ,Ａ,Ａ,Ａ,Ａ,100
,127,大学美大,N2,久保絵理香,1504009,侯宝堃,遅刻・欠席が多く、ほとんど授業に参加していることはなかった。課題や提出物もほとんど提出できなかった。,D,D,C,D,A,A,C,C,74
,127,大学美大,N2,久保絵理香,1504010,林麗陽,欠席・遅刻が目立ち、提出物を提出することはほぼなかった。発言が少ないが教師の話はよく聞いていた。,A,A,B,A,A,A,B,A,78
,127,大学美大,N2,久保絵理香,1504056,雷鑫梅,やや遅刻や居眠りがあったが、クラスで一番文型の理解が早く、文作も安定した内容のものを作ることができる。,A,A,A,A,A,A,B,A,70
,127,大学美大,N2,久保絵理香,1504086,鄭世毅,授業中の居眠りが目立ったが、集中しているときは教師の発言を自分の中で取捨選択しメモや質問をしていた。,B,B,D,D,A,A,A,B,89
,127,大学美大,N2,久保絵理香,1504100,林子雷,遅刻が多く、集中力が続かないことが多かったが、宿題等はよく提出できていた。,C,D,D,D,A,A,B,C,79
,127,大学美大,N2,久保絵理香,1504118,肖培穎,参加するときはよく発言するが、居眠りをすることが多く、教師の指示した活動を実行できていなかった。,C,C,D,B,A,A,C,B,71
,127,大学美大,N2,久保絵理香,1507014,杜 建男,集中力が続かないことが多かったが、クラス内のムードメーカーで、面白い文作をしてクラスを盛り上げてくれた。,B,C,D,B,A,A,B,B,87
,127,大学美大,N2,久保絵理香,1507021,寇 一铭,文型の理解は遅いが、クラスで活動についてきていない学生をサポートするなど優しい性格の持ち主。,C,C,C,B,A,A,B,B,98
,127,大学美大,N2,久保絵理香,1507029,咸 格格,アルバイトの影響で、遅刻や居眠りが増えた。しかし、前学期より教師の発言を聞き取ることができるようになった。,B,B,A,C,A,A,A,B,82
,127,大学美大,N2,久保絵理香,1507033,刘 诗曼,速いスピードの教師の発言も聞き漏らさない。活動を終えてから他の事をしてしまうことがあるが、学習内容は定着している。,A,A,A,A,A,A,A,A,100
,127,大学美大,N2,久保絵理香,1507064,徐 一梦,精神的に落ち着かない時期があり内職が多かったが、基本的にはまじめに授業に参加していた。,C,C,C,B,A,A,B,B,94
,127,大学美大,N2,久保絵理香,1507074,王 星宇,日本のアニメや漫画から得た語彙を生かして上手に文作することができる。教師の指示した通りの活動ができる。,C,B,A,B,A,A,B,B,95
,127,大学美大,N2,久保絵理香,1510008,汤 凡艺,覚えた語彙は積極的に使っていく姿勢がとても良かった。文作も挑戦した内容をすることができていた。,A,B,C,B,A,A,A,B,78
,127,大学美大,N2,久保絵理香,1510025,朱 佳闻,欠席・遅刻が目立った。発言が少ないが教師の話はよく聞いており、集中して授業に参加していた。,B,B,A,B,A,A,B,B,80
,127,大学美大,N2,久保絵理香,1510029,卢 姿沂,授業中よくメモをとっており、文型の理解も早かった。しかし、基礎的な文型が定着しておらず文作ではミスが目立つ。,B,C,C,B,A,A,B,B,96
,127,大学美大,N2,久保絵理香,1510032,李 沛毅,真面目な学生だが、授業に集中していないことが多く、教師の指示した活動を実行できていなかった。,C,B,A,A,A,A,B,B,82
,127,大学美大,N2,久保絵理香,1510036,何 佳莹,よく集中して授業を聞いていた。しかし、先の活動をしてしまうことがあり、時折文型のミスなどがある。,B,B,B,B,A,A,B,B,95
,127,大学美大,N2,久保絵理香,1510055,张 婷婷,欠席や居眠りが目立ったが、発音がクラスで一番うまく、会話のスピードも速い。基礎的な文型のミスが目立つ。,B,C,D,B,A,A,C,B,66
,127,大学美大,N2,久保絵理香,1604053,王　祖児,よく集中して授業を聞き、活動にも積極的に参加する。文作も安定した内容のものを作ることができる。,A,A,B,B,A,A,B,A,81
,127,大学美大,N2,久保絵理香,1604129,蔡　蒨,真面目で授業態度もよく、積極的に授業に参加できた。しかし、文章の読み間違いが多く、小さいミスが目立つ。,A,A,C,A,A,A,A,A,92
,127,上級1A,N1,高橋洋子,1501011,黄子瀚,語彙・表現力がつき、伝達力が向上した。あと３か月、日本語で話す機会を意識的に増やし、さらにレベルアップを目指してほしい。,A,B,B,A,B,A,A,A,97
,127,上級1A,N1,高橋洋子,1501041,王嘉腾,休みが多いため、日本語力の伸びは見られないが、バランスの取れた日本語力を備えている。進学後を視野に入れ、努力してほしい。,C,C,C,B,B,B,C,C,78
,127,上級1A,N1,高橋洋子,1501056,梁協豊,意見の表出が上手で、バランスよく力をつけている。正確性を上げ、さらに意欲的に学習に取り組むことで、まだまだ伸びる。,C,B,C,B,B,B,A,B,96
,127,上級1A,N1,高橋洋子,1504032,潘佳俊,日本文化への造詣も深く、幅広い語彙・表現力を身につけている。あとは場面に応じた使い分けを意識し、さらに力を磨いてほしい。,A,A,A,A,A,A,A,A,94
,127,上級1A,N1,高橋洋子,1504037,劉甜伊,バランスの取れた日本語力を身につけている。正確性を上げることと、積極的に学習に取り組むことを意識すれば、まだまだ伸びる。,C,B,C,B,B,B,B,B,87
,127,上級1A,N1,高橋洋子,1504120,呉月盈,積極的に発話することが多く、話す力が高い。ただ、正確性に欠けるので、間違ったところは丁寧に見直してほしい。,C,B,C,B,B,B,B,B,87
,127,上級1A,N1,高橋洋子,1507049,石浩,高い語彙・表現力を身につけている。あとは丁寧度など状況に応じた使い分けが課題。興味のあるもの以外にも目を向けてほしい。,A,B,B,A,A,B,B,B,100
,127,上級1A,N1,高橋洋子,1507051,王静娴,読む・聴く力はすでに大学院で問題なく就学できるレベルに達している。論文・発表など固い表現で話す・書くことには課題が残る。,A,A,A,A,A,A,A,A,99
,127,上級1A,N1,高橋洋子,1510024,王 柯桦,授業への取り組みは良いが、受験で日本語の学習量が減り、あまり伸びなかった。来期は進学後のために日本語に力を入れてほしい。,B,A,B,A,B,A,A,A,100
,127,上級1A,N1,高橋洋子,1604007,袁 涌淇,運用力・正確性ともに高いレベルの日本語力を身につけている。今後もさまざまな日本語に触れることで、力を磨いてほしい。,A,A,A,A,B,A,A,A,94
,127,上級1A,N1,高橋洋子,1604083,王 丹,よく努力をしていて、特に今期は語彙・表現力がついた。そのため、運用力が磨かれ、洗練された日本語が使えるようになった。,A,B,B,A,A,B,A,A,100
,127,上級1A,N1,高橋洋子,1604098,李 灵敏,勉学に取り組む姿勢がすばらしく、よく復習している。バランスの取れた日本語力を身につけており、このまま努力を続けてほしい。,A,B,B,A,B,A,A,A,94
,127,上級1A,N1,高橋洋子,1604130,田 一凡,バランスの取れた日本語力を身につけている。まだまだ伸びる余地があるので、遅刻を減らし、積極的に学習に取り組んでほしい。,B,B,B,A,B,B,B,B,75
,127,上級1A,N1,高橋洋子,1604165,許　彩玲,論理的にわかりやすく伝えることが上手で、高い運用力を持っている。あとは正確性を磨くことと、遅刻を減らすことが課題。,A,A,A,A,A,A,B,A,80
,127,上級1A,N1,高橋洋子,1604177,王  薛俊雅,努力を惜しまず、丁寧に着実に力を伸ばしている。話す・書く機会を意識して増やすと、運用力が強化され、さらに上達すると思う。,A,A,B,A,B,B,A,A,98
,127,上級1A,N1,高橋洋子,1607067,鞠　印軒,運用力・正確性ともに高いレベルの日本語力を身につけている。今後もさまざまな日本語に触れることで、力を磨いてほしい。,A,A,A,A,A,A,A,A,89
,127,上級1A,N1,高橋洋子,1610039,郭　寧海,運用力・正確性ともに高いレベルの日本語力を身につけている。今後もさまざまな日本語に触れることで、力を磨いてほしい。,A,A,A,A,A,A,A,A,100
,127,中上級2A,N2,宮本真由美,1504027,魯一凡,今学期後半は遅刻、欠席が増えてしまい、それが成績に表れてしまった。来学期は総合Bを目指してほしい。,C,C,D,C,C,B,B,C,94
,127,中上級2A,N2,宮本真由美,1504030,斉秋娜,欠席、遅刻が多く授業の内容もだんだん理解できなくなってしまった。体調管理に気を付けてあと3か月頑張って欲しい。,D,D,D,C,C,C,D,D,76
,127,中上級2A,N2,宮本真由美,1504042,李始豫,大学受験のため、少し学校の授業に集中できなくなってしまった。来学期は総合Bを目指して頑張ってほしい。,C,C,D,C,B,C,C,C,74
,127,中上級2A,N2,宮本真由美,1504054,相  偉,先学期に比べ、授業態度も大変よくなり、集中して勉強している。来学期は総合Bを取って卒業してほしい。,C,C,C,B,C,B,B,C,90
,127,中上級2A,N2,宮本真由美,1504072,李  朝,全体的にテストの点数が先学期よりよくなっており、努力していることが分かる。作文のBはすばらしい。,C,C,D,C,C,B,B,C,95
,127,中上級2A,N2,宮本真由美,1504085,官玉茜,欠席、遅刻が多く授業の内容もだんだん理解できなくなってしまった。体調管理に気を付けてあと3か月頑張って欲しい。,D,D,D,D,C,B,C,D,86
,127,中上級2A,N2,宮本真由美,1504093,周冠宇,成績は先学期より全体的に良くなり、特に小論文は良かった。来学期は全B以上を目指してほしい。,B,C,D,C,B,A,B,B,89
,127,中上級2A,N2,宮本真由美,1504109,陳惠芳,クラスの変更で12月は休みがちになってしまった。このクラスでも能力は高い方なので頑張って欲しい。,A,C,B,B,A,A,A,B,93
,127,中上級2A,N2,宮本真由美,1504115,張  妍,先学期に比べ、授業中も集中して勉強している。与えられた課題にもきちんと取り組み少しずつ伸びている。,C,C,D,C,B,B,C,C,90
,127,中上級2A,N2,宮本真由美,1507056,梁 浩瑶,何にたいしても真面目に取り組み、先学期より成績が上がった。この調子であと3か月頑張ってほしい。,C,B,C,B,C,B,A,B,92
,127,中上級2A,N2,宮本真由美,1507073,李 艾霖,授業中勉強に集中していないことがある。専門学校入学前に学校で学ぶことはたくさんあるので、頑張ってほしい。,C,D,D,C,C,B,C,C,78
,127,中上級2A,N2,宮本真由美,1507081,邹 佳敏,何にたいしても真面目に取り組み、努力の結果が成績に表れている。6課まとめテストの91点は本当にすばらしい。,A,B,C,C,B,A,A,B,93
,127,中上級2A,N2,宮本真由美,1604009,李　韜遠,何にたいしても真面目に取り組み、着実に力を付けてきている。来学期は全Aを目指してほしい。,A,B,B,B,B,A,A,B,89
,127,中上級2A,N2,宮本真由美,1604046,陳　少倫,全ての能力が高いだけに、欠席、遅刻が多いのが本当に残念である。,A,B,B,A,A,A,B,B,79
,127,中上級2A,N2,宮本真由美,1604065,樊　栄,学習意欲が高く、着実に力を付けてきている。来学期は全Aを取って卒業してほしい。,A,A,B,A,A,A,A,A,100
,127,中上級2A,N2,宮本真由美,1604156,単　晶瑩,学習意欲もあり、四技能すべてにおいて能力が高い。自分の考えを何でも日本語で正しく伝えることができる。,A,A,A,A,A,A,A,A,95
,127,中上級2A,N2,宮本真由美,1604164,張　燕馳,勉強の仕方もよく分かっており、すべてのテストでトップの成績を取った。来学期は会話もAを取って全Aにしてほしい。,A,A,A,A,B,A,A,A,99
,127,中上級2A,N2,宮本真由美,1610023,陸　山青,学習意欲もあり、四技能すべてにおいて能力が高い。何にでも真摯に取り組む姿勢もすばらしい,A,A,A,A,A,A,A,A,98
,127,中上級2A,N2,宮本真由美,1610045,黄　綺程,何にたいしても真面目に取り組み、授業に対する姿勢もすばらしい。まとめテストでもすべて合格点を取った。,B,B,D,C,B,A,A,B,100
,127,中上級1A,N2,浜川一子,1501001,李   亚,遅刻や欠席が目立ち、学習に十分取り組むことができなかったが、与えられた課題は自分なりに工夫した。,Ｂ,Ｂ,Ｃ,Ｃ,Ｃ,Ｂ,Ｃ,Ｂ,81
,127,中上級1A,N2,浜川一子,1501002,宋   超,授業中、集中していないことがあり成績が振るわなかったが、進学に向け前向きに努力した。,Ｃ,Ｃ,Ｄ,Ｃ,Ｃ,Ｂ,Ｃ,Ｃ,93
,127,中上級1A,N2,浜川一子,1501004,胡玥旭,休みがちで、思うように成績が伸びなかったが、与えられた課題には積極的に取り組んだ。,Ｃ,Ｃ,Ｄ,Ｃ,Ｃ,Ｂ,Ｃ,Ｃ,77
,127,中上級1A,N2,浜川一子,1501012,孟祥堃,授業中、集中していないことがあり思うように成績が伸びなかったが、与えられた課題はこなすことができた。,Ａ,Ｂ,Ｂ,Ｃ,Ｃ,Ｂ,Ｃ,Ｃ,80
,127,中上級1A,N2,浜川一子,1504007,劉昕陽,欠席や遅刻が目立ち、学習意欲の低下が成績にも影響した。意志表示ははっきりしており、素直な性格である。,Ｄ,Ｄ,Ｄ,Ｄ,Ｃ,Ｃ,Ｃ,Ｄ,79
,127,中上級1A,N2,浜川一子,1504008,曲安琪,休みがちで、学習に身が入らず思うように成績が伸びなかったが、与えられた課題には積極的に取り組んだ。,Ｃ,Ｃ,Ｃ,Ｃ,Ｃ,Ｃ,Ｃ,Ｃ,80
,127,中上級1A,N2,浜川一子,1504080,黄云娜,欠席が目立ち、学習に十分取り組むことができなかったが、学習意欲はあり、意思表示ははっきりしている。,Ｃ,Ｄ,Ｄ,Ｃ,Ｃ,Ｄ,Ｃ,Ｄ,85
,127,中上級1A,N2,浜川一子,1507002,曹 一鸣,真面目で学習態度もよく、何事にも真摯な態度で臨み絶えず努力を惜しまず良い成績を収めた。,Ａ,Ａ,Ａ,Ａ,Ｂ,Ｂ,Ａ,Ａ,97
,127,中上級1A,N2,浜川一子,1507005,李   正,努力することが苦手で成績が振るわなかったが、授業では積極的に工夫しながら意見を述べた。,Ｃ,Ｄ,Ｄ,Ｃ,Ｃ,Ｃ,Ａ,Ｃ,94
,127,中上級1A,N2,浜川一子,1507019,张   咪,遅刻が目立ち、学習に十分取り組むことができなかったが、進学に向け前向きに努力した。,Ｃ,Ｄ,Ｃ,Ｃ,Ｃ,Ｂ,Ｃ,Ｃ,90
,127,中上級1A,N2,浜川一子,1507020,汪   洋,授業中、集中していないことがあり成績が振るわなかったが、与えられた課題には積極的に取り組んだ。,Ｃ,Ｃ,Ｃ,Ｃ,Ｃ,Ｂ,Ｂ,Ｃ,98
,127,中上級1A,N2,浜川一子,1507030,李 卓然,欠席が目立ち、学習に十分取り組むことができなかった。目標にも迷いが見られる。,Ｆ,Ｆ,Ｆ,Ｆ,Ｆ,Ｆ,Ｆ,Ｆ,77
,127,中上級1A,N2,浜川一子,1507032,张 穌寒,遅刻や欠席が目立ち、学習に十分取り組むことができなかったが、進学に向け前向きに努力した。,Ｃ,Ｄ,Ｄ,Ｃ,Ｃ,Ｂ,Ｃ,Ｃ,85
,127,中上級1A,N2,浜川一子,1507076,王 德龙,遅刻や欠席が目立ち、学習に十分取り組むことができなかったが、真面目で学習意欲は高い。,Ｂ,Ｂ,Ｃ,Ｂ,Ｂ,Ｄ,Ｃ,Ｂ,89
,127,中上級1A,N2,浜川一子,1510004,姜 添译,授業での積極さは見られなかったが、学習意欲は高く、目標は明確に持っている。,Ａ,Ａ,Ａ,Ａ,Ａ,Ｃ,Ｃ,Ｂ,81
,127,中上級1A,N2,浜川一子,1510017,李　 骞,休みがちで、努力することが苦手で成績が思うように振るわなかったが、進学に向け前向きに努力した。,Ｂ,Ｃ,Ｂ,Ｃ,Ｃ,Ｃ,Ｃ,Ｃ,83
,127,中上級1A,N2,浜川一子,1610027,梁　渝寧,授業での積極さは見られなかったが、学習意欲はあり、与えられた課題はこなすことができた。,Ａ,Ｂ,Ｂ,Ｂ,Ｂ,Ｃ,Ｃ,Ｂ,93
,127,中級2A,N3,飯室京子,1504069,于冬梅,後半欠席が多く、十分に学習に取り組むことができなかった。コミュニケーション能力は高い。,D,D,D,D,C,C,C,D,84
,127,中級2A,N3,飯室京子,1507060,张 欽昊,欠席が多く、十分に学習に取り組むことができていない。進路の目標は明確に持っている。,F,F,F,F,C,C,D,D,87
,127,中級2A,N3,飯室京子,1507072,周 欢欢,授業中の積極的な姿勢と真面目な取り組みが、着実に成果につながっている。,B,B,B,A,B,B,A,B,97
,127,中級2A,N3,飯室京子,1510012,严 梓彤,授業には真面目に取り組んでいるが、遅刻、欠席が目立つ。,B,B,B,C,B,B,B,B,94
,127,中級2A,N3,飯室京子,1510013,周 昊顺,真面目な性格で、学習態度もよく、与えられた課題にも積極的に参加した。徐々に伸びてきている。,B,B,C,B,B,B,A,B,99
,127,中級2A,N3,飯室京子,1510015,周 志豪,授業中集中していないことがあるが、徐々に改善されている。進路の目標は明確に持っている。,B,C,B,B,C,C,C,C,100
,127,中級2A,N3,飯室京子,1510016,刘   易,授業に集中していないことがあるが、進路の目標は明確に持っており、文章を書く能力が高い。,C,C,C,C,A,A,B,B,91
,127,中級2A,N3,飯室京子,1510021,赵 晨阳,遅刻、欠席が目立つが、授業に積極的に取り組み、コミュニケーション能力も高い。,C,B,B,C,B,A,B,B,88
,127,中級2A,N3,飯室京子,1510035,曹 丝瑶,努力家で授業態度もよく、良い成績を収めることができた。語彙も豊富でコミュニケーション能力も高い。,A,A,A,B,A,B,A,A,98
,127,中級2A,N3,飯室京子,1604027,唐　澄,学習意欲が高く、与えられた課題にも積極的に取り組んだ。語彙も豊富でコミュニケーション能力も高い。,B,A,B,A,A,A,A,A,90
,127,中級2A,N3,飯室京子,1604062,倪 力,授業に集中していないことがあるが、日本語能力は高く、進路の目標を明確に持っている。,A,B,B,B,A,A,B,B,93
,127,中級2A,N3,飯室京子,1604137,楊　子揚,授業中の真面目な姿勢と進路に向けての努力が、着実に成果につながっている。,A,A,B,B,B,A,B,B,87
,127,中級2A,N3,飯室京子,1604157,蒋  松燊,疑問点を積極的に質問し、授業に真面目に取り組む姿勢が成果につながっている。,A,B,B,B,B,B,A,B,96
,127,中級2A,N3,飯室京子,1604159,史  甄珺,日本語能力には問題がないが、授業中おしゃべりが多く、集中していないように見受けられた。,B,A,A,A,A,A,C,A,85
,127,中級2A,N3,飯室京子,1604211,曲　思頴,日本語能力に問題はないが、欠席が多く十分な評価ができない。,F,F,F,F,B,A,C,F,76
,127,中級2A,N3,飯室京子,1607066,陳　浩麟,真面目な性格で、与えられた課題はきちんとこなし良い成績を収めることができた。,A,A,B,A,A,A,A,A,93
,127,中級2A,N3,飯室京子,1610018,姜　玉敏,欠席が目立ち、授業に集中していないこともあったが、学習意欲はあり積極的に課題に取り組んだ。,B,B,A,C,A,A,C,B,70
,127,中級1A,N3,門馬真帆,1504123,林  恩,体調を整え、寝ないで授業に参加しましょう。学校は休憩所ではありません。会話が上手なのでもっと積極的に話しましょう。,D,D,D,D,B,F,D,C,77
,127,中級1A,N3,門馬真帆,1504138,KHATRI SITA,休みが多かったですが、来た日は熱心に取り組んでいました。休んだ時は必ず家で後れを取り戻すようにしてください。,F,F,F,F,C,C,B,D,93
,127,中級1A,N3,門馬真帆,1604001,汪 明琛,熱心に取り組んでいましたが、授業中の集中力があまり続きませんでした。鞄を遠くに置くなど工夫して授業に参加しましょう。,B,B,C,B,B,B,B,B,93
,127,中級1A,N3,門馬真帆,1604019,邹　子羽,十分な力・高い集中力があるのに、常に余力を残して取り組む傾向があります。レベルに合うクラスに移動してもいいでしょう。,A,B,A,B,B,B,B,A,83
,127,中級1A,N3,門馬真帆,1604041,蘇　茵,学習に対して真面目に熱心に取り組んでいます。もう少し勉強方法を工夫すると、さらに力が付くでしょう。,A,B,D,D,B,C,A,B,96
,127,中級1A,N3,門馬真帆,1604047,徐 蔚蕾,基礎力は十分にあるので、応用力を身につけましょう。日記をつけるなど、文を作る練習や・長く書く練習を増やしましょう。,A,A,B,B,B,A,B,A,91
,127,中級1A,N3,門馬真帆,1604061,陳　宸,基礎力・応用力とも高く、学習に対する姿勢もいいです。あと一歩、踏み込んで取り組めばもっと結果が出るでしょう。,A,A,A,B,B,A,B,A,100
,127,中級1A,N3,門馬真帆,1604072,邢　哲瑋,毎日こつこつ努力を惜しまない姿勢で熱心に学習に取り組みました。聞く力が少し弱いので、補強しましょう.,B,B,B,C,B,B,A,B,96
,127,中級1A,N3,門馬真帆,1604108,謝　文婷,目標を明確に持ち、計画的に学習できる点が強みです。表記・音が弱いので、重点的に練習し、早いうちに克服しましょう。,A,B,C,B,B,A,A,A,100
,127,中級1A,N3,門馬真帆,1604119,董 航昀,学習に対して真面目で熱心ですが、授業中の集中力や取り組みにムラがありました。来期はスタートが早くなるよう調整しましょう。,F,F,F,F,B,D,C,C,71
,127,中級1A,N3,門馬真帆,1604123,王 佳薇,勉強への取り組みも熱心で、非常に優秀な成績を修めました。アルバイトとのバランスに気を付けて今後も頑張ってください。,A,A,B,B,B,A,A,A,100
,127,中級1A,N3,門馬真帆,1604135,姚   涵,話す・聞く力が弱いので、CDを聞きながら読む練習を増やしましょう。少し休みが多いので、体調管理にも注意してください。,C,D,C,B,B,C,B,C,88
,127,中級1A,N3,門馬真帆,1604175,郝  思佳,熱心に取り組んでいますがまだ余裕がありそうです。話すことが苦手なので、授業中積極的に発言するなど苦手を克服してください。,A,B,B,B,B,C,B,B,89
,127,中級1A,N3,門馬真帆,1604197,羅　紅,学期の後半は学習以外に興味が行ってしまったようです。来期はもう一度勉強し、弱いところを補強して先に進んでください。,C,C,D,B,B,C,B,C,91
,127,中級1A,N3,門馬真帆,1604199,王　国慶,期末試験は良い成績を残したので、次の学期は初めから真面目に取り組んでください。体調管理に注意してください。,A,A,B,B,B,B,B,A,93
,127,中級1A,N3,門馬真帆,1604217,林　延棟,期末試験できちんと挽回しました。次の学期はまとめテストもこの調子で取り組んでください。授業中少し中国語が多いです。,B,B,C,D,C,C,B,C,85
,127,中級1A,N3,門馬真帆,1604218,楊　默然,基礎力・応用力ともに非常に高く、流ちょうに日本語でのやり取りができます。センスも良いので、さらに上を目指してください。,A,A,B,B,A,A,A,A,100
,127,中級1A,N3,門馬真帆,1604226,黄　詩瑞,欠席が多いので、まずは体調管理をしっかりしましょう。話す力が弱いので授業中積極的に発言するなど補強するといいでしょう。,A,B,B,B,A,D,B,B,81
,127,中級1A,N3,門馬真帆,1604243,VU THI NHUNG,基礎的な力は十分ありますが漢字学習から逃げてしまい、十分に伸びませんでした。来期は漢字と言葉の勉強を頑張ってください。,D,D,D,D,B,B,A,C,99
,127,中級1A,N3,門馬真帆,1604244,DUONG VAN DAN,まずは一番苦手な漢字から重点的に復習しましょう。アルバイトの時間を変えて、昼勉強できるようにしましょう。,D,D,D,D,C,D,B,C,95
,127,中級1A,N3,門馬真帆,1610043,銭　柏霖,基礎的な力はありますがコミュニケーションの力が弱いです。授業中、もっと発言するなど積極性が増えればさらに伸びるでしょう。,B,B,B,B,B,B,A,B,100
,127,中級1B,N3,村上千鶴子,1510006,秦   霞,休みがちで十分に学習に取り組むことができず、成績は振るわなかった。コミュニケーション能力も乏しい。,B,C,F,F,C,D,D,D,77
,127,中級1B,N3,村上千鶴子,1510007,卢 佳慧,授業中集中していないことがあり、成績も振るわなかった。コミュニケーションも苦手である。,D,D,D,D,C,C,C,D,83
,127,中級1B,N3,村上千鶴子,1510028,吴 子豪,積極的で学習態度もよいが、基礎力が不十分で成績は振るわない。明るくコミュニケーション能力は高い。,C,D,D,D,B,C,B,C,88
,127,中級1B,N3,村上千鶴子,1604005,沙 慧德,まじめで学習意欲もあるが、授業中集中していないことがある。会話能力は高い。読解力をつける事が課題だ。,B,A,C,A,A,B,B,B,93
,127,中級1B,N3,村上千鶴子,1604032,呂　雪韵,努力家で授業後も学校で自習している。成績も安定しているが、遅刻が多い。聴解力をつける事が課題だ。,A,A,A,B,A,A,A,A,98
,127,中級1B,N3,村上千鶴子,1604064,田 伊然,目標に向かって努力している。成績もよいが積極的に話したりはしない。基礎力をつける事が課題だ。,A,A,B,C,C,C,B,B,89
,127,中級1B,N3,村上千鶴子,1604078,謝　栄博,授業中集中していないことがあり、成績は振るわなかった。コミュニケーションも苦手である。基礎力をつける事が課題だ。,C,B,B,C,C,B,B,B,96
,127,中級1B,N3,村上千鶴子,1604079,金 永山,まじめで学習態度もよいが、基礎力が不十分で成績は振るわなかった。明るくコミュニケーション能力は高い。,C,C,C,B,A,B,B,B,100
,127,中級1B,N3,村上千鶴子,1604097,劉　藝丹,目標に向かって努力している。時々休むことがあるが成績もよいし、個性的でコミュニケーション能力も高い。,C,B,B,B,B,A,B,B,84
,127,中級1B,N3,村上千鶴子,1604114,高 楠,努力家で、学習意欲もあり積極的に取り組んだ。語彙も豊富でコミュニケーション能力は非常に高い。,A,A,B,B,A,A,A,A,100
,127,中級1B,N3,村上千鶴子,1604153,李  佳安,まじめで学習意欲もあり、語彙も豊富でコミュニケーション能力も非常に高い。,A,A,B,A,A,A,A,A,86
,127,中級1B,N3,村上千鶴子,1604154,張　澤棟,休みがちで十分に学習に取り組むことができず、成績は振るわなかった。コミュニケーション能力も乏しい。,D,D,C,B,D,C,D,D,68
,127,中級1B,N3,村上千鶴子,1604158,傅  天宇,真面目な性格で、目標に向かって努力している。休みがちだが実力はある。文法力をつける事が今後の課題だ。,B,C,A,A,C,B,B,B,85
,127,中級1B,N3,村上千鶴子,1604170,黄　俊灝,まじめで学習意欲もあるが、授業中集中していないことがある。会話力・読解力をつける事が今後の課題だ。,B,B,C,A,C,C,B,B,100
,127,中級1B,N3,村上千鶴子,1604186,柴  嘉星,まじめに取り組んでいるが、休みがちで成績はふるわなかった。基礎力をつける事が今後の課題だ。,B,C,B,B,C,B,C,C,78
,127,中級1B,N3,村上千鶴子,1604210,饒　琳,まじめな性格で学習態度もよいが、成績は伸びなかった。基礎力をつける事が今後の課題だ。,B,C,C,A,B,B,B,B,100
,127,中級1B,N3,村上千鶴子,1604214,劉　佳慧,目標に向かって努力している。時々休むことがあるが成績はよい。文法力をつける事が今後の課題だ。,A,C,A,A,B,A,B,B,90
,127,中級1B,N3,村上千鶴子,1604215,李　博超,努力家で、学習意欲もあり、コミュニケーション能力も高い。読解力をつける事が今後の課題だ。,A,A,C,A,A,A,A,A,94
,127,中級1B,N3,村上千鶴子,1604220,龔　奇彪,誠実で真面目な性格で、目標に向かって努力している。聴解力をつける事が今後の課題だ。,A,A,B,C,B,B,A,B,99
,127,中級1B,N3,村上千鶴子,1604239,田　芳菲,まじめな性格で学習態度もよいが、成績は伸びなかった。基礎力をつける事が今後の課題だ。,A,B,B,C,B,B,A,B,100
,127,中級1B,N3,村上千鶴子,1607096,鄒　洋,努力家で、学習意欲もあり積極的に取り組む姿勢が見られた。語彙も豊富でコミュニケーション能力も高い。,A,A,A,A,A,A,A,A,100
,127,初中級A,N4,ヌードゥセン聡未,1604002,郝 琳,とてもまじめで授業態度もすばらしい学生です。テストの点も少しずつ上がっています。このまま頑張ってください。,B,B,C,C,B,A,A,B,100
,127,初中級A,N4,ヌードゥセン聡未,1604015,郭　蕾,遅刻・欠席が多いです。そしてときどきテストの点が悪くなります。少しでいいですから毎日勉強するようにしましょう。,C,B,D,A,B,A,A,B,87
,127,初中級A,N4,ヌードゥセン聡未,1604016,林　鎮宇,今学期最後まで油断せずにとても頑張ったと思います。遅刻は多いですが、まじめで授業態度もいい学生です。,A,B,C,B,B,A,A,B,92
,127,初中級A,N4,ヌードゥセン聡未,1604022,陸　真浩,期末テストは頑張りましたが、他はあまりよくなかったです。復習をいつもするようにしたほうがいいと思います。,B,C,B,B,B,C,B,B,91
,127,初中級A,N4,ヌードゥセン聡未,1604023,李 若蘭,明確な夢を持ち、それに向けて努力している学生です。作文力に優れています。まじめで授業態度もすばらしかったです。,A,A,A,A,B,A,A,A,92
,127,初中級A,N4,ヌードゥセン聡未,1604026,張　夢婕,話すことが得意ですから、楽しいと思える活動には積極的に参加してくれました。これからも楽しく勉強してほしいです。,C,D,A,B,A,C,B,C,74
,127,初中級A,N4,ヌードゥセン聡未,1604036,呉　桐,今学期一番頑張ったと思います。期末テストの文法、文字語彙、すばらしかったです。目標の大学に入るために頑張ってください。,A,B,B,C,B,A,A,B,98
,127,初中級A,N4,ヌードゥセン聡未,1604037,程　思雨,とてもまじめな学生で、少しずつ成績が伸びています。日本語力をゆっくりとでも確実に身につけていると思います。,B,A,A,A,B,A,A,A,100
,127,初中級A,N4,ヌードゥセン聡未,1604080,陸　欣于杭,とてもまじめで向上心があります。すばらしいです。自立学習もよくでき、これからぐんぐん日本語力が伸びると思います。,A,A,A,B,B,A,A,A,98
,127,初中級A,N4,ヌードゥセン聡未,1604093,趙　澤坤,今学期は周りの友達とよく勉強したようです。これからも友達と助け合いながら、楽しく勉強を頑張ってください。,B,B,B,A,B,A,A,B,97
,127,初中級A,N4,ヌードゥセン聡未,1604100,宮　静,授業に来ればしっかりできる学生です。しかし、今学期は休みも多く、最後まで頑張れませんでした。まず体調を整えましょう。,C,C,A,A,C,A,B,C,81
,127,初中級A,N4,ヌードゥセン聡未,1604118,孟 思雨,最初は休みが多かったですが、後からとてもよく頑張りました。すばらしいです。これからも頑張ってください。期待しています。,C,B,D,B,B,A,A,B,73
,127,初中級A,N4,ヌードゥセン聡未,1604131,巩   妤,とてもまじめで努力家です。今学期もいつも上を目指してがんばっていました。これからも頑張ってください。期待しています。,A,A,B,A,B,A,A,A,99
,127,初中級A,N4,ヌードゥセン聡未,1604138,鐘　帥,まじめに楽しく課題に取り組むことができる学生です。プレゼンテーションでの活躍が特にすばらしかったです。,B,B,C,A,A,A,A,A,88
,127,初中級A,N4,ヌードゥセン聡未,1604150,龍　越,まじめで授業態度もすばらしいです。ゆっくりですが、日本語力が伸びていると思います。これからも頑張ってください。,A,A,A,A,B,A,A,A,90
,127,初中級A,N4,ヌードゥセン聡未,1604162,盧　俊杰,まじめでよい学生です。周りの学生のこともたくさん助けてくれました。これからも夢に向け、楽しく日本語を勉強してください。,A,A,A,A,B,A,A,A,98
,127,初中級A,N4,ヌードゥセン聡未,1604203,蘇　潤青,授業ではみなさんを笑わせたりしてくれました。なにかできないとき、落ち着いてゆっくりその問題に取り組むようにしましょう。,C,C,C,A,B,D,B,C,93
,127,初中級A,N4,ヌードゥセン聡未,1604224,呉　文蔚,遅刻・欠席が多いです。でも分からないとき、きちんと先生に聞くことができますから、これからも油断しないで頑張ってください。,B,B,A,A,A,A,B,B,83
,127,初中級A,N4,ヌードゥセン聡未,1604242,LE GIA CHIEN,好きなことは一生懸命がんばれます。漢字もかんばればできます。楽しいきもちが大切です。これからも楽しく勉強してほしいです。,C,B,D,C,B,B,B,C,96
,127,初中級A,N4,ヌードゥセン聡未,1604245,NGUYEN THI NGA,漢字も文法もよくがんばりました。すばらしいです。でも分からないところもまだ多いです。もう一度よく勉強してください。,C,C,D,B,B,B,A,C,99
,127,初中級A,N4,ヌードゥセン聡未,1604246,PHAM THE VINH,文法はよくわかっています。話すのが好きですから、ぜひ先生や友達ともっと日本語で話してみてください。授業中起きましょう。,C,A,D,C,B,B,B,B,98
,127,初中級A,N4,ヌードゥセン聡未,1604263,SANDOVAL YASNA,話すのは少し苦手ですが、聞く・読む・書くの力があります。もっと会話のチャンスがあれば日本語力はぐんぐん伸びると思います。,A,A,A,A,B,A,A,A,99
,127,初中級B,N4,阿部知弥子,1604003,孟 思奇,文法・言葉を正しく使うことができます。発音も自然で聞きやすいです。今後は色々な読み物に挑戦して読解力を伸ばしてください。,A,A,B,A,A,A,A,A,100
,127,初中級B,N4,阿部知弥子,1604013,汪　勁秋,言葉のイメージを掴むのは上手ですが定着が弱いです。音と意味と文字を正しく覚えてください。文法の整理と復習も必要です。,C,C,C,B,B,A,B,B,99
,127,初中級B,N4,阿部知弥子,1604029,陳　昱宏,風邪や腹痛で欠席が多かったです。学習が遅れるだけでなく進学にも支障が出るので、今後は健康管理に気をつけてください。,C,C,B,B,A,A,A,B,86
,127,初中級B,N4,阿部知弥子,1604031,周　盼,習った言葉や文法を上手に使って文章を組み立てて、ゆっくりですが丁寧に話せます。今後は少しずつスピードアップﾟしましょう。,A,A,B,A,A,A,A,A,100
,127,初中級B,N4,阿部知弥子,1604033,趙　柄宇,専門学校進学、日本での就職という目標に向けて、まずは遅刻・欠席を減らすように自己管理の工夫をしてください。,B,A,D,A,B,B,B,B,85
,127,初中級B,N4,阿部知弥子,1604040,謝　明星,教師の質問・説明をよく聞いていて、反応も速いです。今後は聴解力、読解力を伸ばすために教科書以外の日本語に触れてください。,B,B,D,B,B,A,A,B,88
,127,初中級B,N4,阿部知弥子,1604049,周　燁琼,積極的に、クラス全体で共有できる良い内容の発言をしてくれます。ただ話す時、普通形になりやすいので気をつけてください。,A,A,D,A,A,A,A,A,98
,127,初中級B,N4,阿部知弥子,1604070,叶 竞航,教師の質問・説明をよく聞いていて、反応も速いです。今後は全体的な力を伸ばすために教科書以外の生の日本語に触れてください。,A,A,A,B,A,A,A,A,95
,127,初中級B,N4,阿部知弥子,1604087,丛 琳,意欲的に学習しています。会話力と聴解力を伸ばすために、教科書のＣＤを活用してリピート練習や応答練習をしてください。,A,B,C,B,B,A,A,A,99
,127,初中級B,N4,阿部知弥子,1604102,盧智淼,体調不良で欠席したり、授業に集中できなかったりして、理解や練習が十分できていない学習内容があります。復習してください。,B,C,B,B,B,A,B,B,90
,127,初中級B,N4,阿部知弥子,1604107,宣 迎雁,真面目に学習していますが、文を作るのに時間がかかります。運用力を伸ばすために言葉・文法の復習と口頭練習をしてください。,B,C,D,C,B,A,A,B,97
,127,初中級B,N4,阿部知弥子,1604134,宋　承達,コミュニケーションが上手で質問に対する反応も速いですが、授業に集中していないことがあります。自己管理の工夫が必要です。,B,B,A,B,A,A,B,A,85
,127,初中級B,N4,阿部知弥子,1604146,李  章沖,意欲的に学習していますが、助詞、動詞の形、「゛」や「っ」の有無、漢字の字形などを間違えるので、気をつけてください。,C,C,B,B,B,A,A,B,85
,127,初中級B,N4,阿部知弥子,1604147,汪  雨蒙,欠席はかなり減ったので、遅刻も減らしていってください。理解や練習が十分できていない文法があるので、よく復習してください。,A,C,C,B,B,B,B,B,71
,127,初中級B,N4,阿部知弥子,1604195,魏　全麗,真面目に学習していますが、文を作るのに時間がかかります。運用力を伸ばすために言葉・文法の復習と口頭練習をしてください。,B,B,A,B,C,A,A,B,94
,127,初中級B,N4,阿部知弥子,1604225,周 雅妮,体調不良で欠席が多かったです。学習が遅れるだけでなく進学にも支障が出るので、健康管理には十分気をつけてください。,D,B,C,D,C,A,B,C,70
,127,初中級B,N4,阿部知弥子,1604227,賀　雪豊,言葉や文法は正しく使えますが、話し方がゆっくりです。スピードアップできるように教科書のＣＤで口頭練習をしてください。,A,A,A,A,A,A,A,A,94
,127,初中級B,N4,阿部知弥子,1607004,劉　子銘,言葉や文法は正しく使えますが、話す時は普通形になりやすいです。また「パ/ポ」など似ている音の表記に気をつけてください。,A,A,A,A,A,A,A,A,92
,127,初中級B,N4,阿部知弥子,1607034,張　晨雪,積極的に、クラス全体で共有できる良い内容の発言をしてくれます。発音も自然で聞きやすいです。今後も頑張ってください。,A,A,A,A,A,A,A,A,100
,127,初中級B,N4,阿部知弥子,1607074,斉　静茹,真面目ですが、アルバイトを始めてから遅刻・欠席が増え、授業に集中できない時もあります。自己管理の工夫が必要です。,A,A,C,B,A,A,A,A,92
,127,初中級B,N4,阿部知弥子,1607077,孫　浚杰,語彙や話題が豊富でコミュニケーションは上手ですが、助詞や、「゛」や「っ」の有無などを間違えます。気をつけてください。,A,B,B,B,A,B,A,A,75
,127,初中級C,N4,湯川　嘉彦,1504045,李学東,聞くことは半年前よりもできるようになったと思います。残り3か月もしっかり勉強しましょう。,F,F,D,B,C,B,B,D,94
,127,初中級C,N4,湯川　嘉彦,1604010,鄭　瑞江,話すことが苦手でしたが、半年前よりは上手になりました。これからは今以上にうちでも勉強しましょう。,A,A,C,A,B,A,A,A,93
,127,初中級C,N4,湯川　嘉彦,1604014,王　画,これからも着実に勉強を続けて、行きたい進路に行けるようになることを願います。,A,A,A,A,A,A,A,A,86
,127,初中級C,N4,湯川　嘉彦,1604017,盧　舒虹,中級はもっと難しくなるので、今以上にうちでも勉強するようにしましょう。,A,A,C,B,B,A,A,B,100
,127,初中級C,N4,湯川　嘉彦,1604035,任　春燕,これからも着実に勉強を続けて、行きたい進路に行けるようになることを願います。,A,A,A,A,B,A,A,A,97
,127,初中級C,N4,湯川　嘉彦,1604044,杜 超杰,これからはうちでも勉強しないと、中級ではついていけなくなります。専門学校にも行けなくなります。,B,A,C,A,B,B,B,B,82
,127,初中級C,N4,湯川　嘉彦,1604051,温 振繁,これからはうちでも勉強しないと、中級ではついていけなくなります。大学にも行けなくなります。,B,A,C,A,A,B,A,B,88
,127,初中級C,N4,湯川　嘉彦,1604055,劉　明研,中級はもっと難しくなるので、今以上にうちでも勉強するようにしましょう。,B,B,B,B,B,A,A,B,95
,127,初中級C,N4,湯川　嘉彦,1604066,曾 思韵,これからはうちでも勉強しないと、中級ではついていけなくなります。大学院や専門学校にも行けなくなります。,B,B,C,B,B,A,B,B,88
,127,初中級C,N4,湯川　嘉彦,1604096,張　鑫路,中級はもっと難しくなるので、今以上にうちでも勉強するようにしましょう。,B,B,A,B,B,B,B,B,90
,127,初中級C,N4,湯川　嘉彦,1604115,李 航,長い時間集中して勉強することができないようです。勉強するときは他のことはしないようにしましょう。,C,B,C,B,B,B,B,B,82
,127,初中級C,N4,湯川　嘉彦,1604127,張　之旭,これからはうちでも勉強しないと、中級ではついていけなくなります。大学院や専門学校にも行けなくなります。,B,A,C,B,B,C,B,B,88
,127,初中級C,N4,湯川　嘉彦,1604133,計　舒旻,板書をノートに書いて、学校だけじゃなくてうちでも勉強すれば、3か月後には中級に上がれるでしょう。,C,C,C,C,B,B,B,C,93
,127,初中級C,N4,湯川　嘉彦,1604161,潘 　駿晨,板書をノートに書いて、学校だけじゃなくてうちでも勉強すれば、3か月後には中級に上がれるでしょう。,C,C,D,C,B,C,B,C,84
,127,初中級C,N4,湯川　嘉彦,1604166,何　潔怡,これからも着実に勉強を続けて、行きたい進路に行けるようになることを願います。,B,A,A,A,A,A,B,A,81
,127,初中級C,N4,湯川　嘉彦,1604171,王  嘉懿,話すのは上手ですが、何事ももっと正確にするように頑張りましょう。中級はもっと難しくなります。,B,B,B,B,A,A,A,B,96
,127,初中級C,N4,湯川　嘉彦,1604183,呉　亭薇,これからも着実に勉強を続けて、行きたい進路に行けるようになることを願います。,A,A,B,B,A,A,A,A,100
,127,初中級C,N4,湯川　嘉彦,1604234,陳　佳元,授業中は静かにしましょう。これからもしっかり勉強して、行きたい進路に行けるようになることを願います。,A,A,C,B,B,A,B,B,94
,127,初中級C,N4,湯川　嘉彦,1604235,周　竹曳,これからも着実に勉強を続けて、行きたい進路に行けるようになることを願います。,A,A,A,B,B,A,A,A,94
,127,初中級C,N4,湯川　嘉彦,1604237,王　紫茜,板書をノートに書いて、学校だけじゃなくてうちでも勉強すれば、もっとできるようになるでしょう。,B,C,C,A,A,B,B,B,90
,127,初中級C,N4,湯川　嘉彦,1607011,梁　一誠,これからも着実に勉強を続けて、行きたい進路に行けるようになることを願います。,A,A,B,A,A,A,A,A,98
,127,初級2A,N4,藤川ナナ,1604008,丁 子桐,生活リズムが乱れ、姿勢が悪く、授業に集中できず、今期は成長が見られなかった。来期しっかり頑張るように。,C,C,C,C,C,C,D,C,87
,127,初級2A,N4,藤川ナナ,1604011,孫　詩雨,大人しく、発言することは少なかったが、目標を見据え、着実に進んでいる。来期も引き続き頑張ってもらいたい。,A,B,B,A,A,A,B,A,83
,127,初級2A,N4,藤川ナナ,1604025,劉　素,目標が定まらず、学期前半は各方面で下降気味だった。勘もよく、素直な学生なので、卒業までしっかり頑張ってほしい。,C,C,B,B,B,C,C,C,72
,127,初級2A,N4,藤川ナナ,1604034,叶　遠舟,自己管理が甘く、遅刻、欠席が多い。しかし、会話力、応用力があるので、期末の約束を守り、来期に期待する。,C,B,C,B,B,D,D,C,75
,127,初級2A,N4,藤川ナナ,1604038,牟　娟,大人しい学生で、積極性に欠けるが、成績は悪くないので、来期目標を見つけてもらい、会話力を伸ばしてもらいたい。,B,B,C,B,C,C,C,C,87
,127,初級2A,N4,藤川ナナ,1604043,劉　璐,静かで、自己主張を得意としない学生。目標があるので、会話力を身に着けてもらい、目標に向け頑張ってもらいたい。,B,B,A,A,C,C,C,B,97
,127,初級2A,N4,藤川ナナ,1604056,李 晶晶,細かいミスが多く、テストの点数は伸びなかったが、素直で、やさしい。来期は自宅学習をし、頑張ってもらいたい。,C,C,C,C,C,B,A,C,87
,127,初級2A,N4,藤川ナナ,1604071,闫　可,少し抜けているところはあるものの、リピート、宿題をきちんとこなし、成績、会話力ともに伸びた。,B,A,A,B,B,B,B,B,85
,127,初級2A,N4,藤川ナナ,1604076,劉　欣瑗,遅刻、欠席が目立ち、次第に成績にも影響がでた。授業態度がいい学生なので、来期は気持ちを新たに頑張ってほしい。,B,C,C,B,C,B,B,B,75
,127,初級2A,N4,藤川ナナ,1604094,付　昱偉,遅刻、欠席が多く、成績は伸び悩んだが、素直で大人しい学生。来期は自宅学習に少し時間をかけ、頑張ってもらいたい。,C,C,C,C,B,B,C,C,85
,127,初級2A,N4,藤川ナナ,1604103,趙　瑩,コミュニケーション能力はあるが、基礎が不十分で、成績は理想でない。意欲を持って目標に向かえば、伸びる学生。,B,C,B,B,B,B,C,B,85
,127,初級2A,N4,藤川ナナ,1604109,馬　焱釗,会話が少々苦手ではあるが、まじめで、授業態度もよく、努力が成績に反映されている。引き続き頑張ってもらいたい。,B,B,B,B,C,A,A,B,100
,127,初級2A,N4,藤川ナナ,1604117,馬　鵬飛,素直で優しい学生だが、会話、応用力ともに欠けるところがある。自分に合う勉強法を見つけ、地道に頑張ってほしい。,B,C,C,C,C,C,C,C,98
,127,初級2A,N4,藤川ナナ,1604125,楊　嘉宝,欠席が目立ち、目標に迷いがある。集中力に欠けることもあるが、根はまじめで、素直な学生である。,C,C,C,B,B,C,C,C,84
,127,初級2A,N4,藤川ナナ,1604128,劉　夢奕,遅刻、欠席で、授業についていけず、成績は理想でない。生活リズムを整え、来期もう一度頑張ってもらいたい。,D,D,D,B,C,C,D,D,65
,127,初級2A,N4,藤川ナナ,1604184,張　維,欠席が目立ち、細かいミスが多い学生ではあったが、コミュニケーション能力があり、理解も速い。,B,B,B,A,A,F,C,C,78
,127,初級2A,N4,藤川ナナ,1604240,余　嘉怡,授業に集中することが苦手で、読み書きは不得意だが、素直で、目標に向かって頑張る意欲がある学生。,B,B,B,A,A,B,C,B,82
,127,初級2A,N4,藤川ナナ,1604257,SHRESTHA RAKESH,読み書きが苦手で、克服する努力に欠けるが、課題をきちんとこなし、応用力があり、成績は以前より伸びた。,C,B,C,B,B,B,B,B,96
,127,初級2A,N4,藤川ナナ,1604261,NORBUTAEV BOBIR,まじめで、課題を欠かさずこなし、積極的に日本語で発言する学生。来期は苦手な漢字を克服し、頑張ってほしい。,C,A,C,B,B　,B,A,B,98
,127,初級1A,N5,平林　麻美,1610001,柳　楚卿,真面目に授業にも取り組み、課題もそつなくこなしていた。落ち着いた性格で、目標も明確。,A,B,A,B,B,B,B,B,100
,127,初級1A,N5,平林　麻美,1610005,矯　永昶,努力家で真面目に授業にも取り組み、徐々にではあるが成績も伸びてきている。,B,A,A,B,B,B,A,B,99
,127,初級1A,N5,平林　麻美,1610006,鄭　子渊,礼儀正しく、根は真面目な性格だが、遅刻が多く、授業に集中していないこともよくあった。,C,C,C,C,B,B,D,C,88
,127,初級1A,N5,平林　麻美,1610009,羅　武,理解は遅いが、コツコツと真面目に取り組み、与えられた課題をきちんとこなしていた。,A,A,A,B,C,B,A,A,100
,127,初級1A,N5,平林　麻美,1610010,彭　野,誰よりも早く登校し、予習、復習、宿題等もしっかりこなしていた。真面目な性格で積極的に授業にも取り組んでいた。,A,A,A,B,B,A,A,A,100
,127,初級1A,N5,平林　麻美,1610011,于　光普,集中して取り組むことは苦手だったが、与えられた課題はきちんとこなしていた。前向きでおおらかな性格。,B,B,A,A,B,B,C,B,99
,127,初級1A,N5,平林　麻美,1610012,楊　金子,語彙が豊富で授業態度もよく、よい成績を収めることができた。また、明るい性格でコミュニケーション能力も高い。,A,A,A,A,A,A,A,A,100
,127,初級1A,N5,平林　麻美,1610013,李　豪,授業態度はよく、課題にも真面目に取り組んでいた。明るく、おおらかな性格で場の雰囲気を和やかにする。,B,B,A,A,B,B,A,B,100
,127,初級1A,N5,平林　麻美,1610014,王　歆儀,普段は控えめだが、意見を求められた際はしっかり自分の意見を言うことができ、真面目で授業態度もよい。また、協調性もある。,A,A,A,A,A,A,A,A,100
,127,初級1A,N5,平林　麻美,1610017,曲　世正,場を盛り上げるムードメーカーで、明るい性格。授業にも集中して取り組み、課題もしっかりこなしていた。,A,A,B,B,B,B,A,B,100
,127,初級1A,N5,平林　麻美,1610029,劉　瀚声,欠席、遅刻が多く、授業中は集中していないことが多々ある。おおらかで、明るい性格。,B,B,A,B,B,B,C,B,92
,127,初級1A,N5,平林　麻美,1610030,柯 永林,真面目で落ち着いた性格で、与えられた課題はきちんとこなし、よい成績を収めることができた。,A,A,A,A,A,A,A,A,99
,127,初級1A,N5,平林　麻美,1610034,王　智麟,授業中、集中していないことが多々あり、成績は振るわなかった。おおらかな性格で、行動力がある。,C,C,A,B,B,B,D,C,91
,127,初級1A,N5,平林　麻美,1610040,黄　南,理解力は弱いが、真面目で授業態度はよい。努力家で理解できないところはその都度確認し、徐々に理解度を深めていった。,B,A,B,B,C,B,A,B,100
,127,初級1A,N5,平林　麻美,1610041,王　怡静,理解力は弱いが、授業態度はよく、課題にも真面目に取り組んでいた。また、明確な目標を持っており、計画性がある。,B,B,A,B,C,B,A,B,100
,127,初級1A,N5,平林　麻美,1610044,盧　宇坤,礼儀正しく、前向きな性格で、授業にも集中して取り組んでいた。普段は控えめだが、語彙も豊富で会話能力も高い。,A,A,A,A,A,A,A,A,97
,127,初級1A,N5,平林　麻美,1610047,NGO THI PHUONG LE,理解力が弱く、生活環境の乱れから授業に集中していないことが多々あった。性格は真面目でおおらか。,D,C,B,C,C,B,C,C,88
,127,初級1A,N5,平林　麻美,1610049,NGUYEN BA THINH,遅刻、欠席が多く、理解するのに少々時間がかかるが、明るく、陽気な性格で、授業には積極的に参加していた。,C,B,A,C,C,B,B,B,80
,127,初級1A,N5,平林　麻美,1610053,CHANAPAT SOONTOMGUMJOHNPANICH,遅刻、欠席が多く、生活環境の乱れから授業に集中していないことがあったが、理解は早く、成績はよい。性格は明るく、素直。,A,A,A,B,A,B,C,A,85
,127,初級1A,N5,平林　麻美,9916028,ZAGHBA EPSE KITAJIMA OUARDA,授業に積極的に取り組んでいたが、成績は思うように伸びなかった。明るい性格でリーダーシップも発揮し、クラスをまとめる存在。,D,D,C,C,B,C,B,C,76
,127,初級1B,N5,樋浦理美,1610002,郭　東勛,真面目な性格で、与えられた課題はきちんとこなしたが、授業中集中していないことがある。,A,B,B,B,C,B,B,B,97
,127,初級1B,N5,樋浦理美,1610003,張　幸,授業中、集中していないことがある。また、自宅学習の習慣も不十分で成績の伸びがよくない。,C,D,D,C,D,D,C,D,82
,127,初級1B,N5,樋浦理美,1610007,姜　巍,真面目で、学習意欲もあり、学習態度もよいが、自宅学習が不十分で成績が振るわなかった。性格は明るく積極的だ。,C,D,D,B,B,B,B,C,100
,127,初級1B,N5,樋浦理美,1610008,劉　佳悦,真面目な性格で、学習態度もよいが、基礎が不十分なこともあり成績の伸びがよくない。,C,D,D,C,C,B,B,C,100
,127,初級1B,N5,樋浦理美,1610015,馮　習文,真面目な性格で、与えられた課題はきちんとこなし、良い成績を収めることができた。,B,B,B,C,B,C,B,B,97
,127,初級1B,N5,樋浦理美,1610019,趙　立凡,努力家で授業態度もよく、与えられた課題もきちんとこなし良い成績を収めることができた。,A,A,A,A,B,B,A,A,100
,127,初級1B,N5,樋浦理美,1610022,李　容天,真面目な性格で授業態度もよく、自宅学習もきちんとしていることもあり、良い成績を収めた。,A,A,A,B,B,B,A,A,97
,127,初級1B,N5,樋浦理美,1610024,羅　杰銘,与えられた課題はきちんとこなしたが、日本語以外に集中していることがあり、文法では成績がふるわなかった。,C,C,C,B,A,B,B,B,93
,127,初級1B,N5,樋浦理美,1610031,楊　藝,真面目で授業態度もよく、与えられた課題にも工夫しながら積極的に参加した。,A,A,A,A,A,B,B,A,100
,127,初級1B,N5,樋浦理美,1610033,陳　文華,努力家で授業態度もよく、与えられた課題もきちんとこなし良い成績を収めることができた。,B,A,A,B,B,B,A,B,97
,127,初級1B,N5,樋浦理美,1610038,董　思成,真面目な性格で、与えられた課題はきちんとこなし良い成績を収めることができた。,B,B,B,B,B,C,A,B,89
,127,初級1B,N5,樋浦理美,1610042,武　陽,授業中、集中していないことがあったが、与えられた課題はきちんとこなし良い成績を収め、積極的に場を盛り上げた。,A,A,A,B,A,B,B,A,99
,127,初級1B,N5,樋浦理美,1610046,NGUYEN LAM PHI VU,休みがちで、十分に学習に取り組むことができず、理解力も弱い。性格は明るく、積極的だ。,D,D,D,B,C,F,D,D,68
,127,初級1B,N5,樋浦理美,1610048,VU THANH HUYEN,努力家で授業態度もよく、良い成績を収めることができた。また、語彙も豊富でコミュニケーション能力も高い。,A,A,A,B,B,A,A,A,92
,127,初級1B,N5,樋浦理美,1610050,DO VIET LONG,授業中、集中していないことがあり成績が振るわなかった。目標にも迷いが見られ定着していない。,D,D,D,C,C,D,D,D,73
,127,初級1B,N5,樋浦理美,1610051,NGUYEN DUY KHANH,遅刻が目立ち、集中して取り組むことが苦手だが、意思はちゃんと伝えられる。性格は明るく、積極的だ。,D,C,D,C,D,D,C,D,83
,127,初級1B,N5,樋浦理美,1610054,PIRIYAKOM SIGKAMANN,休みがちで、十分に学習に取り組むことができず、理解力も弱いが、耳がよく積極的な性格だ。,D,D,D,C,C,D,C,D,75
,127,初級1B,N5,樋浦理美,9916026,岸本　敏,真面目な性格で授業態度もよく、自宅学習もきちんとしていることもありよい成績を収めた。,B,B,C,B,B,B,A,B,100
,127,初級1B,N5,樋浦理美,9916029,呉　娟秀,真面目な性格で、授業態度もよいが、体調不良などがおおく、家庭学習の習慣が不十分で成績が振るわなかった。,C,D,D,D,D,C,A,D,56
,127,初級1B,N5,樋浦理美,9916030,曹ミジョン,努力家で授業態度もよく、良い成績を収めることができた。また、語彙も豊富でコミュニケーション能力も高い。,B,B,B,A,A,B,A,B,99
,127,初級1B,N5,樋浦理美,9916031,禹　守眞,休みがちで、十分に学習に取り組むことができなかった。,F,F,F,F,F,F,F,F,
,127,中上級1B,N2,田口麗子,1501031,谢   凤,積極的に授業に参加するときもあるが、居眠りやゲームも目立った。残り3か月ビシッと締めてもらいたい。,C,B,C,B,B,C,C,C,92
,127,中上級1B,N2,田口麗子,1504036,史云鵬,学習意欲が低く、集中して取り組むことが苦手だが、意思はちゃんと伝えられる。,C,C,D,C,B,F,C,C,79
,127,中上級1B,N2,田口麗子,1504058,鐘夜玲,本人はもともとは真面目だが、周りに流され、私語が目立ったり、授業に集中できなかったりした。,D,C,C,D,B,C,B,C,95
,127,中上級1B,N2,田口麗子,1504071,林  凡,ビザの変更をしたのか、途中から学校へ来なくなった。,F,F,F,F,F,F,F,F,
,127,中上級1B,N2,田口麗子,1504099,魏  萍,元気で明るく積極的に発言していた。来期は発言をすべて日本語にする習慣を身に付けましょう。,A,A,D,B,B,C,B,B,92
,127,中上級1B,N2,田口麗子,1504114,陳秋婷,学習意欲が低く、集中して授業に参加することが少なかったため、成績が振るわなかった。　,D,C,D,C,B,F,C,C,88
,127,中上級1B,N2,田口麗子,1504151,PHUNG VAN TIEN,まじめで目標も明確だが、受験のことで頭がいっぱいで、学校の勉強には集中できず、成績は振るわなかった。,D,C,D,C,B,C,C,C,92
,127,中上級1B,N2,田口麗子,1507001,刘 皓璇,自分の考えをしっかり持っていて、授業も集中して聞いているように見えたが、成績はよくなかった。,C,D,D,C,B,B,B,C,90
,127,中上級1B,N2,田口麗子,1507013,赵   宇,時々ゲームを注意されていたが、与えられた課題には積極的に取り組んでいた。残り3か月ビシッと締めてもらいたい。,B,B,A,B,B,B,B,B,89
,127,中上級1B,N2,田口麗子,1507015,戴 裕博,真面目な性格で、学習態度もよいが、成績が少し落ちた。体調を改善し、遅刻を減らす努力をしましょう。,B,B,B,C,B,C,A,B,98
,127,中上級1B,N2,田口麗子,1507042,曹   洁,真面目な性格で、自宅学習にもしっかり取り組み、目標に向かって努力していた。苦手な読解も克服しつつある。,A,C,B,B,B,B,A,B,97
,127,中上級1B,N2,田口麗子,1507059,张 绍军,学習意欲があり、妥協することなく積極的に学習に取り組んでいた。その姿勢を大切に卒業までがんばってもらいたい。,B,B,D,C,B,B,A,B,100
,127,中上級1B,N2,田口麗子,1604140,杜　藝嘉,クラスレベル相応の学力はあるが、とにかく欠席が多いので、来期は改善できるよう努力してもらいたい。,A,A,B,B,B,F,C,C,72
,127,中上級1B,N2,田口麗子,1604163,賈　翼博,学習意欲が高く、積極的に授業に参加する反面、私語も目立った。来期は日本語で話す習慣を身に付けるようにしましょう。,A,B,B,C,B,A,B,B,95
,127,中上級1B,N2,田口麗子,1607006,張　仕豪,見た目ほど真面目ではないという部分が垣間見れたが、優等生として慕われ、たいへん良い成績を収めることができた。,A,A,A,B,B,A,A,A,94
,127,中上級1B,N2,田口麗子,1607063,魏　瑞婷,クラスの優等生で、授業態度もよく、与えられた課題もきちんとこなし、たいへん良い成績を収めることができた。,A,A,A,B,A,A,A,A,100
,127,中上級1B,N2,田口麗子,1607071,李　翊寧,試験や課題をやるのは早いが、残った時間で見直し、間違いを減らす習慣を身に付けましょう。,A,B,B,A,B,C,B,B,94
,127,中上級1B,N2,田口麗子,1607090,王德維,知っている語彙も多く、積極的に発言していた。大学院を目指す者として定期テストの点数がもう少し良ければなお良い。,A,B,A,A,B,B,B,B,100
,127,中級2B,N3,福永裕美,1504044,殷光琪,明るく礼儀正しく、積極的に楽しく授業に参加している。家でも読解などの復習をしっかりする習慣をつけたい。,Ｂ,Ｂ,Ｃ,Ｂ,Ｂ,Ｂ,Ｂ,Ｂ,86
,127,中級2B,N3,福永裕美,1504059,張忠志,明るい性格で会話はよくできるが、文法などは家でもしっかり復習すること。集中して授業をしっかり聞くこと。,Ｃ,Ｃ,Ｃ,Ｂ,Ｂ,Ｂ,Ｃ,Ｃ,79
,127,中級2B,N3,福永裕美,1504062,邱煒倫,進学の目標をしっかり持っているようだが集中が足りない。復習すること。毎日出席しましょう。,Ｃ,Ｃ,Ｂ,Ｂ,Ｃ,Ｂ,Ｃ,Ｃ,73
,127,中級2B,N3,福永裕美,1504075,何声宾,専門学校に入学してからも困らないように、授業に集中して参加し、家でも語彙、文法をしっかり復習すること。,Ｄ,Ｃ,Ｃ,Ｂ,Ｃ,Ｃ,Ｃ,Ｃ,86
,127,中級2B,N3,福永裕美,1504132,RAI RACHANA,真面目な性格で聞き取り、会話もよくできる。しっかり家で復習し、漢字や語彙もしっかり学習すること。,Ｃ,Ｂ,Ｃ,Ｂ,Ｂ,Ｂ,Ｂ,Ｂ,97
,127,中級2B,N3,福永裕美,1504139,BASNET SRIJANA,真面目に授業には参加しているが、漢字や語彙をしっかり家でも学習し基本的な漢字を覚えること。,Ｃ,Ｃ,Ｄ,Ｂ,Ｃ,Ｂ,Ｂ,Ｃ,97
,127,中級2B,N3,福永裕美,1504146,BUI THI THANH,真面目に授業には出席しているが、漢字や語彙をしっかり家でも学習すること。基本的な漢字、語彙をしっかり覚えること。,Ｃ,Ｃ,Ｃ,Ｃ,Ｃ,Ｃ,Ｂ,Ｃ,96
,127,中級2B,N3,福永裕美,1504147,NGUYEN THI HUYEN TRANG,明るい性格で、積極的に授業に参加し会話もよくできる。漢字や語彙の学習をしっかりすること。,Ｃ,Ｂ,Ｄ,Ｂ,Ｂ,Ｂ,Ｂ,Ｂ,96
,127,中級2B,N3,福永裕美,1504149,PHAM THI TRA MY,真面目に授業には出席しているが、漢字や語彙をしっかり家でも学習すること。基本的な漢字、語彙をしっかり覚えること。,Ｃ,Ｂ,Ｄ,Ｃ,Ｃ,Ｂ,Ｂ,Ｃ,98
,127,中級2B,N3,福永裕美,1507028,姜 平川,専門学校に入学してからも困らないように、授業に集中して参加し携帯を控えること。家でも語彙、文法をしっかり復習すること。,Ｂ,Ｂ,Ｂ,Ｂ,Ｃ,Ｃ,Ｃ,Ｃ,96
,127,中級2B,N3,福永裕美,1507046,曲   鑫,常に前方に座り授業に参加している。授業に集中して参加し、家でも語彙、文法をしっかり復習すること。,Ｂ,Ｃ,Ｄ,Ｃ,Ｃ,Ｂ,Ｂ,Ｃ,99
,127,中級2B,N3,福永裕美,1507053,齐 宏成,明るい性格で、積極的に授業に参加している。集中し、文法は家でもしっかり復習し専門学校進学に備えること。,Ｂ,Ｃ,Ｃ,Ｂ,Ｂ,Ｂ,Ｂ,Ｂ,92
,127,中級2B,N3,福永裕美,1507065,韩 思雨,専門学校に入学してからも困らないように、授業に集中して参加し携帯を控えること。家でも語彙、文法をしっかり復習すること。,Ｃ,Ｃ,Ｄ,Ｄ,Ｃ,Ｃ,Ｃ,Ｃ,99
,127,中級2B,N3,福永裕美,1507088,THE HAY MAR AUNG,授業を真面目に聞き、積極的に学習している。帰国までの3か月、さらに語彙、文法をしっかり学習すること。,Ｃ,Ｃ,Ｄ,Ｂ,Ｂ,Ｂ,Ａ,Ｂ,89
,127,中級2B,N3,福永裕美,1510041,林   晶,文法、語彙など基本的なことはよくできている。授業に集中して取り組むことが必要である。,Ｂ,Ｂ,Ｂ,Ｃ,Ｂ,Ｃ,Ｃ,Ｂ,90
,127,中級2B,N3,福永裕美,1510048,楊 坤霖,穏やかな性格で自分から積極的に発言などはしないが、家でもよく復習していた。来学期は積極性を持つこと。,Ａ,Ｂ,Ｂ,Ａ,Ｂ,Ｃ,Ｂ,Ｂ,95
,127,中級2B,N3,福永裕美,1604042,魯　崧,文法、語彙など基本的なことはよくできている。授業に集中して取り組むことが必要である。,Ａ,Ａ,Ｂ,Ｃ,Ａ,Ｂ,Ｂ,Ｂ,85
,127,中級2B,N3,福永裕美,1604058,邴　亮,明るく積極的に授業に参加している。授業に集中し、大学院生活に困らぬよう、文法をしっかり復習しておくこと。,Ａ,Ａ,Ａ,Ｂ,Ａ,Ｂ,Ｂ,Ａ,100
,127,中級1C,N3,山田麻美子,1504144,REDWAN,弱点だった漢字も少しずつだが成績が上がってきている。コミュニケーション能力は高い。,D,C,D,C,B,A,B,C,94
,127,中級1C,N3,山田麻美子,1507058,周 奇明,発話することは苦手であるが、聴解能力は優れており理解能力もある。,C,D,C,B,C,D,B,C,87
,127,中級1C,N3,山田麻美子,1507080,張 岸雄,まじめな性格で、努力家である。しかし休みがちで理解力も弱く、成績は振るわなかった。意思表示はしっかりできる。,D,C,C,D,C,C,B,C,81
,127,中級1C,N3,山田麻美子,1510033,杨 佳莹,基礎は不十分であるが、明るい性格で積極的に発話することができた。語彙は豊富でコミュニケーション能力も高い。,C,C,C,B,B,A,C,B,77
,127,中級1C,N3,山田麻美子,1510034,韓 君民,基礎は不十分な部分もあるが、根は真面目で与えられた課題はこなすことができた。,B,C,C,C,B,B,B,B,87
,127,中級1C,N3,山田麻美子,1510042,陳 瑜情,睡眠不足から授業に集中できていないことが多い。また、家庭学習の習慣が不十分で成績が振るわなかった。性格は明るい。,C,D,D,D,C,C,D,D,89
,127,中級1C,N3,山田麻美子,1510059,ISHKHUU ENKHBAYAR,授業中、集中していないことがある。また、家庭学習の習慣も不十分で成績の伸びはよくないが、目標は明確に持っている。,D,C,D,C,C,B,C,C,96
,127,中級1C,N3,山田麻美子,1510060,BYAMBAZORIG MUNKHNASAN,真面目な性格で与えられた課題もこなすことができた。苦手な漢字も努力している姿はみられたが試験では力が発揮できなかった。,D,C,D,D,B,B,B,C,97
,127,中級1C,N3,山田麻美子,1604104,楊　孫益,以前より遅刻は目立ったが、根は真面目で今回も必要な力はしっかりと身につけることができた。,A,B,B,B,A,A,B,B,98
,127,中級1C,N3,山田麻美子,1607002,王 立芸,真面目で与えられた課題にも積極的に取り組み、よい成績をおさめることができた。,A,A,A,A,A,A,A,A,100
,127,中級1C,N3,山田麻美子,1607009,張　祯,根は真面目だが、授業以外のことに集中していることもあった。与えられた課題はしっかりこなしよい成績を収めることができた。,A,A,A,A,A,A,B,A,97
,127,中級1C,N3,山田麻美子,1607026,万　麗,苦手だった会話も徐々によくなってきている。もう少し集中力を高められれば成績ももっとあがるだろう。,A,B,C,B,B,B,B,B,95
,127,中級1C,N3,山田麻美子,1607042,馬　一督,真面目な性格で学習意欲もある。与えられた課題もきちんとこなすことができた。,B,B,D,C,A,A,A,B,97
,127,中級1C,N3,山田麻美子,1607046,徐 菁一,真面目な性格で、積極的に授業に参加し、必要な力を身につけることができた。,A,A,C,B,A,A,A,A,100
,127,中級1C,N3,山田麻美子,1607049,李 禕祯,真面目な性格で与えられた課題もしっかりとこなし、よい成績をおさめることができた。,A,A,B,B,A,A,A,A,94
,127,中級1C,N3,山田麻美子,1607050,莫 凡,真面目な性格で与えられた課題もしっかりとこなし、よい成績を収めることができた。語彙も豊富でコミュニケーション能力も高い。,A,A,A,A,A,A,A,A,94
,127,中級1C,N3,山田麻美子,1607054,劉　廷,授業以外のことに集中していることもあったが与えられた課題はしっかりこなした。積極的に場を盛り上げるなど明るい性格である。,A,B,D,C,B,B,B,B,96
,127,中級1C,N3,山田麻美子,1607070,張　飛,授業以外のことに集中していることもあったが与えられた課題はしっかりこなした。目標のための努力は怠らない。,A,B,A,A,A,B,B,A,88
,127,中級1C,N3,山田麻美子,1607083,鄒　午静,真面目な性格である。語彙も豊富でコミュニケーション能力も高い。,A,B,A,B,A,B,A,A,97
,127,中級1C,N3,山田麻美子,1607091,劉　一凡,前学期より会話能力が伸びた。授業以外のことに集中していることが多かったが、語彙も豊富でコミュニケーション能力も高い。,A,A,C,B,A,A,B,B,95
,127,初中級Z,N4,吉田絵梨子,1501051,包红雨,授業に集中できないこともあったが、課題に取り組むことが多く、口頭練習は積極的に行っていた。,D,D,D,D,D,D,C,D,84
,127,初中級Z,N4,吉田絵梨子,1504004,黄  益,周りに流されることなく、マイペースを保って、頑張って勉強していた。とてもまじめな性格である。,C,C,D,C,B,D,A,C,100
,127,初中級Z,N4,吉田絵梨子,1504018,羅  云,集中しているときはとてもよく頑張っていた。漢字の課題が得意で、一発で合格できることが多かった。,D,D,D,D,C,D,C,D,79
,127,初中級Z,N4,吉田絵梨子,1504026,徐建松,進路が決まってから、授業中に何もしないことが多くなった。会話は上達した。,D,D,F,F,C,F,D,D,81
,127,初中級Z,N4,吉田絵梨子,1504043,孟川然,授業中に寝ることがほとんどなくなり、課題にもときどき積極的に取り組んでいた。,D,D,D,D,B,D,D,D,73
,127,初中級Z,N4,吉田絵梨子,1504050,韓昕原,やる気があるときはとてもよく頑張っていたが、やる気がないときはケータイをいじるなど、授業態度がとても悪かった。,D,D,B,C,B,D,D,C,86
,127,初中級Z,N4,吉田絵梨子,1504060,宋  凱,学期前半はとてもよく頑張っていたが、後半は徐々にやる気をなくしていった。,D,D,D,D,C,D,C,D,83
,127,初中級Z,N4,吉田絵梨子,1504061,趙凱華,授業の最初1コマはよく頑張っていたが、あとは寝ていることが多かった。,D,D,D,D,D,D,D,D,84
,127,初中級Z,N4,吉田絵梨子,1504082,林  艶,クラスのムードメーカーであり、明るい性格である。もう少し頑張って勉強すれば成長すると思われる。,C,C,C,D,B,D,C,C,85
,127,初中級Z,N4,吉田絵梨子,1504110,呉雄鑫,専門学校に合格してからは、ほとんど授業に参加することがなかった。,D,D,D,B,C,D,D,D,86
,127,初中級Z,N4,吉田絵梨子,1504117,李俊昭,授業に参加することがほとんどなく、態度もあまりよくなかった。会話はよくできている。,D,D,D,C,B,D,D,D,72
,127,初中級Z,N4,吉田絵梨子,1504142,ISLAM RAYSUL,専門学校に合格してから、授業中に長時間寝るようになった。会話力はかなりある。,D,D,D,C,B,F,D,D,92
,127,初中級Z,N4,吉田絵梨子,1507034,王   超,学期の最初は休みがちだったが、学校に来るようになってからは、まじめにとてもよく頑張っていた。,D,C,C,D,C,C,B,C,82
,127,初中級Z,N4,吉田絵梨子,1507057,陈   嵩,授業中に課題に取り組むことがあまりなく、態度も悪かった。,D,D,D,D,C,C,D,D,76
,127,初中級Z,N4,吉田絵梨子,1507061,卓   埜,欠席がとても多く、期末試験も受けなかったため、成績がつけられなかった。,F,F,F,F,F,F,F,F,72
,127,初中級Z,N4,吉田絵梨子,1510002,杨 秋瑞,とても明るい性格である。課題に取り組むことも多く、自分なりに頑張っていた。,D,D,D,B,C,C,C,C,82
,127,初中級Z,N4,吉田絵梨子,1510054,汪 星宇,周りに流されることなく、積極的に授業に参加し、とてもよく頑張っていた。日本語力の成長もみられた。,C,C,D,C,B,B,A,C,73
,127,初中級D,N4,松原伶奈,1604006,劉　徳才,テストの成績は悪くない良いが、会話力が全く伴っていない。聞いて理解する力はある。アウトプットができるようになってほしい。,B,B,B,B,C,B,B,B,99
,127,初中級D,N4,松原伶奈,1604045,呉　思哲,目標があり、それに向かって頑張っている。作文がだんだん上手になってきている。,B,B,C,A,B,B,B,B,97
,127,初中級D,N4,松原伶奈,1604050,胡　華楠,授業に集中していないことが多いが、理解力はある。次の学期はもう少し積極的に授業に参加してほしい。,B,B,C,B,B,B,C,B,91
,127,初中級D,N4,松原伶奈,1604110,王 心怡,一生懸命な学生だが、集中力が続かないことがある。わからないことは質問に来るなど積極的に学習をする意欲はある。,C,B,C,C,B,B,B,B,100
,127,初中級D,N4,松原伶奈,1604111,劉　丹,とてもまじめな学生でテストは常に良いが、会話力に不安がある。本人もそれがよくわかっていて向上するための努力をしている。,A,A,C,C,C,B,A,B,100
,127,初中級D,N4,松原伶奈,1604124,黄　銘雅,勉強をする気力がなくなっている。会話力はよく、勉強する能力もあるので頑張ってほしい。授業中のおしゃべりが多い。,B,C,C,B,A,A,C,B,90
,127,初中級D,N4,松原伶奈,1604126,馬　浩喧,目標に向かって努力をしている。会話の能力に不安があるので、話す練習をしてほしい。,B,B,C,B,C,A,A,B,100
,127,初中級D,N4,松原伶奈,1604151,李  信一,理解力があり、作文や発表はとてもよいものができたが、出席率が悪いのでこれ以上休まないこと。,B,A,B,B,A,A,A,A,73
,127,初中級D,N4,松原伶奈,1604160,華　菁,生活が忙しく、成績が落ちてきている。もとは成績が良かったのでもう少し頑張ってもらいたい。おしゃべりが多い。,B,B,C,B,A,B,B,B,100
,127,初中級D,N4,松原伶奈,1604180,馬　嬌嬌,会話力は高いが、読み書きのスピードが遅くなかなかテストでいい成績をあげられなかった。ゆっくり考えれば問題を解く力はある。,C,B,B,A,A,B,B,B,95
,127,初中級D,N4,松原伶奈,1604191,王  金晶,まじめな学生で課題に一生懸命取り組むことができる。会話は苦手だったが、ほかの学生と日本語で話すことができるようになった。,B,B,B,B,B,A,A,B,910
,127,初中級D,N4,松原伶奈,1604201,呉　抒陽,今学期は一度も赤点がなく、だんだん成績が上がってきている。読む力会話力がまだまだなのでこれから頑張ってほしい。,B,B,C,C,C,B,B,B,98
,127,初中級D,N4,松原伶奈,1604204,栄　雨婷,あまり授業中は集中していないことが多いが、様々な文法を使って会話ができる。出席率も少し改善しつつある。,B,C,C,B,A,B,C,B,71
,127,初中級D,N4,松原伶奈,1604205,兪　一昶,非常にまじめな学生で、一生懸命努力している。会話や作文などアウトプットする能力がある。,B,B,C,B,A,A,A,B,98
,127,初中級D,N4,松原伶奈,1604219,李 杳查,とてもおとなしい学生で、根はまじめだが、学習に迷いが見えて成績が振るわなかった。平常点は提出物の状況が悪いため。,C,B,B,B,B,B,C,B,94
,127,初中級D,N4,松原伶奈,1604221,趙　梓軒,会話能力は非常に高く、授業にも参加している。能力はあるのでテストの成績を上げる努力をしてほしい。,B,B,B,B,A,B,C,B,80
,127,初中級D,N4,松原伶奈,1604233,関　宇,非常にまじめで優秀な学生で、誰よりも練習をしている。こつこつと勉強をする模範になるような学生である。,A,A,A,B,B,A,A,A,96
,127,初中級D,N4,松原伶奈,1607005,孟 永楽,まじめな学生で、よく勉強していい成績を収めた。静かな学生だが、会話能力もある。,A,A,A,B,A,B,A,A,100
,127,初中級D,N4,松原伶奈,1607018,阮 国振,しずかな学生だがコツコツと勉強して、良い成績を収めた。目標に向かって努力をしている。,A,A,C,C,B,B,A,B,98
,127,初中級D,N4,松原伶奈,1607044,王 　潤澤,勉強はできるが、授業中本を読んだり、別のことをしていることが多い。積極的に授業に参加してほしい。,A,B,C,B,A,B,C,B,89
,127,初中級D,N4,松原伶奈,1607112,SUNIL　KASULA,積極的にクラスメートと日本語で会話ができる。勉強もよくし、将来についてもよく考えている。漢字の勉強も頑張っている。,B,A,B,A,A,B,A,A,99
,127,初中級E,N4,松原伶奈,1507022,孙 煜坤,授業中は真面目に聞いているが、自宅学習の習慣がなく成績が上がらなかった。コミュニケーション力はある。,D,C,D,C,B,C,C,C,76
,127,初中級E,N4,松原伶奈,1604074,劉　宇,とてもまじめな学生でよく勉強している。明るい性格でコミュニケーションはとれるが、会話力に不安があるので頑張ってほしい。,B,B,D,C,C,B,A,B,100
,127,初中級E,N4,松原伶奈,1604082,張　思楊,真面目な学生で積極的に質問もする。会話力に不安があるが、上手になろうとする向上心もある。このまま頑張ってほしい。,A,A,A,B,B,A,A,A,94
,127,初中級E,N4,松原伶奈,1604099,陳　健,わからないところを質問する積極性はあるが、要領が悪く、指示が通じないことも多い。まずは遅刻欠席をなくす努力を。,C,C,D,C,C,C,Ｄ,C,92
,127,初中級E,N4,松原伶奈,1604148,洪   威,明るくムードメーカー。コツコツ勉強していて、学習した項目は確実に身に付き会話で積極的に使うことできる。,B,B,C,B,B,B,A,B,100
,127,初中級E,N4,松原伶奈,1604149,龐　楠,授業に積極的に参加している。平常点が低いのは提出物の状況が悪いため。会話力に優れ、丁寧な日本語を使うことができる。,C,B,C,A,A,B,C,B,95
,127,初中級E,N4,松原伶奈,1604176,邵  卿云,積極性には欠けるが、与えられた課題はしっかりこなすことができた。,B,C,C,B,B,C,B,B,85
,127,初中級E,N4,松原伶奈,1604193,曹  政,通常のテストでは毎回85点以上取っているが、期末がふるわなかった。会話で習った文法が使えるようになってほしい。,B,B,B,A,C,A,B,B,100
,127,初中級E,N4,松原伶奈,1604208,曹　達,真面目でテストは毎回いい。苦手な発音があり会話が苦手なので、会話の練習をするように。,A,A,B,B,C,B,B,B,99
,127,初中級E,N4,松原伶奈,1604238,洪　鋭深,休みが多く提出物を出さないことが多い。よく勉強はしているが、授業中別のことをしていることもある。,A,B,D,B,B,C,C,B,73
,127,初中級E,N4,松原伶奈,1607003,徐 寧宇,積極的に質問し、わからない点を残さないようにしている。集中することが苦手だが、語彙は豊富で会話力は高い。,A,A,B,B,A,A,B,A,100
,127,初中級E,N4,松原伶奈,1607016,李 佳琦,とてもまじめな学生で、よく勉強している。進学先が決まった後もだれることなく勉強していた。,A,A,A,A,A,A,A,A,98
,127,初中級E,N4,松原伶奈,1607021,李 施怡,成績はいいが、時々授業を聞いていないときがある。やりたいことははっきり持ってそれに向かって努力をしている。,A,A,A,A,A,B,B,A,90
,127,初中級E,N4,松原伶奈,1607045,苗 欣阳,授業に参加しないことがある。テストはそこそこでき、提出物はしっかり出している。,B,B,B,C,B,A,B,B,98
,127,初中級E,N4,松原伶奈,1607047,余 明非,専門学校に合格した後一時期やる気をなくしたが、最近はまた学習意欲が戻って以前のようによく勉強するようになった。,B,Ａ,B,C,B,A,B,B,95
,127,初中級E,N4,松原伶奈,1607062,馮　潔,まじめでとても良くできる学生でしっかりと意見を発言できる。積極的に授業に参加し良い成績を収めることができた。,A,Ａ,B,B,A,A,A,A,99
,127,初中級E,N4,松原伶奈,1607068,邵　奇星,しずかな学生だが、学習項目を使って会話をすることができる。明確な目標があり、目標に向かって頑張っている。,A,A,B,B,B,A,A,A,97
,127,初中級E,N4,松原伶奈,1607075,郭　昊天,成績は良いが、授業態度はよくない。クラスアップをするためにも授業態度を改めクラスでトップが取れるような学習をしてほしい。,A,A,A,A,A,B,C,A,100
,127,初中級E,N4,松原伶奈,1607076,趙　雅睿,真面目な学生でとても良い成績を収めた。会話力もありクラスメートに伝わるように発表ができた。,A,A,A,B,A,A,A,A,100
,127,初中級E,N4,松原伶奈,1607081,張　子人,難しい文法を勉強したがっているが、まずは初級の文法をしっかり使えるようになってほしい。,B,B,B,C,B,B,C,B,95
,127,初中級E,N4,松原伶奈,1607082,趙　娅冰,彼女にとって簡単なクラスだったが、その中から自分のできないところ見つけ勉強することができる。このまま頑張ってほしい。,A,A,A,A,A,A,A,A,100
,127,初級2B,N4,渡邊安澄,1510044,李   悦,前学期から休まず学校へ来る努力は認められるが、授業はたまに参加する程度。教科書と筆記用具を持って来よう。,C,C,C,C,C,B,C,D,73
,127,初級2B,N4,渡邊安澄,1604067,高 延,体調不良や金銭的な問題で休みがちで、授業にも集中していないこともあった。少しだが前期よりは伸びている。,B,B,C,C,B,C,C,C,73
,127,初級2B,N4,渡邊安澄,1604136,胡  家馨,当初は遅刻が目立ったが、改善した。目的意識があり、表記や文法も大雑把だったが、改善し、努力が認められる。,B,C,C,B,A,B,B,B,83
,127,初級2B,N4,渡邊安澄,1604173,張　文馨,とにかく遅刻が目立つのが残念である。目的意識があり、授業は真面目に取り組んでおり、文法も定着している。,B,B,B,C,B,B,B,B,83
,127,初級2B,N4,渡邊安澄,1604189,郭  廷展,休まず、真面目に学校へ来ていた。積極的ではないが与えられた課題をこなし、習ったことが着実に定着してきている。,B,B,B,B,B,A,B,B,99
,127,初級2B,N4,渡邊安澄,1604259,SAUD SURESH SINGH,真面目な性格で、学習態度もよいが、表記、基礎が不十分で成績の伸びがよくない。漢字は少しずつ毎日練習しよう。,C,C,B,B,B,B,B,D,97
,127,初級2B,N4,渡邊安澄,1607024,郭 宣蓉,目的意識がある真面目な学生で、与えられた課題をきちんとこなし、いい成績を収めることができた。,A,A,B,B,B,A,A,A,100
,127,初級2B,N4,渡邊安澄,1607037,杜 佳威,明るく真面目な学生で授業態度もよいが、基礎が不十分で成績が振るわなかった。復習をきちんとしたら絶対に伸びる。,C,C,C,C,C,B,B,D,99
,127,初級2B,N4,渡邊安澄,1607041,裴 知秋,真面目な性格で、与えられた課題はきちんとこなし良い成績を収めることができた。,A,A,A,A,A,A,A,A,100
,127,初級2B,N4,渡邊安澄,1607053,周 安然,真面目で明るい学生。マイペースでたまに授業に集中していないこともあるが、目的意識、学習意欲は持っている。,A,B,A,B,A,A,B,A,97
,127,初級2B,N4,渡邊安澄,1607065,叶　奔,明確な目的意識があり、四技能とも力がある学生だが、授業では集中していないことがあり、宿題も出さない。やればできる。,A,A,C,A,A,B,B,A,100
,127,初級2B,N4,渡邊安澄,1607069,梁　夢詩,学習意欲は高いが、休みが多い。このままでは進路に影響が出るので、来期は体調管理をして休まず来てほしい。,B,B,B,B,B,B,C,C,56
,127,初級2B,N4,渡邊安澄,1607092,周　一倩,穏やかで真面目な学生で、遅刻も改善した。授業以外のことに集中していることもあるが、明確な目的意識がある。,A,B,B,A,A,A,A,A,96
,127,初級2B,N4,渡邊安澄,1607093,呂　金釗,真面目で目的意識のある学生で、コツコツと課題に取り組んでいる。会話など習ったことが使える機会が増えるとなおよい。,B,B,B,B,B,A,A,A,100
,127,初級2B,N4,渡邊安澄,1607094,李　想,真面目な学生で積極的ではないが、授業態度もいい。が、基礎が不十分で成績が振るわなかった。復習をきちんとしよう。,C,C,C,C,C,B,B,C,100
,127,初級2B,N4,渡邊安澄,1607110,SULOCHANA　NHISUTU,真面目な性格で、課題もこなし、授業態度もよいが、漢字が厳しくなってきた。漢字は少しずつ毎日練習しよう。,C,B,C,B,B,B,A,B,98
,127,初級2B,N4,渡邊安澄,1610016,汪　炫佚,大人しいが、真面目な性格で、与えられた課題はきちんとこなしていた。会話の機会が増えたら、もっと伸びると思う。,A,B,B,A,B,B,A,B,100
,127,初級2B,N4,渡邊安澄,1610020,闫　東明,真面目でユーモアのある学生。他の学生のフォローもしていた。授業態度もよく、良い成績を収めることができた。,A,A,B,A,A,A,A,A,100
,127,初級2C,N4,今泉眞奈美,1604012,陳　立志,毎日出席するようになり、授業も真面目に受けていた。目標をしっかり持っているので、実現してほしい。,C,B,C,D,B,B,B,B,86
,127,初級2C,N4,今泉眞奈美,1604020,羅　涵杏,とても真面目で、授業態度も良い。毎日日記をつけるなど努力家である。後半、疲れ気味だったので、体調に留意してほしい。,B,B,A,B,A,A,A,A,97
,127,初級2C,N4,今泉眞奈美,1604069,史　錦華,とても真面目で、宿題なども欠かさずやってくる。JLPTの勉強も一生懸命やっていた。応用力がつくとなおよい。,B,A,B,C,A,A,A,A,99
,127,初級2C,N4,今泉眞奈美,1604152,殷  弘睿,体調面が心配されたが、後半きちんと出席できた。JLPTの期末はよくできていて実力はあるので、今後も毎日学校へ来てほしい。,B,D,A,A,B,B,C,B,79
,127,初級2C,N4,今泉眞奈美,1604169,張　夢彤,真面目によく取り組んでいたが、もう少し基礎固めをしたほうが良いと思われる。復習に力を入れてほしい。,D,D,D,B,C,C,B,D,91
,127,初級2C,N4,今泉眞奈美,1604172,蘭　慧良,出席が心配されるときもあったが、最後まできちんと頑張った。目標を明確にして、基礎固めをして頑張ってもらいたい。,D,D,C,D,D,B,C,D,80
,127,初級2C,N4,今泉眞奈美,1604188,何　恩寧,クラスを盛り上げて、皆を引っ張ってくれた。明るい真面目な性格で、熱心に取り組むことができた。,A,A,A,B,A,A,A,A,96
,127,初級2C,N4,今泉眞奈美,1604192,白  于郊,真面目で熱心に授業に取り組んでいた。定着するまでに、時間がかかるので、復習を頑張ってほしい。,D,D,D,C,C,C,A,D,93
,127,初級2C,N4,今泉眞奈美,1607007,侯 舒瑜,とても真面目で、クラスのリーダー的存在である。読書が好きで、様々な本を読んでいる。今後日本語の本にも挑戦してほしい。,A,A,B,A,A,A,A,A,99
,127,初級2C,N4,今泉眞奈美,1607008,楊 力為,明るい性格で授業に主体的に取り組むことができた。目標に向けて、努力を続けてほしい。,A,A,A,A,A,A,A,A,97
,127,初級2C,N4,今泉眞奈美,1607017,呉　聆雪,自分の目標が明確で、何事も確実に実行する。日本語以外にも美術館へ通うなどとても熱心である。,A,A,B,C,B,B,A,B,98
,127,初級2C,N4,今泉眞奈美,1607023,楊　禛,字がきれいで、とても読みやすい。電子工学に興味があり、目標が明確である。ただ、宿題はきちんと出すようにしてほしい。,B,A,D,D,B,B,C,C,96
,127,初級2C,N4,今泉眞奈美,1607027,張　銘芳,頭脳明晰で、言葉に対する感受性が高い。広告会社への就職を希望している。そこでの活躍を期待したい。,A,A,A,A,A,A,A,A,100
,127,初級2C,N4,今泉眞奈美,1607029,郭  栩材,明るく、ユーモアのある性格である。途中、疲れ気味だったので、生活を整えて、目標を実現してほしい。,B,B,B,D,B,B,C,C,100
,127,初級2C,N4,今泉眞奈美,1607030,沈 怡静,目標が明確で、努力家である。情報を集めて行動する力も持っている。これからも真面目に取り組んでほしい。,A,B,C,A,B,B,A,B,98
,127,初級2C,N4,今泉眞奈美,1607051,魯　玲言,一生懸命取り組んでいたが、理解するまでに時間がかかってしまう。具体的な目標をもって、努力を続けてほしい。,D,D,C,D,D,C,B,D,99
,127,初級2C,N4,今泉眞奈美,1607111,RAJESH　KOJU,目標が明確で、実現に向けて頑張っている。漢字もよく勉強していた。話すのが好きで、得意である。,C,A,D,A,A,C,B,B,98
,127,初級2C,N4,今泉眞奈美,1610021,馬　藝銘,小説が好きで、色々な本を読んでいて、語彙が豊富である。目標も明確で、実現に向けて努力を続けてほしい。,A,A,D,A,A,B,A,B,100
,127,初級2C,N4,今泉眞奈美,9916027,PRIYANKA SHRESTHA,学校と家庭と仕事の三つをこなしている。忙しいのによく努力していた。体に気を付けて頑張ってほしい。,C,A,D,A,B,A,A,B,79
,127,初級2D,N4,細見綾子,1507016,姚 丽娜,学習意欲にかけ、授業にも参加しようという姿勢がほとんど見られず、成績も全く伸びなかった。,D,D,D,D,D,F,D,D,81
,127,初級2D,N4,細見綾子,1604075,郭 芳竹,与えられた課題はきちんとこなしていたが、授業中日本語以外のことに集中してしまうこともあった。聴読解に課題がある。,B,A,D,D,C,A,B,B,100
,127,初級2D,N4,細見綾子,1604084,付　建銘,授業中の積極的発言は良いが、私語も多い。期の後半は課題に真面目に取り組み良い成績が収められた。遅刻欠席が目立つ。,A,A,D,C,B,C,B,B,82
,127,初級2D,N4,細見綾子,1604105,邱 佳成,遅刻が目立ち、成績も伸びなかったが、与えられた課題はきちんとこなしていた。聴解力が弱く会話も苦手である。,C,C,D,D,C,B,B,C,90
,127,初級2D,N4,細見綾子,1604112,王 珍,期の半分は欠席で、授業中も集中していないことが多く、成績がふるわなかった。授業態度が悪い。,D,D,D,D,C,F,D,D,72
,127,初級2D,N4,細見綾子,1604167,陳　偉東,授業中、日本語以外に集中していることが多く、成績があまり伸びなかった。今後真面目に取り組めば伸びる力は持っている。,C,C,D,C,C,C,C,C,86
,127,初級2D,N4,細見綾子,1604194,張　楚奇,休みがちで、授業中、集中していないこともあったが、期の後半は真面目に取り組む姿勢が見られ、成績も少し伸びた。,D,C,D,C,C,C,C,C,81
,127,初級2D,N4,細見綾子,1604222,呉　晨曦,真面目な性格で、与えられた課題はきちんとこなしていた。性格が明るくコミュニケーション能力は比較的高い。,B,A,D,B,B,A,A,B,100
,127,初級2D,N4,細見綾子,1607001,沈 欣栄,真面目で与えられた課題をきちんとこなし、良い成績を収められたが、やや積極性に欠ける。聴解力が弱い。,A,A,A,C,C,A,B,B,100
,127,初級2D,N4,細見綾子,1607015,胡 源青,真面目な性格だが、内気でもあり、積極性に欠けたが、授業態度はよく、与えられた課題もきちんとこなしていた。,B,A,D,B,C,A,A,B,95
,127,初級2D,N4,細見綾子,1607031,麻 越琳,真面目で、授業にも、与えられた課題にもしっかり取り組んでいた。文章を書く力はあるが、聴解力が弱い。,B,A,B,C,C,A,A,B,97
,127,初級2D,N4,細見綾子,1607038,李 雨霏,真面目な性格で、目標に向かって努力している。語彙も豊富でコミュニケーション能力は高い。,A,A,C,B,A,A,B,B,91
,127,初級2D,N4,細見綾子,1607056,程　序,真面目な性格で、学習意欲もあり、積極的に取り組んだ。しかし、読解・会話が苦手である。苦手なことを避ける傾向が強い。,A,A,D,B,C,B,B,B,99
,127,初級2D,N4,細見綾子,1607079,胡　佩瑶,理解力に優れる上に積極的に学習に取り組む優等生である。真面目で素直な性格で、今後も更なる伸びが期待できる。,A,A,B,B,A,A,A,A,97
,127,初級2D,N4,細見綾子,1607100,PHAM QUOC TOAN,真面目で、与えられた課題は工夫してこなしていたが、自宅学習が不十分で成績がふるわなかった。会話も苦手である。,D,C,D,D,D,C,B,C,92
,127,初級2D,N4,細見綾子,1607106,PRAJWOL SHRESTHA,理解力は優れているが、遅刻が目立ち、授業に集中していないことが多かった。今後、真面目に取り組めば更に伸びる。,C,A,D,B,B,B,C,C,92
,127,初級2D,N4,細見綾子,1610004,季　豊裕,真面目で授業態度もとても良く、与えられた課題もきちんとこなし、良い成績を収めた。しかし、聴解力が弱く、会話も苦手である。,A,A,C,C,C,A,A,B,100
,127,初級2D,N4,細見綾子,1610025,劉　藝達,授業中、集中していないことがあったが、与えられた課題はきちんとこなしていた。コミュニケーション能力は高い。,B,B,B,C,B,A,B,B,95
,127,初級2D,N4,細見綾子,9916020,李　勇,授業中の積極的発言は良いが、私語も多い。学習したことが定着せず、試験の成績はふるわなかった。読解、聴解力ともに弱い。,C,C,D,D,C,C,B,C,95
,127,初級2E,N4,加藤淳,1604039,鄭　凱元,積極的に発話する、ムードメーカ的な存在。授業によく参加しているが、文法が苦手なので、丁寧に積み重ねて欲しい。,D,D,D,C,C,D,C,Ｄ,92
,127,初級2E,N4,加藤淳,1604054,劉　奕岑,明るい人柄で目標もしっかりしているが、日本語の定着はあまり進んでいない。日本語を使う意欲を持って欲しい。,D,D,C,D,D,C,D,Ｄ,95
,127,初級2E,N4,加藤淳,1604090,曹　偉,丁寧に学習に取り組んでおり、学習したことがきちんと定着している。発話が多くなれば、さらによい。,B,A,C,C,C,B,A,Ｂ,93
,127,初級2E,N4,加藤淳,1604101,于 晨,時々集中できていないときがあり、ケアレスミスが見られる。練習にはよく参加している。,B,B,D,C,C,C,B,Ｃ,99
,127,初級2E,N4,加藤淳,1604185,李  昕雨,休みがちなところが気にかかる。学習に集中できるよう、生活に気をつけて欲しい。,D,D,D,C,D,D,C,Ｄ,82
,127,初級2E,N4,加藤淳,1604231,李 曲,活用や語彙がやや苦手だが、授業には意欲的に取り組んでいる。授業への取り組みや成績は悪くないので、今後精度を高めてほしい。,B,A,A,C,B,B,A,Ａ,100
,127,初級2E,N4,加藤淳,1604232,任 佳敏,成績、授業態度、ともに良好。積極的に学習に取り組む姿勢が見られる。まれにぼんやりしていることがある。,A,A,C,C,B,A,A,Ａ,92
,127,初級2E,N4,加藤淳,1604255,RAI YUNISHA,表現力が豊かで発話も多い。授業にもよく参加しているが、テストの成績はもう少し。語彙を増やしていくことが必要。,D,C,D,C,C,C,B,Ｃ,97
,127,初級2E,N4,加藤淳,1607010,陳　启夢,休みがちでやや遅れぎみ。語彙や文法の知識の蓄積があるので、休まず授業に参加してほしい。,C,C,A,B,C,C,C,Ｃ,77
,127,初級2E,N4,加藤淳,1607022,孫　浩然,普段は静かに勉強しているが、分からないところを質問するなど、授業への取り組みも良好。休みがちな所が惜しい。,A,A,A,A,A,B,A,Ａ,83
,127,初級2E,N4,加藤淳,1607032,呉　謙,自分のペースで学習している。意欲は感じられるので、授業での口頭練習にもこれまで以上に参加してもらいたい。,B,B,D,B,C,B,B,Ｂ,82
,127,初級2E,N4,加藤淳,1607036,張　雪睿,おとなしくマイペース。練習では、指名すれば答えるが、時々集中できていないので、授業への参加が増えるといい。,C,C,C,D,D,C,D,Ｄ,93
,127,初級2E,N4,加藤淳,1607055,張　清越,授業への取り組みや発話が積極的で、自分から日本語を使おうという意識が感じられる。目標もしっかりしている。,A,A,C,B,A,A,A,Ａ,98
,127,初級2E,N4,加藤淳,1607060,蒋　英豪,発話や練習でミスが多少見られるが、自分で気がつき修正することができる。まじめに取り組んでおり、成績も良好。,B,A,C,B,B,B,A,Ｂ,99
,127,初級2E,N4,加藤淳,1607064,陳　嘉尚,語彙・文法の知識量が多い。授業への取り組みもしっかりしている。読み書きは良好。発音に気をつければさらによくなる。,A,A,A,B,A,A,A,Ａ,100
,127,初級2E,N4,加藤淳,1607098,NGUYEN THI NGOC DIEP,会話や作文などで、発信しようという意欲を感じる。文法や語彙が記憶に定着していないようなので、覚える練習をして欲しい。,C,D,D,C,C,C,B,Ｃ,96
,127,初級2E,N4,加藤淳,1610052,BOZKUS　LADIN,コツコツとよく勉強している。漢字を含めて学習した内容をよく理解している。物静かだが、会話も良好。,A,A,C,B,A,B,A,Ａ,95
,127,初級2F,N4,渡辺真帆,1604048,王 翕,わからないところを積極的に解決しようとする態度がすばらしい。真面目に取り組み、安定した成績を残した。,A,A,B,A,B,B,A,B,100
,127,初級2F,N4,渡辺真帆,1604068,惠 如雪,真面目に努力している。文法理解で不確かな部分を整理し、基礎をしっかり固めたい。,D,D,C,C,D,C,A,C,94
,127,初級2F,N4,渡辺真帆,1604116,李　陽,積極的な発言は少ないが、真面目に取り組んでいる。今期は頑張って、良い成績を残した。,A,A,C,B,B,B,A,B,99
,127,初級2F,N4,渡辺真帆,1604145,張　加儀,授業中、集中力に欠けることがたびたびあった。基礎部分をしっかり固めて次のステップに進みたい。,C,C,C,B,C,B,C,C,93
,127,初級2F,N4,渡辺真帆,1604190,姜  超,今期は真面目な取り組みで好成績を残した。来期からもこの調子で頑張ってほしい。,A,A,C,C,B,A,A,B,100
,127,初級2F,N4,渡辺真帆,1604258,GAUTAM DILLI PRASAD,つかれて、授業に集中できないこともあった。家庭学習をしっかりして、定着をはかりたい。漢字も頑張ってほしい。,D,D,D,C,C,B,B,D,98
,127,初級2F,N4,渡辺真帆,1607014,景　燁,授業態度も良く、真面目に課題をこなし、良い成績を収めた。積極的に日本語の発話をすることで会話力も伸びるだろう。,A,A,C,A,C,A,A,A,98
,127,初級2F,N4,渡辺真帆,1607019,程 嘉琳,クラスメートとも日本語でコミュニケーションを取ろうとする姿勢がすばらしい。もう一歩、安定した結果を残したい。,A,B,A,B,B,A,B,B,94
,127,初級2F,N4,渡辺真帆,1607033,湯　桑,自分のペースを崩さず、真面目な授業態度でしっかり学習に取り組んできた。発話の機会をもう少し増やしたい。,A,A,A,C,C,A,A,A,97
,127,初級2F,N4,渡辺真帆,1607048,劉　洋,丁寧にきっちり課題をこなした。書く力があり、作文や日記などのすばらしい文章が書けた。会話力も高めたい。,A,A,C,C,B,A,A,B,100
,127,初級2F,N4,渡辺真帆,1607058,王 艺淞,応用力があり、安定した成績を収めた。明るく、コミュニケーション力もある。授業中の集中力を高めたい。,A,A,C,A,A,B,B,B,85
,127,初級2F,N4,渡辺真帆,1607072,陳　劭言,聴解・会話力はあるが、丁寧な表現と態度を心がけたい。授業中の集中力、家庭学習をきちんとこなすことが望まれる。,B,B,C,C,A,B,C,B,90
,127,初級2F,N4,渡辺真帆,1607073,呉　塵,時々集中力に欠けることがある。家庭学習が不十分なために、定着するのが難しかった。,D,C,D,C,C,C,C,D,92
,127,初級2F,N4,渡辺真帆,1607078,程　厳,取り組みに波がある。継続的な家庭学習を習慣にしたい。後半は努力の跡がうかがえた。,B,B,B,C,C,B,B,C,100
,127,初級2F,N4,渡辺真帆,1607084,張　政,理解力があり、安定した取り組みで良い成績を収めた。発話機会を増やし、会話力をさらに高めたい。,A,A,B,B,B,A,A,A,95
,127,初級2F,N4,渡辺真帆,1607102,NGUYEN THI HONG ,漢字も努力していることがうかがえる。家庭学習を習慣付けて、定着をはかりたい。,D,C,D,D,D,B,B,D,91
,127,初級2F,N4,渡辺真帆,1607105,ABIN　GOPALI,漢字の読みだけでももう少し努力ができそうだ。真面目に課題をやっているので、継続的な家庭学習を期待したい。,D,C,D,D,C,B,A,C,98
,127,初級2F,N4,渡辺真帆,1610032,馬　暁瑩,理解力があるので、もう少し丁寧に学習することで成績もさらに伸びると思われる。発話も日本語でどんどんしてほしい。,A,A,B,B,B,A,A,A,100
,127,初級2F,N4,渡辺真帆,9916025,張　正驍,日本語のセンスはあるので、当校でもう少し腰を落ち着けて学習に取り組んでほしかった。,F,F,F,F,C,C,C,D,
,127,初級2G,N4,工藤直人,1501048,程   昊,授業中、集中していないことがあり成績が振るわなかった。,F,F,F,F,F,F,F,F,85
,127,初級2G,N4,工藤直人,1604028,来　守慧,真面目な性格で授業態度もよく、自宅学習もきちんとしていることもあり成績が伸びてきている。,B,B,D,B,C,C,A,B,98
,127,初級2G,N4,工藤直人,1604077,李　天聡,真面目な性格で授業態度もよく、自宅学習もきちんとしていることもあり成績が伸びてきている。,A,A,C,B,C,B,A,B,94
,127,初級2G,N4,工藤直人,1604091,郝 玉輝,授業中、集中していないことがあり成績が振るわなかった。目標にも迷いが見られ定着していない。,D,D,D,D,D,C,C,D,87
,127,初級2G,N4,工藤直人,1604139,劉　志航,真面目な性格で授業態度もよく、自宅学習もきちんとしていることもあり成績が伸びてきている。,B,B,B,B,B,C,A,B,96
,127,初級2G,N4,工藤直人,1604141,黄  佳怡,真面目な性格で授業態度もよく、自宅学習もきちんとしていることもあり成績が伸びてきている。,B,A,B,B,C,C,A,B,87
,127,初級2G,N4,工藤直人,1604143,鄭　然,真面目な性格で、目標に向かって努力している。弱点だった記述も徐々に良くなっている。,B,B,C,A,C,C,A,B,95
,127,初級2G,N4,工藤直人,1607012,呂　音,努力家で授業態度もよく、与えられた課題もきちんとこなし良い成績を収めることができた。,B,A,A,B,A,B,A,A,98
,127,初級2G,N4,工藤直人,1607025,陳　孟影,努力家で授業態度もよく、与えられた課題もきちんとこなし良い成績を収めることができた。,A,A,A,B,B,B,A,A,99
,127,初級2G,N4,工藤直人,1607035,徐 敏,努力家で授業態度もよく、良い成績を収めることができた。また、語彙も豊富でコミュニケーション能力も高い。,A,A,B,B,A,C,A,A,98
,127,初級2G,N4,工藤直人,1607040,王 楠,真面目な性格で、学習態度もよく、与えられた課題にも積極的に参加した。徐々に伸びてきている。,B,A,A,A,B,D,C,B,89
,127,初級2G,N4,工藤直人,1607061,趙　翔飛,真面目で授業態度もよく、与えられた課題にも工夫しながら積極的に参加した。,C,C,D,D,C,C,A,C,86
,127,初級2G,N4,工藤直人,1607087,楊　丞博 ,真面目な性格で、与えられた課題にも積極的に取り組んだ。学習意欲が高く、明るい学生である。,A,B,C,B,C,C,A,B,95
,127,初級2G,N4,工藤直人,1607088,徐　天蝉,真面目な性格で、学習態度もよく、与えられた課題にも積極的に参加した。徐々に伸びてきている。,A,B,C,C,C,C,A,B,91
,127,初級2G,N4,工藤直人,1607099,NGUYEN NGOC HOA ,授業中、集中していないことがあり成績が振るわなかった。目標にも迷いが見られ定着していない。,D,C,D,D,C,C,C,C,84
,127,初級2G,N4,工藤直人,1607101,NGUYEN THI THU HANG,真面目な性格で、目標に向かって努力している。弱点だった記述も徐々に良くなっている。,C,B,D,B,C,C,A,B,92
,127,初級2G,N4,工藤直人,1607115,DAL　BAHADUR　MAJHI,真面目な性格で、学習態度もよいが、基礎が不十分なこともあり成績の伸びがよくない。,D,C,D,D,C,C,B,C,93
,127,初級2G,N4,工藤直人,1607119,李  季修,集中して取り組むことが苦手だったが、与えられた課題はこなすことができた。コミュニケーション能力は高い。,B,B,C,A,A,D,B,B,89
,127,初級2G,N4,工藤直人,1610026,呉　比,集中して取り組むことが苦手だったが、与えられた課題はこなすことができた。コミュニケーション能力は高い。,B,B,B,B,B,C,A,B,97
,127,初級2H,N4,天野　香,1604063,李 婷,授業態度、課題の提出など真面目に頑張っているが、聴解、会話が苦手なので積極的に話すようにしてもらいたい。,B,B,D,D,D,A,B,B,100
,127,初級2H,N4,天野　香,1604073,李　嘉輝,授業態度は良くないが、会話能力があり日本語で説明しようとする意欲が感じられる。期末テストは努力の跡が見られる。,B,B,D,A,A,B,C,C,85
,127,初級2H,N4,天野　香,1604092,田 博文,9か月在籍しているにもかかわらず、学習意欲が無いので、初級１の学習文型 をほとんど理解していない。,D,D,D,C,D,C,C,D,88
,127,初級2H,N4,天野　香,1604106,衛　藝雯,授業態度は真面目で、今期はなんとか初級２の授業についてこられたが、今後自宅学習を増やす必要がある。,C,B,B,B,A,A,A,B,99
,127,初級2H,N4,天野　香,1604168,張　添雅,授業中のケータイ使用が目立ち、学習意欲が感じられない。留学の目的もはっきりしないので進路を真剣に考えること。,D,C,C,C,C,C,D,D,83
,127,初級2H,N4,天野　香,1604178,馬　雨欣,遅刻、欠席が多かったので授業についてこられないことも多かったが、会話、聴解は得意でよく理解している。,C,C,C,B,A,C,C,C,83
,127,初級2H,N4,天野　香,1604181,王  啸,今期は前期と比べて非常に良い成績を収めたが、課題を提出しないのが難点。今後も真面目に努力することが必要。,A,A,D,A,B,A,Ｃ,B,100
,127,初級2H,N4,天野　香,1604200,呉　格格,真面目な性格で本人なりの努力の跡が見られる。会話が苦手なので積極的に話すようにしてもらいたい。,C,B,D,C,C,B,B,B,98
,127,初級2H,N4,天野　香,1604202,周  洋,誠実な人柄ではあるが友達の影響からか授業態度はあまり良くない。理解力はあるので今後は会話の練習が必要。,C,B,D,A,C,A,C,C,100
,127,初級2H,N4,天野　香,1604252,SHRESTHA MANISH LAL,授業態度は真面目で、アルバイトで忙しい生活の中でも努力している。文字語彙さえ克服できれば成績が上がる可能性あり。,D,B,C,A,B,B,A,B,96
,127,初級2H,N4,天野　香,1607028,李　鍇,授業態度は真面目で、勉強のやり方をよく分かっている。今後もこの調子で目的に向かって努力して欲しい。,A,A,C,B,B,A,A,A,94
,127,初級2H,N4,天野　香,1607052,曹　奕涵,授業態度は真面目で、積極的に参加し、成績も良い。日本文化を楽しむ意欲もある。今後もこの調子で頑張って欲しい。,B,B,A,A,A,A,A,A,100
,127,初級2H,N4,天野　香,1607057,霍　晟,欠席、遅刻を繰り返したため成績が下がってきている。生活習慣を改善し、真面目に授業に参加することが最大の課題である。,C,C,C,B,C,C,D,C,80
,127,初級2H,N4,天野　香,1607086,肖　笛,授業態度は真面目で、会話能力もあり、地道に努力している。細かい文法のミスに注意すればもっと成績が上がる可能性あり。,B,B,D,A,B,B,A,A,97
,127,初級2H,N4,天野　香,1607089,張　文博,授業態度は真面目で、積極的に参加し、成績も良い。明確な目標に向かって努力している。,B,B,B,B,A,A,A,A,100
,127,初級2H,N4,天野　香,1607095,叶　金磊,授業態度は真面目で、積極的に参加し、目標に向かって努力している。会話が少し苦手だが徐々に克服してきている。,A,A,C,A,B,A,A,A,98
,127,初級2H,N4,天野　香,1607104,REENA MAHARJAN,授業態度は真面目で、漢字の習得も努力しているが、書く力が弱いので更に自宅学習を増やす必要がある。,C,B,D,C,C,B,A,B,98
,127,初級2H,N4,天野　香,1610037,方　霖穎,日本の文化に興味があり日本語でのコミュニケーション能力が高い。表記のケアレスミスに注意すると、もっと成績が良くなる。,B,B,B,B,A,A,B,A,91
,127,初級1C,N5,永塚和英,1604018,孫 楊,真面目な性格で今回は進級に向けて、しっかり勉強していた。発言も多く、口頭練習もしっかり行う。,A,B,A,B,B,D,A,B,82
,127,初級1C,N5,永塚和英,1604052,汪 順意,集中力がなく、私語が多い。表記に課題があったが、今期改善されてきた。今後は会話力の向上が課題である。,B,B,A,B,C,B,C,B,87
,127,初級1C,N5,永塚和英,1604086,馬 峰,携帯電話の使用が多く、授業に集中していないことが多い。成績も伸びなかった。,D,D,C,D,D,D,D,D,85
,127,初級1C,N5,永塚和英,1604113,孟 宪利,聴解が苦手で、先生の話が理解できないことがある。与えられた課題はやるが、集中力は続かない。,D,D,C,D,D,D,C,D,80
,127,初級1C,N5,永塚和英,1604144,呉 潔,目標に向けて頑張るが、家庭学習が不十分のため、成績が伸びなかった。,C,D,B,B,D,D,B,C,90
,127,初級1C,N5,永塚和英,1604209,朱 皓軒,集中力が続かないが、課題はしっかり行う。会話力が乏しいため、今後練習を重ねる必要がある。,B,B,A,B,C,B,B,B,81
,127,初級1C,N5,永塚和英,1604228,李 云階,真面目で落ち着いた性格で、与えられた課題はきちんとこなし、よい成績を収めることができた。,A,A,B,B,B,B,A,A,99
,127,初級1C,N5,永塚和英,1604254,THAPA MIRA,集中力がなく、授業への参加にもムラがある。家庭学習がないため、今期も進級できなかったので、来期は頑張ってほしい。,D,D,C,D,C,C,D,D,91
,127,初級1C,N5,永塚和英,1607013,袁 帥,集中力はあまりないが、課題にしっかり取り組み、積極的に授業に取り組んでいた。,A,A,A,B,A,A,B,A,87
,127,初級1C,N5,永塚和英,1607020,李 海菡,授業中、集中していないことが多々あり、成績は振るわなかった。おおらかな性格で、進学に向けて行動力はある。,C,C,A,B,C,D,C,C,81
,127,初級1C,N5,永塚和英,1607085,王 哲,集中力がなく、授業にもあまり参加しない。家庭学習もあまりせず、成績はあまり伸びなかった。,C,C,C,C,C,C,C,C,84
,127,初級1C,N5,永塚和英,1607107,MEGHA NATH POKHAREL,授業では積極的に発言をし、出席率も良好である。しかし、家庭学習がないため、成績が振るわなかった。漢字の学習も必要である。,D,D,C,D,C,D,B,D,98
,127,初級1C,N5,永塚和英,1607108,RAMESH PRASAD SILWAL,真面目な学生で、与えられた課題もしっかりこなす。しかし、家庭学習が少なく、もう一歩のところで進級できなかった。,D,C,C,C,B,B,B,C,96
,127,初級1C,N5,永塚和英,1607109,SUDAN RAI,会話力は他の学生より高いが、家庭学習や宿題などをあまりやらず、成績が振るわなかった。,D,C,C,C,B,C,C,C,99
,127,初級1C,N5,永塚和英,1607113,KANCHAN GURUNG,授業中寝ていることが多いが、起きているときは、先生の話をしっかり聞いている。来期からは改善するよう頑張ってほしい。,C,B,C,D,C,C,D,C,98
,127,初級1C,N5,永塚和英,1607114,SARADA GIRI,集中力がなく、授業にも参加しないことが多い。漢字の学習も含め、今後は家庭学習を増やす必要がある。,D,D,C,D,C,D,D,D,98
,127,初級1C,N5,永塚和英,1607117,KARIMOV AMIR,真面目な学生で、性格も明るい。自分の作業が終わるまで、教師の話を聞かないことがあるので、今後改善する必要がある。,D,D,C,D,D,D,C,D,94
,127,初級1C,N5,永塚和英,1607118,KARIMOV SHEKHROZ,書くスピードが遅く、授業スピードについて来られないときがある。今後は漢字も含め、表記を重点的に学習する必要がある。,D,D,D,C,C,C,C,D,93
,127,初級1C,N5,永塚和英,9916023,THAPA RAJ KUMAR,集中力は続かないが、会話力が高く、真面目な学生である。与えられた課題もしっかりと行う。今後は漢字の学習も頑張ってほしい。,C,B,C,B,A,D,C,B,100
,127,初級1C,N5,永塚和英,9916024,高橋 順子,期末試験前に退学したため、評価不可。,F,F,F,F,D,F,F,F,85
,127,初級1C,N5,永塚和英,1610035,劉 文萍,日本に来るのが遅く、会話力があまりないが、成績は悪くない。本人の希望により、初級１を再履修。,C,C,B,B,D,A,B,B,
