¡`Pbg
https://www.chatwork.com/#!rid50257045-943774360009744384

¡ÎÛ
1707083 ¯ç \EQ ZHUANGYAN
--------------------
SELECT person.* FROM person
inner join student on student.person_id = person.id
WHERE student_no in (
1707083
);
--------------------
id		last_name	first_name	last_name_kana	first_name_kana
1419	¯			ç			\E			Q
--------------------

¡pb`pSQL
update person set last_name_kana='VE', first_name_kana='K', lastup_account_id=2000, lastup_datetime=now() where id=1419;