﻿出力月,クラス名,学籍番号,名前,フリガナ,アルファベット,授業時間（コマ数）,欠席した時間（コマ数）,遅刻/早退の回数（コマ数）,出席した時間（コマ数）,欠席日数
2017/11,大学院2A,1604010,鄭瑞江,テイズイコウ,ZHENGRUIJIANG,72,0,0,72,0
2017/11,中上級2A,1604014,王画,オウカク,WANGHUA,72,8,3,63,2
2017/11,大学2B,1604034,叶遠舟,ヨウエンシュウ,YEYUANZHOU,72,22,7,48,4
2017/11,大学2B,1604038,牟娟,ムケン,MOUJUAN,72,9,2,63,2
2017/11,大学3美大,1604044,杜超杰,トチョウケツ,DUCHAOJIE,72,24,0,48,6
2017/11,大学院2B,1604055,劉明研,リュウメイケン,LIUMINGYAN,72,0,0,72,0
2017/11,中級2A,1604161,潘駿晨,ハンシュンシン,PANJUNCHEN,20,20,0,0,5
2017/11,上級1A,1604166,何潔怡,カケツイ,HEJIEYI,72,4,4,67,1
2017/11,大学2A,1604183,呉亭薇,ゴテイビ,WUTINGWEI,72,0,0,72,0
2017/11,大学2A,1604204,栄雨婷,エイウテイ,RONGYUTING,72,0,1,72,0
2017/11,大学院2B,1604227,賀雪豊,ガセツホウ,HEXUEFENG,72,6,6,64,1
2017/11,中上級2A,1604234,陳佳元,チンカゲン,CHENJIAYUAN,72,8,4,63,0
2017/11,大学3A,1604240,余嘉怡,ヨカイ,YUJIAYI,72,16,1,56,3
2017/11,中級2B,1604015,郭蕾,カクライ,GUOLEI,20,16,1,4,4
2017/11,大学院2A,1604017,盧舒虹,ロジョコウ,LUSHUHONG,72,0,0,72,0
2017/11,大学3美大,1604029,陳昱宏,チンイクコウ,CHENYUHONG,72,12,0,60,3
2017/11,大学院2A,1604037,程思雨,テイシウ,CHENGSIYU,72,0,0,72,0
2017/11,大学2B,1604066,曽思韵,ソシイン,ZENGSIYUN,72,26,4,45,5
2017/11,中級2B,1604118,孟思雨,モウシウ,MENGSIYU,72,22,0,50,4
2017/11,初中級B,1604128,劉夢奕,リュウムエキ,LIUMENGYI,72,13,3,58,2
2017/11,大学院2A,1604131,巩妤,キョウヨ,GONGYU,72,18,0,54,4
2017/11,大学3A,1604134,宋承達,ソウショウタツ,SONGCHENGDA,72,20,1,52,4
2017/11,中上級2A,1604162,盧俊杰,ロシュンケツ,LUJUNJIE,72,0,0,72,0
2017/11,中上級2A,1604171,王嘉懿,オウカイ,WANGJIAYI,72,8,0,64,2
2017/11,中上級1A,1604195,魏全麗,ギゼンレイ,WEIQUANLI,72,4,0,68,0
2017/11,中級2B,1604008,丁子桐,テイシトウ,DINGZITONG,72,21,1,51,5
2017/11,中上級1A,1604040,謝明星,シャメイセイ,XIEMINGXING,72,16,5,55,3
2017/11,中級2B,1604056,李晶晶,リショウショウ,LIJINGJING,72,8,0,64,2
2017/11,大学2A,1604072,邢哲玮,ケイテツイ,XINGZHEWEI,72,10,4,61,1
2017/11,大学2A,1604100,宮静,キュウセイ,GONGJING,72,10,1,62,2
2017/11,中上級1A,1604107,宣迎雁,センゲイガン,XUANYINGYAN,72,0,0,72,0
2017/11,中上級1A,1604109,马焱钊,バエンショウ,MAYANZHAO,72,0,0,72,0
2017/11,大学2A,1604117,馬鵬飛,バホウヒ,MAPENGFEI,72,18,0,54,4
2017/11,大学2A,1604125,楊嘉宝,ヨウカホウ,YANGJIABAO,72,37,3,34,8
2017/11,大学2美大,1604133,計舒旻,ケイジョビン,JISHUMIN,72,15,0,57,3
2017/11,大学2美大,1604184,張維,チョウイ,ZHANGWEI,72,20,1,52,5
2017/11,大学3A,1604002,郝琳,カクリン,HAOLIN,72,0,0,72,0
2017/11,大学2A,1604023,李若蘭,リジャクラン,LIRUOLAN,72,8,0,64,2
2017/11,大学院3A,1604031,周盼,シュウハン,ZHOUPAN,72,0,0,72,0
2017/11,中上級1A,1604033,趙柄宇,チョウヘイウ,ZHAOBINGYU,72,8,1,64,2
2017/11,大学院2A,1604036,呉桐,ゴトウ,WUTONG,72,13,6,57,3
2017/11,大学3A,1604051,温振繁,オンシンハン,WENZHENFAN,72,13,0,59,3
2017/11,中上級2A,1604080,陸欣于杭,リクキンウコウ,LUXINYUHANG,72,4,5,67,0
2017/11,中上級2A,1604087,丛琳,ソウリン,CONGLIN,72,4,0,68,1
2017/11,大学2美大,1604093,趙澤坤,チョウタクコン,ZHAOZEKUN,72,6,5,65,1
2017/11,大学2A,1604138,鐘帥,ショウスイ,ZHONGSHUAI,72,17,0,55,4
2017/11,中上級1A,1604224,呉文蔚,ゴブンイ,WUWENWEI,72,1,4,70,0
2017/11,中上級2A,1604235,周竹曳,シュウチクエイ,ZHOUZHUYE,72,14,6,56,2
2017/11,中級2B,1604257,,シュレスタラケシュ,SHRESTHARAKESH,72,4,0,68,1
2017/11,中上級1A,1604261,,ノルブタエフボビル,NORBUTAEVBOBIR,72,5,0,67,1
2017/11,大学院2B,1604020,羅涵杏,ラカンアン,LUOHANXING,72,12,1,60,2
2017/11,大学3美大,1604022,陸真浩,リクシンコウ,LUZHENHAO,72,33,3,38,7
2017/11,大学3美大,1604045,呉思哲,ゴシテツ,WUSIZHE,72,16,2,56,4
2017/11,大学2B,1604084,付建銘,フケンメイ,FUJIANMING,72,13,2,59,3
2017/11,中級2A,1604105,邱佳成,キュウカセイ,QIUJIACHENG,72,25,4,46,3
2017/11,大学院2B,1604124,黄銘雅,コウメイガ,HUANGMINGYA,72,12,0,60,3
2017/11,大学2B,1604190,姜超,キョウチョウ,JIANGCHAO,72,8,1,64,2
2017/11,中上級2A,1604193,曹政,ソウセイ,CAOZHENG,72,12,9,57,3
2017/11,中上級2A,1604208,曹達,ソウタツ,CAODA,72,2,7,68,0
2017/11,初中級B,1604258,,"プラサドガウタム デリ　","PRASADGAUTAM  DILLI ",72,0,0,72,0
2017/11,中級1C,1604052,汪順意,オウジュンイ,WANGSHUNYI,72,12,0,60,3
2017/11,大学2B,1604073,李嘉輝,リカキ,LIJIAHUI,72,16,3,55,4
2017/11,大学3A,1604082,張思楊,チョウシヨウ,ZHANGSIYANG,72,6,0,66,1
2017/11,大学2美大,1604143,鄭然,テイゼン,ZHENGRAN,72,8,3,63,2
2017/11,初中級B,1604168,張添雅,チョウテンガ,ZHANGTIANYA,72,28,1,44,7
2017/11,中級1C,1604185,李昕雨,リキンウ,LIXINYU,72,10,4,61,2
2017/11,大学2A,1604189,郭廷展,カクテイテン,GUOTINGZHAN,72,13,3,58,3
2017/11,中級2B,1604202,周洋,シュウヨウ,ZHOUYANG,72,0,0,72,0
2017/11,大学2A,1604221,趙梓軒,チョウシケン,ZHAOZIXUAN,72,8,3,63,2
2017/11,大学2A,1604222,呉晨曦,ゴシンギ,WUCHENXI,72,8,0,64,2
2017/11,中上級2A,1604006,劉徳才,リュウトクサイ,LIUDECAI,72,4,0,68,1
2017/11,大学2美大,1604048,王翕,オウキョウ,WANGXI,72,0,0,72,0
2017/11,大学2美大,1604077,李天聡,リテンソウ,LITIANCONG,72,0,4,71,0
2017/11,大学2B,1604110,王心怡,オウシンイ,WANGXINYI,72,6,2,66,1
2017/11,大学2美大,1604136,胡家馨,コカケイ,HUJIAXIN,72,11,1,61,2
2017/11,大学3A,1604152,殷弘睿,インコウエイ,YINHONGRUI,72,29,0,43,7
2017/11,中級1C,1604169,張夢彤,チョウムトウ,ZHANGMENGTONG,72,20,0,52,5
2017/11,中級2B,1604180,馬嬌嬌,バキョウキョウ,MAJIAOJIAO,72,48,1,24,12
2017/11,中級2B,1604231,李曲,リキョク,LIQU,72,64,0,8,16
2017/11,大学2A,1604233,関宇,カンウ,GUANYU,72,4,0,68,1
2017/11,大学2B,1604028,来守慧,ライシュケイ,LAISHOUHUI,72,16,5,55,3
2017/11,中上級1B,1604063,李婷,リテイ,LITING,72,0,0,72,0
2017/11,中級1C,1604067,高延,コウエン,GAOYAN,72,17,5,54,4
2017/11,中上級1B,1604069,史錦華,シキンカ,SHIJINHUA,72,12,0,60,3
2017/11,大学2美大,1604075,郭芳竹,カクホウチク,GUOFANGZHU,72,1,3,70,0
2017/11,初中級B,1604091,郝玉辉,カクギョクキ,HAOYUHUI,72,12,1,60,3
2017/11,初中級B,1604092,田博文,デンハクブン,TIANBOWEN,72,2,2,70,0
2017/11,大学2美大,1604101,于晨,ウシン,YUCHEN,72,4,3,67,1
2017/11,初級2A,1604172,蘭慧良,ランケイリョウ,LANHUILIANG,72,16,1,56,4
2017/11,大学2美大,1604173,張文謦,チョウブンケイ,ZHANGWENXIN,72,13,1,59,1
2017/11,大学2美大,1604181,王嘯,オウショウ,WANGXIAO,72,55,1,17,13
2017/11,中上級1B,1604232,任佳敏,ニンカビン,RENJIAMIN,72,11,0,61,2
2017/11,中級2A,1604012,陳立志,チンリッシ,CHENLIZHI,72,10,1,62,2
2017/11,中上級1B,1604116,李阳,リヨウ,LIYANG,72,2,0,70,0
2017/11,中上級1B,1604139,劉志航,リュウシコウ,LIUZHIHANG,72,8,0,64,2
2017/11,大学2美大,1604141,黄佳怡,コウカイ,HUANGJIAYI,72,9,5,62,2
2017/11,中上級2A,1604160,華菁,カセイ,HUAJING,72,0,0,72,0
2017/11,中上級1B,1604188,何恩寧,カオンネイ,HEENNING,72,12,0,60,3
2017/11,中級1C,1604194,張楚奇,チョウソキ,ZHANGCHUQI,72,23,1,49,5
2017/11,中上級1B,1604201,呉抒陽,ゴジョヨウ,WUSHUYANG,72,16,1,56,4
2017/11,大学院2A,1604205,兪一昶,ユイッチョウ,YUYICHANG,72,8,0,64,2
2017/11,初中級B,1604209,朱晧軒,シュコウケン,ZHUHAOXUAN,72,16,2,56,4
2017/11,中級1C,1604252,,シュレスタマニス　ラル,"SHRESTHAMANISH LAL",72,0,0,72,0
2017/11,初中級B,1604255,,ライユニサ,RAIYUNISHA,72,2,0,70,0
2017/11,中級2A,1604259,,"シングサウド  スレス　","SINGHSAUD  SURESH ",72,12,0,60,3
2017/11,大学2B,1604068,惠如雪,ケイジョセツ,HUIRUXUE,72,4,1,68,1
2017/11,中上級2A,1604111,劉丹,リュウタン,LIUDAN,72,0,0,72,0
2017/11,中級1C,1604200,呉格格,ゴカクカク,WUGEGE,72,4,0,68,1
2017/11,大学2B,1604228,李云階,リウンカイ,LIYUNJIE,72,0,1,72,0
2017/11,上級1A,1607005,孟永楽,モウエイラク,MENGYONGLE,72,16,1,56,3
2017/11,大学2美大,1607008,楊力為,ヨウリキイ,YANGLIWEI,72,14,3,57,2
2017/11,大学院3A,1607018,阮国振,ゲンコクシン,RUANGUOZHEN,72,20,1,52,4
2017/11,大学院3A,1607038,李雨霏,リウヒ,LIYUFEI,72,10,1,62,2
2017/11,大学3美大,1607040,王楠,オウナン,WANGNAN,72,43,3,28,6
2017/11,大学2A,1607084,張政,チョウセイ,ZHANGZHENG,72,4,0,68,1
2017/11,中級1C,1607104,,マハラジャンリーナ,MAHARJANREENA,72,0,0,72,0
2017/11,中上級1B,1607031,麻越琳,マエツリン,MAYUELIN,72,0,1,72,0
2017/11,大学院2B,1607033,湯桑,トウソウ,TANGSANG,72,13,0,59,3
2017/11,大学院3A,1607035,徐敏,ジョビン,XUMIN,72,12,6,58,2
2017/11,大学院2A,1607052,曹奕涵,ソウエキカン,CAOYIHAN,72,11,1,61,2
2017/11,大学院2A,1607064,陳嘉尚,チンカショウ,CHENJIASHANG,72,8,2,64,2
2017/11,大学院2A,1607095,叶金磊,ヨウキンライ,YEJINLEI,72,12,2,60,3
2017/11,中級1C,1607098,,グエンティ　ゴック　ディエプ,"NGUYENTHI NGOC DIEP",72,15,5,56,3
2017/11,中級1C,1607101,,グエンティ　トゥ　ハン,"NGUYENTHI THU HANG",72,8,2,64,2
2017/11,中級1C,1607102,,グエンティ　ホン,"NGUYENTHI HONG",72,8,0,64,2
2017/11,中上級1A,1607106,,シュレスタプラジョル,SHRESTHAPRAJWOL,72,12,0,60,3
2017/11,大学院2B,1607007,侯舒瑜,コウジョユ,HOUSHUYU,72,7,5,64,1
2017/11,初中級A,1607020,李海菡,リカイカン,LIHAIHAN,72,52,0,20,13
2017/11,中上級1A,1607028,李锴,リカイ,LIKAI,72,5,2,67,1
2017/11,中級1B,1607029,郭栩材,カククザイ,GUOXUCAI,72,19,1,53,4
2017/11,初中級B,1607036,張雪睿,チョウセツエイ,ZHANGXUERUI,72,18,2,54,4
2017/11,初中級B,1607037,杜佳威,トカイ,DUJIAWEI,72,12,0,60,3
2017/11,初中級B,1607051,魯玲言,ロレイゲン,LULINGYAN,72,5,7,65,1
2017/11,大学2B,1607057,霍晟,カクセイ,HUOSHENG,72,8,4,63,2
2017/11,大学2美大,1607078,程厳,テイゲン,CHENGYAN,72,0,10,69,0
2017/11,中上級1B,1607088,徐天嬋,ジョテンセン,XUTIANCHAN,72,2,0,70,0
2017/11,初中級B,1607099,,グエンゴック　ホア,"NGUYENNGOC HOA",72,12,0,60,2
2017/11,中級1C,1607100,,ファムクォック　トアン,"PHAMQUOC TOAN",72,24,0,48,6
2017/11,中級1C,1607105,,アビンゴパリ,ABINGOPALI,72,0,0,72,0
2017/11,大学院2B,1607012,呂音,ロオン,LYUYIN,72,6,5,65,1
2017/11,大学院2B,1607015,胡源青,コゲンセイ,HUYUANQING,72,8,0,64,2
2017/11,大学院2A,1607019,程嘉琳,テイカリン,CHENGJIALIN,72,11,1,61,2
2017/11,中級2A,1607023,楊禛,ヨウシン,YANGZHEN,72,52,1,20,10
2017/11,大学2B,1607024,郭宣蓉,カクセンヨウ,GUOXUANRONG,72,9,1,63,2
2017/11,大学院2A,1607025,陳孟影,チンモウエイ,CHENMENGYING,72,10,1,62,1
2017/11,大学2美大,1607032,呉謙,ゴケン,WUQIAN,72,11,4,60,2
2017/11,大学院2A,1607048,劉洋,リュウヨウ,LIUYANG,32,0,0,32,0
2017/11,大学2美大,1607056,程序,テイジョ,CHENGXU,72,25,0,47,6
2017/11,中級1C,1607073,呉塵,ゴジン,WUCHEN,72,24,1,48,6
2017/11,大学院2B,1607087,杨丞博,ヨウショウハク,YANGCHENGBO,72,8,0,64,2
2017/11,大学院2A,1607089,張文博,チョウブンハク,ZHANGWENBO,72,11,1,61,2
2017/11,中級1C,1607110,,ニスツスロチャナ,NHISUTUSULOCHANA,72,0,0,72,0
2017/11,中級1D,1607111,,コジュラジェス,KOJURAJESH,72,0,0,72,0
2017/11,初中級B,1607113,,グルンカンチャン,GURUNGKANCHAN,72,0,0,72,0
2017/11,中級1C,1607115,,"マジダル バハドゥル　","MAJHIDAL BAHADUR",72,8,0,64,2
2017/11,大学3A,1607022,孫浩然,ソンコウゼン,SUNHAORAN,72,21,2,51,5
2017/11,中上級1B,1607030,沈怡静,チンイセイ,SHENYIJING,72,28,0,44,7
2017/11,中級2A,1607061,趙翔飛,チョウショウヒ,ZHAOXIANGFEI,72,50,2,22,12
2017/11,初級2A,1607107,,"ポカレルメガ ナット　",POKHARELMEGHANATH,72,3,0,69,0
2017/11,初級2A,1607114,,ギリサラダ,GIRISARADA,72,0,0,72,0
2017/11,初級2B,1607118,,カリモフシェフロズ,KARIMOVSHEKHROZ,72,12,1,60,3
2017/11,中級1C,9916023,,タパラジクマール,"THAPARAJ KUMAR",72,22,0,50,5
2017/11,中級1C,1607013,袁帥,エンスイ,YUANSHUAI,72,20,0,52,5
2017/11,大学院2A,1607014,景燁,ケイヨウ,JINGYE,72,0,0,72,0
2017/11,中級2B,1607053,周安然,シュウアンゼン,ZHOUANRAN,72,17,6,53,3
2017/11,初中級B,1607085,王哲,オウテツ,WANGZHE,72,0,1,72,0
2017/11,大学院2B,1607086,肖笛,ショウテキ,XIAODI,72,30,2,42,6
2017/11,大学2B,1607094,李想,リソウ,LIXIANG,72,12,3,59,2
2017/11,初中級B,1607108,,"シルワルラメス プラサド　","SILWALRAMESH  PRASAD ",72,0,0,72,0
2017/11,初中級B,1607109,,ライスーダン,RAISUDAN,72,7,1,65,1
2017/11,大学3美大,1610001,柳楚卿,リュウソキョウ,LIUCHUQING,72,0,0,72,0
2017/11,中級1A,1610005,矯永昶,キョウエイチョウ,JIAOYONGCHANG,72,1,7,69,0
2017/11,中級1C,1610006,鄭子渊,テイシエン,ZHENGZIYUAN,72,4,2,68,0
2017/11,中級2B,1610009,羅武,ラブ,LUOWU,72,7,3,64,1
2017/11,中級2A,1610010,彭野,ホウヤ,PENGYE,72,1,3,70,0
2017/11,中級2B,1610011,于光普,ウコウフ,YUGUANGPU,72,48,0,24,12
2017/11,大学3美大,1610012,楊金子,ヨウキンシ,YANGJINZI,72,5,1,67,1
2017/11,中級2A,1610013,李豪,リゴウ,LIHAO,72,12,0,60,3
2017/11,大学2美大,1610014,王歆儀,オウキンギ,WANGXINYI,72,15,5,56,3
2017/11,初中級B,1610017,曲世正,キョクセセイ,QUSHIZHENG,72,20,0,52,4
2017/11,中級1A,1610029,劉瀚声,リュウカンセイ,LIUHANSHENG,72,19,4,52,3
2017/11,大学院2B,1610030,柯永林,カエイリン,KEYONGLIN,72,1,1,71,0
2017/11,初中級B,1610034,王智麟,オウチリン,WANGZHILIN,72,8,0,64,2
2017/11,中級2B,1610040,黄南,コウナン,HUANGNAN,72,23,1,49,5
2017/11,中級2B,1610044,盧宇坤,ロウコン,LUYUKUN,72,12,1,60,3
2017/11,初級2E,1610047,,ゴティ　フオン　レ,"NGOTHI PHUONG LE",72,0,0,72,0
2017/11,初級2B,1610049,,グエンバ　ティン,"NGUYENBA THINH",72,24,3,47,6
2017/11,中級2B,1610053,,チャナパットソオントムグムジョンパニチ,,72,8,0,64,2
2017/11,中級2B,1610002,郭東勛,カクトウクン,GUODONGXUN,72,24,4,47,6
2017/11,初中級B,1610007,姜巍,キョウギ,JIANGWEI,72,0,0,72,0
2017/11,初中級A,1610015,馮習文,ヒョウシュウブン,FENGXIWEN,72,0,5,71,0
2017/11,大学2美大,1610024,羅杰銘,ラケツメイ,LUOJIEMING,72,1,1,71,0
2017/11,中級2A,1610031,楊藝,ヨウゲイ,YANGYI,72,0,0,72,0
2017/11,中級2B,1610033,陳文華,チンブンカ,CHENWENHUA,72,16,4,55,3
2017/11,中級2B,1610038,董思成,トウシセイ,DONGSICHENG,72,36,0,36,9
2017/11,中級2A,1610042,武陽,ブヨウ,WUYANG,72,14,0,58,3
2017/11,大学2B,1610048,,ヴタン　ヒュエン,"VUTHANH HUYEN",72,0,0,72,0
2017/11,初級1D,1610050,,ドヴィエット　ロン,"DOVIET LONG",72,7,1,65,1
2017/11,初級2B,1610051,,グエンジュイ　カイン,"NGUYENDUY KHANH",72,9,3,62,2
2017/11,初中級B,1610054,,ピリヤコムシッカマーン,PIRIYAKORNSIGKAMANN,72,21,0,51,5
2017/11,中級1C,1610035,劉文萍,リュウブンヘイ,LIUWENPING,72,0,0,72,0
2017/11,中級1C,1701001,華媛媛,カエンエン,HUAYUANYUAN,72,0,2,72,0
2017/11,初中級E,1704006,李超琪,リチョウキ,LICHAOQI,72,30,5,41,7
2017/11,初中級E,1704010,呉悠,ゴユウ,WUYOU,72,0,1,72,0
2017/11,初中級D,1704011,周佳蓉,シュウカヨウ,ZHOUJIARONG,72,0,0,72,0
2017/11,初中級C,1704024,呉芷瑤,ゴシヨウ,WUZHIYAO,72,8,1,64,2
2017/11,初中級C,1704033,陳蕭陽,チンショウヨウ,CHENXIAOYANG,72,25,0,47,5
2017/11,初中級E,1704042,劉思雪,リュウシセツ,LIUSIXUE,72,0,0,72,0
2017/11,初中級E,1704044,劉馨楚,リュウケイソ,LIUXINCHU,72,9,2,63,2
2017/11,初中級E,1704093,梁建礼,リョウケンレイ,LIANGJIANLI,72,0,0,72,0
2017/11,初中級C,1704111,連夢,レンムテキ,LIANMENGDI,72,68,0,4,17
2017/11,初級2E,1704142,,マハルジャンスジ,MAHARJANSUJI,72,0,0,72,0
2017/11,初中級C,1704023,樊政,ハンセイ,FANZHENG,28,24,0,4,6
2017/11,初中級D,1704027,潘永鑫,ハンエイキン,PANYONGXIN,72,24,0,48,6
2017/11,初中級E,1704046,莫鑫元,バクキンゲン,MOXINYUAN,72,24,0,48,6
2017/11,初中級E,1704055,宋晨燁,ソウシンヨウ,SONGCHENYE,72,0,0,72,0
2017/11,初中級C,1704066,白雨灵,ハクウレイ,BAIYULING,72,8,2,64,0
2017/11,初中級D,1704078,唐露莎,トウロサ,TANGLUSHA,72,13,1,59,3
2017/11,初中級D,1704084,銭豪杰,センゴウケツ,QIANHAOJIE,72,20,3,51,5
2017/11,初中級D,1704086,鄭好,テイコウ,ZHENGHAO,72,4,0,68,1
2017/11,初中級D,1704094,伍浩聡,ゴコウソウ,WUHAOCONG,72,16,1,56,4
2017/11,初中級D,1704104,趙然,チヨウゼン,ZHAORAN,72,1,0,71,0
2017/11,初中級D,1704116,張暁婧,チョウギョウセイ,ZHANGXIAOJING,72,32,0,40,8
2017/11,初中級C,1704120,,ズオンティエン　クェン,"DUONGTIEN QUYEN",72,0,0,72,0
2017/11,初中級E,1704121,,グェンヴァン　バク,"NGUYENVAN BAC",72,0,0,72,0
2017/11,初中級C,1704125,,グェンホアン　フォン　ヴィ,"NGUYENHOANG PHUONG VY",72,0,1,72,0
2017/11,初中級C,1704001,雷佳鳴,ライカメイ,LEIJIAMING,72,11,5,60,2
2017/11,初中級D,1704003,蒋瑩,ショウエイ,JIANGYING,72,5,0,67,1
2017/11,初級2E,1704005,唐可萱,トウカケン,TANGKEXUAN,72,20,2,52,5
2017/11,初中級D,1704019,趙子未,チョウシミ,ZHAOZIWEI,72,20,1,52,5
2017/11,初中級E,1704031,劉雨,リュウウ,LIUYU,72,26,2,46,6
2017/11,初級2E,1704032,董振博,トウシンバク,DONGZHENBO,72,20,0,52,5
2017/11,初中級D,1704035,張敏,チョウビン,ZHANGMIN,72,0,0,72,0
2017/11,初中級E,1704051,万鑫,マンキン,WANXIN,72,12,0,60,3
2017/11,初級2E,1704056,劉弦,リュウゲン,LIUXIAN,72,18,7,52,3
2017/11,初中級C,1704070,姜博文,キョウハクブン,JIANGBOWEN,72,16,1,56,4
2017/11,初中級E,1704095,劉莉瑤,リュウリヨウ,LIULIYAO,72,8,3,63,1
2017/11,初級2D,1704103,柯俊羽,カシュンウ,KEJUNYU,72,14,0,58,6
2017/11,初級2D,1704128,,サプコタプロティマ,SAPKOTAPRATIMA,72,6,1,66,2
2017/11,初級2D,1704138,,デザールアシク,DESARASHIK,72,8,0,64,4
2017/11,初級2D,1704140,,ラムテルアンザン,RAMTELANJAN,72,1,1,71,0
2017/11,初級2D,1704141,,マハルジャンサニス,MAHARJANSANISH,72,1,0,71,0
2017/11,初級1B,1704151,,グルンラゼンドラ,GURUNGRAJENDRA,72,2,1,70,0
2017/11,初中級E,9917027,李雪晴,リセツセイ,LIXUEQING,72,0,0,72,0
2017/11,初中級D,1704004,顧芸夢,コゲイム,GUYUNMENG,72,0,2,72,0
2017/11,初中級D,1704017,熊展銘,ユウテンメイ,XIONGZHANMING,72,1,1,71,0
2017/11,初中級D,1704018,田金農,デンキンノウ,TIANJINNONG,72,4,0,68,1
2017/11,初級2E,1704028,高元昊,コウゲンコウ,GAOYUANHAO,72,24,0,48,6
2017/11,中級1B,1704038,黎潤絲,レイジュンシ,LIRUNSI,72,0,0,72,0
2017/11,初中級C,1704045,呉翌陽,ゴヨクヨウ,WUYIYANG,72,4,0,68,1
2017/11,初中級C,1704054,焦玉衡,ショウギョクコウ,JIAOYUHENG,72,12,0,60,3
2017/11,初級2E,1704063,姜惠涛,キョウケイトウ,JIANGHUITAO,72,11,9,58,2
2017/11,初中級D,1704085,陳航,チンイコウ,CHENWEIHANG,72,20,3,51,5
2017/11,初級2D,1704107,韓非,カンヒ,HANFEI,72,0,1,72,0
2017/11,初級2D,1704122,,グェンヒュ　ハイ,"NGUYENHUU HAI",72,0,0,72,0
2017/11,初級2D,1704123,,グェンヴァン　ティエン,"NGUYENVAN TIEN",72,0,1,72,0
2017/11,初級2E,1704124,,ファムティ　マイ,"PHAMTHI MAI",72,13,2,59,2
2017/11,初級2D,1704144,,ドラルガガン,DULALGAGAN,72,0,0,72,0
2017/11,初級2E,1704149,,タクリマナ　クマリ,"THAKURIMANA KUMARI",72,3,0,69,0
2017/11,初級2E,1704150,,シュレスタナビン,SHRESTHANABIN,72,16,0,56,4
2017/11,初中級C,1704022,李霖,リリン,LILIN,72,12,0,60,3
2017/11,初級1B,1704030,劉星雨,リュウセイウ,LIUXINGYU,72,8,3,63,1
2017/11,初中級C,1704037,鄧平成,トウヘイセイ,DENGPINGCHENG,72,4,0,68,1
2017/11,初中級E,1704053,張澤,チヨウタク,ZHANGZE,72,16,0,56,4
2017/11,初中級C,1704058,黄瑛,コウエイ,HUANGYING,72,0,0,72,0
2017/11,初中級E,1704061,尋夢,ジンム,XUNMENG,72,9,2,63,2
2017/11,初級2D,1704067,趙澤鳴,チョウタクメイ,ZHAOZEMING,72,4,0,68,2
2017/11,初中級D,1704069,朱玲瓏,シュレイロウ,ZHULINGLONG,72,0,0,72,0
2017/11,初級2D,1704080,郭亜博,カクアハク,GUOYABO,72,12,3,59,5
2017/11,初級2D,1704110,郭亮廷,カクリョウテイ,GUOLIANGTING,72,0,0,72,0
2017/11,初中級D,1704113,張倩玉,チョウセイギョク,ZHANGQIANYU,72,5,0,67,1
2017/11,初級2E,1704129,,スベティスリザナ,SUBEDISRIJANA,72,8,0,64,2
2017/11,初級2E,1704143,,ビスタロザン,BISTAROSHAN,72,0,0,72,0
2017/11,初級2D,1704145,,バトライブザ,BHATTARAIPUJA,72,10,3,61,5
2017/11,初級2B,1707009,張知非,チョウチヒ,ZHANGZHIFEI,72,12,0,60,3
2017/11,初級2B,1707013,焦永愛,ショウエイアイ,JIAOYONGAI,72,8,2,64,2
2017/11,初級2B,1707019,張易凡,チョウエキハン,ZHANGYIFAN,72,0,0,72,0
2017/11,初級2A,1707033,孫毅,ソンキ,SUNYI,72,6,2,66,1
2017/11,初級2A,1707035,姜辰熹,キョウシンキ,JIANGCHENXI,72,0,2,72,0
2017/11,初級2A,1707036,凌佳鑫,リョウカキン,LINGJIAXIN,72,0,0,72,0
2017/11,初級2A,1707038,楊玉潔,ヨウギョクケツ,YANGYUJIE,72,0,1,72,0
2017/11,初級2B,1707039,向陽,コウヨウ,XIANGYANG,72,8,0,64,2
2017/11,初級2A,1707044,劉美玲,リュウビレイ,LIUMEILING,72,0,0,72,0
2017/11,初級2A,1707046,王依,オウイ,WANGYI,72,4,0,68,1
2017/11,初級2A,1707047,,シュトウ,ZHUTONG,72,8,0,64,2
2017/11,初級2B,1707048,朱江,シュコウ,ZHUJIANG,72,8,0,64,2
2017/11,初級2A,1707050,張爽,チョウソウ,ZHANGSHUANG,72,0,0,72,0
2017/11,初級2A,1707051,賈丁,カテイ,JIADING,72,0,0,72,0
2017/11,初級2B,1707068,譚勛儒,タンクンジュ,TANXUNRU,72,28,0,44,7
2017/11,初級2A,1707074,尤佳,ユウカ,YOUJIA,72,11,1,61,2
2017/11,初級2B,1707081,侯乙童,コウオツドウ,HOUYITONG,72,0,0,72,0
2017/11,初級1D,1707083,庄顔,ショウガン,ZHUANGYAN,72,30,2,42,6
2017/11,初級2B,1707089,,ファムティ　フォン　リン,"PHAMTHI PHUONG LINH",72,0,1,72,0
2017/11,初級2C,1707012,陳家欣,チンカキン,CHENJIAXIN,72,4,0,68,1
2017/11,初級2C,1707017,孫帥雯,ソンスイブン,SUNSHUAIWEN,72,0,0,72,0
2017/11,初級2C,1707025,宮文秀,キュウブンシュウ,GONGWENXIU,72,9,0,63,2
2017/11,初級1C,1707034,叶家銘,ヨウカメイ,YEJIAMING,72,4,0,68,1
2017/11,初級2C,1707053,郝見優,カクケンユウ,HAOJIANYOU,72,7,0,65,1
2017/11,初級2C,1707056,張鵬,チョウホウ,ZHANGPENG,72,0,0,72,0
2017/11,初級2E,1707071,傅振寧,フシンネイ,FUZHENNING,72,0,0,72,0
2017/11,初級2D,1707076,秦一明,シンイチメイ,QINYIMING,72,0,0,72,0
2017/11,初級2D,1707079,郭文琦,カクブンキ,GUOWENQI,72,8,0,64,4
2017/11,初級1C,1707085,盧億,ロオク,LUYI,72,5,3,66,1
2017/11,初級2D,1707086,鄭欣瑩,テイキンエイ,ZHENGXINYING,72,8,1,64,4
2017/11,初級2E,1707092,,ジュラエフバイラム,JURAEVBAYRAM,72,4,3,67,1
2017/11,初級2E,1707095,曽培源,ソウバイゲン,ZENGPEIYUAN,72,12,3,59,3
2017/11,初級1E,9917039,蔡云鹏,サイウンホウ,,72,0,0,72,0
2017/11,初級2C,1707011,曽憲耀,ソウケンヨウ,ZENGXIANYAO,72,6,0,66,1
2017/11,初級2C,1707024,殷誠,インセイ,YINCHENG,72,0,0,72,0
2017/11,初級2C,1707027,鄧迪元,トウテキゲン,DENGDIYUAN,72,13,0,59,3
2017/11,初級2C,1707043,侯佳佳,コウカカ,HOUJIAJIA,72,0,0,72,0
2017/11,初級1E,1707045,,リキョウ,LIXIANG,72,4,0,68,1
2017/11,初級2E,1707049,劉褘晨,リュウイシン,LIUYICHEN,72,13,1,59,3
2017/11,初級2E,1707052,曽路堯,ソウロギョウ,ZENGLUYAO,72,0,0,72,0
2017/11,初級2E,1707058,徐希来,ジョキライ,XUXILAI,72,0,0,72,0
2017/11,初級2C,1707062,蘇雨,ソウ,SUYU,72,0,0,72,0
2017/11,初級2D,1707067,鄧壁炎,トウヘキエン,DENGBIYAN,72,8,1,64,4
2017/11,初級2C,1707069,邢飛凡,ケイヒハン,XINGFEIFAN,72,0,0,72,0
2017/11,初級2C,1707073,魏嘉,ギカ,WEIJIA,72,4,0,68,1
2017/11,初級1A,1710005,万玉禅,マンギョクセン,WANYUCHAN,72,0,0,72,0
2017/11,初級1A,1710032,李南静,リナンセイ,LINANJING,72,0,0,72,0
2017/11,初級1A,1710042,郭睿,カクエイ,GUORUI,72,1,0,71,0
2017/11,初級1A,1710048,陳青嵩,チンセイスウ,CHENQINGSONG,72,4,0,68,1
2017/11,初級1A,1710050,陳楚蕉,チンソショウ,CHENCHUJIAO,72,0,0,72,0
2017/11,初級1A,1710056,張婧涵,チョウセイカン,ZHANGJINGHAN,72,0,0,72,0
2017/11,初級1A,1710058,李金彤,リキントウ,LIJINTONG,72,1,5,70,0
2017/11,初級1A,1710068,李遙,リヨウ,LIYAO,72,0,0,72,0
2017/11,初級1A,1710075,林文浩,リンブンコウ,LINWENHAO,72,4,0,68,1
2017/11,初級1A,1710077,鄒娜,スウナ,ZOUNA,72,0,0,72,0
2017/11,初級1A,1710083,邵凡奇,ショウハンキ,SHAOFANQI,72,0,0,72,0
2017/11,初級1A,1710084,蘇雅,ソガ,SUYA,72,0,0,72,0
2017/11,初級1A,1710092,年瑩,ネンエイ,NIANYING,72,0,0,72,0
2017/11,初級1A,1710118,陳珣韜,チンシュントウ,CHENXUNTAO,72,9,2,63,2
2017/11,初級1A,1710147,王通,オウツウ,WANGTONG,12,12,0,0,3
2017/11,初級1A,1710158,趙雨欣,チョウウキン,ZHAOYUXIN,72,0,0,72,0
2017/11,初級1A,1710178,林振業,リンシンギョウ,LINZHENYE,72,0,0,72,0
2017/11,初級1A,1710180,李馨寧,リケイネイ,LIXINNING,72,0,0,72,0
2017/11,初級1A,1710209,李昕楠,リキンナン,LIXINNAN,72,5,3,66,1
2017/11,初級1A,1710218,,チャンヒゥ　クォン,"TRANHUU CUONG",72,0,0,72,0
2017/11,初級1A,1710219,,ルォンチュン　ヒゥ,"LUONGTRUNG HIEU",72,0,0,72,0
2017/11,初級1B,1710009,劉春建,リュウシュンケン,LIUCHUNJIAN,72,0,0,72,0
2017/11,初級1B,1710012,李欣悦,リキンエツ,LIXINYUE,72,4,0,68,1
2017/11,初級1B,1710020,李竺妍,リジクケン,LIZHUYAN,72,0,0,72,0
2017/11,初級1B,1710021,李婉欣,リエンキン,LIWANXIN,72,1,0,71,0
2017/11,初級1B,1710038,王堃,オウコン,WANGKUN,72,16,0,56,4
2017/11,初級1B,1710076,羅愫,ラソ,LUOSU,72,0,0,72,0
2017/11,初級1B,1710087,劉嘉鑫,リュウカキン,LIUJIAXIN,72,0,0,72,0
2017/11,初級1B,1710109,戴辰航舟,タイシンコウシュウ,DAICHENHANGZHOU,72,0,2,72,0
2017/11,初級1B,1710127,楊暁,ヨウギョウバイ,YANGXIAOBEI,72,19,0,53,4
2017/11,初級1B,1710136,王海燕,オウカイエン,WANGHAIYAN,72,0,0,72,0
2017/11,初級1B,1710149,李翊,リヨク,LIYI,72,4,1,68,0
2017/11,初級1B,1710150,李子陽,リシヨウ,LIZIYANG,72,4,0,68,1
2017/11,初級1B,1710156,常潤杰,ジョウジュンケツ,CHANGRUNJIE,72,5,2,67,1
2017/11,初級1B,1710182,陳莉薇,チンリビ,CHENLIWEI,72,0,0,72,0
2017/11,初級1B,1710191,李昕心,リキンシン,LIXINXIN,72,0,0,72,0
2017/11,初級1B,1710199,曹曦木,ソウギボク,CAOXIMU,72,0,0,72,0
2017/11,初級1B,1710222,,ドァンジェウ　リン,"DOANDIEU LINH",72,0,0,72,0
2017/11,初級1B,1710224,,チャンティ　フェン,"TRANTHI HUYEN",72,0,0,72,0
2017/11,初級1C,1710001,倪意遙,ゲイイヨウ,NIYIYAO,72,4,0,68,1
2017/11,初級1C,1710011,張灵昊,チョウレイコウ,ZHANGLINGHAO,72,4,2,68,1
2017/11,初級1C,1710025,曹安琪,ソウアンキ,CAOANQI,72,4,0,68,1
2017/11,初級1C,1710039,羅晗,ライカン,LUOYIHAN,72,12,1,60,3
2017/11,初級1C,1710044,張旭,チョウキョク,ZHANGXU,72,4,0,68,1
2017/11,初級1C,1710053,関梓彤,カンシトウ,GUANZITONG,72,8,0,64,2
2017/11,初級1C,1710082,趙珈慧,チョウカケイ,ZHAOJIAHUI,72,4,0,68,1
2017/11,初級1C,1710088,羅竣天,ラシュンテン,LUOJUNTIAN,72,4,0,68,1
2017/11,初級1C,1710098,趙子韜,チョウシトウ,ZHAOZITAO,72,4,0,68,1
2017/11,初級1C,1710102,陳詩雨,チンシウ,CHENSHIYU,72,4,0,68,1
2017/11,初級1C,1710110,謝玉婷,シャギョクテイ,XIEYUTING,72,4,0,68,1
2017/11,初級1C,1710112,朱墨,,ZHUMO,72,4,0,68,1
2017/11,初級1C,1710133,陳琦,チンキ,CHENQI,72,4,0,68,1
2017/11,初級1C,1710157,銭江,センコウ,QIANJIANG,72,4,0,68,1
2017/11,初級1C,1710169,王芷漪,オウシイ,WANGZHIYI,72,4,0,68,1
2017/11,初級1C,1710198,温昶杉,オンチョウサン,WENCHANGSHAN,72,4,0,68,1
2017/11,初級1C,1710202,向嫣然,コウエンゼン,XIANGYANRAN,72,4,0,68,1
2017/11,初級1C,1710207,王佳欣,オウカキン,WANGJIAXIN,72,4,0,68,1
2017/11,初級1D,1710010,孫雪,ソンセツ,SUNXUE,72,0,0,72,0
2017/11,初級1D,1710016,周彦冰,シュウゲンヒョウ,ZHOUYANBING,72,0,0,72,0
2017/11,初級1D,1710046,周予誠,シュウヨセイ,ZHOUYUCHENG,72,4,0,68,1
2017/11,初級1D,1710063,張嘉辰,チョウカシン,ZHANGJIACHEN,72,5,1,67,0
2017/11,初級1D,1710064,趙婉伊,チョウエンイ,ZHAOWANYI,72,0,0,72,0
2017/11,初級1D,1710071,郭小菁,カクショウセイ,GUOXIAOJING,72,8,1,64,2
2017/11,初級1D,1710073,傅霖,フリン,FULIN,72,4,1,68,1
2017/11,初級1D,1710090,張智泓,チョウチオウ,ZHANGZHIHONG,72,14,1,58,3
2017/11,初級1D,1710091,于淞華,ウショウカ,YUSONGHUA,72,0,0,72,0
2017/11,初級1D,1710104,張瑜,チョウユ,ZHANGYU,72,4,0,68,1
2017/11,初級1D,1710141,陳奕熹,チンエキキ,CHENYIXI,72,0,0,72,0
2017/11,初級1D,1710204,韓雲峰,カンウンホウ,HANYUNFENG,72,14,1,58,2
2017/11,初級1D,1710205,廉夢娟,レンムケン,LIANMENGJUAN,28,20,0,8,5
2017/11,初級1D,1710208,劉俊駒,リュウシュンク,LIUJUNJU,72,0,0,72,0
2017/11,初級1D,1710211,陳暁杉,チンギョウサン,CHENXIAOSHAN,72,1,5,70,0
2017/11,初級1D,1710241,,ルペシュヨンジャン,RUPESHYONJAN,72,0,0,72,0
2017/11,初級1D,1710243,,タパラマ　クマル,"THAPA RAM KUMAR ",72,0,0,72,0
2017/11,初級1D,1710249,,スプラバビーケー,SUPRABHAB.K.,28,20,0,8,5
2017/11,初級1E,1710002,丘琳,キュウリン,QIULIN,72,0,0,72,0
2017/11,初級1E,1710022,呉昊鵬,ゴコウホウ,WUHAOPENG,72,0,0,72,0
2017/11,初級1E,1710027,張亜妮,チョウアジ,ZHANGYANI,72,0,0,72,0
2017/11,初級1E,1710037,王東晗,オウトウカン,WANGDONGHAN,72,0,0,72,0
2017/11,初級1E,1710049,宋声伶,ソウセイレイ,SONGSHENGLING,72,0,0,72,0
2017/11,初級1E,1710051,姚卓,ヨウタク,YAOZHUO,72,4,0,68,1
2017/11,初級1E,1710055,魏傳哲,ギテンテツ,WEICHUANZHE,72,0,0,72,0
2017/11,初級1E,1710062,王逸飛,オウイツヒ,WANGYIFEI,72,0,0,72,0
2017/11,初級1E,1710086,陳壮奇,チンソウキ,CHENZHUANGQI,72,0,0,72,0
2017/11,初級1E,1710095,白恩達,ハクオンタツ,BAIENDA,72,0,0,72,0
2017/11,初級1E,1710139,何佳雯,カカブン,HEJIAWEN,72,8,0,64,2
2017/11,初級1E,1710151,毛凡,モウハン,MAOFAN,72,0,0,72,0
2017/11,初級1E,1710153,呉偉康,ゴイコウ,WUWEIKANG,72,0,0,72,0
2017/11,初級1E,1710171,徐艶紅,ジョエンコウ,XUYANHONG,72,0,0,72,0
2017/11,初級1E,1710210,鄭婧,テイセイ,ZHENGJING,72,0,1,72,0
2017/11,初級1E,1710238,,スラジュポカレル,SURAJPOKHAREL,20,12,0,8,3
2017/11,初級1E,1710247,,ミランビスタ,MILANBISTA,28,20,0,8,5
2017/11,初級1E,1710248,,キランシュレスタ,KIRANSHRESTHA,28,20,0,8,5
2017/11,初級1F,1710006,劉晢言,リュウテツゲン,LIUZHEYAN,72,8,0,64,2
2017/11,初級1F,1710067,張倩,チョウセイ,ZHANGQIAN,72,6,1,66,1
2017/11,初級1F,1710089,劉崇徳,リュウスウトク,LIUCHONGDE,72,0,0,72,0
2017/11,初級1F,1710094,楊謹鳴,ヨウキンメイ,YANGJINMING,72,0,0,72,0
2017/11,初級1F,1710097,孔暁暉,コウギョウキ,KONGXIAOHUI,72,4,4,67,1
2017/11,初級1F,1710116,曲奇,キョクキ,QUQI,72,0,0,72,0
2017/11,初級1F,1710162,劉継龍,リュウケイリュウ,LIUJILONG,72,0,0,72,0
2017/11,初級1F,1710166,丁九州,テイキュウシュウ,DINGJIUZHOU,72,0,0,72,0
2017/11,初級1F,1710179,李波云,リハウン,LIBOYUN,72,0,0,72,0
2017/11,初級1F,1710192,黄雨嫣,コウウエン,HUANGYUYAN,72,12,0,60,3
2017/11,初級1F,1710206,彭軼兆,ホウイッチョウ,PENGYIZHAO,72,0,0,72,0
2017/11,初級1F,1710213,秦琦翔,シンキショウ,QINQIXIANG,72,0,0,72,0
2017/11,初級1F,1710214,耿継業,コウケイギョウ,GENGJIYE,72,16,4,55,4
2017/11,初級1F,1710215,曽志豪,ソウシゴウ,ZENGZHIHAO,72,0,2,72,0
2017/11,初級1F,1710223,,レヒェン　ホア,"LEHIEN HOA",72,0,0,72,0
2017/11,初級1F,1710225,,コンティ　リン,"KHONGTHI LINH",72,0,0,72,0
2017/11,初級1F,1710237,,リトゥラマ,RITULAMA,20,12,0,8,3
2017/11,初級1F,9917044,陳微,チンビ,,72,12,4,59,2
2017/11,初級1G,1710003,袁杰,エンケツ,YUANJIE,72,8,0,64,2
2017/11,初級1G,1710059,王聖淇,オウコツキ,WANGSHENGQI,72,4,0,68,1
2017/11,初級1G,1710099,姚褘明,ヨウイメイ,YAOYIMING,72,0,0,72,0
2017/11,初級1G,1710101,呉廸,ゴテキ,WUDI,72,0,0,72,0
2017/11,初級1G,1710117,魯怡瑩,ロイエイ,LUYIYING,72,0,0,72,0
2017/11,初級1G,1710119,万佳穎,マンカエイ,WANJIAYING,72,44,2,28,11
2017/11,初級1G,1710122,王鶴霖,オウカクリン,WANGHELIN,72,0,0,72,0
2017/11,初級1G,1710123,曹馨元,ソウケイゲン,CAOXINYUAN,72,0,0,72,0
2017/11,初級1G,1710125,陳逢天,チンホウテン,CHENFENGTIAN,72,0,0,72,0
2017/11,初級1G,1710131,蘇澤,ソタク,SUZE,72,0,0,72,0
2017/11,初級1G,1710163,樊万青,ハンマンセイ,FANWANQING,72,0,0,72,0
2017/11,初級1G,1710165,卓冉,タクゼン,ZHUORAN,72,4,1,68,1
2017/11,初級1G,1710176,洪　昕,コウイキン,HONGWEIXIN,72,0,0,72,0
2017/11,初級1G,1710183,陳侯宇,チンコウウ,CHENHOUYU,72,0,0,72,0
2017/11,初級1G,1710186,翁慶暁,オウケイギョウ,WENGQINGXIAO,72,0,0,72,0
2017/11,初級1G,1710189,何学良,カガクリョウ,HEXUELIANG,72,0,0,72,0
2017/11,初級1G,1710220,,ズォンバン　カン,"DUONGVAN KHANH",72,3,3,68,0
2017/11,初級1G,1710221,,ゴバ　ソン,"NGOBA SON",72,0,1,72,0
2017/11,初級1G,1710236,,ムナタマン,MUNATAMANG,20,12,0,8,3
2017/11,初級1G,1710239,,ディランカドカ,DHIRANKHADKA,20,12,0,8,3
2017/11,初級1G,1710244,,シュリジャナアチャリャ,SRIJANAACHARYA,12,4,0,8,1
2017/11,初級1H,1710018,張凱,チョウガイ,ZHANGKAI,72,0,0,72,0
2017/11,初級1H,1710030,李辰洋,リシンヨウ,LICHENYANG,72,0,0,72,0
2017/11,初級1H,1710036,王徳強,オウトクキョウ,WANGDEQIANG,72,0,0,72,0
2017/11,初級1H,1710040,包雯蕊,ホウブンズイ,BAOWENRUI,72,4,0,68,1
2017/11,初級1H,1710047,関義霖,カンギリン,GUANYILIN,72,0,0,72,0
2017/11,初級1H,1710066,張　煜,チョウイク,ZHANGYU,72,4,1,68,1
2017/11,初級1H,1710069,謝天林,シャテンリン,XIETIANLIN,72,0,0,72,0
2017/11,初級1H,1710108,丁志民,テイシミン,DINGZHIMIN,72,0,0,72,0
2017/11,初級1H,1710120,邢澤美,ケイタクビ,XINGZEMEI,72,0,1,72,0
2017/11,初級1H,1710140,陳俊霖,チンシュウリン,CHENJUNLIN,72,12,1,60,3
2017/11,初級1H,1710142,張丹丹,チョウタンタン,ZHANGDANDAN,72,0,0,72,0
2017/11,初級1H,1710143,林枝瑩,リンシエイ,LINZHIYING,72,0,0,72,0
2017/11,初級1H,1710187,李詩倩,リシセイ,LISHIQIAN,72,12,0,60,3
2017/11,初級1H,1710200,黄景波,コウケイハ,HUANGJINGBO,72,0,0,72,0
2017/11,初級1H,1710216,陳嘉昕,チンカキン,CHANKAIAN,72,0,0,72,0
2017/11,初級1H,1710229,,ラナムハンマド　ソビアヤル,"RANAMUHAMMAD SOBIAYAL",72,16,0,56,4
2017/11,初級1H,1710234,,ドゥルガシュレスタ,DURGASHRESTHA,72,4,0,68,1
2017/11,初級1H,1710235,,ニシャタマン,NISHATAMANG,20,12,0,8,3
2017/11,初級1H,1710240,,ムナカトリ,MUNAKHATRI,48,48,0,0,12
2017/11,初級1H,1710245,,アクシャマラ,AKSHYAMALLA,12,4,0,8,1
2017/11,初級1H,1710246,,スクマヤ　グルン,"SUKUMAYA GURUNG",72,0,0,72,0
2017/11,初級1H,9917042,,キムウンファ,KIMEUNHWA,48,32,1,16,8
2017/11,大学3A,1604001,汪明琛,オウメイチン,WANGMINGCHEN,72,10,1,62,2
2017/11,上級1A,1604005,沙慧徳,サケイトク,SHAHUIDE,72,21,1,51,5
2017/11,大学院2A,1604041,蘇茵,ソイン,SUYIN,72,22,4,49,5
2017/11,中上級1A,1604078,謝栄博,シャエイハク,XIERONGBO,72,6,0,66,1
2017/11,中上級2A,1604186,柴嘉星,サイカセイ,CHAIJIAXING,72,33,0,39,6
2017/11,上級1A,1604199,王国慶,オウコッケイ,WANGGUOQING,72,6,7,64,1
2017/11,上級1A,1604214,劉佳慧,リュウカケイ,LIUJIAHUI,72,24,2,48,4
2017/11,大学2A,1604217,林延棟,リンエントウ,LINYANDONG,72,10,3,61,1
2017/11,大学2A,1604239,田芳菲,デンホウヒ,TIANFANGFEI,72,13,1,59,2
2017/11,中級1A,1604242,,レザ　チェン,"LEGIA CHIEN",72,15,4,56,2
2017/11,中級1A,1604244,,ズウンヴァン　ダン,"DUONGVAN DAN",72,13,1,59,3
2017/11,中級1A,1604245,,グェンティ　ガ,"NGUYENTHI NGA",72,8,0,64,2
2017/11,大学院3A,1604019,鄒子羽,スウシウ,ZOUZIYU,72,37,0,35,9
2017/11,大学院3A,1604047,徐蔚蕾,ジョイライ,XUWEILEI,72,2,4,69,0
2017/11,大学院3A,1604064,田伊然,デンイゼン,TIANYIRAN,72,35,4,36,8
2017/11,大学院2B,1604079,金永山,キンエイサン,JINYONGSHAN,72,0,2,72,0
2017/11,上級1A,1604108,谢文婷,シャブンテイ,XIEWENTING,72,0,1,72,0
2017/11,大学院3A,1604114,高楠,コウナン,GAONAN,72,0,0,72,0
2017/11,大学院2A,1604123,王佳薇,オウカビ,WANGJIAWEI,72,0,0,72,0
2017/11,大学3A,1604153,李佳安,リカアン,LIJIAAN,72,5,1,67,1
2017/11,大学2A,1604154,張澤棟,チョウタクトウ,ZHANGZEDONG,72,12,0,60,3
2017/11,大学3美大,1604158,傅天宇,フテンウ,FUTIANYU,72,20,5,51,3
2017/11,大学院2A,1604175,赫思佳,カクシカ,HAOSIJIA,72,1,0,71,0
2017/11,大学3A,1604210,饒琳,ジョウリン,RAOLIN,72,12,1,60,3
2017/11,大学3A,1604220,龔奇彪,キョウキヒョウ,GONGQIBIAO,72,4,0,68,1
2017/11,大学3美大,1604226,黄詩瑞,コウシズイ,HUANGSHIRUI,72,16,5,55,3
2017/11,中上級1A,1604243,,ヴティ　ニュン,"VUTHI NHUNG",72,12,0,60,2
2017/11,中級2A,1604246,,ファムテー　ヴィン,"PHAMTHE VINH",72,9,4,62,1
2017/11,大学3A,1604104,楊孫益,ヨウソンエキ,YANGSUNYI,72,12,0,60,3
2017/11,大学院3A,1607011,梁一誠,リョウイッセイ,LIANGYICHENG,72,9,2,63,2
2017/11,大学院3A,1607034,張晨雪,チョウシンセツ,ZHANGCHENXUE,72,15,3,56,3
2017/11,大学2B,1607060,蒋英豪,ショウエイゴウ,JIANGYINGHAO,72,10,0,62,1
2017/11,中上級2A,1607081,張子人,チョウシジン,ZHANGZIREN,72,20,0,52,5
2017/11,大学院2B,1607112,,カスラスニル,KASULASUNIL,72,8,4,63,2
2017/11,大学院3A,1607021,李施怡,リシイ,LISHIYI,60,52,0,8,13
2017/11,大学2B,1607058,王藝淞,オウゲイショウ,WANGYISONG,72,16,2,56,4
2017/11,大学院3A,1607082,赵娅冰,チョウアヒョウ,ZHAOYABING,72,5,0,67,1
2017/11,大学2美大,1607072,陳劭言,チンショウゲン,CHENSHAOYAN,72,2,2,70,0
2017/11,大学3A,1607075,郭昊天,カクコウテン,GUOHAOTIAN,72,5,0,67,1
2017/11,大学院3A,1607076,趙雅睿,チョウガエイ,ZHAOYARUI,72,4,1,68,1
2017/11,大学2A,1607119,李季修,リキシュウ,LEECHIHSIU,72,8,4,63,2
2017/11,大学2美大,1610016,汪炫佚,オウゲンイツ,WANGXUANYI,72,4,0,68,1
2017/11,中上級1A,1610020,閻東明,エントウメイ,YANDONGMING,72,16,3,55,4
2017/11,中上級1B,1610021,馬藝銘,バゲイメイ,MAYIMING,72,0,0,72,0
2017/11,中上級1A,1610004,季豊裕,キホウユウ,JIFENGYU,72,4,3,67,1
2017/11,中上級1A,1610025,劉藝達,リュウゲイタツ,LIUYIDA,72,4,2,68,1
2017/11,大学3美大,1610026,呉比,ゴヒ,WUBI,72,13,7,57,3
2017/11,大学3美大,1610037,方霖穎,ホウリンエイ,FANGLINYING,72,14,0,58,2
2017/11,中級2A,1704007,文秋荻,ブンシュウテキ,WENQIUDI,72,0,0,72,0
2017/11,中級1B,1704008,張歆韵,チョウキンイン,ZHANGXINYUN,72,0,1,72,0
2017/11,中級1B,1704012,張雯菲　,チョウブンヒ,ZHANGWENFEI,72,11,2,61,2
2017/11,中級1B,1704013,陳曦,チンキ,CHENXI,72,13,1,59,2
2017/11,中級1B,1704016,韓夢倩,カンムセイ,HANMENGQIAN,72,21,4,50,5
2017/11,中級1A,1704029,徐銘孝,ジョメイコウ,XUMINGXIAO,72,12,4,59,3
2017/11,中級1A,1704041,郭亜含,カクアガン,GUOYAHAN,72,22,3,49,5
2017/11,中級2B,1704048,徐行,ジョコウ,XUHANG,72,0,0,72,0
2017/11,中級1A,1704052,宋宇鵬,ソウウホウ,SONGYUPENG,72,23,1,49,5
2017/11,初中級A,1704060,張明梓,チョウメイシ,ZHANGMINGZI,72,17,4,54,4
2017/11,初中級A,1704076,王　鵬,オウチュウホウ,WANGCHONGPENG,72,12,3,59,3
2017/11,中級1A,1704079,蘭玲,ランレイ,LANLING,72,9,2,63,2
2017/11,初中級D,1704082,趙亜翼,チョウアヨク,ZHAOYAYI,72,16,0,56,4
2017/11,中級1B,1704088,李春陽,リシュンヨウ,LICHUNYANG,72,15,1,57,3
2017/11,中級1D,1704014,李鵬程,リホウテイ,LIPENGCHENG,72,16,2,56,5
2017/11,中級1D,1704047,黄若楠,コウジャクナン,HUANGRUONAN,72,0,0,72,0
2017/11,中級1D,1704062,楊　露,ヨウレイロ,YANGLINGLU,72,0,0,72,0
2017/11,中級1D,1704064,賈雨晴,カウセイ,JIAYUQING,72,4,0,68,1
2017/11,中級1D,1704074,宋剣,ソウケン,SONGJIAN,72,16,1,56,6
2017/11,中級1D,1704087,丁一,テイイツ,DINGYI,72,8,0,64,3
2017/11,中級1D,1704090,儲冰潔,チョヒョウケツ,CHUBINGJIE,72,0,0,72,0
2017/11,初中級C,1704020,賀婷婷,ガテイテイ,HETINGTING,72,19,0,53,3
2017/11,中級1D,1704034,佘鵬飛,シャホウヒ,SHEPENGFEI,72,8,0,64,3
2017/11,中級1D,1704040,張茜,チヨウセン,ZHANGXI,72,0,0,72,0
2017/11,中級1D,1704057,王漪文,オウイブン,WANGYIWEN,72,4,0,68,1
2017/11,中級1D,1704068,朴雪英,ボクセツエイ,PIAOXUEYING,72,28,1,44,11
2017/11,中級1D,1704098,汪亦昀,オウエキイン,WANGYIYUN,72,16,0,56,5
2017/11,中級1D,1704106,章丹丹,ショウタンタン,ZHANGDANDAN,72,12,0,60,6
2017/11,中級1D,1704109,魏佳斌,ギカヒン,WEIJIABIN,72,16,3,55,6
2017/11,中級1D,1704118,張曼惠,チョウマンケイ,ZHANGMANHUI,72,20,0,52,8
2017/11,初中級C,1704096,孫夢家,ソンムカ,SUNMENGJIA,72,12,0,60,3
2017/11,初中級D,1707023,賈雯倩,カブンセイ,JIAWENQIAN,72,0,0,72,0
2017/11,初中級D,1707057,徐開来,ジョカイライ,XUKAILAI,72,0,1,72,0
2017/11,初中級C,1707088,姚穎菲,ヨウエイヒ,YIUWINGFEI,72,0,0,72,0
2017/11,初中級E,1704112,金　翎,キンレイ,JINLING,72,0,0,72,0
2017/11,初中級C,1707014,温紫萱,オンシケン,WENZIXUAN,72,0,0,72,0
2017/11,初中級E,1707031,楊建華,ヨウケンカ,YANGJIANHUA,72,5,4,66,1
2017/11,初中級C,1707026,劉釋伽,リュウシャクカ,LIUSHIJIA,72,12,1,60,3
2017/11,初中級C,1707029,唐竹,トウチク,TANGZHU,72,4,0,68,1
2017/11,初中級D,1707093,,シャムシエフシェロズ,SHAMSIEVSHEROZ,72,0,3,71,0
2017/11,初中級E,1707004,李功盛,リコウセイ,LIGONGSHENG,72,8,0,64,2
2017/11,初中級E,1707007,周成逸,シュウセイイツ,ZHOUCHENGYI,72,0,0,72,0
2017/11,初中級C,1707070,趙旭,チョウキョク,ZHAOXU,72,0,3,71,0
2017/11,初中級E,1707082,秦国棟,シンコクトウ,QINGUODONG,72,9,0,63,2
2017/11,初級2A,1710026,張鼎,チョウテイ,ZHANGDING,72,0,0,72,0
2017/11,初級2A,1710096,張帥,チョウスイ,ZHANGSHUAI,72,0,0,72,0
2017/11,初級2A,1710106,王璐,オウロ,WANGLU,72,0,0,72,0
2017/11,初級2A,1710113,高暁燕,コウギョウエン,GAOXIAOYAN,72,4,1,68,1
2017/11,初級2A,1710159,劉逸商,リュウイツショウ,LIUYISHANG,72,8,1,64,2
2017/11,初級2A,1710160,姚振凱,ヨウシンガイ,YAOZHENKAI,72,0,1,72,0
2017/11,初級2A,1710184,戴蘇揚,タイソヨウ,DAISUYANG,72,4,0,68,1
2017/11,初級2B,1710013,陳佳楠,チンカナン,CHENJIANAN,72,8,1,64,2
2017/11,初級2B,1710080,孫愷,ソンガイ,SUNKAI,72,8,0,64,2
2017/11,初級2B,1710137,陸俣慧,リクマタケイ,LUYUHUI,72,0,0,72,0
2017/11,初級2B,1710161,楊暁剛,ヨウギョウゴウ,YANGXIAOGANG,72,0,0,72,0
2017/11,初級2B,1710167,黄子鋒,コウシホウ,HUANGZIFENG,72,16,0,56,4
2017/11,初級2B,1710170,王雨越,オウウエツ,WANGYUYUE,72,0,0,72,0
2017/11,初級2B,1710175,丁佳男,テイカナン,DINGJIANAN,72,0,0,72,0
2017/11,初級2B,1710195,曲雨,キョクウ,QUYU,72,8,0,64,2
2017/11,初級2B,1710217,林亜璇,リンアセン,,72,0,0,72,0
2017/11,初級2C,1710019,李歌謠,リカヨウ,LIGEYAO,72,0,0,72,0
2017/11,初級2C,1710028,陳慧瀅,チンケイエイ,CHENHUIYING,72,0,0,72,0
2017/11,初級2C,1710033,唐擎,トウケイ,TANGQING,72,0,3,71,0
2017/11,初級2C,1710045,徐悦,ジョエツ,XUYUE,72,0,0,72,0
2017/11,初級2C,1710070,陳思妍,チンシケン,CHENSIYAN,72,0,0,72,0
2017/11,初級2C,1710173,孫越,ソンエツ,SUNYUE,72,0,0,72,0
2017/11,初級2C,1710174,車振群,シャシングン,CHEZHENQUN,72,0,0,72,0
2017/11,初級2C,1710194,劉暁鈺,リュウギョウギョク,LIUXIAOYU,72,0,0,72,0
2017/11,初級2D,1710017,李志原,リシゲン,LIZHIYUAN,72,0,0,72,0
2017/11,初級2D,1710065,古楊,コヨウ,GUYANG,72,0,0,72,0
2017/11,初級2D,1710105,郭休,カクキュウ,GUOXIU,72,0,0,72,0
2017/11,初級2E,1710008,田冰茹,デンヒョウジョ,TIANBINGRU,72,0,0,72,0
2017/11,初級2E,1710023,韓思明,カンシメイ,HANSIMING,72,0,0,72,0
2017/11,中上級2A,1604042,魯崧,ロスウ,LUSONG,72,43,2,29,8
2017/11,大学院3A,1604156,単晶瑩,タンショウエイ,SHANJINGYING,72,1,4,70,0
2017/11,大学院3A,1604137,楊子揚,ヨウシヨウ,YANGZIYANG,72,8,8,62,0
2017/11,中上級1B,1604140,杜藝嘉,トゲイカ,DUYIJIA,72,27,4,44,6
2017/11,大学3A,1604142,鄒涛,スウトウ,ZOUTAO,72,13,1,59,3
2017/11,大学院3A,1604157,蒋松燊,ショウショウセン,JIANGSONGSHEN,72,20,0,52,5
2017/11,大学院3A,1607096,鄒洋,スウヨウ,ZOUYANG,72,32,0,40,8
2017/11,大学2B,1607042,馬一督,バイットク,MAYIDU,72,19,2,53,4
2017/11,大学3A,1607046,徐菁一,ジョセイイチ,XUJINGYI,72,0,0,72,0
2017/11,大学院3A,1607050,莫凡,バクハン,MOFAN,72,12,6,58,2
2017/11,大学2A,1607091,劉一凡,リュウイチハン,LIUYIFAN,72,20,2,52,4
2017/11,中級2A,1704039,杜静雯,トセイブン,DUJINGWEN,72,16,0,56,4
2017/11,中級1B,1704072,姜叢軒,キョウソウケン,JIANGCONGXUAN,72,9,2,63,2
2017/11,中級2A,1704100,昊宇,ホウコウウ,PANGHAOYU,72,16,0,56,4
2017/11,中級2B,1704119,雷米特,ライベイトク,LEIMITE,72,6,0,66,1
2017/11,大学3A,1704152,宋昌澔,ソンチャンホ,"SONGCHANG HO",72,0,0,72,0
2017/11,中級2A,1704065,李鈺児,リギョクジ,LIYUER,72,20,2,52,4
2017/11,中級2B,1704071,竺可迪,チクカテキ,ZHUKEDI,72,17,1,55,4
2017/11,中級2A,1704089,曹彬宸,ソウヒンシン,CAOBINCHEN,72,16,0,56,4
2017/11,大学3美大,1704091,干甜,カンテン,GANTIAN,72,12,0,60,3
2017/11,中級2A,1704097,陸嘉,リクカイ,LUJIAWEI,72,4,5,67,1
2017/11,中級2B,1704101,羅照軒,ラショウケン,LUOZHAOXUAN,72,25,3,46,6
2017/11,中級1A,1707002,周亜英,シュウアエイ,ZHOUYAYING,72,0,1,72,0
2017/11,中級1A,1707005,徐哲,ジョテツ,XUZHE,72,2,0,70,0
2017/11,中級1A,1707006,夏驕陽,カキョウヨウ,XIAJIAOYANG,72,5,6,65,1
2017/11,中級1A,1707015,羅靖雯,ラセイブン,LUOJINGWEN,72,0,0,72,0
2017/11,中級1A,1707018,王伊依,オウイイ,WANGYIYI,72,13,1,59,2
2017/11,中級1A,1707030,胡晋睿,コシンエイ,HUJINRUI,72,13,2,59,2
2017/11,中級1A,1707037,周思彤,シュウシトウ,ZHOUSITONG,72,0,0,72,0
2017/11,中級1A,1707061,艾迪,ガイテキ,AIDI,72,12,4,59,3
2017/11,中級1A,1707064,穆亜蝶,ボクアチョウ,MUYADIE,72,9,0,63,2
2017/11,初中級A,1707096,,チョウコウショウ,張宏祥,72,48,0,24,12
2017/11,中級1B,1707020,張丹妮,チョウタンジ,ZHANGDANNI,72,7,0,65,1
2017/11,中級1B,1707021,常露露,ジョウロロ,CHANGLULU,72,0,0,72,0
2017/11,中級1B,1707028,何東恩,カトウオン,HEDONGEN,72,12,0,60,3
2017/11,中級1B,1707032,林敬煒,リンケイイ,LINJINGWEI,72,12,2,60,3
2017/11,中級1B,1707042,呂佳妮,リョカジ,LYUJIANI,72,14,0,58,3
2017/11,中級1B,1707059,劉澤霏,リュウタクヒ,LIUZEFEI,72,8,0,64,2
2017/11,中級1B,1707060,瀋玥,シンゲツ,SHENYUE,72,17,1,55,4
2017/11,中級1B,1707066,韓竺苪,カンジクヘイ,HANZHURUI,72,12,1,60,3
2017/11,中級1B,1707087,黄雯雯,コウブンブン,HUANGWENWEN,72,27,1,45,4
2017/11,初中級A,1710004,陳韜,チントウ,CHENTAO,72,4,3,67,1
2017/11,初中級A,1710014,呉建麗,ゴケンレイ,WUJIANLI,72,8,2,64,2
2017/11,初中級A,1710034,張岑,チョウシン,ZHANGCEN,72,0,1,72,0
2017/11,初中級A,1710043,陳樹立,チンジュリツ,CHENSHULI,72,0,0,72,0
2017/11,初中級A,1710078,黄洋,コウヨウ,HUANGYANG,72,0,0,72,0
2017/11,初中級A,1710081,張仲妹,チョウチュウマイ,ZHANGZHONGMEI,72,0,0,72,0
2017/11,初中級A,1710085,斉瀚,サイカン,QIHAN,72,0,0,72,0
2017/11,初中級A,1710107,周金晶,シュウキンショウ,ZHOUJINJING,72,0,0,72,0
2017/11,初中級A,1710121,張文博,チョウブンハク,ZHANGWENBO,72,0,0,72,0
2017/11,初中級A,1710130,欧陽詩鈺,オウヨウシギョク,OUYANGSHIYU,72,8,0,64,2
2017/11,初中級A,1710135,徐詩嫻,ジョシカン,XUSHIXIAN,72,8,0,64,2
2017/11,初中級A,1710196,王海霞,オウカイカ,WANGHAIXIA,72,0,0,72,0
2017/11,初中級A,1710212,徐超豪,ジョチョウゴウ,XUCHAOHAO,72,36,1,36,9
2017/11,初中級E,9917043,,リュセビン,RYUSEBIN,72,44,0,28,11
2017/11,上級1A,1604163,賈翼博,カヨクハク,JIAYIBO,72,14,1,58,3
2017/11,大学院2A,1610043,銭柏霖,センハクリン,QIANBAILIN,72,0,0,72,0
2017/11,中上級1A,1704021,鄭　慧,テイシケイ,ZHENGZHIHUI,72,4,2,68,1
2017/11,中上級1A,1704102,龍一飛,リュウイツヒ,LONGYIFEI,72,12,0,60,3
2017/11,中級2A,1707003,楊陽,ヨウヨウ,YANGYANG,72,4,2,68,0
2017/11,中級2A,1707016,王鳳超,オウホウチョウ,WANGFENGCHAO,72,0,0,72,0
2017/11,中級2A,1707040,羅偉峰,ライホウ,LUOWEIFENG,72,8,0,64,2
2017/11,大学院2B,1707008,李亮呈,リリョウテイ,LILIANGCHENG,72,26,1,46,6
2017/11,大学院2B,1707022,郭雨蕙,カクウケイ,GUOYUHUI,72,0,0,72,0
2017/11,中上級1A,1707084,簡頌賢,カンショウケン,JIANSONGXIAN,72,0,0,72,0
2017/11,中級1A,1710015,賀士杰,ガシケツ,HESHIJIE,72,0,0,72,0
2017/11,中級1A,1710054,曹洪琛,ソウコウチン,CAOHONGCHEN,72,0,0,72,0
2017/11,中級1A,1710155,柯曜東,カヨウトウ,KEYAODONG,72,4,1,68,1
2017/11,中級1B,1710060,于松鑫,ウショウキン,YUSONGXIN,72,37,1,35,9
2017/11,中級1B,1710126,袁青,エンセイ,"YUAN QING袁青",72,7,2,65,1
2017/11,中級1B,1710129,刑雋怡,ケイシュンイ,XINGJUNYI,72,14,2,58,2
2017/11,中級1D,1710148,黄書銘,コウショメイ,HUANGSHUMING,72,0,0,72,0
2017/11,中級1D,1710152,黎慧璋,レイケイショウ,LIHUIZHANG,72,0,0,72,0
2017/11,中級1D,1710164,姜南,キョウナン,JIANGNAN,72,1,0,71,0
2017/11,中級1D,1710193,張宇菲,チョウウヒ,ZHANGYUFEI,72,8,0,64,3
2017/11,中級1D,1710197,林文広,リンブンコウ,LINWENGUANG,72,8,0,64,3
2017/11,大学3A,1607066,陳浩麟,チンコウリン,CHENHAOLIN,72,13,0,59,3
2017/11,大学3美大,1610018,姜玉敏,キョウギョクビン,JIANGYUMIN,72,20,2,52,5
2017/11,上級1A,1704025,劉玲,リュウレイ,LIULING,72,12,1,60,3
2017/11,上級1A,1704026,劉昱君,リュウイククン,LIUYUJUN,72,28,1,44,7
2017/11,上級1A,1704036,魏佳曦,ギカギ,WEIJIAXI,72,5,10,64,1
2017/11,上級1A,1704049,王雪珊,オウセツサン,WANGXUESHAN,72,8,0,64,2
2017/11,上級1A,1704077,杜皓亮,トコウリョウ,DUHAOLIANG,72,35,0,37,8
2017/11,中上級2A,1704092,賀文沁,カブンシン,HEWENQIN,72,8,1,64,2
2017/11,大学3美大,1704081,梁靖冉,リョウセイゼン,LIANGJINGRAN,72,24,3,47,6
2017/11,大学3美大,1704115,郭軻天,カクカテン,GUOKETIAN,72,0,0,72,0
2017/11,大学3A,1607067,鞠印軒,キクインケン,JUYINXUAN,72,0,1,72,0
2017/11,上級1A,1610027,梁渝寧,リョウユネイ,LIANGYUNING,72,5,7,65,1
2017/11,中上級2A,1707041,柴晨光,サイシンコウ,CHAICHENGUANG,72,8,4,63,2
2017/11,中上級1B,1710052,林少雄,リンショウユウ,LINSHAOXIONG,72,16,1,56,4
2017/11,中上級1B,1710100,崔秋月,サイシュウゲツ,CUIQIUYUE,72,0,0,72,0
2017/11,中上級1B,1710111,李淼,リビョウ,LIMIAO,72,0,0,72,0
2017/11,中上級1B,1710128,宋海洋,ソウカイヨウ,SONGHAIYANG,72,0,0,72,0
2017/11,中上級1B,1710138,劉穎霖,リュウエイリン,LIUYINGLIN,72,12,0,60,3
2017/11,中上級1B,1710144,周晟岐,シュウセイキ,ZHOUSHENGQI,72,9,1,63,1
2017/11,中上級1B,9917040,張呉越,チョウゴエツ,ZHANGWUYUE,72,0,0,72,0
2017/11,大学院3A,1610023,陸山青,リクサンセイ,LUSHANQING,72,0,0,72,0
2017/11,大学3美大,1610045,黄綺程,コウキテイ,WONGICHENG,72,0,0,72,0
2017/11,上級1A,1707077,王佳婧,オウカセイ,WANGJIAJING,72,4,0,68,1
2017/11,上級1A,1710029,洪成超,コウセイチョウ,HONGCHENGCHAO,72,1,1,71,0
2017/11,中上級2A,1710031,茅潔,ボウケツ,MAOJIE,72,0,0,72,0
2017/11,中上級2A,1710035,鄭昊青,テイコウセイ,ZHENGHAOQING,72,0,0,72,0
2017/11,上級1A,1710181,韋佳欣,イカキン,WEIJIAXIN,72,0,0,72,0
2017/11,大学院3A,1604083,王丹,オウタン,WANGDAN,72,0,0,72,0
2017/11,大学院3A,1610039,郭寧海,カクネイカイ,GUONINGHAI,72,0,0,72,0
2017/11,上級1A,1710061,徐慧,ジョケイ,XUHUI,72,0,3,71,0
2017/11,上級1A,9917041,金世美,キムセミ,KIMSEMI,48,24,0,24,6
2017/11,大学3美大,1704108,王怡瑋,オウイイ,WANGYIWEI,72,4,0,68,1
2017/11,大学3A,1704059,施宇迪,シウテキ,SHIYUDI,72,4,1,68,1
2017/11,大学3A,1704105,敬藝丹,ケイゲイタン,JINGYIDAN,72,2,0,70,0
