﻿id,function_group_id,name,path,is_in_menu,sequence,lastup_account_id,create_datetime,lastup_datetime,disable
1,1,学生カルテ,staff/student/student_search_list,1,1,2000,2018-03-30 18:09:56,2018-03-30 18:09:56,0
2,1,クラス名簿出力,staff/curriculum/class_list_output,1,2,2000,2018-03-30 18:09:56,2018-03-30 18:09:56,0
3,1,卒業・修了証出力,staff/export_graduated_certificate/search,1,3,2000,2018-03-30 18:09:56,2018-03-30 18:09:56,0
4,1,褒章管理,"",0,0,2000,2018-03-30 18:09:56,2018-03-30 18:09:56,0
5,1,進路情報検索,"",0,0,2000,2018-03-30 18:09:56,2018-03-30 18:09:56,1
6,1,自己評価チェック,"",0,0,2000,2018-03-30 18:09:56,2018-03-30 18:09:56,1
7,2,入学生一括登録,staff/admission/bulk_register,1,1,2000,2018-03-30 18:09:56,2019-04-08 20:02:38,0
8,2,合格通知書発行,staff/admission/issue_passing_certificate,1,2,2000,2018-03-30 18:09:56,2018-03-30 18:09:56,0
9,2,入国管理情報確認,staff/admission/confirm_for_immigration_bureau,1,4,2000,2018-03-30 18:09:56,2018-03-30 18:09:56,0
10,2,在留資格認定証明書交付申請,staff/admission/apply_residence_status,1,5,2000,2018-03-30 18:09:56,2018-03-30 18:09:56,0
11,2,入学許可証発行,staff/admission/issue_acceptance_letter,1,6,2000,2018-03-30 18:09:56,2018-03-30 18:09:56,0
12,2,入学プレースメントテスト,staff/placement_exam,1,10,2000,2018-03-30 18:09:56,2018-03-30 18:09:56,0
13,2,申請番号付与,staff/student/student_application_no_list,1,3,2000,2018-03-30 18:09:56,2018-03-30 18:09:56,0
15,2,中長期在留者の受け入れ情報,staff/admission/grant_residence,1,7,2000,2018-03-30 18:09:56,2018-03-30 18:09:56,0
16,2,請求書発行,staff/admission/issue_invoice,1,8,2000,2018-03-30 18:09:56,2018-03-30 18:09:56,0
17,2,入金確認,staff/admission/confirm_payment,1,9,2000,2018-03-30 18:09:56,2018-03-30 18:09:56,0
18,3,出席状況,staff/school_record/attendance_list,1,1,2000,2018-03-30 18:09:56,2018-03-30 18:09:56,0
19,3,出欠訂正一覧,staff/school_record/correct_attendance_list,1,2,2000,2018-03-30 18:09:56,2018-03-30 18:09:56,0
20,3,出席率ランキング,staff/export/ranking_attendance_rate,1,3,2000,2018-03-30 18:09:56,2018-03-30 18:09:56,0
21,4,出欠訂正承認一覧,staff/school_record/correct_attendance_approval_list,1,1,2000,2018-03-30 18:09:56,2018-03-30 18:09:56,0
22,4,強制退学・除籍,"",0,0,2000,2018-03-30 18:09:56,2018-03-30 18:09:56,0
23,5,届出・申請書,staff/application/search_student,1,1,2000,2018-03-30 18:09:56,2018-03-30 18:09:56,0
24,5,申請状況一覧,staff/application/narrow_down,1,2,2000,2018-03-30 18:09:56,2018-03-30 18:09:56,0
25,5,各種証明書出力一覧,staff/report/certificates_output_list,1,3,2000,2018-03-30 18:09:56,2018-03-30 18:09:56,0
26,6,年間カレンダー,staff/event/calendar_in_year,1,1,2000,2018-03-30 18:09:56,2018-03-30 18:09:56,0
27,6,お知らせ編集,staff/notice/show,1,2,2000,2018-03-30 18:09:56,2018-03-30 18:09:56,0
28,7,成績一覧,staff/school_record/result_list,1,1,2000,2018-03-30 18:09:56,2018-03-30 18:09:56,0
29,7,期末テスト結果,staff/school_record/term_end_exam_list,1,2,2000,2018-03-30 18:09:56,2018-03-30 18:09:56,0
30,7,まとめテスト結果,staff/school_record/term_middle_exam_list,1,3,2000,2018-03-30 18:09:56,2018-03-30 18:09:56,0
31,7,クラスアップテスト,"",0,0,2000,2018-03-30 18:09:56,2018-03-30 18:09:56,0
32,7,入学プレースメントテスト,"",0,0,2000,2018-03-30 18:09:56,2018-03-30 18:09:56,1
33,7,外部テスト結果,staff/school_record/external_test_result_list,1,6,2000,2018-03-30 18:09:56,2018-03-30 18:09:56,0
34,8,テスト問題管理,staff/exam_test,1,1,2000,2018-03-30 18:09:56,2018-03-30 18:09:56,0
35,16,動画コンテンツ管理,staff/video_content/show,1,2,2000,2018-03-30 18:09:56,2018-03-30 18:09:56,0
36,8,マークシート管理,staff/marksheet_exam,1,3,2000,2018-03-30 18:09:56,2018-03-30 18:09:56,0
37,8,宿題,"",0,4,2000,2018-03-30 18:09:56,2018-03-30 18:09:56,0
38,7,動画の学習状況,staff/video_content/list_student_video,1,4,2000,2018-03-30 18:09:56,2018-03-30 18:09:56,0
39,9,職員名簿,staff/staff/staff_list,1,1,2000,2018-03-30 18:09:56,2018-03-30 18:09:56,0
40,9,勤怠管理(月別),staff/attendance_list/attendance_list_monthly,1,2,2000,2018-03-30 18:09:56,2018-03-30 18:09:56,0
41,9,勤怠管理(日別),staff/attendance_list/attendance_list_daily,1,3,2000,2018-03-30 18:09:56,2018-03-30 18:09:56,0
42,9,エージェント情報,staff/agent/show,1,4,2000,2018-03-30 18:09:56,2018-03-30 18:09:56,0
43,9,自己評価チェック,"",0,0,2000,2018-03-30 18:09:56,2018-03-30 18:09:56,1
44,10,職員面談,"",0,0,2000,2018-03-30 18:09:56,2018-03-30 18:09:56,0
45,10,給与明細,"",0,0,2000,2018-03-30 18:09:56,2018-03-30 18:09:56,0
46,10,源泉徴収,"",0,0,2000,2018-03-30 18:09:56,2018-03-30 18:09:56,0
47,10,コマ給定義,"",0,0,2000,2018-03-30 18:09:56,2018-03-30 18:09:56,0
48,11,レベル一覧,staff/curriculum/level_list,1,1,2000,2018-03-30 18:09:56,2018-03-30 18:09:56,0
49,11,クラス編成,staff/curriculum/bulk_class_create,1,2,2000,2018-03-30 18:09:56,2018-03-30 18:09:56,0
50,11,シフト希望,staff/curriculum/shift_request_list,1,3,2000,2018-03-30 18:09:56,2018-03-30 18:09:56,0
51,11,シフト作成,staff/curriculum/create_class_shift,1,4,2000,2018-03-30 18:09:56,2018-03-30 18:09:56,0
52,11,クラス分け,staff/curriculum/student_classify_top,1,5,2000,2018-03-30 18:09:56,2018-03-30 18:09:56,0
53,12,月次締め処理,staff/export/attendance_rate,1,1,2000,2018-03-30 18:09:56,2018-03-30 18:09:56,0
54,12,出席率更新,staff/attendance_rate/update_attendance_rate,1,2,2000,2018-03-30 18:09:56,2018-03-30 18:09:56,0
55,12,イベント種別管理,staff/event/show,1,3,2000,2018-03-30 18:09:56,2018-03-30 18:09:56,0
56,12,年間カレンダー編集,staff/event/calendar_management,1,4,2000,2018-03-30 18:09:56,2018-05-17 20:27:42,0
57,12,休校日管理,staff/event/event_holiday_calendar,1,5,2000,2018-03-30 18:09:56,2018-03-30 18:09:56,0
58,12,シフト表アップロード,staff/upload_pdf/upload_class_shift_pdf,1,6,2000,2018-03-30 18:09:56,2018-03-30 18:09:56,0
59,12,各種帳票管理※テンプレートの入れ替え＆印刷,"",0,0,2000,2018-03-30 18:09:56,2018-03-30 18:09:56,0
60,12,お知らせ編集,"",0,0,2000,2018-03-30 18:09:56,2018-03-30 18:09:56,1
61,12,進学学校編集,"",0,0,2000,2018-03-30 18:09:56,2018-03-30 18:09:56,1
62,12,連続欠席学生更新,staff/attendance_rate/update_absent_continuity,1,8,2000,2018-03-30 18:09:56,2018-03-30 18:09:56,0
63,13,パスワード再設定,staff/account/forgot_password,1,2,2000,2018-03-30 18:09:56,2018-03-30 18:09:56,0
64,13,権限設定画面,staff/account/authority_setting,1,3,2000,2018-03-30 18:09:56,2018-03-30 18:09:56,0
75,13,タブレットアプリケーション管理,staff/tablet_application_update/show,0,0,2000,2018-03-30 18:09:56,2018-03-30 18:09:56,0
76,13,ヘルプ文言管理,staff/helper/show,1,1,2000,2018-03-30 18:09:56,2018-03-30 18:09:56,0
82,13,出席インポート,staff/import/class_attendance,0,0,2000,2018-03-30 18:09:56,2018-03-30 18:09:56,1
83,2,資格外活動許可申請,staff/admission/permission_engage_other_activity,1,11,2000,2018-03-30 18:09:56,2018-03-30 18:09:56,0
84,2,在留資格更新,staff/admission/update_residence_status,1,12,2000,2018-03-30 18:09:56,2018-03-30 18:09:56,0
85,12,帳票登録,staff/template/manage,0,9,2000,2018-03-30 18:09:56,2018-03-30 18:09:56,1
86,1,学生カルテ詳細(基本),staff/student/student_chart_detail,0,0,2000,2018-03-30 18:09:56,2018-03-30 18:09:56,0
87,1,学生カルテ詳細(基本),staff/student/student_chart_additional_editing,0,0,2000,2018-03-30 18:09:56,2018-03-30 18:09:56,0
88,1,学生カルテ詳細(入国管理情報),staff/student/immigration_control,0,0,2000,2018-03-30 18:09:56,2018-03-30 18:09:56,0
89,1,学生カルテ詳細(入国管理情報),staff/student/immigration_control_editing,0,0,2000,2018-03-30 18:09:56,2018-03-30 18:09:56,0
90,1,学生カルテ詳細(成績情報),staff/student/achievement_info,0,0,2000,2018-03-30 18:09:56,2018-03-30 18:09:56,0
91,1,学生カルテ詳細(成績情報),staff/student/achievement_edit,0,0,2000,2018-03-30 18:09:56,2018-03-30 18:09:56,0
92,1,学生カルテ詳細(資格及び検定),staff/student/get_qualification_and_certification_detail,0,0,2000,2018-03-30 18:09:56,2018-03-30 18:09:56,0
93,1,学生カルテ詳細(出席情報),staff/student/attendance_rate,0,0,2000,2018-03-30 18:09:56,2018-03-30 18:09:56,0
94,1,学生カルテ詳細(面談履歴),staff/student/interview_record,0,0,2000,2018-03-30 18:09:56,2018-03-30 18:09:56,0
95,1,学生カルテ詳細(面談履歴),staff/student/interview_record_add,0,0,2000,2018-03-30 18:09:56,2018-03-30 18:09:56,0
96,1,学生カルテ詳細(作品集),staff/student/art_work,0,0,2000,2018-03-30 18:09:56,2018-03-30 18:09:56,0
97,1,学生カルテ詳細(賞罰),staff/student/prize_and_punishment,0,0,2000,2018-03-30 18:09:56,2018-03-30 18:09:56,0
98,1,学生カルテ詳細画面,staff/student/manage_dropout,0,0,2000,2018-03-30 18:09:56,2018-03-30 18:09:56,0
99,1,クラス編成,staff/curriculum/export_excel,0,0,2000,2018-03-30 18:09:56,2018-03-30 18:09:56,0
100,2,"",staff/admission/download_grant_residence_csv,0,0,2000,2018-03-30 18:09:56,2018-03-30 18:09:56,0
101,2,請求書管理・編集 ,staff/admission/add_issue_invoice,0,0,2000,2018-03-30 18:09:56,2018-03-30 18:09:56,0
102,2,テスト問題作成,staff/placement_exam/create,0,0,2000,2018-03-30 18:09:56,2018-03-30 18:09:56,0
103,2,テスト編集,staff/placement_exam/exam_get,0,0,2000,2018-03-30 18:09:56,2018-03-30 18:09:56,0
104,2,正答入力,staff/placement_exam/load_list,0,0,2000,2018-03-30 18:09:56,2018-03-30 18:09:56,0
105,2,テスト管理,staff/placement_exam/manage_score,0,0,2000,2018-03-30 18:09:56,2018-03-30 18:09:56,0
106,2,テスト学生リスト,staff/placement_exam/get_student_list_exam,0,0,2000,2018-03-30 18:09:56,2018-03-30 18:09:56,0
107,2,テスト問題作成,staff/placement_exam/copy_exam,0,0,2000,2018-03-30 18:09:56,2018-03-30 18:09:56,0
108,2,新規テンプレートダウンロード,staff/admission/bulk_register_download_student_result,0,0,2000,2018-03-30 18:09:56,2018-03-30 18:09:56,0
110,3,出欠訂正確認画面,staff/school_record/correct_attendance_modify_reason,0,0,2000,2018-03-30 18:09:56,2018-03-30 18:09:56,0
111,3,出欠訂正確認画面,staff/school_record/update_correct_attendance_modify_reason,0,0,2000,2018-03-30 18:09:56,2018-03-30 18:09:56,0
113,3,出席一覧更新,staff/school_record/update_attendance_list,0,0,2000,2018-03-30 18:09:56,2018-03-30 18:09:56,0
114,3,出席一覧EXCEL出力,staff/school_record/export_attendance_list_to_excel,0,0,2000,2018-03-30 18:09:56,2018-03-30 18:09:56,0
115,5,公欠願,staff/application/official_absence,0,0,2000,2018-03-30 18:09:56,2018-03-30 18:09:56,0
116,5,一時帰国届,staff/application/temporary_return,0,0,2000,2018-03-30 18:09:56,2018-03-30 18:09:56,0
117,5,個人情報変更届,staff/application/personal_information_change,0,0,2000,2018-03-30 18:09:56,2018-03-30 18:09:56,0
118,5,クラス移動申請書入力画面,staff/application/change_class,0,0,2000,2018-03-30 18:09:56,2018-03-30 18:09:56,0
119,5,退学届入力画面,staff/application/withdrawal_notification,0,0,2000,2018-03-30 18:09:56,2018-03-30 18:09:56,0
120,5,休学届,staff/application/temporary_absence,0,0,2000,2018-03-30 18:09:56,2018-03-30 18:09:56,0
121,5,証明書発行願入力画面,staff/application/issue_certificate,0,0,2000,2018-03-30 18:09:56,2018-03-30 18:09:56,0
122,5,公欠願,staff/application/absence_request,0,0,2000,2018-03-30 18:09:56,2018-03-30 18:09:56,0
123,5,各種証明書出力一覧,staff/report/certificate_output,0,0,2000,2018-03-30 18:09:56,2018-03-30 18:09:56,0
124,7,外部テスト管理,staff/school_record/external_test_result_modify,0,0,2000,2018-03-30 18:09:56,2018-03-30 18:09:56,0
125,7,成績一覧画面,staff/school_record/export_result_list_csv,0,0,2000,2018-03-30 18:09:56,2018-03-30 18:09:56,0
126,7,期末テスト一覧画面,staff/school_record/export_term_end_exam_csv,0,0,2000,2018-03-30 18:09:56,2018-03-30 18:09:56,0
127,7,期末テスト編集画面,staff/school_record/term_end_exam_modify,0,0,2000,2018-03-30 18:09:56,2018-03-30 18:09:56,0
128,7,まとめテスト一覧画面,staff/school_record/export_term_middle_exam_csv,0,0,2000,2018-03-30 18:09:56,2018-03-30 18:09:56,0
129,7,外部テスト管理,staff/school_record/export_external_test_result_csv,0,0,2000,2018-03-30 18:09:56,2018-03-30 18:09:56,0
130,7,まとめテスト編集画面,staff/school_record/term_middle_exam_modify,0,0,2000,2018-03-30 18:09:56,2018-03-30 18:09:56,0
131,8,テスト問題作成,staff/exam_test/create,0,0,2000,2018-03-30 18:09:56,2018-03-30 18:09:56,0
132,8,正答入力,staff/exam_test/load_list,0,0,2000,2018-03-30 18:09:56,2018-03-30 18:09:56,0
133,8,テスト編集,staff/exam_test/exam_get,0,0,2000,2018-03-30 18:09:56,2018-03-30 18:09:56,0
134,8,テストクラスリスト,staff/exam_test/get_class_list_exam,0,0,2000,2018-03-30 18:09:56,2018-03-30 18:09:56,0
135,16,動画コンテンツ編集,staff/video_content/edit,0,0,2000,2018-03-30 18:09:56,2018-03-30 18:09:56,0
136,16,テスト編集,staff/video_content/video_exam_get,0,0,2000,2018-03-30 18:09:56,2018-03-30 18:09:56,0
137,16,正答入力,staff/video_content/load_list,0,0,2000,2018-03-30 18:09:56,2018-03-30 18:09:56,0
138,16,動画コンテンツ登録,staff/video_content/add,0,0,2000,2018-03-30 18:09:56,2018-03-30 18:09:56,0
139,16,動画コンテンツ登録,staff/video_content/edit_public_class,0,0,2000,2018-03-30 18:09:56,2018-03-30 18:09:56,0
140,16,公開クラス設定,staff/video_content/set_up_public_class,0,0,2000,2018-03-30 18:09:56,2018-03-30 18:09:56,0
141,8,テスト問題作成,staff/marksheet_exam/create,0,0,2000,2018-03-30 18:09:56,2018-03-30 18:09:56,0
142,8,テスト編集,staff/marksheet_exam/exam_get,0,0,2000,2018-03-30 18:09:56,2018-03-30 18:09:56,0
143,8,点数換算表設定,staff/marksheet_exam/score_converting_table,0,0,2000,2018-03-30 18:09:56,2018-03-30 18:09:56,0
144,8,テスト学生リスト,staff/exam_test/get_student_list_exam,0,0,2000,2018-03-30 18:09:56,2018-03-30 18:09:56,0
145,8,テスト問題作成,staff/exam_test/copy_exam,0,0,2000,2018-03-30 18:09:56,2018-03-30 18:09:56,0
146,8,テスト編集,staff/marksheet_exam/copy_exam,0,0,2000,2018-03-30 18:09:56,2018-03-30 18:09:56,0
147,16,テスト編集,staff/video_content/create_exam_video,0,0,2000,2018-03-30 18:09:56,2018-03-30 18:09:56,0
148,9,職員一覧画面,staff/staff_list,0,0,2000,2018-03-30 18:09:56,2018-03-30 18:09:56,0
149,9,職員一覧画面,staff/staff/delete,0,0,2000,2018-03-30 18:09:56,2018-03-30 18:09:56,0
150,9,職員追加,staff/staff/add,0,0,2000,2018-03-30 18:09:56,2018-03-30 18:09:56,0
151,9,職員参照,staff/staff/detail,0,0,2000,2018-03-30 18:09:56,2018-03-30 18:09:56,0
152,9,職員編集,staff/staff/edit,0,0,2000,2018-03-30 18:09:56,2018-03-30 18:09:56,0
153,9,職員一覧CSV出力,staff/staff/export_staff_list_to_csv,0,0,2000,2018-03-30 18:09:56,2018-03-30 18:09:56,0
154,9,勤怠管理(日別)一覧,staff/attendance_list/attendance_input_reason,0,0,2000,2018-03-30 18:09:56,2018-03-30 18:09:56,0
155,9,エージェント情報新規登録,staff/agent/add,0,0,2000,2018-03-30 18:09:56,2018-03-30 18:09:56,0
156,9,エージェント情報詳細,staff/agent/detail,0,0,2000,2018-03-30 18:09:56,2018-03-30 18:09:56,0
157,9,エージェント情報編集,staff/agent/edit,0,0,2000,2018-03-30 18:09:56,2018-03-30 18:09:56,0
158,11,レベル一覧画面,staff/curriculum/level_delete,0,0,2000,2018-03-30 18:09:56,2018-03-30 18:09:56,0
159,11,クラス追加,staff/curriculum/create_class,0,0,2000,2018-03-30 18:09:56,2018-03-30 18:09:56,0
160,11,シフト希望詳細画面,staff/curriculum/shift_request_detail,0,0,2000,2018-03-30 18:09:56,2018-03-30 18:09:56,0
161,11,クラス分トップ画面,staff/curriculum/unclassified_student_assignment,0,0,2000,2018-03-30 18:09:56,2018-03-30 18:09:56,0
162,11,クラス編成,staff/curriculum/delete_class,0,0,2000,2018-03-30 18:09:56,2018-03-30 18:09:56,0
163,11,各クラス学生画面,staff/curriculum/classified_student_assignment,0,0,2000,2018-03-30 18:09:56,2018-03-30 18:09:56,0
164,12,イベント種別編集,staff/event/edit,0,0,2000,2018-03-30 18:09:56,2018-03-30 18:09:56,0
165,12,イベント種別削除,staff/event/delete,0,0,2000,2018-03-30 18:09:56,2018-03-30 18:09:56,0
166,12,イベント種別追加,staff/event/add,0,0,2000,2018-03-30 18:09:56,2018-03-30 18:09:56,0
167,12,帳票登録ダウンロード,staff/template/download,0,0,2000,2018-03-30 18:09:56,2018-03-30 18:09:56,0
168,12,Define Attendance,staff/teacher/update_define_attendance,0,0,2000,2018-03-30 18:09:56,2018-03-30 18:09:56,0
169,13,パスワード再設定画面,staff/account/reset_password_target,0,0,2000,2018-03-30 18:09:56,2018-03-30 18:09:56,0
170,15,学生カルテ詳細(成績情報),staff/student/achievement_info,0,0,2000,2018-03-30 18:09:56,2018-03-30 18:09:56,0
171,15,学生カルテ詳細(作品集),staff/student/art_work,0,0,2000,2018-03-30 18:09:56,2018-03-30 18:09:56,0
172,15,学生カルテ詳細(出席情報),staff/student/attendance_rate,0,0,2000,2018-03-30 18:09:56,2018-03-30 18:09:56,0
173,15,学生カルテ詳細(資格及び検定),staff/student/get_qualification_and_certification_detail,0,0,2000,2018-03-30 18:09:56,2018-03-30 18:09:56,0
174,15,学生カルテ詳細(入国管理情報),staff/student/immigration_control,0,0,2000,2018-03-30 18:09:56,2018-03-30 18:09:56,0
175,15,学生カルテ詳細(面談履歴),staff/student/interview_record,0,0,2000,2018-03-30 18:09:56,2018-04-26 20:30:54,1
176,15,学生カルテ詳細(賞罰),staff/student/prize_and_punishment,0,0,2000,2018-03-30 18:09:56,2018-03-30 18:09:56,0
177,15,学生カルテ詳細(基本),staff/student/student_chart_detail,0,0,2000,2018-03-30 18:09:56,2018-03-30 18:09:56,0
185,15,各種届出書,student/application/official_absence,0,0,2000,2018-03-30 18:09:56,2018-03-30 18:09:56,0
186,15,各種届出書,student/application/temporary_return,0,0,2000,2018-03-30 18:09:56,2018-03-30 18:09:56,0
187,15,各種届出書,student/application/personal_information_change,0,0,2000,2018-03-30 18:09:56,2018-03-30 18:09:56,0
188,15,各種届出書,student/application/change_class,0,0,2000,2018-03-30 18:09:56,2018-03-30 18:09:56,0
189,15,各種届出書,student/application/withdrawal_notification,0,0,2000,2018-03-30 18:09:56,2018-03-30 18:09:56,0
190,15,各種届出書,student/application/issue_certificate,0,0,2000,2018-03-30 18:09:56,2018-03-30 18:09:56,0
191,15,各種届出書,student/application/temporary_absence,0,0,2000,2018-03-30 18:09:56,2018-03-30 18:09:56,0
192,2,学生カルテ詳細(基本),staff/student/student_chart_detail,0,0,2000,2018-03-30 18:09:56,2018-03-30 18:09:56,0
193,2,入学生CSV一括登録,staff/admission/bulk_register_search,0,0,2000,2018-03-30 18:09:56,2018-03-30 18:09:56,0
194,8,テスト問題一覧,staff/marksheet_exam/partial_list ,0,0,2000,2018-03-30 18:09:56,2018-03-30 18:09:56,0
195,8,テスト問題一覧,staff/marksheet_exam/insert_test,0,0,2000,2018-03-30 18:09:56,2018-03-30 18:09:56,0
196,8,テスト問題一覧,staff/marksheet_exam/insert_step_score,0,0,2000,2018-03-30 18:09:56,2018-03-30 18:09:56,0
197,8,テスト問題一覧,staff/marksheet_exam/update_information_test,0,0,2000,2018-03-30 18:09:56,2018-03-30 18:09:56,0
198,8,テスト問題一覧,staff/marksheet_exam/update_test,0,0,2000,2018-03-30 18:09:56,2018-03-30 18:09:56,0
199,8,テスト問題一覧,staff/exam_test/partial_list,0,0,2000,2018-03-30 18:09:56,2018-03-30 18:09:56,0
200,8,テスト問題一覧,staff/exam_test/uploadImage,0,0,2000,2018-03-30 18:09:56,2018-03-30 18:09:56,0
201,13,タブレットアプリバージョン追加,staff/tablet_application_update/add,0,0,2000,2018-03-30 18:09:56,2018-03-30 18:09:56,0
202,1,学生カルテ詳細(面談履歴),staff/student/interview_record_edit,0,0,2000,2018-03-30 18:09:56,2018-03-30 18:09:56,0
203,2,"",staff/admission/excel_template_download_file,0,0,2000,2018-03-30 18:09:56,2018-03-30 18:09:56,0
204,2,"",staff/admission/bulk_register_download_error_list,0,0,2000,2018-03-30 18:09:56,2018-03-30 18:09:56,0
205,8,"",staff/exam_test/manage_score,0,0,2000,2018-03-30 18:09:56,2018-03-30 18:09:56,0
206,2,学生カルテ詳細(基本),staff/student/student_chart_additional_editing,0,0,2000,2018-03-30 18:09:56,2018-03-30 18:09:56,0
207,2,学生カルテ詳細(入国管理情報),staff/student/immigration_control,0,0,2000,2018-03-30 18:09:56,2018-03-30 18:09:56,0
208,2,学生カルテ詳細(入国管理情報),staff/student/immigration_control_editing,0,0,2000,2018-03-30 18:09:56,2018-03-30 18:09:56,0
209,1,帳票登録ダウンロード,staff/template/download,0,0,2000,2018-03-30 18:09:56,2018-03-30 18:09:56,0
210,7,成績一覧CSVアップロードエラーリスト,staff/school_record/ajax_download_file_csv,0,0,2000,2018-03-30 18:09:56,2018-03-30 18:09:56,0
211,13,"",staff/import/educational_institution_upload_excel,0,0,2000,2018-05-17 20:25:39,2018-05-17 20:25:39,0
212,2,テスト並び替え,staff/placement_exam/sort_exam,0,0,2000,0000-00-00 00:00:00,0000-00-00 00:00:00,0
213,8,テスト並び替え,staff/exam_test/sort_exam,0,0,2000,0000-00-00 00:00:00,0000-00-00 00:00:00,0
214,8,テスト並び替え,staff/marksheet_exam/sort_exam,0,0,2000,0000-00-00 00:00:00,0000-00-00 00:00:00,0
215,1,メモ画面,staff/student/memo_info,0,1,0,2018-08-16 15:53:16,2018-08-16 15:53:16,0
216,1,メモ編集画面,staff/student/memo_edit,0,1,0,2018-08-16 15:53:16,2018-08-16 15:53:16,0
217,1,累計出席率試算(出席情報),staff/student/attendance_calculate_rate_time,0,0,0,2018-08-16 15:53:29,0000-00-00 00:00:00,0
218,1,ajax info student cd 1 2,staff/student/ajax_load_info_student_cd_1_2,0,0,0,2018-08-16 15:53:29,0000-00-00 00:00:00,0
219,1,ajax load total school day,staff/student/ajax_load_total_school_day,0,0,0,2018-08-16 15:53:29,0000-00-00 00:00:00,0
220,15,累計出席率試算(出席情報),staff/student/attendance_calculate_rate_time,0,0,0,2018-08-16 15:53:29,0000-00-00 00:00:00,0
221,15,ajax info student cd 1 2,staff/student/ajax_load_info_student_cd_1_2,0,0,0,2018-08-16 15:53:29,0000-00-00 00:00:00,0
222,15,ajax load total school day,staff/student/ajax_load_total_school_day,0,0,0,2018-08-16 15:53:29,0000-00-00 00:00:00,0
225,1,ajax_calculate_attendance_rate,staff/student/ajax_calculate_attendance_rate_future,0,1,9999,2018-12-27 16:00:20,2018-12-27 16:00:20,0
226,13,学校データメンテナンス,staff/educational_institution/school_data,1,5,2000,2019-02-22 20:07:49,2019-02-22 20:07:49,0
227,13,学校データメンテナンス,staff/educational_institution/export_errors_pdf,0,5,2000,2019-02-22 20:07:49,2019-02-22 20:07:49,0
228,13,ajax_educational_institution,staff/educational_institution/import_educational_institution,0,1,9999,2019-02-22 20:07:49,2019-02-22 20:07:49,0
229,13,ajax_delete_error,staff/educational_institution/ajax_delete_error_log_by_token,0,1,9999,2019-02-22 20:07:49,2019-02-22 20:07:49,0
230,12,学校基本情報メンテナンス,staff/school_information_master/show,1,14,2000,2019-02-22 20:08:11,2019-02-22 20:08:11,0
231,12,学校基本情報メンテナンス,staff/school_information_master/edit,0,14,2000,2019-02-22 20:08:11,2019-02-22 20:08:11,0
232,5,ajax_get_attend_days_by_school_calendar,staff/application/ajax_get_attend_days_by_school_calendar,0,1,9999,2019-02-22 20:08:48,2019-02-22 20:08:48,0
233,5,ajax_get_attend_days_by_student_real_attendance,staff/application/ajax_get_attend_days_by_student_real_attendance,0,1,9999,2019-02-22 20:08:48,2019-02-22 20:08:48,0
234,15,ajax_get_attend_days_by_school_calendar,student/application/ajax_get_attend_days_by_school_calendar,0,1,9999,2019-02-22 20:08:48,2019-02-22 20:08:48,0
235,15,ajax_get_attend_days_by_student_real_attendance,staff/application/ajax_get_attend_days_by_student_real_attendance,0,1,9999,2019-02-22 20:08:48,2019-02-22 20:08:48,0
236,15,学生カルテ詳細(進学・就職),staff/student/after_graduation_course,0,0,2000,2019-02-22 20:10:10,2019-02-22 20:10:10,0
237,1,学生カルテ詳細(進学・就職),staff/student/after_graduation_course,0,0,2000,2019-02-22 20:10:10,2019-02-22 20:10:10,0
238,1,学生進路先検索一覧,staff/after_graduation_course/search_list,1,5,9999,2019-02-22 20:10:29,2019-02-22 20:10:29,0
239,7,宿題実施履歴検索,staff/homework/search_list,1,5,0,2019-02-22 20:10:48,2019-02-22 20:10:48,0
240,1,自宅学習タブ,staff/homework/show,0,5,2000,2019-02-22 20:10:48,2019-02-22 20:10:48,0
241,15,自宅学習タブ,staff/homework/show,0,5,2000,2019-02-22 20:10:48,2019-02-22 20:10:48,0
242,7,EJU全国平均マスタ編集,staff/external_ave_eju/get_list_master_eju,1,7,2000,2019-02-22 20:11:06,0000-00-00 00:00:00,0
243,7,edit master eju,staff/external_ave_eju/edit_master_eju,0,0,2000,2019-02-22 20:11:06,0000-00-00 00:00:00,0
244,16,宿題コンテンツ管理,staff/homework_exam,1,3,2000,0000-00-00 00:00:00,0000-00-00 00:00:00,0
245,16,宿題追加,staff/homework_exam/add,0,0,2000,0000-00-00 00:00:00,0000-00-00 00:00:00,0
246,16,宿題編集,staff/homework_exam/edit,0,0,2000,0000-00-00 00:00:00,0000-00-00 00:00:00,0
247,16,宿題作成,staff/homework_exam/create_homework_exam,0,0,2000,0000-00-00 00:00:00,0000-00-00 00:00:00,0
248,16,宿題編集,staff/homework_exam/homework_exam_get,0,0,2000,0000-00-00 00:00:00,0000-00-00 00:00:00,0
249,16,宿題正答,staff/homework_exam/load_list,0,0,2000,0000-00-00 00:00:00,0000-00-00 00:00:00,0
250,16,宿題レベル,staff/homework_exam/set_up_public_class,0,0,2000,0000-00-00 00:00:00,0000-00-00 00:00:00,0
251,16,宿題レベル,staff/homework_exam/edit_public_class,0,0,2000,0000-00-00 00:00:00,0000-00-00 00:00:00,0
252,16,宿題の学習状況,staff/homework_exam/list_student_homework,0,0,2000,0000-00-00 00:00:00,0000-00-00 00:00:00,0
253,16,テスト編集,staff/Video_content/update_exam,0,0,2000,2018-03-26 13:59:58,2018-03-26 13:59:58,0
254,16,テスト編集,staff/Video_content/insert_video_exam,0,0,2000,2018-03-26 13:59:58,2018-03-26 13:59:58,0
255,5,ajax_load_list_of_allowed_applications_form,staff/application/ajax_load_list_of_allowed_applications_form,0,1,9999,2019-04-08 20:03:58,2019-04-08 20:03:58,0
256,5,ajax_all_application,staff/application/ajax_load_all_application,0,0,2000,2019-04-08 20:03:58,2019-04-08 20:03:58,0
257,1,export_graduated_certificate_download_excel,staff/export_graduated_certificate/download_excel,0,0,0,0000-00-00 00:00:00,0000-00-00 00:00:00,0
