﻿time_zone_name,time_table_group_name,class_id,クラス名,person_id,学籍番号,氏名,氏名カナ,在籍状況,日付,id,is_authorized_absent,is_leave_absent,入室時間1,退室時間1,入室時間2,退室時間2,入室時間3,退室時間3,time_table_time_from1,time_table_time_to1,class_work_id1,class_work_is_canceled1,attendance_id1,attendance_cd1,attendance_is_authorized_absent1,attendance_is_leave_absent1,attendance_is_canceled1,1or6コマ,1or6コマ入,1or6コマ退,time_table_time_from2,time_table_time_to2,class_work_id2,class_work_is_canceled2,attendance_id2,attendance_cd2,attendance_is_authorized_absent2,attendance_is_leave_absent2,attendance_is_canceled2,2or7コマ,2or7コマ入,2or7コマ退,time_table_time_from3,time_table_time_to3,class_work_id3,class_work_is_canceled3,attendance_id3,attendance_cd3,attendance_is_authorized_absent3,attendance_is_leave_absent3,attendance_is_canceled3,3or8コマ,3or8コマ入,3or8コマ退,time_table_time_from4,time_table_time_to4,class_work_id4,class_work_is_canceled4,attendance_id4,attendance_cd4,attendance_is_authorized_absent4,attendance_is_leave_absent4,attendance_is_canceled4,4or9コマ,4or9コマ入,4or9コマ退
午後,パターン1(通常),165,初級2A,1122,1607114, ,ギリサラダ,在籍,2017-09-01,19115,0,0,11:43:04,00:00:00,00:00:00,00:00:00,00:00:00,00:00:00,13:25:00,14:09:59,4097,0,81746,4,0,0,0,出席,13:25:00,14:09:59,14:10:00,14:54:59,4098,0,81765,4,0,0,0,出席,14:10:00,14:54:59,15:05:00,15:49:59,4099,0,81784,4,0,0,0,出席,15:05:00,15:49:59,16:00:00,16:44:59,4100,0,81803,4,0,0,0,出席,16:00:00,16:44:59
午後,パターン1(通常),165,初級2A,1122,1607114, ,ギリサラダ,在籍,2017-09-04,18355,0,0,12:31:42,00:00:00,00:00:00,00:00:00,00:00:00,00:00:00,13:25:00,14:09:59,3937,0,78706,4,0,0,0,出席,13:25:00,14:09:59,14:10:00,14:54:59,3938,0,78725,4,0,0,0,出席,14:10:00,14:54:59,15:05:00,15:49:59,3939,0,78744,4,0,0,0,出席,15:05:00,15:49:59,16:00:00,16:44:59,3940,0,78763,4,0,0,0,出席,16:00:00,16:44:59
午後,パターン1(通常),165,初級2A,1122,1607114, ,ギリサラダ,在籍,2017-09-05,18526,0,0,12:08:09,00:00:00,00:00:00,00:00:00,00:00:00,00:00:00,13:25:00,14:09:59,3973,0,79390,4,0,0,0,出席,13:25:00,14:09:59,14:10:00,14:54:59,3974,0,79409,4,0,0,0,出席,14:10:00,14:54:59,15:05:00,15:49:59,3975,0,79428,4,0,0,0,出席,15:05:00,15:49:59,16:00:00,16:44:59,3976,0,79447,4,0,0,0,出席,16:00:00,16:44:59
午後,パターン1(通常),165,初級2A,1122,1607114, ,ギリサラダ,在籍,2017-09-06,18716,0,0,12:25:08,00:00:00,00:00:00,00:00:00,00:00:00,00:00:00,13:25:00,14:09:59,4013,0,80150,4,0,0,0,出席,13:25:00,14:09:59,14:10:00,14:54:59,4014,0,80169,4,0,0,0,出席,14:10:00,14:54:59,15:05:00,15:49:59,4015,0,80188,4,0,0,0,出席,15:05:00,15:49:59,16:00:00,16:44:59,4016,0,80207,4,0,0,0,出席,16:00:00,16:44:59
午後,パターン1(通常),165,初級2A,1122,1607114, ,ギリサラダ,在籍,2017-09-07,18925,0,0,12:49:13,00:00:00,00:00:00,00:00:00,00:00:00,00:00:00,13:25:00,14:09:59,4057,0,80986,4,0,0,0,出席,13:25:00,14:09:59,14:10:00,14:54:59,4058,0,81005,4,0,0,0,出席,14:10:00,14:54:59,15:05:00,15:49:59,4059,0,81024,4,0,0,0,出席,15:05:00,15:49:59,16:00:00,16:44:59,4060,0,81043,4,0,0,0,出席,16:00:00,16:44:59
午後,パターン1(通常),165,初級2A,1122,1607114, ,ギリサラダ,在籍,2017-09-08,19134,0,0,06:54:12,00:00:00,00:00:00,00:00:00,00:00:00,00:00:00,13:25:00,14:09:59,4101,0,81822,4,0,0,0,出席,13:25:00,14:09:59,14:10:00,14:54:59,4102,0,81841,4,0,0,0,出席,14:10:00,14:54:59,15:05:00,15:49:59,4103,0,81860,4,0,0,0,出席,15:05:00,15:49:59,16:00:00,16:44:59,4104,0,81879,4,0,0,0,出席,16:00:00,16:44:59
午後,パターン1(通常),165,初級2A,1122,1607114, ,ギリサラダ,在籍,2017-09-11,18374,0,0,12:28:59,00:00:00,00:00:00,00:00:00,00:00:00,00:00:00,13:25:00,14:09:59,3941,0,78782,4,0,0,0,出席,13:25:00,14:09:59,14:10:00,14:54:59,3942,0,78801,4,0,0,0,出席,14:10:00,14:54:59,15:05:00,15:49:59,3943,0,78820,4,0,0,0,出席,15:05:00,15:49:59,16:00:00,16:44:59,3944,0,78839,4,0,0,0,出席,16:00:00,16:44:59
午後,パターン1(通常),165,初級2A,1122,1607114, ,ギリサラダ,在籍,2017-09-12,18545,0,0,12:47:49,00:00:00,00:00:00,00:00:00,00:00:00,00:00:00,13:25:00,14:09:59,3977,0,79466,4,0,0,0,出席,13:25:00,14:09:59,14:10:00,14:54:59,3978,0,79485,4,0,0,0,出席,14:10:00,14:54:59,15:05:00,15:49:59,3979,0,79504,4,0,0,0,出席,15:05:00,15:49:59,16:00:00,16:44:59,3980,0,79523,4,0,0,0,出席,16:00:00,16:44:59
午後,パターン1(通常),165,初級2A,1122,1607114, ,ギリサラダ,在籍,2017-09-13,18735,0,0,12:35:13,00:00:00,00:00:00,00:00:00,00:00:00,00:00:00,13:25:00,14:09:59,4017,0,80226,4,0,0,0,出席,13:25:00,14:09:59,14:10:00,14:54:59,4018,0,80245,4,0,0,0,出席,14:10:00,14:54:59,15:05:00,15:49:59,4019,0,80264,4,0,0,0,出席,15:05:00,15:49:59,16:00:00,16:44:59,4020,0,80283,4,0,0,0,出席,16:00:00,16:44:59
午後,パターン1(通常),165,初級2A,1122,1607114, ,ギリサラダ,在籍,2017-09-14,18944,0,0,13:05:45,00:00:00,00:00:00,00:00:00,00:00:00,00:00:00,13:25:00,14:09:59,4061,0,81062,4,0,0,0,出席,13:25:00,14:09:59,14:10:00,14:54:59,4062,0,81081,4,0,0,0,出席,14:10:00,14:54:59,15:05:00,15:49:59,4063,0,81100,4,0,0,0,出席,15:05:00,15:49:59,16:00:00,16:44:59,4064,0,81119,4,0,0,0,出席,16:00:00,16:44:59
午後,パターン1(通常),165,初級2A,1122,1607114, ,ギリサラダ,在籍,2017-09-15,19153,0,0,13:01:01,00:00:00,00:00:00,00:00:00,00:00:00,00:00:00,13:25:00,14:09:59,4105,0,81898,4,0,0,0,出席,13:25:00,14:09:59,14:10:00,14:54:59,4106,0,81917,4,0,0,0,出席,14:10:00,14:54:59,15:05:00,15:49:59,4107,0,81936,4,0,0,0,出席,15:05:00,15:49:59,16:00:00,16:44:59,4108,0,81955,4,0,0,0,出席,16:00:00,16:44:59
午後,パターン1(通常),165,初級2A,1122,1607114, ,ギリサラダ,在籍,2017-09-19,18564,0,0,12:59:44,00:00:00,00:00:00,00:00:00,00:00:00,00:00:00,13:25:00,14:09:59,3981,0,79542,4,0,0,0,出席,13:25:00,14:09:59,14:10:00,14:54:59,3982,0,79561,4,0,0,0,出席,14:10:00,14:54:59,15:05:00,15:49:59,3983,0,79580,4,0,0,0,出席,15:05:00,15:49:59,16:00:00,16:44:59,3984,0,79599,4,0,0,0,出席,16:00:00,16:44:59
午後,パターン1(通常),165,初級2A,1122,1607114, ,ギリサラダ,在籍,2017-09-20,18754,0,0,12:52:09,00:00:00,00:00:00,00:00:00,00:00:00,00:00:00,13:25:00,14:09:59,4021,0,80302,4,0,0,0,出席,13:25:00,14:09:59,14:10:00,14:54:59,4022,0,80321,4,0,0,0,出席,14:10:00,14:54:59,15:05:00,15:49:59,4023,0,80340,4,0,0,0,出席,15:05:00,15:49:59,16:00:00,16:44:59,4024,0,80359,4,0,0,0,出席,16:00:00,16:44:59
午後,パターン1(通常),165,初級2A,1122,1607114, ,ギリサラダ,在籍,2017-09-21,18963,0,0,13:00:00,00:00:00,00:00:00,00:00:00,00:00:00,00:00:00,13:25:00,14:09:59,4065,0,81138,4,0,0,0,出席,13:25:00,14:09:59,14:10:00,14:54:59,4066,0,81157,4,0,0,0,出席,14:10:00,14:54:59,15:05:00,15:49:59,4067,0,81176,4,0,0,0,出席,15:05:00,15:49:59,16:00:00,16:44:59,4068,0,81195,4,0,0,0,出席,16:00:00,16:44:59
午後,パターン1(通常),165,初級2A,1122,1607114, ,ギリサラダ,在籍,2017-09-22,19172,0,0,12:36:03,00:00:00,00:00:00,00:00:00,00:00:00,00:00:00,13:25:00,14:09:59,4109,0,81974,4,0,0,0,出席,13:25:00,14:09:59,14:10:00,14:54:59,4110,0,81993,4,0,0,0,出席,14:10:00,14:54:59,15:05:00,15:49:59,4111,0,82012,4,0,0,0,出席,15:05:00,15:49:59,16:00:00,16:44:59,4112,0,82031,4,0,0,0,出席,16:00:00,16:44:59
午後,パターン1(通常),165,初級2A,1122,1607114, ,ギリサラダ,在籍,2017-09-25,18393,0,0,13:05:17,00:00:00,00:00:00,00:00:00,00:00:00,00:00:00,13:25:00,14:09:59,3945,0,78858,4,0,0,0,出席,13:25:00,14:09:59,14:10:00,14:54:59,3946,0,78877,4,0,0,0,出席,14:10:00,14:54:59,15:05:00,15:49:59,3947,0,78896,4,0,0,0,出席,15:05:00,15:49:59,16:00:00,16:44:59,3948,0,78915,4,0,0,0,出席,16:00:00,16:44:59
午後,パターン1(通常),165,初級2A,1122,1607114, ,ギリサラダ,在籍,2017-09-26,18583,0,0,12:48:18,00:00:00,00:00:00,00:00:00,00:00:00,00:00:00,13:25:00,14:09:59,3985,0,79618,4,0,0,0,出席,13:25:00,14:09:59,14:10:00,14:54:59,3986,0,79637,4,0,0,0,出席,14:10:00,14:54:59,15:05:00,15:49:59,3987,0,79656,4,0,0,0,出席,15:05:00,15:49:59,16:00:00,16:44:59,3988,0,79675,4,0,0,0,出席,16:00:00,16:44:59
午後,パターン1(通常),165,初級2A,1122,1607114, ,ギリサラダ,在籍,2017-09-27,18773,0,0,12:36:28,00:00:00,00:00:00,00:00:00,00:00:00,00:00:00,13:25:00,14:09:59,4025,0,80378,4,0,0,0,出席,13:25:00,14:09:59,14:10:00,14:54:59,4026,0,80397,4,0,0,0,出席,14:10:00,14:54:59,15:05:00,15:49:59,4027,0,80416,4,0,0,0,出席,15:05:00,15:49:59,16:00:00,16:44:59,4028,0,80435,4,0,0,0,出席,16:00:00,16:44:59
午後,パターン1(通常),165,初級2A,1122,1607114, ,ギリサラダ,在籍,2017-09-28,18982,0,0,14:06:00,00:00:00,00:00:00,00:00:00,00:00:00,00:00:00,13:25:00,14:09:59,4069,0,81214,0,0,0,0,欠席,23:59:59,23:59:59,14:10:00,14:54:59,4070,0,81233,4,0,0,0,出席,14:10:00,14:54:59,15:05:00,15:49:59,4071,0,81252,4,0,0,0,出席,15:05:00,15:49:59,16:00:00,16:44:59,4072,0,81271,4,0,0,0,出席,16:00:00,16:44:59
午後,パターン1(通常),165,初級2A,1122,1607114, ,ギリサラダ,在籍,2017-09-29,19191,0,0,12:57:01,00:00:00,00:00:00,00:00:00,00:00:00,00:00:00,13:25:00,14:09:59,4113,0,82050,4,0,0,0,出席,13:25:00,14:09:59,14:10:00,14:54:59,4114,0,82069,4,0,0,0,出席,14:10:00,14:54:59,15:05:00,15:49:59,4115,0,82088,4,0,0,0,出席,15:05:00,15:49:59,16:00:00,16:44:59,4116,0,82107,4,0,0,0,出席,16:00:00,16:44:59
