﻿student_no,name,date,period_id,id,class_shift_work_id,class_work_id,person_id,attendance,time_from,time_to,is_authorized_absent,is_leave_absent,is_canceled,lastup_account_id,create_datetime,lastup_datetime,disable
1607041,大学院2B,2017-09-01,1,16295,143,569,1049,0,00:00:00,00:00:00,0,0,0,1827,2017-07-10 12:06:21,2017-09-01 15:15:19,0
1607041,大学院2B,2017-09-01,2,16314,143,570,1049,0,00:00:00,00:00:00,0,0,0,1827,2017-07-10 12:06:21,2017-09-01 15:15:19,0
1607041,大学院2B,2017-09-01,3,16333,143,571,1049,0,00:00:00,00:00:00,0,0,0,1827,2017-07-10 12:06:21,2017-09-01 15:15:19,0
1607041,大学院2B,2017-09-01,4,16352,143,572,1049,0,00:00:00,00:00:00,0,0,0,1827,2017-07-10 12:06:21,2017-09-01 15:15:19,0
1607041,大学院2B,2017-09-04,1,13255,103,409,1049,1,09:07:00,09:44:59,0,0,0,1845,2017-07-10 12:06:21,2017-09-04 10:29:31,0
1607041,大学院2B,2017-09-04,2,13274,103,410,1049,4,09:45:00,10:19:59,0,0,0,1845,2017-07-10 12:06:21,2017-09-04 10:29:31,0
1607041,大学院2B,2017-09-04,3,13293,103,411,1049,4,10:30:00,11:14:59,0,0,0,1845,2017-07-10 12:06:21,2017-09-04 10:29:31,0
1607041,大学院2B,2017-09-04,4,13312,103,412,1049,4,11:25:00,12:19:59,0,0,0,1845,2017-07-10 12:06:21,2017-09-04 10:29:31,0
1607041,大学院2B,2017-09-05,1,13939,112,445,1049,0,23:59:59,23:59:59,0,0,0,1862,2017-07-10 12:06:21,2017-09-05 12:31:41,0
1607041,大学院2B,2017-09-05,2,13958,112,446,1049,0,23:59:59,23:59:59,0,0,0,1862,2017-07-10 12:06:21,2017-09-05 12:31:41,0
1607041,大学院2B,2017-09-05,3,13977,112,447,1049,0,23:59:59,23:59:59,0,0,0,1862,2017-07-10 12:06:21,2017-09-05 12:31:41,0
1607041,大学院2B,2017-09-05,4,13996,112,448,1049,0,23:59:59,23:59:59,0,0,0,1862,2017-07-10 12:06:21,2017-09-05 12:31:41,0
1607041,大学院2B,2017-09-06,1,14699,122,485,1049,1,09:04:47,09:44:59,0,0,0,1827,2017-07-10 12:06:21,2017-09-06 10:29:08,0
1607041,大学院2B,2017-09-06,2,14718,122,486,1049,4,09:45:00,10:19:59,0,0,0,1827,2017-07-10 12:06:21,2017-09-06 10:29:08,0
1607041,大学院2B,2017-09-06,3,14737,122,487,1049,4,10:30:00,11:14:59,0,0,0,1827,2017-07-10 12:06:21,2017-09-06 10:29:08,0
1607041,大学院2B,2017-09-06,4,14756,122,488,1049,4,11:25:00,12:19:59,0,0,0,1827,2017-07-10 12:06:21,2017-09-06 10:29:08,0
1607041,大学院2B,2017-09-07,1,15535,133,529,1049,0,00:00:00,00:00:00,0,0,0,1827,2017-07-10 12:06:21,2017-09-07 15:03:36,0
1607041,大学院2B,2017-09-07,2,15554,133,530,1049,4,09:45:00,10:19:59,0,0,0,1827,2017-07-10 12:06:21,2017-09-07 15:03:36,0
1607041,大学院2B,2017-09-07,3,15573,133,531,1049,4,10:30:00,11:14:59,0,0,0,1827,2017-07-10 12:06:21,2017-09-07 15:03:36,0
1607041,大学院2B,2017-09-07,4,15592,133,532,1049,4,11:25:00,12:19:59,0,0,0,1827,2017-07-10 12:06:21,2017-09-07 15:03:36,0
1607041,大学院2B,2017-09-08,1,16371,144,573,1049,0,00:00:00,00:00:00,0,0,0,1821,2017-07-10 12:06:21,2017-09-08 15:13:33,0
1607041,大学院2B,2017-09-08,2,16390,144,574,1049,0,00:00:00,00:00:00,0,0,0,1821,2017-07-10 12:06:21,2017-09-08 15:13:33,0
1607041,大学院2B,2017-09-08,3,16409,144,575,1049,0,00:00:00,00:00:00,0,0,0,1821,2017-07-10 12:06:21,2017-09-08 15:13:33,0
1607041,大学院2B,2017-09-08,4,16428,144,576,1049,0,00:00:00,00:00:00,0,0,0,1821,2017-07-10 12:06:21,2017-09-08 15:13:33,0
1607041,大学院2B,2017-09-11,1,13331,104,413,1049,1,09:11:13,09:44:59,0,0,0,1845,2017-07-10 12:06:21,2017-09-11 09:24:04,0
1607041,大学院2B,2017-09-11,2,13350,104,414,1049,4,09:45:00,10:19:59,0,0,0,1845,2017-07-10 12:06:21,2017-09-11 09:24:04,0
1607041,大学院2B,2017-09-11,3,13369,104,415,1049,4,10:30:00,11:14:59,0,0,0,1845,2017-07-10 12:06:21,2017-09-11 09:24:04,0
1607041,大学院2B,2017-09-11,4,13388,104,416,1049,4,11:25:00,12:19:59,0,0,0,1845,2017-07-10 12:06:21,2017-09-11 09:24:04,0
1607041,大学院2B,2017-09-12,1,14015,113,449,1049,0,23:59:59,23:59:59,0,0,0,1862,2017-07-10 12:06:21,2017-09-12 10:31:12,0
1607041,大学院2B,2017-09-12,2,14034,113,450,1049,0,23:59:59,23:59:59,0,0,0,1862,2017-07-10 12:06:21,2017-09-12 10:31:12,0
1607041,大学院2B,2017-09-12,3,14053,113,451,1049,0,23:59:59,23:59:59,0,0,0,1862,2017-07-10 12:06:21,2017-09-12 10:31:12,0
1607041,大学院2B,2017-09-12,4,14072,113,452,1049,0,23:59:59,23:59:59,0,0,0,1862,2017-07-10 12:06:21,2017-09-12 10:31:12,0
1607041,大学院2B,2017-09-13,1,14775,123,489,1049,1,09:02:51,09:44:59,0,0,0,1827,2017-07-10 12:06:21,2017-09-13 12:32:07,0
1607041,大学院2B,2017-09-13,2,14794,123,490,1049,4,09:45:00,10:19:59,0,0,0,1827,2017-07-10 12:06:21,2017-09-13 12:32:07,0
1607041,大学院2B,2017-09-13,3,14813,123,491,1049,4,10:30:00,11:14:59,0,0,0,1827,2017-07-10 12:06:21,2017-09-13 12:32:07,0
1607041,大学院2B,2017-09-13,4,14832,123,492,1049,4,11:25:00,12:19:59,0,0,0,1827,2017-07-10 12:06:21,2017-09-13 12:32:07,0
1607041,大学院2B,2017-09-14,1,15611,134,533,1049,4,09:00:00,09:44:59,0,0,0,1862,2017-07-10 12:06:21,2017-09-14 14:29:18,0
1607041,大学院2B,2017-09-14,2,15630,134,534,1049,4,09:45:00,10:19:59,0,0,0,1862,2017-07-10 12:06:21,2017-09-14 14:29:18,0
1607041,大学院2B,2017-09-14,3,15649,134,535,1049,4,10:30:00,11:14:59,0,0,0,1862,2017-07-10 12:06:21,2017-09-14 14:29:18,0
1607041,大学院2B,2017-09-14,4,15668,134,536,1049,4,11:25:00,12:19:59,0,0,0,1862,2017-07-10 12:06:21,2017-09-14 14:29:18,0
1607041,大学院2B,2017-09-15,1,16447,145,577,1049,0,23:59:59,23:59:59,0,0,0,1827,2017-07-10 12:06:21,2017-09-15 13:01:11,0
1607041,大学院2B,2017-09-15,2,16466,145,578,1049,0,23:59:59,23:59:59,0,0,0,1827,2017-07-10 12:06:21,2017-09-15 13:01:11,0
1607041,大学院2B,2017-09-15,3,16485,145,579,1049,0,23:59:59,23:59:59,0,0,0,1827,2017-07-10 12:06:21,2017-09-15 13:01:11,0
1607041,大学院2B,2017-09-15,4,16504,145,580,1049,0,23:59:59,23:59:59,0,0,0,1827,2017-07-10 12:06:21,2017-09-15 13:01:11,0
1607041,大学院2B,2017-09-19,1,14091,114,453,1049,0,23:59:59,23:59:59,0,0,0,1862,2017-07-10 12:06:21,2017-09-19 09:03:07,0
1607041,大学院2B,2017-09-19,2,14110,114,454,1049,0,23:59:59,23:59:59,0,0,0,1862,2017-07-10 12:06:21,2017-09-19 09:03:07,0
1607041,大学院2B,2017-09-19,3,14129,114,455,1049,0,23:59:59,23:59:59,0,0,0,1862,2017-07-10 12:06:21,2017-09-19 09:03:07,0
1607041,大学院2B,2017-09-19,4,14148,114,456,1049,0,23:59:59,23:59:59,0,0,0,1862,2017-07-10 12:06:21,2017-09-19 09:03:07,0
1607041,大学院2B,2017-09-20,1,14851,124,493,1049,0,23:59:59,23:59:59,0,0,0,1827,2017-07-10 12:06:21,2017-09-20 18:18:12,0
1607041,大学院2B,2017-09-20,2,14870,124,494,1049,0,23:59:59,23:59:59,0,0,0,1827,2017-07-10 12:06:21,2017-09-20 18:18:12,0
1607041,大学院2B,2017-09-20,3,14889,124,495,1049,0,23:59:59,23:59:59,0,0,0,1827,2017-07-10 12:06:21,2017-09-20 18:18:12,0
1607041,大学院2B,2017-09-20,4,14908,124,496,1049,0,23:59:59,23:59:59,0,0,0,1827,2017-07-10 12:06:21,2017-09-20 18:18:12,0
1607041,大学院2B,2017-09-21,1,15687,135,537,1049,0,23:59:59,23:59:59,0,0,0,1862,2017-07-10 12:06:21,2017-09-21 13:44:51,0
1607041,大学院2B,2017-09-21,2,15706,135,538,1049,0,23:59:59,23:59:59,0,0,0,1862,2017-07-10 12:06:21,2017-09-21 13:44:51,0
1607041,大学院2B,2017-09-21,3,15725,135,539,1049,0,23:59:59,23:59:59,0,0,0,1862,2017-07-10 12:06:21,2017-09-21 13:44:51,0
1607041,大学院2B,2017-09-21,4,15744,135,540,1049,0,23:59:59,23:59:59,0,0,0,1862,2017-07-10 12:06:21,2017-09-21 13:44:51,0
1607041,大学院2B,2017-09-22,1,16523,146,581,1049,0,23:59:59,23:59:59,0,0,0,1827,2017-07-10 12:06:21,2017-09-22 15:15:10,0
1607041,大学院2B,2017-09-22,2,16542,146,582,1049,0,23:59:59,23:59:59,0,0,0,1827,2017-07-10 12:06:21,2017-09-22 15:15:10,0
1607041,大学院2B,2017-09-22,3,16561,146,583,1049,0,23:59:59,23:59:59,0,0,0,1827,2017-07-10 12:06:21,2017-09-22 15:15:10,0
1607041,大学院2B,2017-09-22,4,16580,146,584,1049,0,23:59:59,23:59:59,0,0,0,1827,2017-07-10 12:06:21,2017-09-22 15:15:10,0
1607041,大学院2B,2017-09-25,1,13407,105,417,1049,0,23:59:59,23:59:59,0,0,0,1845,2017-07-10 12:06:21,2017-09-25 09:17:19,0
1607041,大学院2B,2017-09-25,2,13426,105,418,1049,0,23:59:59,23:59:59,0,0,0,1845,2017-07-10 12:06:21,2017-09-25 09:17:19,0
1607041,大学院2B,2017-09-25,3,13445,105,419,1049,0,23:59:59,23:59:59,0,0,0,1845,2017-07-10 12:06:21,2017-09-25 09:17:19,0
1607041,大学院2B,2017-09-25,4,13464,105,420,1049,0,23:59:59,23:59:59,0,0,0,1845,2017-07-10 12:06:21,2017-09-25 09:17:19,0
1607041,大学院2B,2017-09-26,1,14167,115,457,1049,0,23:59:59,23:59:59,0,0,0,1862,2017-07-10 12:06:21,2017-09-26 10:02:47,0
1607041,大学院2B,2017-09-26,2,14186,115,458,1049,0,23:59:59,23:59:59,0,0,0,1862,2017-07-10 12:06:21,2017-09-26 10:02:47,0
1607041,大学院2B,2017-09-26,3,14205,115,459,1049,0,23:59:59,23:59:59,0,0,0,1862,2017-07-10 12:06:21,2017-09-26 10:02:47,0
1607041,大学院2B,2017-09-26,4,14224,115,460,1049,0,23:59:59,23:59:59,0,0,0,1862,2017-07-10 12:06:21,2017-09-26 10:02:47,0
1607041,大学院2B,2017-09-27,1,14927,125,497,1049,0,23:59:59,23:59:59,0,0,0,1827,2017-07-10 12:06:21,2017-09-27 09:35:20,0
1607041,大学院2B,2017-09-27,2,14946,125,498,1049,0,23:59:59,23:59:59,0,0,0,1827,2017-07-10 12:06:21,2017-09-27 09:35:20,0
1607041,大学院2B,2017-09-27,3,14965,125,499,1049,0,23:59:59,23:59:59,0,0,0,1827,2017-07-10 12:06:21,2017-09-27 09:35:20,0
1607041,大学院2B,2017-09-27,4,14984,125,500,1049,0,23:59:59,23:59:59,0,0,0,1827,2017-07-10 12:06:21,2017-09-27 09:35:20,0
1607041,大学院2B,2017-09-28,1,15763,136,541,1049,0,23:59:59,23:59:59,0,0,0,1862,2017-07-10 12:06:21,2017-09-28 10:11:50,0
1607041,大学院2B,2017-09-28,2,15782,136,542,1049,0,23:59:59,23:59:59,0,0,0,1862,2017-07-10 12:06:21,2017-09-28 10:11:50,0
1607041,大学院2B,2017-09-28,3,15801,136,543,1049,0,23:59:59,23:59:59,0,0,0,1862,2017-07-10 12:06:21,2017-09-28 10:11:50,0
1607041,大学院2B,2017-09-28,4,15820,136,544,1049,0,23:59:59,23:59:59,0,0,0,1862,2017-07-10 12:06:21,2017-09-28 10:11:50,0
1607041,大学院2B,2017-09-29,1,16599,147,585,1049,0,00:00:00,00:00:00,0,0,0,1820,2017-07-10 12:06:21,2017-09-29 13:29:10,0
1607041,大学院2B,2017-09-29,2,16618,147,586,1049,0,00:00:00,00:00:00,0,0,0,1820,2017-07-10 12:06:21,2017-09-29 13:29:10,0
1607041,大学院2B,2017-09-29,3,16637,147,587,1049,0,00:00:00,00:00:00,0,0,0,1820,2017-07-10 12:06:21,2017-09-29 13:29:10,0
1607041,大学院2B,2017-09-29,4,16656,147,588,1049,0,00:00:00,00:00:00,0,0,0,1820,2017-07-10 12:06:21,2017-09-29 13:29:10,0
