﻿id,name,column_name,lastup_account_id,create_datetime,lastup_datetime,disable
1,国名コード,country_codes,99999999,0000-00-00 00:00:00,0000-00-00 00:00:00,0
2,在籍状態,enrollment_status,99999999,0000-00-00 00:00:00,0000-00-00 00:00:00,0
3,ビザの種類,visa_type,2000,0000-00-00 00:00:00,2017-11-23 11:48:50,0
4,性別,gender,99999999,0000-00-00 00:00:00,0000-00-00 00:00:00,0
5,婚姻の有無,marital_status,99999999,0000-00-00 00:00:00,0000-00-00 00:00:00,0
6,届出,notification,99999999,0000-00-00 00:00:00,0000-00-00 00:00:00,0
7,承認,approval,99999999,0000-00-00 00:00:00,0000-00-00 00:00:00,0
8,都道府県コード,prefectures,99999999,0000-00-00 00:00:00,0000-00-00 00:00:00,0
9,出欠,attendance,99999999,0000-00-00 00:00:00,0000-00-00 00:00:00,0
10,出席率集計区分,attendance_rate_cd,99999999,0000-00-00 00:00:00,0000-00-00 00:00:00,0
11,コース,course,2000,0000-00-00 00:00:00,2018-04-19 19:08:30,1
12,コース期間,course_length,99999999,0000-00-00 00:00:00,0000-00-00 00:00:00,0
13,学生種別,student_category,99999999,0000-00-00 00:00:00,0000-00-00 00:00:00,0
14,希望日調整可否,possible_cd,99999999,0000-00-00 00:00:00,0000-00-00 00:00:00,0
15,曜日,day,99999999,0000-00-00 00:00:00,0000-00-00 00:00:00,0
16,ｽﾀｯﾌステータス,staff_status,99999999,0000-00-00 00:00:00,0000-00-00 00:00:00,0
17,タイムゾーン,time_zone_id,99999999,0000-00-00 00:00:00,0000-00-00 00:00:00,0
18,最終学歴,last_school_education,99999999,0000-00-00 00:00:00,0000-00-00 00:00:00,0
19,ソート順,sort_order,99999999,0000-00-00 00:00:00,0000-00-00 00:00:00,0
20,日本語能力試験,JLPT,99999999,0000-00-00 00:00:00,0000-00-00 00:00:00,0
21,personタイプ,TYPE,99999999,0000-00-00 00:00:00,0000-00-00 00:00:00,0
22,職員区分,staff_classification,99999999,0000-00-00 00:00:00,0000-00-00 00:00:00,0
23,退学・除籍理由,Reason_for_withdrawal_exclusion_reason,99999999,0000-00-00 00:00:00,0000-00-00 00:00:00,0
24,申請書ＩＤ,application_type_id,99999999,0000-00-00 00:00:00,0000-00-00 00:00:00,1
25,申請状況,application_status,99999999,0000-00-00 00:00:00,0000-00-00 00:00:00,0
26,入金状況,payment_status,99999999,0000-00-00 00:00:00,0000-00-00 00:00:00,0
27,保有資格,Possession_qualification,99999999,0000-00-00 00:00:00,0000-00-00 00:00:00,0
28,クラスレベル,class_level,99999999,0000-00-00 00:00:00,0000-00-00 00:00:00,0
29,雇用形態,employment_type,99999999,0000-00-00 00:00:00,0000-00-00 00:00:00,0
30,法人個人,individual_corporate_type,99999999,0000-00-00 00:00:00,0000-00-00 00:00:00,0
31,"","",0,0000-00-00 00:00:00,0000-00-00 00:00:00,0
32,"","",0,0000-00-00 00:00:00,0000-00-00 00:00:00,0
33,"","",0,0000-00-00 00:00:00,0000-00-00 00:00:00,0
34,"","",0,0000-00-00 00:00:00,0000-00-00 00:00:00,0
35,"","",0,0000-00-00 00:00:00,0000-00-00 00:00:00,0
36,"","",0,0000-00-00 00:00:00,0000-00-00 00:00:00,0
37,"","",0,0000-00-00 00:00:00,0000-00-00 00:00:00,0
38,"","",0,0000-00-00 00:00:00,0000-00-00 00:00:00,0
39,"","",0,0000-00-00 00:00:00,0000-00-00 00:00:00,0
40,"","",0,0000-00-00 00:00:00,0000-00-00 00:00:00,0
41,"","",0,0000-00-00 00:00:00,0000-00-00 00:00:00,0
42,"","",0,0000-00-00 00:00:00,0000-00-00 00:00:00,0
43,"","",0,0000-00-00 00:00:00,0000-00-00 00:00:00,0
44,"","",0,0000-00-00 00:00:00,0000-00-00 00:00:00,0
45,"","",0,0000-00-00 00:00:00,0000-00-00 00:00:00,0
46,"","",0,0000-00-00 00:00:00,0000-00-00 00:00:00,0
47,"","",0,0000-00-00 00:00:00,0000-00-00 00:00:00,0
48,"","",0,0000-00-00 00:00:00,0000-00-00 00:00:00,0
49,"","",0,0000-00-00 00:00:00,0000-00-00 00:00:00,0
50,"","",0,0000-00-00 00:00:00,0000-00-00 00:00:00,0
51,"","",0,0000-00-00 00:00:00,0000-00-00 00:00:00,0
52,"","",0,0000-00-00 00:00:00,0000-00-00 00:00:00,0
53,"","",0,0000-00-00 00:00:00,0000-00-00 00:00:00,0
54,"","",0,0000-00-00 00:00:00,0000-00-00 00:00:00,0
55,"","",0,0000-00-00 00:00:00,0000-00-00 00:00:00,0
56,"","",0,0000-00-00 00:00:00,0000-00-00 00:00:00,0
57,"","",0,0000-00-00 00:00:00,0000-00-00 00:00:00,0
58,"","",0,0000-00-00 00:00:00,0000-00-00 00:00:00,0
59,"","",0,0000-00-00 00:00:00,0000-00-00 00:00:00,0
60,"","",0,0000-00-00 00:00:00,0000-00-00 00:00:00,0
61,"","",0,0000-00-00 00:00:00,0000-00-00 00:00:00,0
62,"","",0,0000-00-00 00:00:00,0000-00-00 00:00:00,0
63,"","",0,0000-00-00 00:00:00,0000-00-00 00:00:00,0
64,"","",0,0000-00-00 00:00:00,0000-00-00 00:00:00,0
65,"","",0,0000-00-00 00:00:00,0000-00-00 00:00:00,0
66,"","",0,0000-00-00 00:00:00,0000-00-00 00:00:00,0
67,"","",0,0000-00-00 00:00:00,0000-00-00 00:00:00,0
68,"","",0,0000-00-00 00:00:00,0000-00-00 00:00:00,0
69,"","",0,0000-00-00 00:00:00,0000-00-00 00:00:00,0
70,"","",0,0000-00-00 00:00:00,0000-00-00 00:00:00,0
71,"","",0,0000-00-00 00:00:00,0000-00-00 00:00:00,0
72,"","",0,0000-00-00 00:00:00,0000-00-00 00:00:00,0
73,"","",0,0000-00-00 00:00:00,0000-00-00 00:00:00,0
74,"","",0,0000-00-00 00:00:00,0000-00-00 00:00:00,0
75,"","",0,0000-00-00 00:00:00,0000-00-00 00:00:00,0
76,"","",0,0000-00-00 00:00:00,0000-00-00 00:00:00,0
77,"","",0,0000-00-00 00:00:00,0000-00-00 00:00:00,0
78,"","",0,0000-00-00 00:00:00,0000-00-00 00:00:00,0
79,"","",0,0000-00-00 00:00:00,0000-00-00 00:00:00,0
80,"","",0,0000-00-00 00:00:00,0000-00-00 00:00:00,0
81,"","",0,0000-00-00 00:00:00,0000-00-00 00:00:00,0
82,"","",0,0000-00-00 00:00:00,0000-00-00 00:00:00,0
83,"","",0,0000-00-00 00:00:00,0000-00-00 00:00:00,0
84,"","",0,0000-00-00 00:00:00,0000-00-00 00:00:00,0
85,"","",0,0000-00-00 00:00:00,0000-00-00 00:00:00,0
86,"","",0,0000-00-00 00:00:00,0000-00-00 00:00:00,0
87,"","",0,0000-00-00 00:00:00,0000-00-00 00:00:00,0
88,"","",0,0000-00-00 00:00:00,0000-00-00 00:00:00,0
89,"","",0,0000-00-00 00:00:00,0000-00-00 00:00:00,0
90,"","",0,0000-00-00 00:00:00,0000-00-00 00:00:00,0
91,"","",0,0000-00-00 00:00:00,0000-00-00 00:00:00,0
92,"","",0,0000-00-00 00:00:00,0000-00-00 00:00:00,0
93,"","",0,0000-00-00 00:00:00,0000-00-00 00:00:00,0
94,"","",0,0000-00-00 00:00:00,0000-00-00 00:00:00,0
95,"","",0,0000-00-00 00:00:00,0000-00-00 00:00:00,0
96,"","",0,0000-00-00 00:00:00,0000-00-00 00:00:00,0
97,"","",0,0000-00-00 00:00:00,0000-00-00 00:00:00,0
98,"","",0,0000-00-00 00:00:00,0000-00-00 00:00:00,0
99,"","",0,0000-00-00 00:00:00,0000-00-00 00:00:00,0
100,"","",0,0000-00-00 00:00:00,0000-00-00 00:00:00,0
101,"","",0,0000-00-00 00:00:00,0000-00-00 00:00:00,0
102,"","",0,0000-00-00 00:00:00,0000-00-00 00:00:00,0
103,"","",0,0000-00-00 00:00:00,0000-00-00 00:00:00,0
104,"","",0,0000-00-00 00:00:00,0000-00-00 00:00:00,0
105,"","",0,0000-00-00 00:00:00,0000-00-00 00:00:00,0
106,"","",0,0000-00-00 00:00:00,0000-00-00 00:00:00,0
107,"","",0,0000-00-00 00:00:00,0000-00-00 00:00:00,0
108,"","",0,0000-00-00 00:00:00,0000-00-00 00:00:00,0
109,"","",0,0000-00-00 00:00:00,0000-00-00 00:00:00,0
110,"","",0,0000-00-00 00:00:00,0000-00-00 00:00:00,0
111,"","",0,0000-00-00 00:00:00,0000-00-00 00:00:00,0
112,"","",0,0000-00-00 00:00:00,0000-00-00 00:00:00,0
113,"","",0,0000-00-00 00:00:00,0000-00-00 00:00:00,0
114,"","",0,0000-00-00 00:00:00,0000-00-00 00:00:00,0
115,"","",0,0000-00-00 00:00:00,0000-00-00 00:00:00,0
116,"","",0,0000-00-00 00:00:00,0000-00-00 00:00:00,0
117,"","",0,0000-00-00 00:00:00,0000-00-00 00:00:00,0
118,"","",0,0000-00-00 00:00:00,0000-00-00 00:00:00,0
119,"","",0,0000-00-00 00:00:00,0000-00-00 00:00:00,0
120,"","",0,0000-00-00 00:00:00,0000-00-00 00:00:00,0
121,"","",0,0000-00-00 00:00:00,0000-00-00 00:00:00,0
122,"","",0,0000-00-00 00:00:00,0000-00-00 00:00:00,0
123,"","",0,0000-00-00 00:00:00,0000-00-00 00:00:00,0
124,"","",0,0000-00-00 00:00:00,0000-00-00 00:00:00,0
125,"","",0,0000-00-00 00:00:00,0000-00-00 00:00:00,0
126,"","",0,0000-00-00 00:00:00,0000-00-00 00:00:00,0
127,"","",0,0000-00-00 00:00:00,0000-00-00 00:00:00,0
128,"","",0,0000-00-00 00:00:00,0000-00-00 00:00:00,0
129,"","",0,0000-00-00 00:00:00,0000-00-00 00:00:00,0
130,"","",0,0000-00-00 00:00:00,0000-00-00 00:00:00,0
131,"","",0,0000-00-00 00:00:00,0000-00-00 00:00:00,0
132,"","",0,0000-00-00 00:00:00,0000-00-00 00:00:00,0
133,"","",0,0000-00-00 00:00:00,0000-00-00 00:00:00,0
134,"","",0,0000-00-00 00:00:00,0000-00-00 00:00:00,0
135,"","",0,0000-00-00 00:00:00,0000-00-00 00:00:00,0
136,"","",0,0000-00-00 00:00:00,0000-00-00 00:00:00,0
137,"","",0,0000-00-00 00:00:00,0000-00-00 00:00:00,0
138,"","",0,0000-00-00 00:00:00,0000-00-00 00:00:00,0
139,"","",0,0000-00-00 00:00:00,0000-00-00 00:00:00,0
140,"","",0,0000-00-00 00:00:00,0000-00-00 00:00:00,0
141,"","",0,0000-00-00 00:00:00,0000-00-00 00:00:00,0
142,"","",0,0000-00-00 00:00:00,0000-00-00 00:00:00,0
143,"","",0,0000-00-00 00:00:00,0000-00-00 00:00:00,0
144,"","",0,0000-00-00 00:00:00,0000-00-00 00:00:00,0
145,"","",0,0000-00-00 00:00:00,0000-00-00 00:00:00,0
146,"","",0,0000-00-00 00:00:00,0000-00-00 00:00:00,0
147,"","",0,0000-00-00 00:00:00,0000-00-00 00:00:00,0
148,"","",0,0000-00-00 00:00:00,0000-00-00 00:00:00,0
149,"","",0,0000-00-00 00:00:00,0000-00-00 00:00:00,0
150,"","",0,0000-00-00 00:00:00,0000-00-00 00:00:00,0
151,"","",0,0000-00-00 00:00:00,0000-00-00 00:00:00,0
152,"","",0,0000-00-00 00:00:00,0000-00-00 00:00:00,0
153,"","",0,0000-00-00 00:00:00,0000-00-00 00:00:00,0
154,"","",0,0000-00-00 00:00:00,0000-00-00 00:00:00,0
155,"","",0,0000-00-00 00:00:00,0000-00-00 00:00:00,0
156,"","",0,0000-00-00 00:00:00,0000-00-00 00:00:00,0
157,"","",0,0000-00-00 00:00:00,0000-00-00 00:00:00,0
158,"","",0,0000-00-00 00:00:00,0000-00-00 00:00:00,0
159,"","",0,0000-00-00 00:00:00,0000-00-00 00:00:00,0
160,"","",0,0000-00-00 00:00:00,0000-00-00 00:00:00,0
161,"","",0,0000-00-00 00:00:00,0000-00-00 00:00:00,0
162,"","",0,0000-00-00 00:00:00,0000-00-00 00:00:00,0
163,"","",0,0000-00-00 00:00:00,0000-00-00 00:00:00,0
164,"","",0,0000-00-00 00:00:00,0000-00-00 00:00:00,0
165,"","",0,0000-00-00 00:00:00,0000-00-00 00:00:00,0
166,"","",0,0000-00-00 00:00:00,0000-00-00 00:00:00,0
167,"","",0,0000-00-00 00:00:00,0000-00-00 00:00:00,0
168,"","",0,0000-00-00 00:00:00,0000-00-00 00:00:00,0
169,"","",0,0000-00-00 00:00:00,0000-00-00 00:00:00,0
170,"","",0,0000-00-00 00:00:00,0000-00-00 00:00:00,0
171,"","",0,0000-00-00 00:00:00,0000-00-00 00:00:00,0
172,"","",0,0000-00-00 00:00:00,0000-00-00 00:00:00,0
173,"","",0,0000-00-00 00:00:00,0000-00-00 00:00:00,0
174,"","",0,0000-00-00 00:00:00,0000-00-00 00:00:00,0
175,"","",0,0000-00-00 00:00:00,0000-00-00 00:00:00,0
176,"","",0,0000-00-00 00:00:00,0000-00-00 00:00:00,0
177,"","",0,0000-00-00 00:00:00,0000-00-00 00:00:00,0
178,"","",0,0000-00-00 00:00:00,0000-00-00 00:00:00,0
179,"","",0,0000-00-00 00:00:00,0000-00-00 00:00:00,0
180,"","",0,0000-00-00 00:00:00,0000-00-00 00:00:00,0
181,"","",0,0000-00-00 00:00:00,0000-00-00 00:00:00,0
182,"","",0,0000-00-00 00:00:00,0000-00-00 00:00:00,0
183,"","",0,0000-00-00 00:00:00,0000-00-00 00:00:00,0
184,"","",0,0000-00-00 00:00:00,0000-00-00 00:00:00,0
185,"","",0,0000-00-00 00:00:00,0000-00-00 00:00:00,0
186,"","",0,0000-00-00 00:00:00,0000-00-00 00:00:00,0
187,"","",0,0000-00-00 00:00:00,0000-00-00 00:00:00,0
188,"","",0,0000-00-00 00:00:00,0000-00-00 00:00:00,0
189,"","",0,0000-00-00 00:00:00,0000-00-00 00:00:00,0
190,"","",0,0000-00-00 00:00:00,0000-00-00 00:00:00,0
191,"","",0,0000-00-00 00:00:00,0000-00-00 00:00:00,0
192,"","",0,0000-00-00 00:00:00,0000-00-00 00:00:00,0
193,"","",0,0000-00-00 00:00:00,0000-00-00 00:00:00,0
194,"","",0,0000-00-00 00:00:00,0000-00-00 00:00:00,0
195,"","",0,0000-00-00 00:00:00,0000-00-00 00:00:00,0
196,"","",0,0000-00-00 00:00:00,0000-00-00 00:00:00,0
197,"","",0,0000-00-00 00:00:00,0000-00-00 00:00:00,0
198,"","",0,0000-00-00 00:00:00,0000-00-00 00:00:00,0
199,"","",0,0000-00-00 00:00:00,0000-00-00 00:00:00,0
200,"","",0,0000-00-00 00:00:00,0000-00-00 00:00:00,0
201,"","",0,0000-00-00 00:00:00,0000-00-00 00:00:00,0
202,"","",0,0000-00-00 00:00:00,0000-00-00 00:00:00,0
203,"","",0,0000-00-00 00:00:00,0000-00-00 00:00:00,0
204,"","",0,0000-00-00 00:00:00,0000-00-00 00:00:00,0
205,"","",0,0000-00-00 00:00:00,0000-00-00 00:00:00,0
206,"","",0,0000-00-00 00:00:00,0000-00-00 00:00:00,0
207,"","",0,0000-00-00 00:00:00,0000-00-00 00:00:00,0
208,"","",0,0000-00-00 00:00:00,0000-00-00 00:00:00,0
209,"","",0,0000-00-00 00:00:00,0000-00-00 00:00:00,0
210,"","",0,0000-00-00 00:00:00,0000-00-00 00:00:00,0
211,"","",0,0000-00-00 00:00:00,0000-00-00 00:00:00,0
212,"","",0,0000-00-00 00:00:00,0000-00-00 00:00:00,0
213,"","",0,0000-00-00 00:00:00,0000-00-00 00:00:00,0
214,"","",0,0000-00-00 00:00:00,0000-00-00 00:00:00,0
215,"","",0,0000-00-00 00:00:00,0000-00-00 00:00:00,0
216,"","",0,0000-00-00 00:00:00,0000-00-00 00:00:00,0
217,"","",0,0000-00-00 00:00:00,0000-00-00 00:00:00,0
218,"","",0,0000-00-00 00:00:00,0000-00-00 00:00:00,0
219,"","",0,0000-00-00 00:00:00,0000-00-00 00:00:00,0
220,"","",0,0000-00-00 00:00:00,0000-00-00 00:00:00,0
221,"","",0,0000-00-00 00:00:00,0000-00-00 00:00:00,0
222,"","",0,0000-00-00 00:00:00,0000-00-00 00:00:00,0
223,"","",0,0000-00-00 00:00:00,0000-00-00 00:00:00,0
224,"","",0,0000-00-00 00:00:00,0000-00-00 00:00:00,0
225,"","",0,0000-00-00 00:00:00,0000-00-00 00:00:00,0
226,"","",0,0000-00-00 00:00:00,0000-00-00 00:00:00,0
227,"","",0,0000-00-00 00:00:00,0000-00-00 00:00:00,0
228,"","",0,0000-00-00 00:00:00,0000-00-00 00:00:00,0
229,"","",0,0000-00-00 00:00:00,0000-00-00 00:00:00,0
230,"","",0,0000-00-00 00:00:00,0000-00-00 00:00:00,0
231,"","",0,0000-00-00 00:00:00,0000-00-00 00:00:00,0
232,"","",0,0000-00-00 00:00:00,0000-00-00 00:00:00,0
233,"","",0,0000-00-00 00:00:00,0000-00-00 00:00:00,0
234,"","",0,0000-00-00 00:00:00,0000-00-00 00:00:00,0
235,"","",0,0000-00-00 00:00:00,0000-00-00 00:00:00,0
236,"","",0,0000-00-00 00:00:00,0000-00-00 00:00:00,0
237,"","",0,0000-00-00 00:00:00,0000-00-00 00:00:00,0
238,"","",0,0000-00-00 00:00:00,0000-00-00 00:00:00,0
239,"","",0,0000-00-00 00:00:00,0000-00-00 00:00:00,0
240,"","",0,0000-00-00 00:00:00,0000-00-00 00:00:00,0
241,"","",0,0000-00-00 00:00:00,0000-00-00 00:00:00,0
242,"","",0,0000-00-00 00:00:00,0000-00-00 00:00:00,0
243,"","",0,0000-00-00 00:00:00,0000-00-00 00:00:00,0
244,"","",0,0000-00-00 00:00:00,0000-00-00 00:00:00,0
245,"","",0,0000-00-00 00:00:00,0000-00-00 00:00:00,0
246,"","",0,0000-00-00 00:00:00,0000-00-00 00:00:00,0
247,"","",0,0000-00-00 00:00:00,0000-00-00 00:00:00,0
248,"","",0,0000-00-00 00:00:00,0000-00-00 00:00:00,0
249,"","",0,0000-00-00 00:00:00,0000-00-00 00:00:00,0
250,"","",0,0000-00-00 00:00:00,0000-00-00 00:00:00,0
251,"","",0,0000-00-00 00:00:00,0000-00-00 00:00:00,0
252,"","",0,0000-00-00 00:00:00,0000-00-00 00:00:00,0
253,"","",0,0000-00-00 00:00:00,0000-00-00 00:00:00,0
254,"","",0,0000-00-00 00:00:00,0000-00-00 00:00:00,0
255,"","",0,0000-00-00 00:00:00,0000-00-00 00:00:00,0
256,"","",0,0000-00-00 00:00:00,0000-00-00 00:00:00,0
257,"","",0,0000-00-00 00:00:00,0000-00-00 00:00:00,0
258,"","",0,0000-00-00 00:00:00,0000-00-00 00:00:00,0
259,"","",0,0000-00-00 00:00:00,0000-00-00 00:00:00,0
260,"","",0,0000-00-00 00:00:00,0000-00-00 00:00:00,0
261,"","",0,0000-00-00 00:00:00,0000-00-00 00:00:00,0
262,"","",0,0000-00-00 00:00:00,0000-00-00 00:00:00,0
263,"","",0,0000-00-00 00:00:00,0000-00-00 00:00:00,0
264,"","",0,0000-00-00 00:00:00,0000-00-00 00:00:00,0
265,"","",0,0000-00-00 00:00:00,0000-00-00 00:00:00,0
266,"","",0,0000-00-00 00:00:00,0000-00-00 00:00:00,0
267,"","",0,0000-00-00 00:00:00,0000-00-00 00:00:00,0
268,"","",0,0000-00-00 00:00:00,0000-00-00 00:00:00,0
269,"","",0,0000-00-00 00:00:00,0000-00-00 00:00:00,0
270,"","",0,0000-00-00 00:00:00,0000-00-00 00:00:00,0
271,"","",0,0000-00-00 00:00:00,0000-00-00 00:00:00,0
272,"","",0,0000-00-00 00:00:00,0000-00-00 00:00:00,0
273,"","",0,0000-00-00 00:00:00,0000-00-00 00:00:00,0
274,"","",0,0000-00-00 00:00:00,0000-00-00 00:00:00,0
275,"","",0,0000-00-00 00:00:00,0000-00-00 00:00:00,0
276,"","",0,0000-00-00 00:00:00,0000-00-00 00:00:00,0
277,"","",0,0000-00-00 00:00:00,0000-00-00 00:00:00,0
278,"","",0,0000-00-00 00:00:00,0000-00-00 00:00:00,0
279,"","",0,0000-00-00 00:00:00,0000-00-00 00:00:00,0
280,"","",0,0000-00-00 00:00:00,0000-00-00 00:00:00,0
281,"","",0,0000-00-00 00:00:00,0000-00-00 00:00:00,0
282,"","",0,0000-00-00 00:00:00,0000-00-00 00:00:00,0
283,"","",0,0000-00-00 00:00:00,0000-00-00 00:00:00,0
284,"","",0,0000-00-00 00:00:00,0000-00-00 00:00:00,0
285,"","",0,0000-00-00 00:00:00,0000-00-00 00:00:00,0
286,"","",0,0000-00-00 00:00:00,0000-00-00 00:00:00,0
287,"","",0,0000-00-00 00:00:00,0000-00-00 00:00:00,0
288,"","",0,0000-00-00 00:00:00,0000-00-00 00:00:00,0
289,"","",0,0000-00-00 00:00:00,0000-00-00 00:00:00,0
290,"","",0,0000-00-00 00:00:00,0000-00-00 00:00:00,0
291,"","",0,0000-00-00 00:00:00,0000-00-00 00:00:00,0
292,"","",0,0000-00-00 00:00:00,0000-00-00 00:00:00,0
293,"","",0,0000-00-00 00:00:00,0000-00-00 00:00:00,0
294,"","",0,0000-00-00 00:00:00,0000-00-00 00:00:00,0
295,"","",0,0000-00-00 00:00:00,0000-00-00 00:00:00,0
296,"","",0,0000-00-00 00:00:00,0000-00-00 00:00:00,0
297,"","",0,0000-00-00 00:00:00,0000-00-00 00:00:00,0
298,"","",0,0000-00-00 00:00:00,0000-00-00 00:00:00,0
299,"","",0,0000-00-00 00:00:00,0000-00-00 00:00:00,0
300,"","",0,0000-00-00 00:00:00,0000-00-00 00:00:00,0
301,"","",0,0000-00-00 00:00:00,0000-00-00 00:00:00,0
302,"","",0,0000-00-00 00:00:00,0000-00-00 00:00:00,0
303,"","",0,0000-00-00 00:00:00,0000-00-00 00:00:00,0
304,"","",0,0000-00-00 00:00:00,0000-00-00 00:00:00,0
305,"","",0,0000-00-00 00:00:00,0000-00-00 00:00:00,0
306,"","",0,0000-00-00 00:00:00,0000-00-00 00:00:00,0
307,"","",0,0000-00-00 00:00:00,0000-00-00 00:00:00,0
308,"","",0,0000-00-00 00:00:00,0000-00-00 00:00:00,0
309,"","",0,0000-00-00 00:00:00,0000-00-00 00:00:00,0
310,"","",0,0000-00-00 00:00:00,0000-00-00 00:00:00,0
311,"","",0,0000-00-00 00:00:00,0000-00-00 00:00:00,0
312,"","",0,0000-00-00 00:00:00,0000-00-00 00:00:00,0
313,"","",0,0000-00-00 00:00:00,0000-00-00 00:00:00,0
314,"","",0,0000-00-00 00:00:00,0000-00-00 00:00:00,0
315,"","",0,0000-00-00 00:00:00,0000-00-00 00:00:00,0
316,"","",0,0000-00-00 00:00:00,0000-00-00 00:00:00,0
317,"","",0,0000-00-00 00:00:00,0000-00-00 00:00:00,0
318,"","",0,0000-00-00 00:00:00,0000-00-00 00:00:00,0
319,"","",0,0000-00-00 00:00:00,0000-00-00 00:00:00,0
320,"","",0,0000-00-00 00:00:00,0000-00-00 00:00:00,0
321,"","",0,0000-00-00 00:00:00,0000-00-00 00:00:00,0
322,"","",0,0000-00-00 00:00:00,0000-00-00 00:00:00,0
323,"","",0,0000-00-00 00:00:00,0000-00-00 00:00:00,0
324,"","",0,0000-00-00 00:00:00,0000-00-00 00:00:00,0
325,"","",0,0000-00-00 00:00:00,0000-00-00 00:00:00,0
326,"","",0,0000-00-00 00:00:00,0000-00-00 00:00:00,0
327,"","",0,0000-00-00 00:00:00,0000-00-00 00:00:00,0
328,"","",0,0000-00-00 00:00:00,0000-00-00 00:00:00,0
329,"","",0,0000-00-00 00:00:00,0000-00-00 00:00:00,0
330,"","",0,0000-00-00 00:00:00,0000-00-00 00:00:00,0
331,"","",0,0000-00-00 00:00:00,0000-00-00 00:00:00,0
332,"","",0,0000-00-00 00:00:00,0000-00-00 00:00:00,0
333,"","",0,0000-00-00 00:00:00,0000-00-00 00:00:00,0
334,"","",0,0000-00-00 00:00:00,0000-00-00 00:00:00,0
335,"","",0,0000-00-00 00:00:00,0000-00-00 00:00:00,0
336,"","",0,0000-00-00 00:00:00,0000-00-00 00:00:00,0
337,"","",0,0000-00-00 00:00:00,0000-00-00 00:00:00,0
338,"","",0,0000-00-00 00:00:00,0000-00-00 00:00:00,0
339,"","",0,0000-00-00 00:00:00,0000-00-00 00:00:00,0
340,"","",0,0000-00-00 00:00:00,0000-00-00 00:00:00,0
341,"","",0,0000-00-00 00:00:00,0000-00-00 00:00:00,0
342,"","",0,0000-00-00 00:00:00,0000-00-00 00:00:00,0
343,"","",0,0000-00-00 00:00:00,0000-00-00 00:00:00,0
344,"","",0,0000-00-00 00:00:00,0000-00-00 00:00:00,0
345,"","",0,0000-00-00 00:00:00,0000-00-00 00:00:00,0
346,"","",0,0000-00-00 00:00:00,0000-00-00 00:00:00,0
347,"","",0,0000-00-00 00:00:00,0000-00-00 00:00:00,0
348,"","",0,0000-00-00 00:00:00,0000-00-00 00:00:00,0
349,"","",0,0000-00-00 00:00:00,0000-00-00 00:00:00,0
350,"","",0,0000-00-00 00:00:00,0000-00-00 00:00:00,0
351,"","",0,0000-00-00 00:00:00,0000-00-00 00:00:00,0
352,"","",0,0000-00-00 00:00:00,0000-00-00 00:00:00,0
353,"","",0,0000-00-00 00:00:00,0000-00-00 00:00:00,0
354,"","",0,0000-00-00 00:00:00,0000-00-00 00:00:00,0
355,"","",0,0000-00-00 00:00:00,0000-00-00 00:00:00,0
356,"","",0,0000-00-00 00:00:00,0000-00-00 00:00:00,0
357,"","",0,0000-00-00 00:00:00,0000-00-00 00:00:00,0
358,"","",0,0000-00-00 00:00:00,0000-00-00 00:00:00,0
359,"","",0,0000-00-00 00:00:00,0000-00-00 00:00:00,0
360,"","",0,0000-00-00 00:00:00,0000-00-00 00:00:00,0
361,"","",0,0000-00-00 00:00:00,0000-00-00 00:00:00,0
362,"","",0,0000-00-00 00:00:00,0000-00-00 00:00:00,0
363,"","",0,0000-00-00 00:00:00,0000-00-00 00:00:00,0
364,"","",0,0000-00-00 00:00:00,0000-00-00 00:00:00,0
365,"","",0,0000-00-00 00:00:00,0000-00-00 00:00:00,0
366,"","",0,0000-00-00 00:00:00,0000-00-00 00:00:00,0
367,"","",0,0000-00-00 00:00:00,0000-00-00 00:00:00,0
368,"","",0,0000-00-00 00:00:00,0000-00-00 00:00:00,0
369,"","",0,0000-00-00 00:00:00,0000-00-00 00:00:00,0
370,"","",0,0000-00-00 00:00:00,0000-00-00 00:00:00,0
371,"","",0,0000-00-00 00:00:00,0000-00-00 00:00:00,0
372,"","",0,0000-00-00 00:00:00,0000-00-00 00:00:00,0
373,"","",0,0000-00-00 00:00:00,0000-00-00 00:00:00,0
374,"","",0,0000-00-00 00:00:00,0000-00-00 00:00:00,0
375,"","",0,0000-00-00 00:00:00,0000-00-00 00:00:00,0
376,"","",0,0000-00-00 00:00:00,0000-00-00 00:00:00,0
377,"","",0,0000-00-00 00:00:00,0000-00-00 00:00:00,0
378,"","",0,0000-00-00 00:00:00,0000-00-00 00:00:00,0
379,"","",0,0000-00-00 00:00:00,0000-00-00 00:00:00,0
380,"","",0,0000-00-00 00:00:00,0000-00-00 00:00:00,0
381,"","",0,0000-00-00 00:00:00,0000-00-00 00:00:00,0
382,"","",0,0000-00-00 00:00:00,0000-00-00 00:00:00,0
383,"","",0,0000-00-00 00:00:00,0000-00-00 00:00:00,0
384,"","",0,0000-00-00 00:00:00,0000-00-00 00:00:00,0
385,"","",0,0000-00-00 00:00:00,0000-00-00 00:00:00,0
386,"","",0,0000-00-00 00:00:00,0000-00-00 00:00:00,0
387,"","",0,0000-00-00 00:00:00,0000-00-00 00:00:00,0
388,"","",0,0000-00-00 00:00:00,0000-00-00 00:00:00,0
389,"","",0,0000-00-00 00:00:00,0000-00-00 00:00:00,0
390,"","",0,0000-00-00 00:00:00,0000-00-00 00:00:00,0
391,"","",0,0000-00-00 00:00:00,0000-00-00 00:00:00,0
392,"","",0,0000-00-00 00:00:00,0000-00-00 00:00:00,0
393,"","",0,0000-00-00 00:00:00,0000-00-00 00:00:00,0
394,"","",0,0000-00-00 00:00:00,0000-00-00 00:00:00,0
395,"","",0,0000-00-00 00:00:00,0000-00-00 00:00:00,0
396,"","",0,0000-00-00 00:00:00,0000-00-00 00:00:00,0
397,"","",0,0000-00-00 00:00:00,0000-00-00 00:00:00,0
398,"","",0,0000-00-00 00:00:00,0000-00-00 00:00:00,0
399,"","",0,0000-00-00 00:00:00,0000-00-00 00:00:00,0
400,"","",0,0000-00-00 00:00:00,0000-00-00 00:00:00,0
401,"","",0,0000-00-00 00:00:00,0000-00-00 00:00:00,0
402,"","",0,0000-00-00 00:00:00,0000-00-00 00:00:00,0
403,"","",0,0000-00-00 00:00:00,0000-00-00 00:00:00,0
404,"","",0,0000-00-00 00:00:00,0000-00-00 00:00:00,0
405,"","",0,0000-00-00 00:00:00,0000-00-00 00:00:00,0
406,"","",0,0000-00-00 00:00:00,0000-00-00 00:00:00,0
407,"","",0,0000-00-00 00:00:00,0000-00-00 00:00:00,0
408,"","",0,0000-00-00 00:00:00,0000-00-00 00:00:00,0
409,"","",0,0000-00-00 00:00:00,0000-00-00 00:00:00,0
410,"","",0,0000-00-00 00:00:00,0000-00-00 00:00:00,0
411,"","",0,0000-00-00 00:00:00,0000-00-00 00:00:00,0
412,"","",0,0000-00-00 00:00:00,0000-00-00 00:00:00,0
413,"","",0,0000-00-00 00:00:00,0000-00-00 00:00:00,0
414,"","",0,0000-00-00 00:00:00,0000-00-00 00:00:00,0
415,"","",0,0000-00-00 00:00:00,0000-00-00 00:00:00,0
416,"","",0,0000-00-00 00:00:00,0000-00-00 00:00:00,0
417,"","",0,0000-00-00 00:00:00,0000-00-00 00:00:00,0
418,"","",0,0000-00-00 00:00:00,0000-00-00 00:00:00,0
419,"","",0,0000-00-00 00:00:00,0000-00-00 00:00:00,0
420,"","",0,0000-00-00 00:00:00,0000-00-00 00:00:00,0
421,"","",0,0000-00-00 00:00:00,0000-00-00 00:00:00,0
422,"","",0,0000-00-00 00:00:00,0000-00-00 00:00:00,0
423,"","",0,0000-00-00 00:00:00,0000-00-00 00:00:00,0
424,"","",0,0000-00-00 00:00:00,0000-00-00 00:00:00,0
425,"","",0,0000-00-00 00:00:00,0000-00-00 00:00:00,0
426,"","",0,0000-00-00 00:00:00,0000-00-00 00:00:00,0
427,"","",0,0000-00-00 00:00:00,0000-00-00 00:00:00,0
428,"","",0,0000-00-00 00:00:00,0000-00-00 00:00:00,0
429,"","",0,0000-00-00 00:00:00,0000-00-00 00:00:00,0
430,"","",0,0000-00-00 00:00:00,0000-00-00 00:00:00,0
431,"","",0,0000-00-00 00:00:00,0000-00-00 00:00:00,0
432,"","",0,0000-00-00 00:00:00,0000-00-00 00:00:00,0
433,"","",0,0000-00-00 00:00:00,0000-00-00 00:00:00,0
434,"","",0,0000-00-00 00:00:00,0000-00-00 00:00:00,0
435,"","",0,0000-00-00 00:00:00,0000-00-00 00:00:00,0
436,"","",0,0000-00-00 00:00:00,0000-00-00 00:00:00,0
437,"","",0,0000-00-00 00:00:00,0000-00-00 00:00:00,0
438,"","",0,0000-00-00 00:00:00,0000-00-00 00:00:00,0
439,"","",0,0000-00-00 00:00:00,0000-00-00 00:00:00,0
440,"","",0,0000-00-00 00:00:00,0000-00-00 00:00:00,0
441,"","",0,0000-00-00 00:00:00,0000-00-00 00:00:00,0
442,"","",0,0000-00-00 00:00:00,0000-00-00 00:00:00,0
443,"","",0,0000-00-00 00:00:00,0000-00-00 00:00:00,0
444,"","",0,0000-00-00 00:00:00,0000-00-00 00:00:00,0
445,"","",0,0000-00-00 00:00:00,0000-00-00 00:00:00,0
446,"","",0,0000-00-00 00:00:00,0000-00-00 00:00:00,0
447,"","",0,0000-00-00 00:00:00,0000-00-00 00:00:00,0
448,"","",0,0000-00-00 00:00:00,0000-00-00 00:00:00,0
449,"","",0,0000-00-00 00:00:00,0000-00-00 00:00:00,0
450,"","",0,0000-00-00 00:00:00,0000-00-00 00:00:00,0
451,"","",0,0000-00-00 00:00:00,0000-00-00 00:00:00,0
452,"","",0,0000-00-00 00:00:00,0000-00-00 00:00:00,0
453,"","",0,0000-00-00 00:00:00,0000-00-00 00:00:00,0
454,"","",0,0000-00-00 00:00:00,0000-00-00 00:00:00,0
455,"","",0,0000-00-00 00:00:00,0000-00-00 00:00:00,0
456,"","",0,0000-00-00 00:00:00,0000-00-00 00:00:00,0
457,"","",0,0000-00-00 00:00:00,0000-00-00 00:00:00,0
458,"","",0,0000-00-00 00:00:00,0000-00-00 00:00:00,0
459,"","",0,0000-00-00 00:00:00,0000-00-00 00:00:00,0
460,"","",0,0000-00-00 00:00:00,0000-00-00 00:00:00,0
461,"","",0,0000-00-00 00:00:00,0000-00-00 00:00:00,0
462,"","",0,0000-00-00 00:00:00,0000-00-00 00:00:00,0
463,"","",0,0000-00-00 00:00:00,0000-00-00 00:00:00,0
464,"","",0,0000-00-00 00:00:00,0000-00-00 00:00:00,0
465,動画ステータス,movie_status,0,0000-00-00 00:00:00,0000-00-00 00:00:00,0
466,試験科目,test_section,0,2017-11-23 11:42:47,2017-11-23 11:42:47,0
467,帰国する場合,leaving_case,0,2017-11-23 11:44:09,2017-11-23 11:44:09,0
468,月,month,2000,2017-11-23 11:49:01,0000-00-00 00:00:00,0
469,卒業後の予定,plans_after_graduation_cd,2000,2017-11-23 11:49:11,0000-00-00 00:00:00,0
470,最終学歴_在籍状態,last_school_education_status,2000,2017-11-23 11:49:11,0000-00-00 00:00:00,0
471,奨学金支給機関,provide_scholarship_cd,2000,2017-11-23 11:49:11,0000-00-00 00:00:00,0
472,申請人との関係,supporter_relationship_cd,2000,2017-11-23 11:49:11,0000-00-00 00:00:00,0
473,ビザ期間,length_of_stay,2000,2017-11-23 11:49:11,0000-00-00 00:00:00,0
474,アルバイト業種,part_time_job_industry,2000,2017-11-23 11:49:12,0000-00-00 00:00:00,0
475,アルバイト_職務内容,part_time_job_type_cd,2000,2017-11-23 11:49:12,0000-00-00 00:00:00,0
476,アルバイト_報酬単位,part_time_job_salary_unit,2000,2017-11-23 11:49:12,0000-00-00 00:00:00,0
477,在留資格認定証明書交付_申請結果,residence_application_result,2000,2017-11-23 11:49:12,0000-00-00 00:00:00,0
478,申請書の承認ステータス,application_approve_status_cd,0,2017-11-23 11:49:52,2017-11-23 11:49:52,0
479,学校ルートライン,certificate_school_route_line,0,2017-11-23 11:49:52,2017-11-23 11:49:52,0
480,目的,certificate_purpose,0,2017-11-23 11:49:52,2017-11-23 11:49:52,0
481,提出先,certificate_submit_to,0,2017-11-23 11:50:09,2017-11-23 11:50:09,0
482,入力ステータス,input_status,0,2017-11-30 18:36:05,2017-11-30 18:36:05,0
483,ステータスを適用する,apply_status,0,2017-11-30 18:36:05,2017-11-30 18:36:05,0
484,認定結果,result_status,2000,2017-11-30 18:36:05,2017-11-30 18:36:05,0
486,公欠願入力画面,authorized_absent_reason_cd,0,2017-12-27 15:30:15,2017-12-27 15:30:15,0
487,請求書ステータス,invoice_status,2000,2017-12-27 15:40:06,0000-00-00 00:00:00,0
488,入金方法,payment_type,0,2017-12-27 15:42:06,0000-00-00 00:00:00,0
489,ヘルプ,helper,0,2018-01-23 16:41:36,2018-01-23 16:41:36,0
490,賞罰タイプ,reward_penalty_type,0,2018-02-09 17:43:03,2018-02-09 17:43:03,0
491,出席承認ステータス,attendance_approved_status,0,2018-02-26 23:09:57,2018-02-26 23:09:57,0
492,卒業判定,final_judgement,0,2018-03-27 10:33:08,0000-00-00 00:00:00,0
493,校種,educational_institution_type,2000,2018-05-17 20:25:39,2018-05-17 20:25:39,0
494,学生情報,after_graduation_course_type,99999999,2018-07-18 18:51:32,2018-07-18 18:51:32,0
495,受付校舎,reception_school_building,0,2018-07-20 19:37:16,2018-07-20 19:37:16,0
496,公開/非公開,homework_is_publish,2000,2018-07-25 11:24:08,2018-07-25 11:24:08,0
497,宿題状況,homework_status,2000,2018-07-25 11:26:17,2018-07-25 11:26:17,0
