﻿出力月,クラス名,学籍番号,名前,フリガナ,アルファベット,授業時間（コマ数）,欠席した時間（コマ数）,遅刻/早退の回数（コマ数）,出席した時間（コマ数）,欠席日数
2017/08,大学院3A,1604019,鄒子羽,スウシウ,ZOUZIYU,60,20,0,40,4
2017/08,大学院3A,1604031,周盼,シュウハン,ZHOUPAN,60,0,0,60,0
2017/08,大学院3A,1604047,徐蔚蕾,ジョイライ,XUWEILEI,60,11,0,49,2
2017/08,大学院3A,1604064,田伊然,デンイゼン,TIANYIRAN,60,8,0,52,2
2017/08,大学院3A,1604083,王丹,オウタン,WANGDAN,60,0,0,60,0
2017/08,大学院3A,1604114,高楠,コウナン,GAONAN,60,0,0,60,0
2017/08,大学院3A,1604137,楊子揚,ヨウシヨウ,YANGZIYANG,60,6,8,52,1
2017/08,大学院3A,1604156,単晶瑩,タンショウエイ,SHANJINGYING,60,0,0,60,0
2017/08,大学院3A,1604157,蒋松燊,ショウショウセン,JIANGSONGSHEN,60,12,0,48,3
2017/08,大学院3A,1607011,梁一誠,リョウイッセイ,LIANGYICHENG,60,0,1,60,0
2017/08,大学院3A,1607018,阮国振,ゲンコクシン,RUANGUOZHEN,60,4,0,56,1
2017/08,大学院3A,1607021,李施怡,リシイ,LISHIYI,60,8,0,52,2
2017/08,大学院3A,1607034,張晨雪,チョウシンセツ,ZHANGCHENXUE,60,2,1,58,0
2017/08,大学院3A,1607035,徐敏,ジョビン,XUMIN,60,18,1,42,4
2017/08,大学院3A,1607038,李雨霏,リウヒ,LIYUFEI,60,6,2,54,1
2017/08,大学院3A,1607050,莫凡,バクハン,MOFAN,60,13,4,46,3
2017/08,大学院3A,1607076,趙雅睿,チョウガエイ,ZHAOYARUI,60,4,0,56,1
2017/08,大学院3A,1607082,赵娅冰,チョウアヒョウ,ZHAOYABING,60,0,0,60,0
2017/08,大学院3A,1607096,鄒洋,スウヨウ,ZOUYANG,60,1,0,59,0
2017/08,大学院3A,1610023,陸山青,リクサンセイ,LUSHANQING,60,0,0,60,0
2017/08,大学院3A,1610039,郭寧海,カクネイカイ,GUONINGHAI,60,0,0,60,0
2017/08,大学院2A,1604010,鄭瑞江,テイズイコウ,ZHENGRUIJIANG,60,4,0,56,1
2017/08,大学院2A,1604017,盧舒虹,ロジョコウ,LUSHUHONG,60,0,0,60,0
2017/08,大学院2A,1604036,呉桐,ゴトウ,WUTONG,60,6,2,54,1
2017/08,大学院2A,1604037,程思雨,テイシウ,CHENGSIYU,60,0,0,60,0
2017/08,大学院2A,1604041,蘇茵,ソイン,SUYIN,60,5,4,54,1
2017/08,大学院2A,1604123,王佳薇,オウカビ,WANGJIAWEI,60,0,0,60,0
2017/08,大学院2A,1604131,巩妤,キョウヨ,GONGYU,60,4,0,56,1
2017/08,大学院2A,1604175,赫思佳,カクシカ,HAOSIJIA,60,4,1,56,1
2017/08,大学院2A,1604205,兪一昶,ユイッチョウ,YUYICHANG,60,12,0,48,3
2017/08,大学院2A,1607014,景燁,ケイヨウ,JINGYE,60,8,0,52,2
2017/08,大学院2A,1607019,程嘉琳,テイカリン,CHENGJIALIN,60,0,4,59,0
2017/08,大学院2A,1607025,陳孟影,チンモウエイ,CHENMENGYING,60,8,3,51,2
2017/08,大学院2A,1607048,劉洋,リュウヨウ,LIUYANG,60,7,0,53,1
2017/08,大学院2A,1607052,曹奕涵,ソウエキカン,CAOYIHAN,60,0,0,60,0
2017/08,大学院2A,1607064,陳嘉尚,チンカショウ,CHENJIASHANG,60,5,1,55,1
2017/08,大学院2A,1607089,張文博,チョウブンハク,ZHANGWENBO,60,6,2,54,1
2017/08,大学院2A,1607095,叶金磊,ヨウキンライ,YEJINLEI,60,8,0,52,2
2017/08,大学院2A,1610043,銭柏霖,センハクリン,QIANBAILIN,60,0,0,60,0
2017/08,大学院2B,1604020,羅涵杏,ラカンアン,LUOHANXING,52,9,0,43,2
2017/08,大学院2B,1604055,劉明研,リュウメイケン,LIUMINGYAN,60,0,0,60,0
2017/08,大学院2B,1604074,劉宇,リュウウ,LIUYU,60,12,0,48,3
2017/08,大学院2B,1604079,金永山,キンエイサン,JINYONGSHAN,60,0,0,60,0
2017/08,大学院2B,1604111,劉丹,リュウタン,LIUDAN,60,0,0,60,0
2017/08,大学院2B,1604124,黄銘雅,コウメイガ,HUANGMINGYA,60,18,3,41,4
2017/08,大学院2B,1604126,馬浩喧,バコウセン,MAHAOXUAN,60,11,3,48,2
2017/08,大学院2B,1604180,馬嬌嬌,バキョウキョウ,MAJIAOJIAO,60,20,0,40,5
2017/08,大学院2B,1604227,賀雪豊,ガセツホウ,HEXUEFENG,60,20,2,40,4
2017/08,大学院2B,1607001,沈欣栄,チンキンエイ,SHENXINRONG,60,8,0,52,2
2017/08,大学院2B,1607007,侯舒瑜,コウジョユ,HOUSHUYU,60,1,2,59,0
2017/08,大学院2B,1607012,呂音,ロオン,LYUYIN,60,8,2,52,2
2017/08,大学院2B,1607015,胡源青,コゲンセイ,HUYUANQING,60,6,0,54,1
2017/08,大学院2B,1607041,裴知秋,ハイチシュウ,PEIZHIQIU,60,16,2,44,4
2017/08,大学院2B,1607079,胡佩瑶,コハイヨウ,HUPEIYAO,60,9,2,51,2
2017/08,大学院2B,1607087,杨丞博,ヨウショウハク,YANGCHENGBO,60,17,1,43,4
2017/08,大学院2B,1607093,呂金釗,ロキンショウ,LYUJINZHAO,60,0,0,60,0
2017/08,大学院2B,1607112,,カスラスニル,KASULASUNIL,60,5,0,55,1
2017/08,大学3A,1604001,汪明琛,オウメイチン,WANGMINGCHEN,60,12,0,48,3
2017/08,大学3A,1604002,郝琳,カクリン,HAOLIN,60,0,0,60,0
2017/08,大学3A,1604051,温振繁,オンシンハン,WENZHENFAN,60,8,1,52,2
2017/08,大学3A,1604082,張思楊,チョウシヨウ,ZHANGSIYANG,60,4,1,56,0
2017/08,大学3A,1604104,楊孫益,ヨウソンエキ,YANGSUNYI,60,6,0,54,1
2017/08,大学3A,1604134,宋承達,ソウショウタツ,SONGCHENGDA,60,20,0,40,5
2017/08,大学3A,1604142,鄒涛,スウトウ,ZOUTAO,60,14,1,46,3
2017/08,大学3A,1604153,李佳安,リカアン,LIJIAAN,60,12,1,48,3
2017/08,大学3A,1604210,饒琳,ジョウリン,RAOLIN,60,14,1,46,3
2017/08,大学3A,1604220,龔奇彪,キョウキヒョウ,GONGQIBIAO,60,0,0,60,0
2017/08,大学3A,1604240,余嘉怡,ヨカイ,YUJIAYI,60,16,4,43,4
2017/08,大学3A,1607046,徐菁一,ジョセイイチ,XUJINGYI,60,0,1,60,0
2017/08,大学3A,1607066,陳浩麟,チンコウリン,CHENHAOLIN,60,9,0,51,2
2017/08,大学3A,1607067,鞠印軒,キクインケン,JUYINXUAN,60,0,1,60,0
2017/08,大学3A,1607075,郭昊天,カクコウテン,GUOHAOTIAN,60,9,0,51,2
2017/08,大学3A,1704059,施宇迪,シウテキ,SHIYUDI,60,14,1,46,3
2017/08,大学3A,1704105,敬藝丹,ケイゲイタン,JINGYIDAN,60,8,0,52,2
2017/08,大学3美大,1604022,陸真浩,リクシンコウ,LUZHENHAO,60,26,5,33,6
2017/08,大学3美大,1604029,陳昱宏,チンイクコウ,CHENYUHONG,60,40,0,20,10
2017/08,大学3美大,1604044,杜超杰,トチョウケツ,DUCHAOJIE,60,4,1,56,1
2017/08,大学3美大,1604045,呉思哲,ゴシテツ,WUSIZHE,60,12,0,48,3
2017/08,大学3美大,1604158,傅天宇,フテンウ,FUTIANYU,60,28,3,31,5
2017/08,大学3美大,1604184,張維,チョウイ,ZHANGWEI,60,28,0,32,7
2017/08,大学3美大,1604226,黄詩瑞,コウシズイ,HUANGSHIRUI,60,32,4,27,7
2017/08,大学3美大,1607040,王楠,オウナン,WANGNAN,60,15,2,45,3
2017/08,大学3美大,1610018,姜玉敏,キョウギョクビン,JIANGYUMIN,60,17,0,43,4
2017/08,大学3美大,1610026,呉比,ゴヒ,WUBI,60,2,3,57,0
2017/08,大学3美大,1610037,方霖穎,ホウリンエイ,FANGLINYING,60,4,0,56,1
2017/08,大学3美大,1610045,黄綺程,コウキテイ,WONGICHENG,60,0,0,60,0
2017/08,大学3美大,1704081,梁靖冉,リョウセイゼン,LIANGJINGRAN,60,20,0,40,5
2017/08,大学3美大,1704091,干甜,カンテン,GANTIAN,60,6,1,54,1
2017/08,大学3美大,1704108,王怡瑋,オウイイ,WANGYIWEI,60,4,0,56,1
2017/08,大学3美大,1704115,郭軻天,カクカテン,GUOKETIAN,60,0,0,60,0
2017/08,大学2A,1604023,李若蘭,リジャクラン,LIRUOLAN,60,8,0,52,2
2017/08,大学2A,1604072,邢哲玮,ケイテツイ,XINGZHEWEI,60,9,1,51,2
2017/08,大学2A,1604100,宮静,キュウセイ,GONGJING,60,12,0,48,1
2017/08,大学2A,1604117,馬鵬飛,バホウヒ,MAPENGFEI,60,12,4,47,3
2017/08,大学2A,1604125,楊嘉宝,ヨウカホウ,YANGJIABAO,60,13,1,47,3
2017/08,大学2A,1604138,鐘帥,ショウスイ,ZHONGSHUAI,60,11,1,49,2
2017/08,大学2A,1604152,殷弘睿,インコウエイ,YINHONGRUI,60,0,0,60,0
2017/08,大学2A,1604154,張澤棟,チョウタクトウ,ZHANGZEDONG,60,10,0,50,2
2017/08,大学2A,1604183,呉亭薇,ゴテイビ,WUTINGWEI,60,0,1,60,0
2017/08,大学2A,1604189,郭廷展,カクテイテン,GUOTINGZHAN,60,1,3,58,0
2017/08,大学2A,1604204,栄雨婷,エイウテイ,RONGYUTING,60,6,0,54,1
2017/08,大学2A,1604217,林延棟,リンエントウ,LINYANDONG,60,6,1,54,1
2017/08,大学2A,1604221,趙梓軒,チョウシケン,ZHAOZIXUAN,60,13,3,46,3
2017/08,大学2A,1604222,呉晨曦,ゴシンギ,WUCHENXI,60,4,0,56,1
2017/08,大学2A,1604233,関宇,カンウ,GUANYU,60,4,0,56,1
2017/08,大学2A,1604239,田芳菲,デンホウヒ,TIANFANGFEI,60,16,0,44,4
2017/08,大学2A,1607022,孫浩然,ソンコウゼン,SUNHAORAN,60,20,0,40,5
2017/08,大学2A,1607084,張政,チョウセイ,ZHANGZHENG,60,0,0,60,0
2017/08,大学2A,1607091,劉一凡,リュウイチハン,LIUYIFAN,60,14,3,45,3
2017/08,大学2A,1607119,李季修,リキシュウ,LEECHIHSIU,60,8,0,52,2
2017/08,大学2B,1604028,来守慧,ライシュケイ,LAISHOUHUI,60,7,3,52,1
2017/08,大学2B,1604034,叶遠舟,ヨウエンシュウ,YEYUANZHOU,60,20,3,39,3
2017/08,大学2B,1604038,牟娟,ムケン,MOUJUAN,60,16,1,44,4
2017/08,大学2B,1604066,曽思韵,ソシイン,ZENGSIYUN,60,5,3,54,1
2017/08,大学2B,1604068,惠如雪,ケイジョセツ,HUIRUXUE,60,4,0,56,1
2017/08,大学2B,1604073,李嘉輝,リカキ,LIJIAHUI,60,16,3,43,2
2017/08,大学2B,1604099,陳健,チンケン,CHENJIAN,60,27,1,33,6
2017/08,大学2B,1604110,王心怡,オウシンイ,WANGXINYI,60,8,0,52,2
2017/08,大学2B,1604190,姜超,キョウチョウ,JIANGCHAO,60,20,2,40,5
2017/08,大学2B,1604228,李云階,リウンカイ,LIYUNJIE,60,0,0,60,0
2017/08,大学2B,1604259,,"シングサウド  スレス　","SINGHSAUD  SURESH ",60,7,1,53,1
2017/08,大学2B,1607024,郭宣蓉,カクセンヨウ,GUOXUANRONG,60,0,0,60,0
2017/08,大学2B,1607029,郭栩材,カククザイ,GUOXUCAI,60,16,0,44,2
2017/08,大学2B,1607042,馬一督,バイットク,MAYIDU,60,8,2,52,1
2017/08,大学2B,1607057,霍晟,カクセイ,HUOSHENG,60,5,2,55,1
2017/08,大学2B,1607058,王藝淞,オウゲイショウ,WANGYISONG,60,20,1,40,5
2017/08,大学2B,1607060,蒋英豪,ショウエイゴウ,JIANGYINGHAO,60,1,4,58,0
2017/08,大学2B,1607094,李想,リソウ,LIXIANG,60,7,4,52,1
2017/08,大学2B,1610048,,ヴタン　ヒュエン,"VUTHANH HUYEN",60,0,0,60,0
2017/08,大学2美大,1604048,王翕,オウキョウ,WANGXI,60,0,1,60,0
2017/08,大学2美大,1604075,郭芳竹,カクホウチク,GUOFANGZHU,60,4,2,56,1
2017/08,大学2美大,1604077,李天聡,リテンソウ,LITIANCONG,60,12,0,48,3
2017/08,大学2美大,1604093,趙澤坤,チョウタクコン,ZHAOZEKUN,60,2,2,58,0
2017/08,大学2美大,1604101,于晨,ウシン,YUCHEN,60,0,0,60,0
2017/08,大学2美大,1604133,計舒旻,ケイジョビン,JISHUMIN,60,0,0,60,0
2017/08,大学2美大,1604136,胡家馨,コカケイ,HUJIAXIN,60,6,1,54,1
2017/08,大学2美大,1604141,黄佳怡,コウカイ,HUANGJIAYI,60,1,2,59,0
2017/08,大学2美大,1604143,鄭然,テイゼン,ZHENGRAN,60,0,0,60,0
2017/08,大学2美大,1604173,張文謦,チョウブンケイ,ZHANGWENXIN,60,16,1,44,4
2017/08,大学2美大,1604181,王嘯,オウショウ,WANGXIAO,60,8,1,52,2
2017/08,大学2美大,1604238,洪鋭深,コウエイシン,HONGRUISHEN,60,1,1,59,0
2017/08,大学2美大,1607008,楊力為,ヨウリキイ,YANGLIWEI,60,23,1,37,5
2017/08,大学2美大,1607032,呉謙,ゴケン,WUQIAN,60,12,3,47,2
2017/08,大学2美大,1607056,程序,テイジョ,CHENGXU,60,25,2,35,5
2017/08,大学2美大,1607072,陳劭言,チンショウゲン,CHENSHAOYAN,60,6,0,54,1
2017/08,大学2美大,1607078,程厳,テイゲン,CHENGYAN,60,1,2,59,0
2017/08,大学2美大,1610014,王歆儀,オウキンギ,WANGXINYI,60,5,2,55,1
2017/08,大学2美大,1610016,汪炫佚,オウゲンイツ,WANGXUANYI,60,8,0,52,2
2017/08,大学2美大,1610024,羅杰銘,ラケツメイ,LUOJIEMING,60,1,0,59,0
2017/08,中上級2A,1604005,沙慧徳,サケイトク,SHAHUIDE,60,6,0,54,1
2017/08,中上級2A,1604035,任春燕,ニンシュンエン,RENCHUNYAN,60,9,7,49,2
2017/08,中上級2A,1604042,魯崧,ロスウ,LUSONG,60,12,1,48,3
2017/08,中上級2A,1604108,谢文婷,シャブンテイ,XIEWENTING,60,0,0,60,0
2017/08,中上級2A,1604163,賈翼博,カヨクハク,JIAYIBO,60,16,0,44,4
2017/08,中上級2A,1604166,何潔怡,カケツイ,HEJIEYI,60,28,6,30,6
2017/08,中上級2A,1604199,王国慶,オウコッケイ,WANGGUOQING,60,9,3,50,1
2017/08,中上級2A,1604214,劉佳慧,リュウカケイ,LIUJIAHUI,60,16,0,44,4
2017/08,中上級2A,1604218,楊黙然,ヨウモクゼン,YANGMORAN,60,0,0,60,0
2017/08,中上級2A,1607005,孟永楽,モウエイラク,MENGYONGLE,60,2,2,58,0
2017/08,中上級2A,1610027,梁渝寧,リョウユネイ,LIANGYUNING,60,32,1,28,8
2017/08,中上級2A,1704025,劉玲,リュウレイ,LIULING,60,0,0,60,0
2017/08,中上級2A,1704026,劉昱君,リュウイククン,LIUYUJUN,60,12,1,48,3
2017/08,中上級2A,1704036,魏佳曦,ギカギ,WEIJIAXI,60,4,5,55,1
2017/08,中上級2A,1704049,王雪珊,オウセツサン,WANGXUESHAN,60,8,0,52,2
2017/08,中上級2A,1704077,杜皓亮,トコウリョウ,DUHAOLIANG,60,36,0,24,9
2017/08,中上級2A,1707077,王佳婧,オウカセイ,WANGJIAJING,60,0,0,60,0
2017/08,中上級1A,1604006,劉徳才,リュウトクサイ,LIUDECAI,60,0,0,60,0
2017/08,中上級1A,1604014,王画,オウカク,WANGHUA,60,16,2,44,4
2017/08,中上級1A,1604080,陸欣于杭,リクキンウコウ,LUXINYUHANG,60,7,1,53,1
2017/08,中上級1A,1604087,丛琳,ソウリン,CONGLIN,60,0,0,60,0
2017/08,中上級1A,1604148,洪威,コウイ,HONGWEI,60,5,7,53,1
2017/08,中上級1A,1604160,華菁,カセイ,HUAJING,60,0,0,60,0
2017/08,中上級1A,1604162,盧俊杰,ロシュンケツ,LUJUNJIE,60,4,0,56,1
2017/08,中上級1A,1604171,王嘉懿,オウカイ,WANGJIAYI,60,4,0,56,1
2017/08,中上級1A,1604186,柴嘉星,サイカセイ,CHAIJIAXING,60,7,2,53,1
2017/08,中上級1A,1604193,曹政,ソウセイ,CAOZHENG,60,13,3,46,3
2017/08,中上級1A,1604208,曹達,ソウタツ,CAODA,60,5,6,53,1
2017/08,中上級1A,1604234,陳佳元,チンカゲン,CHENJIAYUAN,60,16,2,44,4
2017/08,中上級1A,1604235,周竹曳,シュウチクエイ,ZHOUZHUYE,60,16,1,44,4
2017/08,中上級1A,1607081,張子人,チョウシジン,ZHANGZIREN,60,12,0,48,3
2017/08,中上級1A,1704092,賀文沁,カブンシン,HEWENQIN,60,8,0,52,2
2017/08,中上級1A,1707041,柴晨光,サイシンコウ,CHAICHENGUANG,60,5,2,55,1
2017/08,中級2A,1604008,丁子桐,テイシトウ,DINGZITONG,60,15,3,44,3
2017/08,中級2A,1604033,趙柄宇,チョウヘイウ,ZHAOBINGYU,60,21,4,38,4
2017/08,中級2A,1604040,謝明星,シャメイセイ,XIEMINGXING,60,6,4,53,1
2017/08,中級2A,1604078,謝栄博,シャエイハク,XIERONGBO,60,12,0,48,3
2017/08,中級2A,1604107,宣迎雁,センゲイガン,XUANYINGYAN,60,0,0,60,0
2017/08,中級2A,1604109,马焱钊,バエンショウ,MAYANZHAO,60,0,0,60,0
2017/08,中級2A,1604118,孟思雨,モウシウ,MENGSIYU,60,21,2,39,5
2017/08,中級2A,1604195,魏全麗,ギゼンレイ,WEIQUANLI,60,4,0,56,1
2017/08,中級2A,1604224,呉文蔚,ゴブンイ,WUWENWEI,60,28,6,30,6
2017/08,中級2A,1604243,,ヴティ　ニュン,"VUTHI NHUNG",60,0,0,60,0
2017/08,中級2A,1604244,,ズウンヴァン　ダン,"DUONGVAN DAN",60,5,0,55,1
2017/08,中級2A,1604261,,ノルブタエフボビル,NORBUTAEVBOBIR,60,0,0,60,0
2017/08,中級2A,1607028,李锴,リカイ,LIKAI,60,9,2,51,1
2017/08,中級2A,1607106,,シュレスタプラジョル,SHRESTHAPRAJWOL,60,8,2,52,2
2017/08,中級2A,1610004,季豊裕,キホウユウ,JIFENGYU,60,12,3,47,3
2017/08,中級2A,1610020,閻東明,エントウメイ,YANDONGMING,60,28,3,31,7
2017/08,中級2A,1610025,劉藝達,リュウゲイタツ,LIUYIDA,60,4,0,56,1
2017/08,中級2A,1704021,鄭　慧,テイシケイ,ZHENGZHIHUI,60,12,1,48,3
2017/08,中級2A,1704102,龍一飛,リュウイツヒ,LONGYIFEI,60,1,1,59,0
2017/08,中級2A,9917028,,"ｷﾝﾏﾝ ﾋｴｯﾌﾟ","KIMMANH HIEP",52,0,0,52,0
2017/08,中級2B,1604063,李婷,リテイ,LITING,60,0,0,60,0
2017/08,中級2B,1604069,史錦華,シキンカ,SHIJINHUA,60,4,0,56,1
2017/08,中級2B,1604076,劉欣,リュウキンエン,LIUXINYUAN,60,15,3,44,2
2017/08,中級2B,1604090,曹偉,ソウイ,CAOWEI,60,16,1,44,4
2017/08,中級2B,1604116,李阳,リヨウ,LIYANG,60,0,0,60,0
2017/08,中級2B,1604139,劉志航,リュウシコウ,LIUZHIHANG,60,0,0,60,0
2017/08,中級2B,1604140,杜藝嘉,トゲイカ,DUYIJIA,60,38,2,22,9
2017/08,中級2B,1604188,何恩寧,カオンネイ,HEENNING,60,8,0,52,2
2017/08,中級2B,1604201,呉抒陽,ゴジョヨウ,WUSHUYANG,60,16,0,44,4
2017/08,中級2B,1604202,周洋,シュウヨウ,ZHOUYANG,60,0,0,60,0
2017/08,中級2B,1604231,李曲,リキョク,LIQU,60,40,0,20,10
2017/08,中級2B,1604232,任佳敏,ニンカビン,RENJIAMIN,60,4,1,56,1
2017/08,中級2B,1607030,沈怡静,チンイセイ,SHENYIJING,60,24,1,36,6
2017/08,中級2B,1607031,麻越琳,マエツリン,MAYUELIN,60,0,1,60,0
2017/08,中級2B,1607033,湯桑,トウソウ,TANGSANG,60,8,0,52,2
2017/08,中級2B,1607053,周安然,シュウアンゼン,ZHOUANRAN,60,24,5,35,6
2017/08,中級2B,1607086,肖笛,ショウテキ,XIAODI,60,12,1,48,3
2017/08,中級2B,1607088,徐天嬋,ジョテンセン,XUTIANCHAN,60,17,2,43,4
2017/08,中級2B,1610021,馬藝銘,バゲイメイ,MAYIMING,60,0,0,60,0
2017/08,中級1A,1604094,付昱偉,フイクイ,FUYUWEI,60,12,0,48,3
2017/08,中級1A,1604242,,レザ　チェン,"LEGIA CHIEN",60,7,2,53,1
2017/08,中級1A,1604245,,グェンティ　ガ,"NGUYENTHI NGA",60,0,0,60,0
2017/08,中級1A,1604246,,ファムテー　ヴィン,"PHAMTHE VINH",60,7,2,53,1
2017/08,中級1A,1610010,彭野,ホウヤ,PENGYE,60,0,0,60,0
2017/08,中級1A,1610012,楊金子,ヨウキンシ,YANGJINZI,60,1,1,59,0
2017/08,中級1A,1610013,李豪,リゴウ,LIHAO,60,13,0,47,3
2017/08,中級1A,1610022,李容天,リヨウテン,LIRONGTIAN,60,1,0,59,0
2017/08,中級1A,1610030,柯永林,カエイリン,KEYONGLIN,60,0,0,60,0
2017/08,中級1A,1610031,楊藝,ヨウゲイ,YANGYI,60,0,0,60,0
2017/08,中級1A,1610042,武陽,ブヨウ,WUYANG,60,4,0,56,1
2017/08,中級1A,1704039,杜静雯,トセイブン,DUJINGWEN,60,5,0,55,1
2017/08,中級1A,1704065,李鈺児,リギョクジ,LIYUER,60,0,0,60,0
2017/08,中級1A,1704089,曹彬宸,ソウヒンシン,CAOBINCHEN,60,8,0,52,2
2017/08,中級1A,1704097,陸嘉,リクカイ,LUJIAWEI,60,5,1,55,1
2017/08,中級1A,1704100,昊宇,ホウコウウ,PANGHAOYU,60,0,0,60,0
2017/08,中級1A,1707003,楊陽,ヨウヨウ,YANGYANG,60,0,2,60,0
2017/08,中級1A,1707016,王鳳超,オウホウチョウ,WANGFENGCHAO,60,0,0,60,0
2017/08,中級1A,1707040,羅偉峰,ライホウ,LUOWEIFENG,60,12,0,48,3
2017/08,中級1A,9916026,岸本敏,キシモトトシ,,60,12,0,48,3
2017/08,中級1B,1604015,郭蕾,カクライ,GUOLEI,60,4,4,55,1
2017/08,中級1B,1604056,李晶晶,リショウショウ,LIJINGJING,60,9,0,51,2
2017/08,中級1B,1604257,,シュレスタラケシュ,SHRESTHARAKESH,60,0,0,60,0
2017/08,中級1B,1610001,柳楚卿,リュウソキョウ,LIUCHUQING,60,0,0,60,0
2017/08,中級1B,1610002,郭東勛,カクトウクン,GUODONGXUN,60,22,2,38,5
2017/08,中級1B,1610009,羅武,ラブ,LUOWU,60,0,3,59,0
2017/08,中級1B,1610011,于光普,ウコウフ,YUGUANGPU,60,24,2,36,6
2017/08,中級1B,1610019,趙立凡,チョウリツハン,ZHAOLIFAN,28,24,0,4,6
2017/08,中級1B,1610033,陳文華,チンブンカ,CHENWENHUA,60,10,2,50,2
2017/08,中級1B,1610038,董思成,トウシセイ,DONGSICHENG,60,20,0,40,5
2017/08,中級1B,1610040,黄南,コウナン,HUANGNAN,60,8,1,52,2
2017/08,中級1B,1610044,盧宇坤,ロウコン,LUYUKUN,60,8,0,52,2
2017/08,中級1B,1610053,,チャナパットソオントムグムジョンパニチ,,60,8,0,52,2
2017/08,中級1B,1704071,竺可迪,チクカテキ,ZHUKEDI,60,4,0,56,1
2017/08,中級1B,1704101,羅照軒,ラショウケン,LUOZHAOXUAN,60,20,0,40,5
2017/08,中級1B,1704119,雷米特,ライベイトク,LEIMITE,60,24,0,36,6
2017/08,中級1B,1704152,宋昌澔,ソンチャンホ,"SONGCHANG HO",60,0,0,60,0
2017/08,中級1B,1707008,李亮呈,リリョウテイ,LILIANGCHENG,60,12,0,48,3
2017/08,中級1B,1707022,郭雨蕙,カクウケイ,GUOYUHUI,60,0,0,60,0
2017/08,中級1B,1707084,簡頌賢,カンショウケン,JIANSONGXIAN,60,0,0,60,0
2017/08,中級1C,1604012,陳立志,チンリッシ,CHENLIZHI,60,13,0,47,3
2017/08,中級1C,1604067,高延,コウエン,GAOYAN,60,16,5,43,4
2017/08,中級1C,1604084,付建銘,フケンメイ,FUJIANMING,60,6,4,53,1
2017/08,中級1C,1604105,邱佳成,キュウカセイ,QIUJIACHENG,60,10,6,48,2
2017/08,中級1C,1604161,潘駿晨,ハンシュンシン,PANJUNCHEN,60,48,0,12,12
2017/08,中級1C,1604169,張夢彤,チョウムトウ,ZHANGMENGTONG,60,12,0,48,3
2017/08,中級1C,1604185,李昕雨,リキンウ,LIXINYU,60,4,1,56,1
2017/08,中級1C,1604194,張楚奇,チョウソキ,ZHANGCHUQI,60,4,2,56,1
2017/08,中級1C,1604200,呉格格,ゴカクカク,WUGEGE,60,0,0,60,0
2017/08,中級1C,1604252,,シュレスタマニス　ラル,"SHRESTHAMANISH LAL",60,0,0,60,0
2017/08,中級1C,1607023,楊禛,ヨウシン,YANGZHEN,60,16,1,44,4
2017/08,中級1C,1607061,趙翔飛,チョウショウヒ,ZHAOXIANGFEI,60,19,1,41,4
2017/08,中級1C,1607101,,グエンティ　トゥ　ハン,"NGUYENTHI THU HANG",60,16,0,44,3
2017/08,中級1C,1607104,,マハラジャンリーナ,MAHARJANREENA,60,0,1,60,0
2017/08,中級1C,1607105,,アビンゴパリ,ABINGOPALI,60,0,0,60,0
2017/08,中級1C,1607110,,ニスツスロチャナ,NHISUTUSULOCHANA,60,0,0,60,0
2017/08,中級1C,1607111,,コジュラジェス,KOJURAJESH,60,0,0,60,0
2017/08,中級1C,1607115,,"マジダル バハドゥル　","MAJHIDAL BAHADUR",60,0,0,60,0
2017/08,中級1C,9916023,,タパラジクマール,"THAPARAJ KUMAR",60,16,0,44,4
2017/08,初中級A,1610005,矯永昶,キョウエイチョウ,JIAOYONGCHANG,60,4,3,55,1
2017/08,初中級A,1610015,馮習文,ヒョウシュウブン,FENGXIWEN,60,0,0,60,0
2017/08,初中級A,1610029,劉瀚声,リュウカンセイ,LIUHANSHENG,60,27,5,32,6
2017/08,初中級A,1704029,徐銘孝,ジョメイコウ,XUMINGXIAO,60,16,0,44,4
2017/08,初中級A,1704041,郭亜含,カクアガン,GUOYAHAN,60,8,2,52,2
2017/08,初中級A,1704048,徐行,ジョコウ,XUHANG,60,0,0,60,0
2017/08,初中級A,1704052,宋宇鵬,ソウウホウ,SONGYUPENG,60,10,3,49,2
2017/08,初中級A,1704079,蘭玲,ランレイ,LANLING,60,4,0,56,1
2017/08,初中級A,1707002,周亜英,シュウアエイ,ZHOUYAYING,60,0,0,60,0
2017/08,初中級A,1707005,徐哲,ジョテツ,XUZHE,60,0,0,60,0
2017/08,初中級A,1707006,夏驕陽,カキョウヨウ,XIAJIAOYANG,60,0,4,59,0
2017/08,初中級A,1707015,羅靖雯,ラセイブン,LUOJINGWEN,60,0,0,60,0
2017/08,初中級A,1707018,王伊依,オウイイ,WANGYIYI,60,0,0,60,0
2017/08,初中級A,1707030,胡晋睿,コシンエイ,HUJINRUI,60,0,0,60,0
2017/08,初中級A,1707037,周思彤,シュウシトウ,ZHOUSITONG,60,0,0,60,0
2017/08,初中級A,1707061,艾迪,ガイテキ,AIDI,60,8,1,52,2
2017/08,初中級A,1707064,穆亜蝶,ボクアチョウ,MUYADIE,60,0,2,60,0
2017/08,初中級A,1707096,,チョウコウショウ,張宏祥,60,0,0,60,0
2017/08,初中級A,9917034,,ファムティ　タン　ヴァン,"PHAMTHI THANH VAN",60,12,0,48,3
2017/08,初中級B,1704007,文秋荻,ブンシュウテキ,WENQIUDI,60,0,0,60,0
2017/08,初中級B,1704008,張歆韵,チョウキンイン,ZHANGXINYUN,60,0,0,60,0
2017/08,初中級B,1704012,張雯菲　,チョウブンヒ,ZHANGWENFEI,60,2,1,58,0
2017/08,初中級B,1704013,陳曦,チンキ,CHENXI,60,2,1,58,0
2017/08,初中級B,1704016,韓夢倩,カンムセイ,HANMENGQIAN,60,12,0,48,3
2017/08,初中級B,1704060,張明梓,チョウメイシ,ZHANGMINGZI,60,3,0,57,0
2017/08,初中級B,1704072,姜軒,キョウソウケン,JIANGCONGXUAN,60,12,0,48,3
2017/08,初中級B,1704076,王　鵬,オウチュウホウ,WANGCHONGPENG,60,20,2,40,5
2017/08,初中級B,1704088,李春陽,リシュンヨウ,LICHUNYANG,60,21,1,39,5
2017/08,初中級B,1704099,張芳芳,チョウホウホウ,ZHANGFANGFANG,60,12,0,48,3
2017/08,初中級B,1707020,張丹妮,チョウタンジ,ZHANGDANNI,60,0,0,60,0
2017/08,初中級B,1707021,常露露,ジョウロロ,CHANGLULU,60,0,0,60,0
2017/08,初中級B,1707028,何東恩,カトウオン,HEDONGEN,60,0,0,60,0
2017/08,初中級B,1707032,林敬煒,リンケイイ,LINJINGWEI,60,0,0,60,0
2017/08,初中級B,1707042,呂佳妮,リョカジ,LYUJIANI,60,0,0,60,0
2017/08,初中級B,1707059,劉澤霏,リュウタクヒ,LIUZEFEI,60,0,0,60,0
2017/08,初中級B,1707060,瀋玥,シンゲツ,SHENYUE,60,4,1,56,1
2017/08,初中級B,1707066,韓竺苪,カンジクヘイ,HANZHURUI,60,0,1,60,0
2017/08,初中級B,1707087,黄雯雯,コウブンブン,HUANGWENWEN,60,0,0,60,0
2017/08,初中級C,1604091,郝玉辉,カクギョクキ,HAOYUHUI,60,5,0,55,1
2017/08,初中級C,1604128,劉夢奕,リュウムエキ,LIUMENGYI,60,11,1,49,2
2017/08,初中級C,1604172,蘭慧良,ランケイリョウ,LANHUILIANG,60,8,0,52,2
2017/08,初中級C,1604255,,ライユニサ,RAIYUNISHA,60,2,0,58,0
2017/08,初中級C,1607036,張雪睿,チョウセツエイ,ZHANGXUERUI,60,8,0,52,1
2017/08,初中級C,1607051,魯玲言,ロレイゲン,LULINGYAN,60,5,3,54,1
2017/08,初中級C,1607073,呉塵,ゴジン,WUCHEN,60,29,1,31,7
2017/08,初中級C,1607099,,グエンゴック　ホア,"NGUYENNGOC HOA",60,12,0,48,3
2017/08,初中級C,1607100,,ファムクォック　トアン,"PHAMQUOC TOAN",60,1,1,59,0
2017/08,初中級C,1610035,劉文萍,リュウブンヘイ,LIUWENPING,60,0,0,60,0
2017/08,初中級C,1704014,李鵬程,リホウテイ,LIPENGCHENG,60,12,3,47,3
2017/08,初中級C,1704040,張茜,チヨウセン,ZHANGXI,60,0,0,60,0
2017/08,初中級C,1704062,楊　露,ヨウレイロ,YANGLINGLU,60,4,0,56,1
2017/08,初中級C,1704064,賈雨晴,カウセイ,JIAYUQING,60,0,0,60,0
2017/08,初中級C,1704074,宋剣,ソウケン,SONGJIAN,60,5,0,55,1
2017/08,初中級C,1704087,丁一,テイイツ,DINGYI,60,0,0,60,0
2017/08,初中級C,1704090,儲冰潔,チョヒョウケツ,CHUBINGJIE,60,0,0,60,0
2017/08,初中級C,1704098,汪亦昀,オウエキイン,WANGYIYUN,60,0,0,60,0
2017/08,初中級C,1704118,張曼惠,チョウマンケイ,ZHANGMANHUI,60,4,0,56,1
2017/08,初中級D,1604052,汪順意,オウジュンイ,WANGSHUNYI,60,4,0,56,1
2017/08,初中級D,1604092,田博文,デンハクブン,TIANBOWEN,60,14,2,46,3
2017/08,初中級D,1604168,張添雅,チョウテンガ,ZHANGTIANYA,60,9,0,51,2
2017/08,初中級D,1604258,,"プラサドガウタム デリ　","PRASADGAUTAM  DILLI ",60,4,0,56,1
2017/08,初中級D,1607013,袁帥,エンスイ,YUANSHUAI,60,16,0,44,4
2017/08,初中級D,1607037,杜佳威,トカイ,DUJIAWEI,60,12,0,48,3
2017/08,初中級D,1607085,王哲,オウテツ,WANGZHE,60,12,1,48,3
2017/08,初中級D,1607098,,グエンティ　ゴック　ディエプ,"NGUYENTHI NGOC DIEP",60,8,2,52,2
2017/08,初中級D,1607102,,グエンティ　ホン,"NGUYENTHI HONG",60,4,1,56,1
2017/08,初中級D,1607113,,グルンカンチャン,GURUNGKANCHAN,60,0,0,60,0
2017/08,初中級D,1610006,鄭子渊,テイシエン,ZHENGZIYUAN,60,10,1,50,2
2017/08,初中級D,1701001,華媛媛,カエンエン,HUAYUANYUAN,60,1,0,59,0
2017/08,初中級D,1704020,賀婷婷,ガテイテイ,HETINGTING,60,16,1,44,4
2017/08,初中級D,1704034,佘鵬飛,シャホウヒ,SHEPENGFEI,60,2,0,58,0
2017/08,初中級D,1704047,黄若楠,コウジャクナン,HUANGRUONAN,60,0,0,60,0
2017/08,初中級D,1704057,王漪文,オウイブン,WANGYIWEN,60,4,1,56,1
2017/08,初中級D,1704068,朴雪英,ボクセツエイ,PIAOXUEYING,60,9,2,51,2
2017/08,初中級D,1704106,章丹丹,ショウタンタン,ZHANGDANDAN,60,4,1,56,0
2017/08,初中級D,1704109,魏佳斌,ギカヒン,WEIJIABIN,60,8,0,52,2
2017/08,初級2A,1607109,,ライスーダン,RAISUDAN,60,0,1,60,0
2017/08,初級2A,1607114,,ギリサラダ,GIRISARADA,60,3,0,57,0
2017/08,初級2A,1704005,唐可萱,トウカケン,TANGKEXUAN,60,20,0,40,5
2017/08,初級2A,1704006,李超琪,リチョウキ,LICHAOQI,60,8,2,52,2
2017/08,初級2A,1704011,周佳蓉,シュウカヨウ,ZHOUJIARONG,60,0,0,60,0
2017/08,初級2A,1704019,趙子未,チョウシミ,ZHAOZIWEI,60,4,0,56,1
2017/08,初級2A,1704037,鄧平成,トウヘイセイ,DENGPINGCHENG,60,0,0,60,0
2017/08,初級2A,1704045,呉翌陽,ゴヨクヨウ,WUYIYANG,60,4,0,56,1
2017/08,初級2A,1704046,莫鑫元,バクキンゲン,MOXINYUAN,60,34,1,26,8
2017/08,初級2A,1704069,朱玲瓏,シュレイロウ,ZHULINGLONG,60,0,0,60,0
2017/08,初級2A,1704070,姜博文,キョウハクブン,JIANGBOWEN,60,24,2,36,6
2017/08,初級2A,1704086,鄭好,テイコウ,ZHENGHAO,60,0,0,60,0
2017/08,初級2A,1704096,孫夢家,ソンムカ,SUNMENGJIA,60,0,0,60,0
2017/08,初級2A,1704103,柯俊羽,カシュンウ,KEJUNYU,60,28,1,32,7
2017/08,初級2A,1704120,,"ｽﾞｵﾝﾃｨｴﾝ ｸｪﾝ","DUONGTIEN QUYEN",60,0,0,60,0
2017/08,初級2A,1704124,,"ﾌｧﾑﾃｨ ﾏｲ","PHAMTHI MAI",60,4,0,56,1
2017/08,初級2A,1707023,賈雯倩,カブンセイ,JIAWENQIAN,60,0,0,60,0
2017/08,初級2A,1707057,徐開来,ジョカイライ,XUKAILAI,60,0,0,60,0
2017/08,初級2A,1707088,姚穎菲,ヨウエイヒ,YIUWINGFEI,60,0,0,60,0
2017/08,初級2B,1607107,,"ポカレルメガ ナット　",POKHARELMEGHANATH,60,0,0,60,0
2017/08,初級2B,1704051,万鑫,マンキン,WANXIN,60,11,0,49,2
2017/08,初級2B,1704054,焦玉衡,ショウギョクコウ,JIAOYUHENG,60,4,0,56,1
2017/08,初級2B,1704067,趙澤鳴,チョウタクメイ,ZHAOZEMING,60,0,0,60,0
2017/08,初級2B,1704080,郭亜博,カクアハク,GUOYABO,60,22,4,37,5
2017/08,初級2B,1704082,趙亜翼,チョウアヨク,ZHAOYAYI,60,12,0,48,3
2017/08,初級2B,1704084,銭豪杰,センゴウケツ,QIANHAOJIE,60,24,0,36,6
2017/08,初級2B,1704085,陳航,チンイコウ,CHENWEIHANG,60,16,0,44,4
2017/08,初級2B,1704104,趙然,チヨウゼン,ZHAORAN,60,12,0,48,3
2017/08,初級2B,1704107,韓非,カンヒ,HANFEI,60,1,7,57,0
2017/08,初級2B,1704111,連夢,レンムテキ,LIANMENGDI,60,8,0,52,2
2017/08,初級2B,1704112,金　翎,キンレイ,JINLING,60,0,0,60,0
2017/08,初級2B,1704116,張暁婧,チョウギョウセイ,ZHANGXIAOJING,60,12,1,48,3
2017/08,初級2B,1704123,,"ｸﾞｪﾝｳﾞｧﾝ ﾃｨｴﾝ","NGUYENVAN TIEN",60,4,0,56,1
2017/08,初級2B,1704125,,"ｸﾞｪﾝﾎｱﾝ ﾌｫﾝ ｳﾞｨ","NGUYENHOANG PHUONG VY",60,8,1,52,2
2017/08,初級2B,1704142,,ﾏﾊﾙｼﾞｬﾝｽｼﾞ,MAHARJANSUJI,60,0,0,60,0
2017/08,初級2B,1707014,温紫萱,オンシケン,WENZIXUAN,60,0,0,60,0
2017/08,初級2B,1707031,楊建華,ヨウケンカ,YANGJIANHUA,60,0,0,60,0
2017/08,初級2B,1707063,江佳蔚,コウカイ,JIANGJIAWEI,60,14,5,45,3
2017/08,初級2B,9917027,李雪晴,リセツセイ,LIXUEQING,60,4,0,56,1
2017/08,初級2C,1607020,李海菡,リカイカン,LIHAIHAN,60,34,0,26,8
2017/08,初級2C,1610007,姜巍,キョウギ,JIANGWEI,60,0,0,60,0
2017/08,初級2C,1610017,曲世正,キョクセセイ,QUSHIZHENG,60,12,0,48,3
2017/08,初級2C,1610049,,グエンバ　ティン,"NGUYENBA THINH",60,4,2,56,1
2017/08,初級2C,1610051,,グエンジュイ　カイン,"NGUYENDUY KHANH",60,0,0,60,0
2017/08,初級2C,1610054,,ピリヤコムシッカマーン,PIRIYAKORNSIGKAMANN,60,13,3,46,3
2017/08,初級2C,1704010,呉悠,ゴユウ,WUYOU,60,0,1,60,0
2017/08,初級2C,1704023,樊政,ハンセイ,FANZHENG,60,36,1,24,9
2017/08,初級2C,1704033,陳蕭陽,チンショウヨウ,CHENXIAOYANG,60,8,2,52,2
2017/08,初級2C,1704035,張敏,チョウビン,ZHANGMIN,60,0,0,60,0
2017/08,初級2C,1704038,黎潤絲,レイジュンシ,LIRUNSI,60,0,0,60,0
2017/08,初級2C,1704058,黄瑛,コウエイ,HUANGYING,60,0,0,60,0
2017/08,初級2C,1704063,姜惠涛,キョウケイトウ,JIANGHUITAO,60,8,1,52,2
2017/08,初級2C,1704094,伍浩聡,ゴコウソウ,WUHAOCONG,60,12,2,48,3
2017/08,初級2C,1704095,劉莉瑤,リュウリヨウ,LIULIYAO,60,23,1,37,3
2017/08,初級2C,1704113,張倩玉,チョウセイギョク,ZHANGQIANYU,60,4,0,56,1
2017/08,初級2C,1704140,,ラムテルアンザン,RAMTELANJAN,60,0,1,60,0
2017/08,初級2C,1704149,,"ﾀｸﾘﾏﾅ ｸﾏﾘ","THAKURIMANA KUMARI",60,0,0,60,0
2017/08,初級2C,1707026,劉釋伽,リュウシャクカ,LIUSHIJIA,60,0,0,60,0
2017/08,初級2C,1707029,唐竹,トウチク,TANGZHU,60,0,0,60,0
2017/08,初級2D,1604018,孫楊,ソンヨウ,SUNYANG,60,4,0,56,0
2017/08,初級2D,1604209,朱晧軒,シュコウケン,ZHUHAOXUAN,60,0,0,60,0
2017/08,初級2D,1607118,,カリモフシェフロズ,KARIMOVSHEKHROZ,60,10,1,50,2
2017/08,初級2D,1610034,王智麟,オウチリン,WANGZHILIN,60,0,0,60,0
2017/08,初級2D,1610047,,ゴティ　フオン　レ,"NGOTHI PHUONG LE",60,11,1,49,2
2017/08,初級2D,1610050,,ドヴィエット　ロン,"DOVIET LONG",60,9,3,50,2
2017/08,初級2D,1704003,蒋瑩,ショウエイ,JIANGYING,60,0,0,60,0
2017/08,初級2D,1704004,顧芸夢,コゲイム,GUYUNMENG,60,4,1,56,1
2017/08,初級2D,1704018,田金農,デンキンノウ,TIANJINNONG,60,6,1,54,1
2017/08,初級2D,1704024,呉芷瑤,ゴシヨウ,WUZHIYAO,60,0,0,60,0
2017/08,初級2D,1704028,高元昊,コウゲンコウ,GAOYUANHAO,60,12,0,48,3
2017/08,初級2D,1704032,董振博,トウシンバク,DONGZHENBO,60,4,0,56,1
2017/08,初級2D,1704042,劉思雪,リュウシセツ,LIUSIXUE,60,0,0,60,0
2017/08,初級2D,1704053,張澤,チヨウタク,ZHANGZE,60,16,0,44,4
2017/08,初級2D,1704061,尋夢,ジンム,XUNMENG,60,6,0,54,1
2017/08,初級2D,1704078,唐露莎,トウロサ,TANGLUSHA,60,16,1,44,4
2017/08,初級2D,1704128,,ｻﾌﾟｺﾀﾌﾟﾛﾃｨﾏ,SAPKOTAPRATIMA,60,6,1,54,1
2017/08,初級2D,1704141,,ﾏﾊﾙｼﾞｬﾝｻﾆｽ,MAHARJANSANISH,60,1,0,59,0
2017/08,初級2D,1707093,,シャムシエフシェロズ,SHAMSIEVSHEROZ,60,4,4,55,1
2017/08,初級2E,1607108,,"シルワルラメス プラサド　","SILWALRAMESH  PRASAD ",60,0,0,60,0
2017/08,初級2E,1704001,雷佳鳴,ライカメイ,LEIJIAMING,60,12,2,48,3
2017/08,初級2E,1704002,姚嘉穎,ヨウキエイ,YAOJIAYING,60,5,0,55,1
2017/08,初級2E,1704017,熊展銘,ユウテンメイ,XIONGZHANMING,60,0,0,60,0
2017/08,初級2E,1704022,李霖,リリン,LILIN,60,2,0,58,0
2017/08,初級2E,1704027,潘永鑫,ハンエイキン,PANYONGXIN,60,0,0,60,0
2017/08,初級2E,1704031,劉雨,リュウウ,LIUYU,60,15,0,45,3
2017/08,初級2E,1704044,劉馨楚,リュウケイソ,LIUXINCHU,60,16,0,44,4
2017/08,初級2E,1704055,宋晨燁,ソウシンヨウ,SONGCHENYE,60,0,0,60,0
2017/08,初級2E,1704056,劉弦,リュウゲン,LIUXIAN,60,23,2,37,5
2017/08,初級2E,1704066,白雨灵,ハクウレイ,BAIYULING,60,0,1,60,0
2017/08,初級2E,1704093,梁建礼,リョウケンレイ,LIANGJIANLI,60,24,0,36,6
2017/08,初級2E,1704110,郭亮廷,カクリョウテイ,GUOLIANGTING,60,0,0,60,0
2017/08,初級2E,1704121,,"ｸﾞｪﾝｳﾞｧﾝ ﾊﾞｸ","NGUYENVAN BAC",60,0,0,60,0
2017/08,初級2E,1704122,,"ｸﾞｪﾝﾋﾕ ﾊｲ","NGUYENHUU HAI",60,0,0,60,0
2017/08,初級2E,1704144,,ﾄﾞﾗﾙｶﾞｶﾞﾝ,DULALGAGAN,60,0,0,60,0
2017/08,初級2E,1707004,李功盛,リコウセイ,LIGONGSHENG,60,0,0,60,0
2017/08,初級2E,1707007,周成逸,シュウセイイツ,ZHOUCHENGYI,60,0,0,60,0
2017/08,初級2E,1707070,趙旭,チョウキョク,ZHAOXU,60,0,0,60,0
2017/08,初級2E,1707082,秦国棟,シンコクトウ,QINGUODONG,60,0,0,60,0
2017/08,初級1A,1707009,張知非,チョウチヒ,ZHANGZHIFEI,60,16,0,44,4
2017/08,初級1A,1707013,焦永愛,ショウエイアイ,JIAOYONGAI,60,0,0,60,0
2017/08,初級1A,1707019,張易凡,チョウエキハン,ZHANGYIFAN,60,4,0,56,1
2017/08,初級1A,1707033,孫毅,ソンキ,SUNYI,60,0,2,60,0
2017/08,初級1A,1707035,姜辰熹,キョウシンキ,JIANGCHENXI,60,0,0,60,0
2017/08,初級1A,1707036,凌佳鑫,リョウカキン,LINGJIAXIN,60,0,0,60,0
2017/08,初級1A,1707038,楊玉潔,ヨウギョクケツ,YANGYUJIE,60,2,1,58,0
2017/08,初級1A,1707039,向陽,コウヨウ,XIANGYANG,60,8,2,52,2
2017/08,初級1A,1707044,劉美玲,リュウビレイ,LIUMEILING,60,0,0,60,0
2017/08,初級1A,1707046,王依,オウイ,WANGYI,60,8,0,52,2
2017/08,初級1A,1707047,,シュトウ,ZHUTONG,60,1,0,59,0
2017/08,初級1A,1707048,朱江,シュコウ,ZHUJIANG,60,0,0,60,0
2017/08,初級1A,1707050,張爽,チョウソウ,ZHANGSHUANG,60,0,0,60,0
2017/08,初級1A,1707051,賈丁,カテイ,JIADING,60,0,0,60,0
2017/08,初級1A,1707068,譚勛儒,タンクンジュ,TANXUNRU,60,12,0,48,3
2017/08,初級1A,1707074,尤佳,ユウカ,YOUJIA,60,0,1,60,0
2017/08,初級1A,1707081,侯乙童,コウオツドウ,HOUYITONG,60,0,3,59,0
2017/08,初級1A,1707083,庄顔,ショウガン,ZHUANGYAN,60,29,0,31,7
2017/08,初級1A,1707089,,ファムティ　フォン　リン,"PHAMTHI PHUONG LINH",60,0,0,60,0
2017/08,初級1B,1704030,劉星雨,リュウセイウ,LIUXINGYU,60,32,0,28,8
2017/08,初級1B,1704129,,ｽﾍﾞﾃｨｽﾘｻﾞﾅ,SUBEDISRIJANA,60,0,0,60,0
2017/08,初級1B,1704138,,デザールアシク,DESARASHIK,60,0,0,60,0
2017/08,初級1B,1704150,,ｼｭﾚｽﾀﾅﾋﾞﾝ,SHRESTHANABIN,60,4,0,56,1
2017/08,初級1B,1707010,馮媛,ヒョウエン,FENGYUAN,60,20,0,40,5
2017/08,初級1B,1707012,陳家欣,チンカキン,CHENJIAXIN,60,0,2,60,0
2017/08,初級1B,1707017,孫帥雯,ソンスイブン,SUNSHUAIWEN,60,0,0,60,0
2017/08,初級1B,1707025,宮文秀,キュウブンシュウ,GONGWENXIU,60,0,0,60,0
2017/08,初級1B,1707034,叶家銘,ヨウカメイ,YEJIAMING,60,4,1,56,1
2017/08,初級1B,1707053,郝見優,カクケンユウ,HAOJIANYOU,60,4,0,56,1
2017/08,初級1B,1707056,張鵬,チョウホウ,ZHANGPENG,60,0,0,60,0
2017/08,初級1B,1707071,傅振寧,フシンネイ,FUZHENNING,60,0,0,60,0
2017/08,初級1B,1707076,秦一明,シンイチメイ,QINYIMING,60,8,1,52,2
2017/08,初級1B,1707079,郭文琦,カクブンキ,GUOWENQI,60,14,0,46,3
2017/08,初級1B,1707085,盧億,ロオク,LUYI,60,0,0,60,0
2017/08,初級1B,1707086,鄭欣瑩,テイキンエイ,ZHENGXINYING,60,0,0,60,0
2017/08,初級1B,1707092,,ジュラエフバイラム,JURAEVBAYRAM,60,8,0,52,2
2017/08,初級1B,1707095,,,ZENGPEIYUAN,60,0,0,60,0
2017/08,初級1B,9917036,姜聲俊,カンソンジュン,"KANGSEONG JUN",60,40,1,20,10
2017/08,初級1B,9917039,蔡云鹏,サイウンホウ,,60,0,0,60,0
2017/08,初級1C,1704143,,ﾋﾞｽﾀﾛｻﾞﾝ,BISTAROSHAN,60,0,0,60,0
2017/08,初級1C,1704145,,ﾊﾞﾄﾗｲﾌﾞｻﾞ,BHATTARAIPUJA,60,0,1,60,0
2017/08,初級1C,1704151,,ｸﾞﾙﾝﾗｾﾞﾝﾄﾞﾗ,GURUNGRAJENDRA,60,0,0,60,0
2017/08,初級1C,1707011,曽憲耀,ソウケンヨウ,ZENGXIANYAO,60,0,0,60,0
2017/08,初級1C,1707024,殷誠,インセイ,YINCHENG,60,0,0,60,0
2017/08,初級1C,1707027,鄧迪元,トウテキゲン,DENGDIYUAN,60,0,0,60,0
2017/08,初級1C,1707043,侯佳佳,コウカカ,HOUJIAJIA,60,0,0,60,0
2017/08,初級1C,1707045,,リキョウ,LIXIANG,60,0,0,60,0
2017/08,初級1C,1707049,劉褘晨,リュウイシン,LIUYICHEN,60,0,4,59,0
2017/08,初級1C,1707052,曽路堯,ソウロギョウ,ZENGLUYAO,60,0,0,60,0
2017/08,初級1C,1707058,徐希来,ジョキライ,XUXILAI,60,0,0,60,0
2017/08,初級1C,1707062,蘇雨,ソウ,SUYU,60,0,0,60,0
2017/08,初級1C,1707067,鄧壁炎,トウヘキエン,DENGBIYAN,60,0,0,60,0
2017/08,初級1C,1707069,邢飛凡,ケイヒハン,XINGFEIFAN,60,0,0,60,0
2017/08,初級1C,1707073,魏嘉,ギカ,WEIJIA,60,0,0,60,0
2017/08,初級1C,9917030,呉億錫,オオクソク,OHOUKSUK,60,0,0,60,0
2017/08,初級1C,9917031,金賢洙,キムヒョンス,KIMHYUNSOO,60,16,0,44,4
2017/08,初級1C,9917033,,レティ　トゥ　フォン,"LETHI THU HUONG",16,4,1,12,1
2017/08,初級1C,9917037,姜銀,カンソヌン,"KANGSUN EUN",60,48,0,12,12
