﻿クラス,教室,学生番号
大学院3A,301,1604019
大学院3A,301,1604031
大学院3A,301,1604047
大学院3A,301,1604064
大学院3A,301,1604114
大学院3A,301,1604137
大学院3A,301,1604156
大学院3A,301,1604157
大学院3A,301,1607011
大学院3A,301,1607018
大学院3A,301,1607034
大学院3A,301,1607035
大学院3A,301,1607038
大学院3A,301,1607050
大学院3A,301,1607076
大学院3A,301,1607082
大学院3A,301,1607089
大学院3A,301,1607096
大学院3A,301,1610023
大学院3A,301,1610043
大学院3B,302,1604010
大学院3B,302,1604017
大学院3B,302,1604020
大学院3B,302,1604036
大学院3B,302,1604037
大学院3B,302,1604041
大学院3B,302,1604055
大学院3B,302,1604079
大学院3B,302,1604123
大学院3B,302,1604131
大学院3B,302,1604175
大学院3B,302,1604227
大学院3B,302,1607015
大学院3B,302,1607019
大学院3B,302,1607025
大学院3B,302,1607052
大学院3B,302,1607064
大学院3B,302,1607095
大学院3B,302,1607112
大学院3B,302,1610030
大学院2S,203,1704008
大学院2S,203,1704062
大学院2S,203,1704064
大学院2S,203,1704069
大学院2S,203,1704087
大学院2S,203,1704090
大学院2S,203,1704112
大学院2S,203,1707015
大学院2S,203,1707018
大学院2S,203,1707021
大学院2S,203,1707029
大学院2S,203,1707031
大学院2S,203,1707037
大学院2S,203,1707059
大学院2S,203,1707060
大学院2S,203,1707082
大学院2S,203,1710085
大学院2S,203,1710107
大学3A,101,1604001
大学3A,101,1604082
大学3A,101,1604083
大学3A,101,1604134
大学3A,101,1604142
大学3A,101,1604153
大学3A,101,1604205
大学3A,101,1604210
大学3A,101,1604220
大学3A,101,1607007
大学3A,101,1607012
大学3A,101,1607014
大学3A,101,1607046
大学3A,101,1607066
大学3A,101,1607067
大学3A,101,1610039
大学3A,101,1704105
大学3A,101,1704152
大学3A,101,1707008
大学3A,101,1707022
大学3美大,304,1604022
大学3美大,304,1604044
大学3美大,304,1604048
大学3美大,304,1604075
大学3美大,304,1604101
大学3美大,304,1604136
大学3美大,304,1604143
大学3美大,304,1604173
大学3美大,304,1604181
大学3美大,304,1604226
大学3美大,304,1607008
大学3美大,304,1607040
大学3美大,304,1610012
大学3美大,304,1610016
大学3美大,304,1610024
大学3美大,304,1610037
大学3美大,304,1704091
大学2A,303,1604023
大学2A,303,1604034
大学2A,303,1604038
大学2A,303,1604068
大学2A,303,1604100
大学2A,303,1604110
大学2A,303,1604138
大学2A,303,1604154
大学2A,303,1604183
大学2A,303,1604190
大学2A,303,1604204
大学2A,303,1604217
大学2A,303,1604221
大学2A,303,1604222
大学2A,303,1604233
大学2A,303,1604239
大学2A,303,1607058
大学2A,303,1607084
大学2A,303,1607091
大学2A,303,1607094
大学2S,202,1704004
大学2S,202,1704007
大学2S,202,1704010
大学2S,202,1704047
大学2S,202,1704054
大学2S,202,1704057
大学2S,202,1704066
大学2S,202,1704121
大学2S,202,1707007
大学2S,202,1710015
大学2S,202,1710078
大学2S,202,1710135
大学2S,202,1710148
大学2S,202,1710155
大学2S,202,1710164
大学2S,202,1801002
大学2S,202,1801003
進学準備A,402,1604002
進学準備A,402,1604028
進学準備A,402,1604029
進学準備A,402,1604045
進学準備A,402,1604051
進学準備A,402,1604066
進学準備A,402,1604072
進学準備A,402,1604073
進学準備A,402,1604077
進学準備A,402,1604084
進学準備A,402,1604093
進学準備A,402,1604104
進学準備A,402,1604117
進学準備A,402,1604125
進学準備A,402,1604133
進学準備A,402,1604141
進学準備A,402,1604152
進学準備A,402,1604158
進学準備A,402,1604184
進学準備A,402,1604189
進学準備A,402,1604228
進学準備A,402,1604240
進学準備A,402,1607022
進学準備A,402,1607024
進学準備A,402,1607032
進学準備A,402,1607042
進学準備A,402,1607056
進学準備A,402,1607057
進学準備A,402,1607060
進学準備A,402,1607072
進学準備A,402,1607075
進学準備A,402,1607078
進学準備A,402,1607119
進学準備A,402,1610001
進学準備A,402,1610014
進学準備A,402,1610018
進学準備A,402,1610026
進学準備A,402,1610045
進学準備A,402,1610048
進学準備A,402,1704059
進学準備A,402,1704081
進学準備A,402,1704108
進学準備A,402,1704115
上級2A,101,1604108
上級2A,101,1604140
上級2A,101,1604163
上級2A,101,1604166
上級2A,101,1604214
上級2A,101,1607005
上級2A,101,1704025
上級2A,101,1704026
上級2A,101,1704036
上級2A,101,1704049
上級2A,101,1704077
上級2A,101,1707041
上級2A,101,1707077
上級2A,101,1710029
上級2A,101,1710031
上級2A,101,1710035
上級2A,101,1710061
上級2A,101,1710181
上級1A,102,1604005
上級1A,102,1604006
上級1A,102,1604014
上級1A,102,1604042
上級1A,102,1604080
上級1A,102,1604087
上級1A,102,1604111
上級1A,102,1604160
上級1A,102,1604162
上級1A,102,1604171
上級1A,102,1604186
上級1A,102,1604193
上級1A,102,1604199
上級1A,102,1604208
上級1A,102,1604234
上級1A,102,1604235
上級1A,102,1607081
上級1A,102,1610027
上級1A,102,1704092
中上級2A,204,1604033
中上級2A,204,1604040
中上級2A,204,1604078
中上級2A,204,1604107
中上級2A,204,1604109
中上級2A,204,1604124
中上級2A,204,1604195
中上級2A,204,1604224
中上級2A,204,1604243
中上級2A,204,1604261
中上級2A,204,1607028
中上級2A,204,1607087
中上級2A,204,1607106
中上級2A,204,1610004
中上級2A,204,1610020
中上級2A,204,1610025
中上級2A,204,1704021
中上級2A,204,1704097
中上級2A,204,1704102
中上級2A,204,1707016
中上級2A,204,1707084
中上級1A,205,1604012
中上級1A,205,1604202
中上級1A,205,1610002
中上級1A,205,1610009
中上級1A,205,1610010
中上級1A,205,1610031
中上級1A,205,1610033
中上級1A,205,1610040
中上級1A,205,1610042
中上級1A,205,1610044
中上級1A,205,1610053
中上級1A,205,1704039
中上級1A,205,1704048
中上級1A,205,1704065
中上級1A,205,1704071
中上級1A,205,1704089
中上級1A,205,1704100
中上級1A,205,1704101
中上級1A,205,1704119
中上級1A,205,1707003
中上級1A,205,1707040
中級2A,206,1604105
中級2A,206,1604118
中級2A,206,1604246
中級2A,206,1604259
中級2A,206,1607023
中級2A,206,1607053
中級2A,206,1607061
中級2A,206,1610005
中級2A,206,1610013
中級2A,206,1610029
中級2A,206,1704029
中級2A,206,1704041
中級2A,206,1704079
中級2A,206,1707002
中級2A,206,1707005
中級2A,206,1707006
中級2A,206,1707030
中級2A,206,1707061
中級2A,206,1707064
中級2A,206,1710054
中級2B,207,1604008
中級2B,207,1604056
中級2B,207,1604231
中級2B,207,1604257
中級2B,207,1610011
中級2B,207,1610038
中級2B,207,1704012
中級2B,207,1704013
中級2B,207,1704016
中級2B,207,1704038
中級2B,207,1704072
中級2B,207,1704088
中級2B,207,1707020
中級2B,207,1707028
中級2B,207,1707032
中級2B,207,1707042
中級2B,207,1707066
中級2B,207,1707087
中級2B,207,1710060
中級2B,207,1710126
中級2B,207,1710129
中級1A,208,1604242
中級1A,208,1604244
中級1A,208,1604245
中級1A,208,1607029
中級1A,208,1610015
中級1A,208,1704052
中級1A,208,1704060
中級1A,208,1704076
中級1A,208,1707096
中級1A,208,1710004
中級1A,208,1710014
中級1A,208,1710034
中級1A,208,1710043
中級1A,208,1710081
中級1A,208,1710121
中級1A,208,1710130
中級1A,208,1710196
中級1A,208,1801020
中級1A,208,1801025
初中級A,502,1607114
初中級A,502,1607118
初中級A,502,1707009
初中級A,502,1707019
初中級A,502,1707035
初中級A,502,1707044
初中級A,502,1707048
初中級A,502,1707050
初中級A,502,1707051
初中級A,502,1707068
初中級A,502,1710013
初中級A,502,1710026
初中級A,502,1710050
初中級A,502,1710106
初中級A,502,1710159
初中級A,502,1710160
初中級A,502,1710161
初中級A,502,1710167
初中級A,502,1710170
初中級A,502,1710212
初中級B,503,1607020
初中級B,503,1610051
初中級B,503,1707013
初中級B,503,1707033
初中級B,503,1707036
初中級B,503,1707038
初中級B,503,1707039
初中級B,503,1707046
初中級B,503,1707047
初中級B,503,1707074
初中級B,503,1707081
初中級B,503,1707089
初中級B,503,1710080
初中級B,503,1710096
初中級B,503,1710113
初中級B,503,1710137
初中級B,503,1710184
初中級B,503,1710195
初中級B,503,1710217
初中級B,503,1801008
初中級B,503,1801009
初級2A,202,1710005
初級2A,202,1710032
初級2A,202,1710042
初級2A,202,1710048
初級2A,202,1710056
初級2A,202,1710058
初級2A,202,1710068
初級2A,202,1710075
初級2A,202,1710077
初級2A,202,1710083
初級2A,202,1710084
初級2A,202,1710092
初級2A,202,1710118
初級2A,202,1710147
初級2A,202,1710158
初級2A,202,1710163
初級2A,202,1710178
初級2A,202,1710180
初級2A,202,1710208
初級2A,202,1710209
初級2A,202,1710246
中上級2B,101,1604063
中上級2B,101,1604116
中上級2B,101,1604139
中上級2B,101,1604188
中上級2B,101,1604201
中上級2B,101,1604232
中上級2B,101,1607030
中上級2B,101,1607031
中上級2B,101,1607033
中上級2B,101,1607086
中上級2B,101,1607088
中上級2B,101,1610021
中上級2B,101,1710052
中上級2B,101,1710100
中上級2B,101,1710111
中上級2B,101,1710128
中上級2B,101,1710138
中上級2B,101,1710144
中上級2B,101,1801019
卒業準備A,402,1604052
卒業準備A,402,1604067
卒業準備A,402,1604091
卒業準備A,402,1604092
卒業準備A,402,1604128
卒業準備A,402,1604168
卒業準備A,402,1604169
卒業準備A,402,1604172
卒業準備A,402,1604185
卒業準備A,402,1604194
卒業準備A,402,1604200
卒業準備A,402,1604209
卒業準備A,402,1604255
卒業準備A,402,1607013
卒業準備A,402,1607036
卒業準備A,402,1607037
卒業準備A,402,1607051
卒業準備A,402,1607073
卒業準備A,402,1607085
卒業準備A,402,1607098
卒業準備A,402,1607099
卒業準備A,402,1607100
卒業準備A,402,1607101
卒業準備A,402,1607102
卒業準備A,402,1607104
卒業準備A,402,1607105
卒業準備A,402,1607107
卒業準備A,402,1607108
卒業準備A,402,1607109
卒業準備A,402,1607110
卒業準備A,402,1607113
卒業準備A,402,1607115
卒業準備A,402,1610007
卒業準備A,402,1610017
卒業準備A,402,1610034
卒業準備A,402,1610047
卒業準備A,402,1610049
卒業準備A,402,1610050
卒業準備A,402,1610054
卒業準備A,402,1701001
卒業準備A,402,1704111
卒業準備A,402,1704124
中級2C,102,1604252
中級2C,102,1607111
中級2C,102,1610006
中級2C,102,1610035
中級2C,102,1704014
中級2C,102,1704034
中級2C,102,1704040
中級2C,102,1704068
中級2C,102,1704074
中級2C,102,1704086
中級2C,102,1704098
中級2C,102,1704106
中級2C,102,1704109
中級2C,102,1704118
中級2C,102,1710152
中級2C,102,1710193
中級2C,102,1710197
中級1B,202,1604258
中級1B,202,1704006
中級1B,202,1704018
中級1B,202,1704020
中級1B,202,1704035
中級1B,202,1704045
中級1B,202,1704055
中級1B,202,1704082
中級1B,202,1704085
中級1B,202,1704093
中級1B,202,1704095
中級1B,202,1704096
中級1B,202,1704113
中級1B,202,1704125
中級1B,202,1707014
中級1B,202,1707023
中級1B,202,1707057
中級1B,202,1707070
中級1B,202,1707093
中級1B,202,9917027
中級1C,208,1704001
中級1C,208,1704003
中級1C,208,1704011
中級1C,208,1704017
中級1C,208,1704019
中級1C,208,1704022
中級1C,208,1704027
中級1C,208,1704033
中級1C,208,1704037
中級1C,208,1704042
中級1C,208,1704044
中級1C,208,1704051
中級1C,208,1704053
中級1C,208,1704058
中級1C,208,1704061
中級1C,208,1704070
中級1C,208,1704078
中級1C,208,1704084
中級1C,208,1707004
中級1C,208,1707026
中級1C,208,1707088
初中級C,301,1707011
初中級C,301,1707012
初中級C,301,1707017
初中級C,301,1707024
初中級C,301,1707025
初中級C,301,1707027
初中級C,301,1707043
初中級C,301,1707053
初中級C,301,1707056
初中級C,301,1707069
初中級C,301,1710019
初中級C,301,1710023
初中級C,301,1710028
初中級C,301,1710033
初中級C,301,1710045
初中級C,301,1710070
初中級C,301,1710105
初中級C,301,1710173
初中級C,301,1710174
初中級C,301,1710175
初中級C,301,1710194
初中級D,302,1704067
初中級D,302,1704080
初中級D,302,1704094
初中級D,302,1704103
初中級D,302,1704104
初中級D,302,1704107
初中級D,302,1704110
初中級D,302,1704116
初中級D,302,1704122
初中級D,302,1704123
初中級D,302,1704138
初中級D,302,1704140
初中級D,302,1704141
初中級D,302,1704144
初中級D,302,1707067
初中級D,302,1707076
初中級D,302,1707079
初中級D,302,1707086
初中級D,302,1710017
初中級D,302,1710065
初中級D,302,1801005
初中級E,303,1704005
初中級E,303,1704024
初中級E,303,1704028
初中級E,303,1704031
初中級E,303,1704032
初中級E,303,1704046
初中級E,303,1704056
初中級E,303,1704063
初中級E,303,1704120
初中級E,303,1704128
初中級E,303,1704142
初中級E,303,1704149
初中級E,303,1707049
初中級E,303,1707058
初中級E,303,1707062
初中級E,303,1707071
初中級E,303,1707073
初中級E,303,1707095
初中級E,303,1710008
初中級E,303,1710166
初中級E,303,1801004
初級2B,202,1704030
初級2B,202,1704143
初級2B,202,1704151
初級2B,202,1710007
初級2B,202,1710009
初級2B,202,1710012
初級2B,202,1710020
初級2B,202,1710021
初級2B,202,1710076
初級2B,202,1710087
初級2B,202,1710109
初級2B,202,1710127
初級2B,202,1710136
初級2B,202,1710149
初級2B,202,1710150
初級2B,202,1710156
初級2B,202,1710182
初級2B,202,1710191
初級2B,202,1710199
初級2B,202,1710222
初級2B,202,1710224
初級2C,203,1707052
初級2C,203,1707085
初級2C,203,1707092
初級2C,203,1710001
初級2C,203,1710011
初級2C,203,1710025
初級2C,203,1710039
初級2C,203,1710044
初級2C,203,1710053
初級2C,203,1710082
初級2C,203,1710088
初級2C,203,1710098
初級2C,203,1710102
初級2C,203,1710110
初級2C,203,1710112
初級2C,203,1710133
初級2C,203,1710157
初級2C,203,1710169
初級2C,203,1710198
初級2C,203,1710202
初級2C,203,1710207
初級2D,204,1704129
初級2D,204,1704145
初級2D,204,1710003
初級2D,204,1710018
初級2D,204,1710022
初級2D,204,1710027
初級2D,204,1710046
初級2D,204,1710051
初級2D,204,1710063
初級2D,204,1710067
初級2D,204,1710091
初級2D,204,1710108
初級2D,204,1710151
初級2D,204,1710165
初級2D,204,1710171
初級2D,204,1710176
初級2D,204,1710186
初級2D,204,1710192
初級2D,204,1710216
初級2D,204,1710245
初級2D,204,1710248
初級2E,205,1704150
初級2E,205,1710010
初級2E,205,1710016
初級2E,205,1710037
初級2E,205,1710047
初級2E,205,1710049
初級2E,205,1710055
初級2E,205,1710062
初級2E,205,1710064
初級2E,205,1710071
初級2E,205,1710073
初級2E,205,1710095
初級2E,205,1710097
初級2E,205,1710101
初級2E,205,1710104
初級2E,205,1710117
初級2E,205,1710153
初級2E,205,1710200
初級2E,205,1710236
初級2E,205,1710252
初級2E,205,1801018
初級2F,206,1707045
初級2F,206,1707083
初級2F,206,1710006
初級2F,206,1710069
初級2F,206,1710086
初級2F,206,1710116
初級2F,206,1710120
初級2F,206,1710125
初級2F,206,1710131
初級2F,206,1710139
初級2F,206,1710143
初級2F,206,1710162
初級2F,206,1710179
初級2F,206,1710183
初級2F,206,1710205
初級2F,206,1710213
初級2F,206,1710237
初級2F,206,1710241
初級2F,206,1710243
初級2F,206,1710249
初級2F,206,9917039
初級2G,207,1710002
初級2G,207,1710030
初級2G,207,1710036
初級2G,207,1710059
初級2G,207,1710089
初級2G,207,1710094
初級2G,207,1710099
初級2G,207,1710122
初級2G,207,1710134
初級2G,207,1710141
初級2G,207,1710142
初級2G,207,1710187
初級2G,207,1710204
初級2G,207,1710206
初級2G,207,1710210
初級2G,207,1710211
初級2G,207,1710215
初級2G,207,1710238
初級2G,207,1710247
初級2G,207,1710251
初級2G,207,1710253
初級1A,502,1707034
初級1A,502,1710038
初級1A,502,1710040
初級1A,502,1710066
初級1A,502,1710123
初級1A,502,1710189
初級1A,502,1710218
初級1A,502,1710219
初級1A,502,1710220
初級1A,502,1710221
初級1A,502,1710225
初級1A,502,1710234
初級1A,502,1710240
初級1A,502,1710244
初級1A,502,1801010
初級1A,502,1801012
初級1A,502,1801023
初級1A,502,1801024
初級1A,502,9918001
初級1B,503,1710090
初級1B,503,1710119
初級1B,503,1710140
初級1B,503,1710214
初級1B,503,1710223
初級1B,503,1710229
初級1B,503,1710235
初級1B,503,1710239
初級1B,503,1710242
初級1B,503,1801001
初級1B,503,1801006
初級1B,503,1801007
初級1B,503,1801011
初級1B,503,1801013
初級1B,503,1801014
初級1B,503,1801015
初級1B,503,1801016
初級1B,503,1801017
初級1B,503,1801021
初級1B,503,1801022
初級1B,503,9918002
