﻿id,name,sequence,lastup_account_id,create_datetime,lastup_datetime,disable
1,学生管理,1,2000,2017-12-26 00:00:00,0000-00-00 00:00:00,0
2,入学,2,2000,2017-12-26 00:00:00,0000-00-00 00:00:00,0
3,出席管理,3,2000,2017-12-26 00:00:00,0000-00-00 00:00:00,0
4,出欠承認,4,2000,2017-12-26 00:00:00,0000-00-00 00:00:00,0
5,届出・申請書,5,2000,2017-12-26 00:00:00,0000-00-00 00:00:00,0
6,お知らせ,6,2000,2017-12-26 00:00:00,0000-00-00 00:00:00,0
7,成績,7,2000,2017-12-26 00:00:00,0000-00-00 00:00:00,0
8,教育コンテンツ,8,2000,2017-12-26 00:00:00,0000-00-00 00:00:00,0
9,職員管理,9,2000,2017-12-26 00:00:00,0000-00-00 00:00:00,0
10,非常勤給与,10,2000,2017-12-26 00:00:00,0000-00-00 00:00:00,0
11,カリキュラム,11,2000,2017-12-26 00:00:00,0000-00-00 00:00:00,0
12,各種設定・締め処理,12,2000,2017-12-26 00:00:00,0000-00-00 00:00:00,0
13,システム管理,13,2000,2017-12-26 00:00:00,0000-00-00 00:00:00,0
15,学生用タブレット,99,2000,2018-03-30 18:05:50,2018-03-30 18:05:50,0
