﻿time_zone_name,time_table_group_name,クラス名,学籍番号,氏名,氏名カナ,在籍状況,日付,公欠,休学,コメント,入室時間1,退室時間1,入室時間2,退室時間2,入室時間3,退室時間3,time_table_time_from1,time_table_time_to1,1or6コマ,1or6コマ入,1or6コマ退,time_table_time_from2,time_table_time_to2,2or7コマ,2or7コマ入,2or7コマ退,time_table_time_from3,time_table_time_to3,3or8コマ,3or8コマ入,3or8コマ退,time_table_time_from4,time_table_time_to4,4or9コマ,4or9コマ入,4or9コマ退
午後,パターン2(10分早める),中級2B,1604202,周洋,シュウヨウ,在籍,2017-07-11, , , ,13:08:06,00:00:00,00:00:00,00:00:00,00:00:00,00:00:00,13:25:00,14:09:59,出席,13:25:00,14:09:59,14:10:00,14:44:59,出席,14:10:00,14:44:59,14:55:00,15:39:59,出席,14:55:00,15:39:59,15:50:00,16:44:59,出席,15:50:00,16:44:59
午後,パターン2(10分早める),中級2B,1604202,周洋,シュウヨウ,在籍,2017-07-12, , , ,13:07:35,00:00:00,00:00:00,00:00:00,00:00:00,00:00:00,13:25:00,14:09:59,出席,13:25:00,14:09:59,14:10:00,14:44:59,出席,14:10:00,14:44:59,14:55:00,15:39:59,出席,14:55:00,15:39:59,15:50:00,16:44:59,出席,15:50:00,16:44:59
午後,パターン2(10分早める),中級2B,1604202,周洋,シュウヨウ,在籍,2017-07-13, , , ,13:06:44,00:00:00,00:00:00,00:00:00,00:00:00,00:00:00,13:25:00,14:09:59,出席,13:25:00,14:09:59,14:10:00,14:44:59,出席,14:10:00,14:44:59,14:55:00,15:39:59,出席,14:55:00,15:39:59,15:50:00,16:44:59,出席,15:50:00,16:44:59
午後,パターン2(10分早める),中級2B,1604202,周洋,シュウヨウ,在籍,2017-07-14, , , ,12:59:18,00:00:00,00:00:00,00:00:00,00:00:00,00:00:00,13:25:00,14:09:59,出席,13:25:00,14:09:59,14:10:00,14:44:59,出席,14:10:00,14:44:59,14:55:00,15:39:59,出席,14:55:00,15:39:59,15:50:00,16:44:59,出席,15:50:00,16:44:59
午後,パターン2(10分早める),中級2B,1604202,周洋,シュウヨウ,在籍,2017-07-18, , , ,13:04:03,00:00:00,00:00:00,00:00:00,00:00:00,00:00:00,13:25:00,14:09:59,出席,13:25:00,14:09:59,14:10:00,14:44:59,出席,14:10:00,14:44:59,14:55:00,15:39:59,出席,14:55:00,15:39:59,15:50:00,16:44:59,出席,15:50:00,16:44:59
午後,パターン2(10分早める),中級2B,1604202,周洋,シュウヨウ,在籍,2017-07-19, , , ,13:07:35,00:00:00,00:00:00,00:00:00,00:00:00,00:00:00,13:25:00,14:09:59,出席,13:25:00,14:09:59,14:10:00,14:44:59,出席,14:10:00,14:44:59,14:55:00,15:39:59,出席,14:55:00,15:39:59,15:50:00,16:44:59,出席,15:50:00,16:44:59
午後,パターン2(10分早める),中級2B,1604202,周洋,シュウヨウ,在籍,2017-07-20, , , ,13:12:56,00:00:00,00:00:00,00:00:00,00:00:00,00:00:00,13:25:00,14:09:59,出席,13:25:00,14:09:59,14:10:00,14:44:59,出席,14:10:00,14:44:59,14:55:00,15:39:59,出席,14:55:00,15:39:59,15:50:00,16:44:59,出席,15:50:00,16:44:59
午後,パターン2(10分早める),中級2B,1604202,周洋,シュウヨウ,在籍,2017-07-21, , , ,12:59:00,00:00:00,00:00:00,00:00:00,00:00:00,00:00:00,13:25:00,14:09:59,出席,13:25:00,14:09:59,14:10:00,14:44:59,出席,14:10:00,14:44:59,14:55:00,15:39:59,出席,14:55:00,15:39:59,15:50:00,16:44:59,出席,15:50:00,16:44:59
午後,パターン2(10分早める),中級2B,1604202,周洋,シュウヨウ,在籍,2017-07-24, , , ,13:00:00,00:00:00,00:00:00,00:00:00,00:00:00,00:00:00,13:25:00,14:09:59,出席,13:25:00,14:09:59,14:10:00,14:44:59,出席,14:10:00,14:44:59,14:55:00,15:39:59,出席,14:55:00,15:39:59,15:50:00,16:44:59,出席,15:50:00,16:44:59
午後,パターン2(10分早める),中級2B,1604202,周洋,シュウヨウ,在籍,2017-07-25, , , ,13:08:33,00:00:00,00:00:00,00:00:00,00:00:00,00:00:00,13:25:00,14:09:59,出席,13:25:00,14:09:59,14:10:00,14:44:59,出席,14:10:00,14:44:59,14:55:00,15:39:59,出席,14:55:00,15:39:59,15:50:00,16:44:59,出席,15:50:00,16:44:59
午後,パターン2(10分早める),中級2B,1604202,周洋,シュウヨウ,在籍,2017-07-26, , , ,13:10:28,00:00:00,00:00:00,00:00:00,00:00:00,00:00:00,13:25:00,14:09:59,出席,13:25:00,14:09:59,14:10:00,14:44:59,出席,14:10:00,14:44:59,14:55:00,15:39:59,出席,14:55:00,15:39:59,15:50:00,16:44:59,出席,15:50:00,16:44:59
午後,パターン2(10分早める),中級2B,1604202,周洋,シュウヨウ,在籍,2017-07-27, , , ,13:11:30,00:00:00,00:00:00,00:00:00,00:00:00,00:00:00,13:25:00,14:09:59,出席,13:25:00,14:09:59,14:10:00,14:44:59,出席,14:10:00,14:44:59,14:55:00,15:39:59,出席,14:55:00,15:39:59,15:50:00,16:44:59,出席,15:50:00,16:44:59
午後,パターン2(10分早める),中級2B,1604202,周洋,シュウヨウ,在籍,2017-07-28, , , ,12:58:03,00:00:00,00:00:00,00:00:00,00:00:00,00:00:00,13:25:00,14:09:59,出席,13:25:00,14:09:59,14:10:00,14:44:59,出席,14:10:00,14:44:59,14:55:00,15:39:59,出席,14:55:00,15:39:59,15:50:00,16:44:59,出席,15:50:00,16:44:59
午後,パターン2(10分早める),中級2B,1604202,周洋,シュウヨウ,在籍,2017-07-31, , , ,12:40:35,00:00:00,00:00:00,00:00:00,00:00:00,00:00:00,13:25:00,14:09:59,出席,13:25:00,14:09:59,14:10:00,14:44:59,出席,14:10:00,14:44:59,14:55:00,15:39:59,出席,14:55:00,15:39:59,15:50:00,16:44:59,出席,15:50:00,16:44:59
午後,パターン2(10分早める),中級2B,1604202,周洋,シュウヨウ,在籍,2017-08-01, , , ,13:04:45,00:00:00,00:00:00,00:00:00,00:00:00,00:00:00,13:25:00,14:09:59,出席,13:25:00,14:09:59,14:10:00,14:44:59,出席,14:10:00,14:44:59,14:55:00,15:39:59,出席,14:55:00,15:39:59,15:50:00,16:44:59,出席,15:50:00,16:44:59
午後,パターン2(10分早める),中級2B,1604202,周洋,シュウヨウ,在籍,2017-08-02, , , ,13:02:06,00:00:00,00:00:00,00:00:00,00:00:00,00:00:00,13:25:00,14:09:59,出席,13:25:00,14:09:59,14:10:00,14:44:59,出席,14:10:00,14:44:59,14:55:00,15:39:59,出席,14:55:00,15:39:59,15:50:00,16:44:59,出席,15:50:00,16:44:59
午後,パターン2(10分早める),中級2B,1604202,周洋,シュウヨウ,在籍,2017-08-03, , , ,13:03:58,00:00:00,00:00:00,00:00:00,00:00:00,00:00:00,13:25:00,14:09:59,出席,13:25:00,14:09:59,14:10:00,14:44:59,出席,14:10:00,14:44:59,14:55:00,15:39:59,出席,14:55:00,15:39:59,15:50:00,16:44:59,出席,15:50:00,16:44:59
午後,パターン2(10分早める),中級2B,1604202,周洋,シュウヨウ,在籍,2017-08-04, , , ,13:02:20,00:00:00,00:00:00,00:00:00,00:00:00,00:00:00,13:25:00,14:09:59,出席,13:25:00,14:09:59,14:10:00,14:44:59,出席,14:10:00,14:44:59,14:55:00,15:39:59,出席,14:55:00,15:39:59,15:50:00,16:44:59,出席,15:50:00,16:44:59
午後,パターン2(10分早める),中級2B,1604202,周洋,シュウヨウ,在籍,2017-08-17, , , ,13:09:16,00:00:00,00:00:00,00:00:00,00:00:00,00:00:00,13:25:00,14:09:59,出席,13:25:00,14:09:59,14:10:00,14:44:59,出席,14:10:00,14:44:59,14:55:00,15:39:59,出席,14:55:00,15:39:59,15:50:00,16:44:59,出席,15:50:00,16:44:59
午後,パターン2(10分早める),中級2B,1604202,周洋,シュウヨウ,在籍,2017-08-18, , , ,12:49:02,00:00:00,00:00:00,00:00:00,00:00:00,00:00:00,13:25:00,14:09:59,出席,13:25:00,14:09:59,14:10:00,14:44:59,出席,14:10:00,14:44:59,14:55:00,15:39:59,出席,14:55:00,15:39:59,15:50:00,16:44:59,出席,15:50:00,16:44:59
午後,パターン2(10分早める),中級2B,1604202,周洋,シュウヨウ,在籍,2017-08-21, , , ,13:13:33,00:00:00,00:00:00,00:00:00,00:00:00,00:00:00,13:25:00,14:09:59,出席,13:25:00,14:09:59,14:10:00,14:44:59,出席,14:10:00,14:44:59,14:55:00,15:39:59,出席,14:55:00,15:39:59,15:50:00,16:44:59,出席,15:50:00,16:44:59
午後,パターン2(10分早める),中級2B,1604202,周洋,シュウヨウ,在籍,2017-08-22, , , ,13:09:06,00:00:00,00:00:00,00:00:00,00:00:00,00:00:00,13:25:00,14:09:59,出席,13:25:00,14:09:59,14:10:00,14:44:59,出席,14:10:00,14:44:59,14:55:00,15:39:59,出席,14:55:00,15:39:59,15:50:00,16:44:59,出席,15:50:00,16:44:59
午後,パターン2(10分早める),中級2B,1604202,周洋,シュウヨウ,在籍,2017-08-23, , , ,13:04:58,00:00:00,00:00:00,00:00:00,00:00:00,00:00:00,13:25:00,14:09:59,出席,13:25:00,14:09:59,14:10:00,14:44:59,出席,14:10:00,14:44:59,14:55:00,15:39:59,出席,14:55:00,15:39:59,15:50:00,16:44:59,出席,15:50:00,16:44:59
午後,パターン2(10分早める),中級2B,1604202,周洋,シュウヨウ,在籍,2017-08-24, , , ,12:55:37,00:00:00,00:00:00,00:00:00,00:00:00,00:00:00,13:25:00,14:09:59,出席,13:25:00,14:09:59,14:10:00,14:44:59,出席,14:10:00,14:44:59,14:55:00,15:39:59,出席,14:55:00,15:39:59,15:50:00,16:44:59,出席,15:50:00,16:44:59
午後,パターン2(10分早める),中級2B,1604202,周洋,シュウヨウ,在籍,2017-08-25, , , ,13:25:00,00:00:00,00:00:00,00:00:00,00:00:00,00:00:00,13:25:00,14:09:59,出席,13:25:00,14:09:59,14:10:00,14:44:59,出席,14:10:00,14:44:59,14:55:00,15:39:59,出席,14:55:00,15:39:59,15:50:00,16:44:59,出席,15:50:00,16:44:59
午後,パターン2(10分早める),中級2B,1604202,周洋,シュウヨウ,在籍,2017-08-28, , , ,13:20:00,00:00:00,00:00:00,00:00:00,00:00:00,00:00:00,13:25:00,14:09:59,出席,13:25:00,14:09:59,14:10:00,14:44:59,出席,14:10:00,14:44:59,14:55:00,15:39:59,出席,14:55:00,15:39:59,15:50:00,16:44:59,出席,15:50:00,16:44:59
午後,パターン2(10分早める),中級2B,1604202,周洋,シュウヨウ,在籍,2017-08-29, , , ,13:07:24,00:00:00,00:00:00,00:00:00,00:00:00,00:00:00,13:25:00,14:09:59,出席,13:25:00,14:09:59,14:10:00,14:44:59,出席,14:10:00,14:44:59,14:55:00,15:39:59,出席,14:55:00,15:39:59,15:50:00,16:44:59,出席,15:50:00,16:44:59
午後,パターン2(10分早める),中級2B,1604202,周洋,シュウヨウ,在籍,2017-08-30, , , ,13:02:12,00:00:00,00:00:00,00:00:00,00:00:00,00:00:00,13:25:00,14:09:59,出席,13:25:00,14:09:59,14:10:00,14:44:59,出席,14:10:00,14:44:59,14:55:00,15:39:59,出席,14:55:00,15:39:59,15:50:00,16:44:59,出席,15:50:00,16:44:59
午後,パターン2(10分早める),中級2B,1604202,周洋,シュウヨウ,在籍,2017-08-31, , , ,13:07:18,00:00:00,00:00:00,00:00:00,00:00:00,00:00:00,13:25:00,14:09:59,出席,13:25:00,14:09:59,14:10:00,14:44:59,出席,14:10:00,14:44:59,14:55:00,15:39:59,出席,14:55:00,15:39:59,15:50:00,16:44:59,出席,15:50:00,16:44:59
午後,パターン2(10分早める),中級2B,1604202,周洋,シュウヨウ,在籍,2017-09-01, , , ,13:06:48,00:00:00,00:00:00,00:00:00,00:00:00,00:00:00,13:25:00,14:09:59,出席,13:25:00,14:09:59,14:10:00,14:44:59,出席,14:10:00,14:44:59,14:55:00,15:39:59,出席,14:55:00,15:39:59,15:50:00,16:44:59,出席,15:50:00,16:44:59
午後,パターン2(10分早める),中級2B,1604202,周洋,シュウヨウ,在籍,2017-09-04, , , ,13:25:32,00:00:00,00:00:00,00:00:00,00:00:00,00:00:00,13:25:00,14:09:59,遅刻,13:25:32,14:09:59,14:10:00,14:44:59,出席,14:10:00,14:44:59,14:55:00,15:39:59,出席,14:55:00,15:39:59,15:50:00,16:44:59,出席,15:50:00,16:44:59
午後,パターン2(10分早める),中級2B,1604202,周洋,シュウヨウ,在籍,2017-09-05, , , ,13:04:35,00:00:00,00:00:00,00:00:00,00:00:00,00:00:00,13:25:00,14:09:59,出席,13:25:00,14:09:59,14:10:00,14:44:59,出席,14:10:00,14:44:59,14:55:00,15:39:59,出席,14:55:00,15:39:59,15:50:00,16:44:59,出席,15:50:00,16:44:59
午後,パターン2(10分早める),中級2B,1604202,周洋,シュウヨウ,在籍,2017-09-06, , , ,13:18:15,00:00:00,00:00:00,00:00:00,00:00:00,00:00:00,13:25:00,14:09:59,出席,13:25:00,14:09:59,14:10:00,14:44:59,出席,14:10:00,14:44:59,14:55:00,15:39:59,出席,14:55:00,15:39:59,15:50:00,16:44:59,出席,15:50:00,16:44:59
午後,パターン2(10分早める),中級2B,1604202,周洋,シュウヨウ,在籍,2017-09-07, , , ,13:10:38,00:00:00,00:00:00,00:00:00,00:00:00,00:00:00,13:25:00,14:09:59,出席,13:25:00,14:09:59,14:10:00,14:44:59,出席,14:10:00,14:44:59,14:55:00,15:39:59,出席,14:55:00,15:39:59,15:50:00,16:44:59,出席,15:50:00,16:44:59
午後,パターン2(10分早める),中級2B,1604202,周洋,シュウヨウ,在籍,2017-09-08, , , ,06:55:56,00:00:00,00:00:00,00:00:00,00:00:00,00:00:00,13:25:00,14:09:59,出席,13:25:00,14:09:59,14:10:00,14:44:59,出席,14:10:00,14:44:59,14:55:00,15:39:59,出席,14:55:00,15:39:59,15:50:00,16:44:59,出席,15:50:00,16:44:59
午後,パターン2(10分早める),中級2B,1604202,周洋,シュウヨウ,在籍,2017-09-11, , , ,13:01:29,00:00:00,00:00:00,00:00:00,00:00:00,00:00:00,13:25:00,14:09:59,出席,13:25:00,14:09:59,14:10:00,14:44:59,出席,14:10:00,14:44:59,14:55:00,15:39:59,出席,14:55:00,15:39:59,15:50:00,16:44:59,出席,15:50:00,16:44:59
午後,パターン2(10分早める),中級2B,1604202,周洋,シュウヨウ,在籍,2017-09-12, , , ,13:25:00,00:00:00,00:00:00,00:00:00,00:00:00,00:00:00,13:25:00,14:09:59,出席,13:25:00,14:09:59,14:10:00,14:44:59,出席,14:10:00,14:44:59,14:55:00,15:39:59,出席,14:55:00,15:39:59,15:50:00,16:44:59,出席,15:50:00,16:44:59
午後,パターン2(10分早める),中級2B,1604202,周洋,シュウヨウ,在籍,2017-09-13, , , ,12:56:44,00:00:00,00:00:00,00:00:00,00:00:00,00:00:00,13:25:00,14:09:59,出席,13:25:00,14:09:59,14:10:00,14:44:59,出席,14:10:00,14:44:59,14:55:00,15:39:59,出席,14:55:00,15:39:59,15:50:00,16:44:59,出席,15:50:00,16:44:59
午後,パターン2(10分早める),中級2B,1604202,周洋,シュウヨウ,在籍,2017-09-14, , , ,13:06:09,00:00:00,00:00:00,00:00:00,00:00:00,00:00:00,13:25:00,14:09:59,出席,13:25:00,14:09:59,14:10:00,14:44:59,出席,14:10:00,14:44:59,14:55:00,15:39:59,出席,14:55:00,15:39:59,15:50:00,16:44:59,出席,15:50:00,16:44:59
午後,パターン2(10分早める),中級2B,1604202,周洋,シュウヨウ,在籍,2017-09-15, , , ,12:30:17,00:00:00,00:00:00,00:00:00,00:00:00,00:00:00,13:25:00,14:09:59,出席,13:25:00,14:09:59,14:10:00,14:44:59,出席,14:10:00,14:44:59,14:55:00,15:39:59,出席,14:55:00,15:39:59,15:50:00,16:44:59,出席,15:50:00,16:44:59
