﻿id,account_group_id,function_group_id,is_permitted,lastup_account_id,create_datetime,lastup_datetime,disable
1,1,1,0,2000,2017-12-26 00:00:00,2018-03-30 18:15:25,0
2,2,1,1,2000,2017-12-26 00:00:00,0000-00-00 00:00:00,0
3,3,1,1,2000,2017-12-26 00:00:00,0000-00-00 00:00:00,0
4,4,1,1,2000,2017-12-26 00:00:00,0000-00-00 00:00:00,0
5,5,1,1,2000,2017-12-26 00:00:00,0000-00-00 00:00:00,0
6,6,1,1,2000,2017-12-26 00:00:00,0000-00-00 00:00:00,0
7,7,1,1,2000,2017-12-26 00:00:00,0000-00-00 00:00:00,0
8,8,1,1,2000,2017-12-26 00:00:00,0000-00-00 00:00:00,0
9,9,1,1,2000,2017-12-26 00:00:00,0000-00-00 00:00:00,0
10,10,1,1,2000,2017-12-26 00:00:00,0000-00-00 00:00:00,0
11,1,2,0,2000,2017-12-26 00:00:00,0000-00-00 00:00:00,0
12,2,2,1,2000,2017-12-26 00:00:00,2019-04-16 17:15:00,0
13,3,2,0,2000,2017-12-26 00:00:00,0000-00-00 00:00:00,0
14,4,2,1,2000,2017-12-26 00:00:00,2019-02-26 13:19:24,0
15,5,2,0,2000,2017-12-26 00:00:00,0000-00-00 00:00:00,0
16,6,2,1,2000,2017-12-26 00:00:00,2019-02-26 13:19:24,0
17,7,2,1,2000,2017-12-26 00:00:00,2019-02-26 13:19:24,0
18,8,2,1,2000,2017-12-26 00:00:00,2019-02-26 13:19:24,0
19,9,2,1,2000,2017-12-26 00:00:00,2019-02-26 13:19:24,0
20,10,2,1,2000,2017-12-26 00:00:00,0000-00-00 00:00:00,0
21,1,3,0,2000,2017-12-26 00:00:00,2018-01-31 20:45:41,0
22,2,3,1,2000,2017-12-26 00:00:00,0000-00-00 00:00:00,0
23,3,3,1,2000,2017-12-26 00:00:00,0000-00-00 00:00:00,0
24,4,3,1,2000,2017-12-26 00:00:00,0000-00-00 00:00:00,0
25,5,3,1,2000,2017-12-26 00:00:00,0000-00-00 00:00:00,0
26,6,3,1,2000,2017-12-26 00:00:00,0000-00-00 00:00:00,0
27,7,3,1,2000,2017-12-26 00:00:00,0000-00-00 00:00:00,0
28,8,3,1,2000,2017-12-26 00:00:00,0000-00-00 00:00:00,0
29,9,3,1,2000,2017-12-26 00:00:00,0000-00-00 00:00:00,0
30,10,3,1,2000,2017-12-26 00:00:00,0000-00-00 00:00:00,0
31,1,4,0,2000,2017-12-26 00:00:00,2018-02-28 17:10:00,0
32,2,4,1,2000,2017-12-26 00:00:00,2018-04-19 13:52:24,0
33,3,4,1,2000,2017-12-26 00:00:00,2018-04-19 13:52:24,0
34,4,4,1,2000,2017-12-26 00:00:00,2018-04-19 13:52:24,0
35,5,4,1,2000,2017-12-26 00:00:00,2018-04-19 13:52:24,0
36,6,4,1,2000,2017-12-26 00:00:00,0000-00-00 00:00:00,0
37,7,4,1,2000,2017-12-26 00:00:00,2018-02-28 17:10:00,0
38,8,4,1,2000,2017-12-26 00:00:00,2018-04-19 13:52:24,0
39,9,4,1,2000,2017-12-26 00:00:00,2018-02-28 17:10:00,0
40,10,4,1,2000,2017-12-26 00:00:00,0000-00-00 00:00:00,0
41,1,5,0,2000,2017-12-26 00:00:00,2018-01-31 20:45:41,0
42,2,5,1,2000,2017-12-26 00:00:00,2019-04-16 17:15:00,0
43,3,5,1,2000,2017-12-26 00:00:00,2019-04-17 11:37:51,0
44,4,5,1,2000,2017-12-26 00:00:00,2019-04-17 11:12:52,0
45,5,5,0,2000,2017-12-26 00:00:00,2019-04-09 08:49:57,0
46,6,5,1,2000,2017-12-26 00:00:00,2019-04-16 17:15:00,0
47,7,5,1,2000,2017-12-26 00:00:00,2019-04-16 17:15:00,0
48,8,5,0,2000,2017-12-26 00:00:00,2019-04-09 08:49:57,0
49,9,5,0,2000,2017-12-26 00:00:00,2019-04-09 08:50:19,0
50,10,5,1,2000,2017-12-26 00:00:00,0000-00-00 00:00:00,0
51,1,6,0,2000,2017-12-26 00:00:00,2018-05-02 10:47:21,0
52,2,6,1,2000,2017-12-26 00:00:00,0000-00-00 00:00:00,0
53,3,6,1,2000,2017-12-26 00:00:00,0000-00-00 00:00:00,0
54,4,6,1,2000,2017-12-26 00:00:00,0000-00-00 00:00:00,0
55,5,6,1,2000,2017-12-26 00:00:00,0000-00-00 00:00:00,0
56,6,6,1,2000,2017-12-26 00:00:00,0000-00-00 00:00:00,0
57,7,6,1,2000,2017-12-26 00:00:00,0000-00-00 00:00:00,0
58,8,6,1,2000,2017-12-26 00:00:00,0000-00-00 00:00:00,0
59,9,6,1,2000,2017-12-26 00:00:00,0000-00-00 00:00:00,0
60,10,6,1,2000,2017-12-26 00:00:00,0000-00-00 00:00:00,0
61,1,7,0,2000,2017-12-26 00:00:00,2018-01-31 20:45:41,0
62,2,7,1,2000,2017-12-26 00:00:00,2018-03-30 18:48:54,0
63,3,7,1,2000,2017-12-26 00:00:00,2018-03-30 18:48:54,0
64,4,7,1,2000,2017-12-26 00:00:00,2018-04-11 15:38:53,0
65,5,7,0,2000,2017-12-26 00:00:00,2018-03-08 14:26:08,0
66,6,7,1,2000,2017-12-26 00:00:00,2018-03-30 18:48:54,0
67,7,7,1,2000,2017-12-26 00:00:00,2018-03-30 18:48:54,0
68,8,7,0,2000,2017-12-26 00:00:00,2018-03-08 14:26:08,0
69,9,7,1,2000,2017-12-26 00:00:00,2019-03-27 16:34:32,0
70,10,7,1,2000,2017-12-26 00:00:00,0000-00-00 00:00:00,0
71,1,8,0,2000,2017-12-26 00:00:00,2018-01-31 20:45:41,0
72,2,8,1,2000,2017-12-26 00:00:00,0000-00-00 00:00:00,0
73,3,8,1,2000,2017-12-26 00:00:00,0000-00-00 00:00:00,0
74,4,8,0,2000,2017-12-26 00:00:00,2018-04-11 15:38:53,0
75,5,8,1,2000,2017-12-26 00:00:00,0000-00-00 00:00:00,0
76,6,8,1,2000,2017-12-26 00:00:00,0000-00-00 00:00:00,0
77,7,8,1,2000,2017-12-26 00:00:00,0000-00-00 00:00:00,0
78,8,8,1,2000,2017-12-26 00:00:00,0000-00-00 00:00:00,0
79,9,8,1,2000,2017-12-26 00:00:00,0000-00-00 00:00:00,0
80,10,8,1,2000,2017-12-26 00:00:00,0000-00-00 00:00:00,0
81,1,9,0,2000,2017-12-26 00:00:00,0000-00-00 00:00:00,0
82,2,9,1,2000,2017-12-26 00:00:00,0000-00-00 00:00:00,0
83,3,9,0,2000,2017-12-26 00:00:00,0000-00-00 00:00:00,0
84,4,9,1,2000,2017-12-26 00:00:00,0000-00-00 00:00:00,0
85,5,9,0,2000,2017-12-26 00:00:00,0000-00-00 00:00:00,0
86,6,9,1,2000,2017-12-26 00:00:00,0000-00-00 00:00:00,0
87,7,9,1,2000,2017-12-26 00:00:00,0000-00-00 00:00:00,0
88,8,9,1,2000,2017-12-26 00:00:00,0000-00-00 00:00:00,0
89,9,9,1,2000,2017-12-26 00:00:00,0000-00-00 00:00:00,0
90,10,9,1,2000,2017-12-26 00:00:00,0000-00-00 00:00:00,0
91,1,10,0,2000,2017-12-26 00:00:00,0000-00-00 00:00:00,0
92,2,10,0,2000,2017-12-26 00:00:00,0000-00-00 00:00:00,0
93,3,10,0,2000,2017-12-26 00:00:00,0000-00-00 00:00:00,0
94,4,10,0,2000,2017-12-26 00:00:00,0000-00-00 00:00:00,0
95,5,10,0,2000,2017-12-26 00:00:00,0000-00-00 00:00:00,0
96,6,10,1,2000,2017-12-26 00:00:00,0000-00-00 00:00:00,0
97,7,10,1,2000,2017-12-26 00:00:00,0000-00-00 00:00:00,0
98,8,10,1,2000,2017-12-26 00:00:00,0000-00-00 00:00:00,0
99,9,10,1,2000,2017-12-26 00:00:00,0000-00-00 00:00:00,0
100,10,10,1,2000,2017-12-26 00:00:00,0000-00-00 00:00:00,0
101,1,11,0,2000,2017-12-26 00:00:00,0000-00-00 00:00:00,0
102,2,11,0,2000,2017-12-26 00:00:00,0000-00-00 00:00:00,0
103,3,11,1,2000,2017-12-26 00:00:00,2019-04-24 14:15:10,0
104,4,11,0,2000,2017-12-26 00:00:00,0000-00-00 00:00:00,0
105,5,11,0,2000,2017-12-26 00:00:00,0000-00-00 00:00:00,0
106,6,11,1,2000,2017-12-26 00:00:00,0000-00-00 00:00:00,0
107,7,11,1,2000,2017-12-26 00:00:00,0000-00-00 00:00:00,0
108,8,11,0,2000,2017-12-26 00:00:00,0000-00-00 00:00:00,0
109,9,11,1,2000,2017-12-26 00:00:00,2019-03-27 16:34:32,0
110,10,11,1,2000,2017-12-26 00:00:00,0000-00-00 00:00:00,0
111,1,12,0,2000,2017-12-26 00:00:00,0000-00-00 00:00:00,0
112,2,12,1,2000,2017-12-26 00:00:00,0000-00-00 00:00:00,0
113,3,12,0,2000,2017-12-26 00:00:00,0000-00-00 00:00:00,0
114,4,12,1,2000,2017-12-26 00:00:00,2018-07-12 14:07:17,0
115,5,12,0,2000,2017-12-26 00:00:00,0000-00-00 00:00:00,0
116,6,12,1,2000,2017-12-26 00:00:00,0000-00-00 00:00:00,0
117,7,12,1,2000,2017-12-26 00:00:00,0000-00-00 00:00:00,0
118,8,12,0,2000,2017-12-26 00:00:00,0000-00-00 00:00:00,0
119,9,12,1,2000,2017-12-26 00:00:00,2019-03-27 16:34:32,0
120,10,12,1,2000,2017-12-26 00:00:00,0000-00-00 00:00:00,0
121,1,13,0,2000,2017-12-26 00:00:00,0000-00-00 00:00:00,0
122,2,13,1,2000,2017-12-26 00:00:00,2018-07-06 10:54:44,0
123,3,13,0,2000,2017-12-26 00:00:00,0000-00-00 00:00:00,0
124,4,13,0,2000,2017-12-26 00:00:00,0000-00-00 00:00:00,0
125,5,13,0,2000,2017-12-26 00:00:00,0000-00-00 00:00:00,0
126,6,13,1,2000,2017-12-26 00:00:00,2018-02-16 17:21:40,0
127,7,13,1,2000,2017-12-26 00:00:00,2018-02-16 17:21:40,0
128,8,13,0,2000,2017-12-26 00:00:00,0000-00-00 00:00:00,0
129,9,13,1,2000,2017-12-26 00:00:00,2019-03-27 16:34:32,0
130,10,13,1,2000,2017-12-26 00:00:00,0000-00-00 00:00:00,0
131,10,14,1,0,2018-01-30 19:52:57,2018-01-30 19:52:57,0
132,2,14,1,0,2018-01-30 19:52:57,2018-01-30 19:52:57,0
133,3,14,1,0,2018-01-30 19:52:57,2018-01-30 19:52:57,0
134,4,14,1,0,2018-01-30 19:52:57,2018-01-30 19:52:57,0
135,5,14,1,0,2018-01-30 19:52:57,2018-01-30 19:52:57,0
136,6,14,1,0,2018-01-30 19:52:57,2018-01-30 19:52:57,0
137,7,14,1,0,2018-01-30 19:52:57,2018-01-30 19:52:57,0
138,8,14,1,0,2018-01-30 19:52:57,2018-01-30 19:52:57,0
139,9,14,1,0,2018-01-30 19:52:57,2018-01-30 19:52:57,0
140,1,15,1,2000,2018-03-30 18:06:25,2018-03-30 18:06:25,0
141,1,16,0,0,2019-02-22 00:00:00,0000-00-00 00:00:00,0
142,2,16,1,0,2019-02-22 00:00:00,0000-00-00 00:00:00,0
143,3,16,1,0,2019-02-22 00:00:00,0000-00-00 00:00:00,0
144,4,16,1,0,2019-02-22 00:00:00,0000-00-00 00:00:00,0
145,5,16,1,0,2019-02-22 00:00:00,0000-00-00 00:00:00,0
146,6,16,1,0,2019-02-22 00:00:00,0000-00-00 00:00:00,0
147,7,16,1,0,2019-02-22 00:00:00,0000-00-00 00:00:00,0
148,8,16,1,0,2019-02-22 00:00:00,0000-00-00 00:00:00,0
149,9,16,1,0,2019-02-22 00:00:00,0000-00-00 00:00:00,0
150,10,16,1,0,2019-02-22 00:00:00,0000-00-00 00:00:00,0
