﻿出力月,クラス名,学籍番号,名前,フリガナ,アルファベット,授業時間（コマ数）,欠席した時間（コマ数）,遅刻/早退の回数（コマ数）,欠席日数,出席した時間（コマ数）
2017/07,大学院3A,1604019,鄒子羽,スウシウ,ZOUZIYU,56,12,2,2,44
2017/07,大学院3A,1604031,周盼,シュウハン,ZHOUPAN,56,0,0,0,56
2017/07,大学院3A,1604047,徐蔚蕾,ジョイライ,XUWEILEI,56,12,0,3,44
2017/07,大学院3A,1604064,田伊然,デンイゼン,TIANYIRAN,56,8,1,2,48
2017/07,大学院3A,1604083,王丹,オウタン,WANGDAN,56,2,0,0,54
2017/07,大学院3A,1604114,高楠,コウナン,GAONAN,56,0,0,0,56
2017/07,大学院3A,1604137,楊子揚,ヨウシヨウ,YANGZIYANG,56,16,1,4,40
2017/07,大学院3A,1604156,単晶瑩,タンショウエイ,SHANJINGYING,56,0,0,0,56
2017/07,大学院3A,1604157,蒋松燊,ショウショウセン,JIANGSONGSHEN,56,4,1,1,52
2017/07,大学院3A,1607011,梁一誠,リョウイッセイ,LIANGYICHENG,56,0,0,0,56
2017/07,大学院3A,1607018,阮国振,ゲンコクシン,RUANGUOZHEN,56,4,1,1,52
2017/07,大学院3A,1607021,李施怡,リシイ,LISHIYI,56,4,0,1,52
2017/07,大学院3A,1607034,張晨雪,チョウシンセツ,ZHANGCHENXUE,56,0,1,0,56
2017/07,大学院3A,1607035,徐敏,ジョビン,XUMIN,56,4,0,1,52
2017/07,大学院3A,1607038,李雨霏,リウヒ,LIYUFEI,56,0,0,0,56
2017/07,大学院3A,1607050,莫凡,バクハン,MOFAN,56,13,0,2,43
2017/07,大学院3A,1607076,趙雅睿,チョウガエイ,ZHAOYARUI,56,0,0,0,56
2017/07,大学院3A,1607082,赵娅冰,チョウアヒョウ,ZHAOYABING,56,4,0,1,52
2017/07,大学院3A,1607096,鄒洋,スウヨウ,ZOUYANG,56,4,0,1,52
2017/07,大学院3A,1610023,陸山青,リクサンセイ,LUSHANQING,56,0,0,0,56
2017/07,大学院3A,1610039,郭寧海,カクネイカイ,GUONINGHAI,56,0,0,0,56
2017/07,大学院2A,1604010,鄭瑞江,テイズイコウ,ZHENGRUIJIANG,56,4,0,1,52
2017/07,大学院2A,1604017,盧舒虹,ロジョコウ,LUSHUHONG,56,0,0,0,56
2017/07,大学院2A,1604036,呉桐,ゴトウ,WUTONG,56,4,0,1,52
2017/07,大学院2A,1604037,程思雨,テイシウ,CHENGSIYU,56,0,0,0,56
2017/07,大学院2A,1604041,蘇茵,ソイン,SUYIN,56,5,3,1,50
2017/07,大学院2A,1604123,王佳薇,オウカビ,WANGJIAWEI,56,0,0,0,56
2017/07,大学院2A,1604131,巩妤,キョウヨ,GONGYU,56,0,0,0,56
2017/07,大学院2A,1604175,赫思佳,カクシカ,HAOSIJIA,56,12,0,3,44
2017/07,大学院2A,1604205,兪一昶,ユイッチョウ,YUYICHANG,56,8,0,2,48
2017/07,大学院2A,1607014,景燁,ケイヨウ,JINGYE,56,4,0,1,52
2017/07,大学院2A,1607019,程嘉琳,テイカリン,CHENGJIALIN,56,8,1,2,48
2017/07,大学院2A,1607025,陳孟影,チンモウエイ,CHENMENGYING,56,0,3,0,55
2017/07,大学院2A,1607048,劉洋,リュウヨウ,LIUYANG,56,0,0,0,56
2017/07,大学院2A,1607052,曹奕涵,ソウエキカン,CAOYIHAN,56,0,0,0,56
2017/07,大学院2A,1607064,陳嘉尚,チンカショウ,CHENJIASHANG,56,0,2,0,56
2017/07,大学院2A,1607089,張文博,チョウブンハク,ZHANGWENBO,56,0,0,0,56
2017/07,大学院2A,1607095,叶金磊,ヨウキンライ,YEJINLEI,56,4,0,1,52
2017/07,大学院2A,1610043,銭柏霖,センハクリン,QIANBAILIN,56,4,0,1,52
2017/07,大学院2B,1604015,郭蕾,カクライ,GUOLEI,56,24,2,6,32
2017/07,大学院2B,1604020,羅涵杏,ラカンアン,LUOHANXING,24,0,0,0,24
2017/07,大学院2B,1604055,劉明研,リュウメイケン,LIUMINGYAN,56,0,0,0,56
2017/07,大学院2B,1604074,劉宇,リュウウ,LIUYU,56,0,0,0,56
2017/07,大学院2B,1604079,金永山,キンエイサン,JINYONGSHAN,56,4,0,1,52
2017/07,大学院2B,1604111,劉丹,リュウタン,LIUDAN,56,4,0,1,52
2017/07,大学院2B,1604124,黄銘雅,コウメイガ,HUANGMINGYA,56,18,0,4,38
2017/07,大学院2B,1604126,馬浩喧,バコウセン,MAHAOXUAN,56,0,5,0,55
2017/07,大学院2B,1604180,馬嬌嬌,バキョウキョウ,MAJIAOJIAO,56,8,1,2,48
2017/07,大学院2B,1604227,賀雪豊,ガセツホウ,HEXUEFENG,56,4,4,0,51
2017/07,大学院2B,1607001,沈欣栄,チンキンエイ,SHENXINRONG,56,16,0,4,40
2017/07,大学院2B,1607007,侯舒瑜,コウジョユ,HOUSHUYU,56,3,1,0,53
2017/07,大学院2B,1607012,呂音,ロオン,LYUYIN,56,0,1,0,56
2017/07,大学院2B,1607015,胡源青,コゲンセイ,HUYUANQING,56,4,0,1,52
2017/07,大学院2B,1607041,裴知秋,ハイチシュウ,PEIZHIQIU,56,13,3,3,42
2017/07,大学院2B,1607079,胡佩瑶,コハイヨウ,HUPEIYAO,56,1,1,0,55
2017/07,大学院2B,1607087,杨丞博,ヨウショウハク,YANGCHENGBO,56,8,2,2,48
2017/07,大学院2B,1607093,呂金釗,ロキンショウ,LYUJINZHAO,56,6,0,1,50
2017/07,大学院2B,1607112,,カスラスニル,KASULASUNIL,56,0,4,0,55
2017/07,大学3A,1604001,汪明琛,オウメイチン,WANGMINGCHEN,56,1,0,0,55
2017/07,大学3A,1604002,郝琳,カクリン,HAOLIN,56,0,0,0,56
2017/07,大学3A,1604051,温振繁,オンシンハン,WENZHENFAN,56,4,0,1,52
2017/07,大学3A,1604082,張思楊,チョウシヨウ,ZHANGSIYANG,56,0,1,0,56
2017/07,大学3A,1604104,楊孫益,ヨウソンエキ,YANGSUNYI,56,8,0,2,48
2017/07,大学3A,1604134,宋承達,ソウショウタツ,SONGCHENGDA,56,4,0,1,52
2017/07,大学3A,1604142,鄒涛,スウトウ,ZOUTAO,56,9,1,1,47
2017/07,大学3A,1604153,李佳安,リカアン,LIJIAAN,56,6,0,1,50
2017/07,大学3A,1604210,饒琳,ジョウリン,RAOLIN,56,6,0,1,50
2017/07,大学3A,1604220,龔奇彪,キョウキヒョウ,GONGQIBIAO,56,0,0,0,56
2017/07,大学3A,1604240,余嘉怡,ヨカイ,YUJIAYI,56,12,1,3,44
2017/07,大学3A,1607046,徐菁一,ジョセイイチ,XUJINGYI,56,0,0,0,56
2017/07,大学3A,1607066,陳浩麟,チンコウリン,CHENHAOLIN,56,4,0,1,52
2017/07,大学3A,1607067,鞠印軒,キクインケン,JUYINXUAN,56,0,0,0,56
2017/07,大学3A,1607075,郭昊天,カクコウテン,GUOHAOTIAN,56,4,0,1,52
2017/07,大学3A,1704059,施宇迪,シウテキ,SHIYUDI,56,8,0,2,48
2017/07,大学3A,1704105,敬藝丹,ケイゲイタン,JINGYIDAN,56,4,0,1,52
2017/07,大学3美大,1604022,陸真浩,リクシンコウ,LUZHENHAO,56,10,3,2,45
2017/07,大学3美大,1604029,陳昱宏,チンイクコウ,CHENYUHONG,56,12,0,3,44
2017/07,大学3美大,1604044,杜超杰,トチョウケツ,DUCHAOJIE,56,4,0,1,52
2017/07,大学3美大,1604045,呉思哲,ゴシテツ,WUSIZHE,56,4,0,1,52
2017/07,大学3美大,1604158,傅天宇,フテンウ,FUTIANYU,56,26,0,6,30
2017/07,大学3美大,1604184,張維,チョウイ,ZHANGWEI,56,16,0,4,40
2017/07,大学3美大,1604226,黄詩瑞,コウシズイ,HUANGSHIRUI,56,26,2,6,30
2017/07,大学3美大,1607040,王楠,オウナン,WANGNAN,56,20,2,4,36
2017/07,大学3美大,1610016,汪炫佚,オウゲンイツ,WANGXUANYI,56,0,0,0,56
2017/07,大学3美大,1610018,姜玉敏,キョウギョクビン,JIANGYUMIN,56,8,0,2,48
2017/07,大学3美大,1610026,呉比,ゴヒ,WUBI,56,6,2,0,50
2017/07,大学3美大,1610037,方霖穎,ホウリンエイ,FANGLINYING,56,4,0,1,52
2017/07,大学3美大,1610045,黄綺程,コウキテイ,WONGICHENG,56,0,0,0,56
2017/07,大学3美大,1704081,梁靖冉,リョウセイゼン,LIANGJINGRAN,56,8,0,2,48
2017/07,大学3美大,1704108,王怡瑋,オウイイ,WANGYIWEI,56,0,0,0,56
2017/07,大学3美大,1704115,郭軻天,カクカテン,GUOKETIAN,56,0,0,0,56
2017/07,大学2A,1604023,李若蘭,リジャクラン,LIRUOLAN,56,0,0,0,56
2017/07,大学2A,1604072,邢哲玮,ケイテツイ,XINGZHEWEI,56,5,3,1,50
2017/07,大学2A,1604100,宮静,キュウセイ,GONGJING,56,11,2,1,45
2017/07,大学2A,1604117,馬鵬飛,バホウヒ,MAPENGFEI,56,12,2,3,44
2017/07,大学2A,1604125,楊嘉宝,ヨウカホウ,YANGJIABAO,56,18,1,4,38
2017/07,大学2A,1604138,鐘帥,ショウスイ,ZHONGSHUAI,56,14,1,3,42
2017/07,大学2A,1604152,殷弘睿,インコウエイ,YINHONGRUI,56,17,1,4,39
2017/07,大学2A,1604154,張澤棟,チョウタクトウ,ZHANGZEDONG,56,8,0,2,48
2017/07,大学2A,1604183,呉亭薇,ゴテイビ,WUTINGWEI,56,0,0,0,56
2017/07,大学2A,1604189,郭廷展,カクテイテン,GUOTINGZHAN,56,44,0,11,12
2017/07,大学2A,1604204,栄雨亭,エイウテイ,RONGYUTING,56,20,2,5,36
2017/07,大学2A,1604217,林延棟,リンエントウ,LINYANDONG,56,4,1,1,52
2017/07,大学2A,1604221,趙梓軒,チョウシケン,ZHAOZIXUAN,56,13,1,3,43
2017/07,大学2A,1604222,呉晨曦,ゴシンギ,WUCHENXI,56,4,0,1,52
2017/07,大学2A,1604233,関宇,カンウ,GUANYU,56,0,0,0,56
2017/07,大学2A,1604239,田芳菲,デンホウヒ,TIANFANGFEI,56,1,2,0,55
2017/07,大学2A,1607022,孫浩然,ソンコウゼン,SUNHAORAN,56,20,1,5,36
2017/07,大学2A,1607084,張政,チョウセイ,ZHANGZHENG,56,0,0,0,56
2017/07,大学2A,1607091,劉一凡,リュウイチハン,LIUYIFAN,56,16,2,4,40
2017/07,大学2A,1607119,李季修,リキシュウ,LEECHIHSIU,56,4,0,1,52
2017/07,大学2B,1604028,来守慧,ライシュケイ,LAISHOUHUI,56,0,0,0,56
2017/07,大学2B,1604034,叶遠舟,ヨウエンシュウ,YEYUANZHOU,56,12,4,1,43
2017/07,大学2B,1604038,牟娟,ムケン,MOUJUAN,56,0,1,0,56
2017/07,大学2B,1604066,曽思韵,ソシイン,ZENGSIYUN,56,17,6,4,37
2017/07,大学2B,1604068,惠如雪,ケイジョセツ,HUIRUXUE,56,4,0,1,52
2017/07,大学2B,1604073,李嘉輝,リカキ,LIJIAHUI,56,27,3,5,28
2017/07,大学2B,1604099,陳健,チンケン,CHENJIAN,56,8,4,2,47
2017/07,大学2B,1604110,王心怡,オウシンイ,WANGXINYI,56,0,1,0,56
2017/07,大学2B,1604190,姜超,キョウチョウ,JIANGCHAO,56,0,4,0,55
2017/07,大学2B,1604228,李云階,リウンカイ,LIYUNJIE,56,0,0,0,56
2017/07,大学2B,1604259,,"シングサウド  スレス　","SINGHSAUD  SURESH ",56,4,0,1,52
2017/07,大学2B,1607024,郭宣蓉,カクセンヨウ,GUOXUANRONG,56,8,0,2,48
2017/07,大学2B,1607029,郭栩材,カククザイ,GUOXUCAI,56,12,2,2,44
2017/07,大学2B,1607042,馬一督,バイットク,MAYIDU,56,7,1,1,49
2017/07,大学2B,1607057,霍晟,カクセイ,HUOSHENG,56,19,5,3,36
2017/07,大学2B,1607058,王藝淞,オウゲイショウ,WANGYISONG,56,20,0,5,36
2017/07,大学2B,1607060,蒋英豪,ショウエイゴウ,JIANGYINGHAO,56,12,0,3,44
2017/07,大学2B,1607094,李想,リソウ,LIXIANG,56,4,5,1,51
2017/07,大学2B,1610010,彭野,ホウヤ,PENGYE,56,4,0,1,52
2017/07,大学2B,1610048,,ヴタン　ヒュエン,"VUTHANH HUYEN",56,4,0,1,52
2017/07,大学2美大,1604048,王翕,オウキョウ,WANGXI,56,0,0,0,56
2017/07,大学2美大,1604075,郭芳竹,カクホウチク,GUOFANGZHU,56,5,0,1,51
2017/07,大学2美大,1604077,李天聡,リテンソウ,LITIANCONG,56,0,0,0,56
2017/07,大学2美大,1604093,趙澤坤,チョウタクコン,ZHAOZEKUN,56,9,1,2,47
2017/07,大学2美大,1604101,于晨,ウシン,YUCHEN,56,0,0,0,56
2017/07,大学2美大,1604133,計舒旻,ケイジョビン,JISHUMIN,56,0,0,0,56
2017/07,大学2美大,1604136,胡家馨,コカケイ,HUJIAXIN,56,12,1,2,44
2017/07,大学2美大,1604141,黄佳怡,コウカイ,HUANGJIAYI,56,7,1,0,49
2017/07,大学2美大,1604143,鄭然,テイゼン,ZHENGRAN,56,8,0,2,48
2017/07,大学2美大,1604173,張文謦,チョウブンケイ,ZHANGWENXIN,56,19,3,3,36
2017/07,大学2美大,1604181,王嘯,オウショウ,WANGXIAO,56,27,2,6,29
2017/07,大学2美大,1604238,洪鋭深,コウエイシン,HONGRUISHEN,56,9,1,2,47
2017/07,大学2美大,1607008,楊力為,ヨウリキイ,YANGLIWEI,56,18,3,4,37
2017/07,大学2美大,1607032,呉謙,ゴケン,WUQIAN,56,16,4,4,39
2017/07,大学2美大,1607056,程序,テイジョ,CHENGXU,56,8,0,2,48
2017/07,大学2美大,1607072,陳劭言,チンショウゲン,CHENSHAOYAN,56,13,1,3,43
2017/07,大学2美大,1607078,程厳,テイゲン,CHENGYAN,56,0,7,0,54
2017/07,大学2美大,1610014,王歆儀,オウキンギ,WANGXINYI,56,0,1,0,56
2017/07,大学2美大,1610024,羅杰銘,ラケツメイ,LUOJIEMING,56,4,0,1,52
2017/07,大学2美大,1610032,馬暁瑩,バショウエイ,MAXIAOYING,56,23,4,5,32
2017/07,大学2美大,1704091,干甜,カンテン,GANTIAN,56,4,0,1,52
2017/07,中上級2A,1604005,沙慧徳,サケイトク,SHAHUIDE,56,15,0,2,41
2017/07,中上級2A,1604035,任春燕,ニンシュンエン,RENCHUNYAN,56,16,0,4,40
2017/07,中上級2A,1604042,魯崧,ロスウ,LUSONG,56,9,2,2,47
2017/07,中上級2A,1604108,谢文婷,シャブンテイ,XIEWENTING,56,0,0,0,56
2017/07,中上級2A,1604163,賈翼博,カヨクハク,JIAYIBO,56,8,0,2,48
2017/07,中上級2A,1604166,何潔怡,カケツイ,HEJIEYI,56,28,3,6,27
2017/07,中上級2A,1604199,王国慶,オウコッケイ,WANGGUOQING,56,7,2,1,49
2017/07,中上級2A,1604214,劉佳慧,リュウカケイ,LIUJIAHUI,56,20,1,5,36
2017/07,中上級2A,1604218,楊黙然,ヨウモクゼン,YANGMORAN,56,0,0,0,56
2017/07,中上級2A,1607005,孟永楽,モウエイラク,MENGYONGLE,56,11,0,2,45
2017/07,中上級2A,1610027,梁渝寧,リョウユネイ,LIANGYUNING,56,0,1,0,56
2017/07,中上級2A,1704025,劉玲,リュウレイ,LIULING,56,0,1,0,56
2017/07,中上級2A,1704026,劉昱君,リュウイククン,LIUYUJUN,56,8,1,2,48
2017/07,中上級2A,1704036,魏佳曦,ギカギ,WEIJIAXI,56,0,5,0,55
2017/07,中上級2A,1704049,王雪珊,オウセツサン,WANGXUESHAN,56,0,0,0,56
2017/07,中上級2A,1704077,杜皓亮,トコウリョウ,DUHAOLIANG,56,36,0,9,20
2017/07,中上級2A,1707077,王佳婧,オウカセイ,WANGJIAJING,56,0,1,0,56
2017/07,中上級1A,1604006,劉徳才,リュウトクサイ,LIUDECAI,56,0,0,0,56
2017/07,中上級1A,1604014,王画,オウカク,WANGHUA,56,4,0,1,52
2017/07,中上級1A,1604080,陸欣于杭,リクキンウコウ,LUXINYUHANG,56,1,7,0,53
2017/07,中上級1A,1604087,丛琳,ソウリン,CONGLIN,56,0,0,0,56
2017/07,中上級1A,1604148,洪威,コウイ,HONGWEI,56,4,1,1,52
2017/07,中上級1A,1604160,華菁,カセイ,HUAJING,56,0,0,0,56
2017/07,中上級1A,1604162,盧俊杰,ロシュンケツ,LUJUNJIE,56,4,0,1,52
2017/07,中上級1A,1604171,王嘉懿,オウカイ,WANGJIAYI,56,4,0,1,52
2017/07,中上級1A,1604186,柴嘉星,サイカセイ,CHAIJIAXING,56,0,3,0,55
2017/07,中上級1A,1604193,曹政,ソウセイ,CAOZHENG,56,0,1,0,56
2017/07,中上級1A,1604208,曹達,ソウタツ,CAODA,56,4,3,1,51
2017/07,中上級1A,1604234,陳佳元,チンカゲン,CHENJIAYUAN,56,14,5,3,41
2017/07,中上級1A,1604235,周竹曳,シュウチクエイ,ZHOUZHUYE,56,14,5,3,41
2017/07,中上級1A,1607081,張子人,チョウシジン,ZHANGZIREN,56,8,0,2,48
2017/07,中上級1A,1704092,賀文沁,カブンシン,HEWENQIN,56,8,0,2,48
2017/07,中上級1A,1707041,柴晨光,サイシンコウ,CHAICHENGUANG,56,1,1,0,55
2017/07,中級2A,1604008,丁子桐,テイシトウ,DINGZITONG,56,12,0,3,44
2017/07,中級2A,1604033,趙柄宇,チョウヘイウ,ZHAOBINGYU,56,27,1,6,29
2017/07,中級2A,1604040,謝明星,シャメイセイ,XIEMINGXING,56,15,2,3,41
2017/07,中級2A,1604078,謝栄博,シャエイハク,XIERONGBO,56,16,0,4,40
2017/07,中級2A,1604107,宣迎雁,センゲイガン,XUANYINGYAN,56,8,0,2,48
2017/07,中級2A,1604109,马焱钊,バエンショウ,MAYANZHAO,56,4,1,1,52
2017/07,中級2A,1604118,孟思雨,モウシウ,MENGSIYU,56,16,2,4,40
2017/07,中級2A,1604195,魏全麗,ギゼンレイ,WEIQUANLI,56,0,1,0,56
2017/07,中級2A,1604224,呉文蔚,ゴブンイ,WUWENWEI,56,23,3,5,32
2017/07,中級2A,1604243,,ヴティ　ニュン,"VUTHI NHUNG",56,0,0,0,56
2017/07,中級2A,1604244,,ズウンヴァン　ダン,"DUONGVAN DAN",56,0,0,0,56
2017/07,中級2A,1604261,,ノルブタエフボビル,NORBUTAEVBOBIR,56,0,0,0,56
2017/07,中級2A,1607028,李锴,リカイ,LIKAI,56,8,3,2,47
2017/07,中級2A,1607106,,シュレスタプラジョル,SHRESTHAPRAJWOL,56,1,1,0,55
2017/07,中級2A,1610004,季豊裕,キホウユウ,JIFENGYU,56,0,0,0,56
2017/07,中級2A,1610020,閻東明,エントウメイ,YANDONGMING,56,8,1,2,48
2017/07,中級2A,1610025,劉藝達,リュウゲイタツ,LIUYIDA,56,10,0,2,46
2017/07,中級2A,1704021,鄭　慧,テイシケイ,ZHENGZHIHUI,56,4,0,1,52
2017/07,中級2A,1704102,龍一飛,リュウイツヒ,LONGYIFEI,56,4,0,1,52
2017/07,中級2A,9917028,,"ｷﾝﾏﾝ ﾋｴｯﾌﾟ","KIMMANH HIEP",56,12,0,3,44
2017/07,中級2B,1604063,李婷,リテイ,LITING,56,0,0,0,56
2017/07,中級2B,1604069,史錦華,シキンカ,SHIJINHUA,56,0,0,0,56
2017/07,中級2B,1604076,劉欣,リュウキンエン,LIUXINYUAN,56,6,1,1,50
2017/07,中級2B,1604090,曹偉,ソウイ,CAOWEI,56,8,1,2,48
2017/07,中級2B,1604116,李阳,リヨウ,LIYANG,56,0,0,0,56
2017/07,中級2B,1604139,劉志航,リュウシコウ,LIUZHIHANG,56,4,0,1,52
2017/07,中級2B,1604140,杜藝嘉,トゲイカ,DUYIJIA,56,32,1,8,24
2017/07,中級2B,1604188,何恩寧,カオンネイ,HEENNING,56,4,1,1,52
2017/07,中級2B,1604201,呉抒陽,ゴジョヨウ,WUSHUYANG,56,8,0,2,48
2017/07,中級2B,1604202,周洋,シュウヨウ,ZHOUYANG,56,0,0,0,56
2017/07,中級2B,1604231,李曲,リキョク,LIQU,56,22,0,5,34
2017/07,中級2B,1604232,任佳敏,ニンカビン,RENJIAMIN,56,0,0,0,56
2017/07,中級2B,1607030,沈怡静,チンイセイ,SHENYIJING,56,29,1,7,27
2017/07,中級2B,1607031,麻越琳,マエツリン,MAYUELIN,56,0,0,0,56
2017/07,中級2B,1607033,湯桑,トウソウ,TANGSANG,56,8,2,2,48
2017/07,中級2B,1607053,周安然,シュウアンゼン,ZHOUANRAN,56,28,2,7,28
2017/07,中級2B,1607086,肖笛,ショウテキ,XIAODI,56,6,3,1,49
2017/07,中級2B,1607088,徐天嬋,ジョテンセン,XUTIANCHAN,56,25,2,6,31
2017/07,中級2B,1610021,馬藝銘,バゲイメイ,MAYIMING,56,0,0,0,56
2017/07,中級1A,1604094,付昱偉,フイクイ,FUYUWEI,56,4,0,1,52
2017/07,中級1A,1604242,,レザ　チェン,"LEGIA CHIEN",56,0,1,0,56
2017/07,中級1A,1604245,,グェンティ　ガ,"NGUYENTHI NGA",56,4,0,1,52
2017/07,中級1A,1604246,,ファムテー　ヴィン,"PHAMTHE VINH",56,0,0,0,56
2017/07,中級1A,1610012,楊金子,ヨウキンシ,YANGJINZI,56,0,0,0,56
2017/07,中級1A,1610013,李豪,リゴウ,LIHAO,56,6,0,1,50
2017/07,中級1A,1610022,李容天,リヨウテン,LIRONGTIAN,56,0,0,0,56
2017/07,中級1A,1610030,柯永林,カエイリン,KEYONGLIN,56,0,0,0,56
2017/07,中級1A,1610031,楊藝,ヨウゲイ,YANGYI,56,1,1,0,55
2017/07,中級1A,1610042,武陽,ブヨウ,WUYANG,56,12,1,3,44
2017/07,中級1A,1704039,杜静雯,トセイブン,DUJINGWEN,56,8,0,2,48
2017/07,中級1A,1704065,李鈺児,リギョクジ,LIYUER,56,16,0,4,40
2017/07,中級1A,1704089,曹彬宸,ソウヒンシン,CAOBINCHEN,56,1,0,0,55
2017/07,中級1A,1704097,陸嘉,リクカイ,LUJIAWEI,56,1,0,0,55
2017/07,中級1A,1704100,昊宇,ホウコウウ,PANGHAOYU,56,8,0,2,48
2017/07,中級1A,1707003,楊陽,ヨウヨウ,YANGYANG,56,0,0,0,56
2017/07,中級1A,1707016,王鳳超,オウホウチョウ,WANGFENGCHAO,56,0,0,0,56
2017/07,中級1A,1707040,羅偉峰,ライホウ,LUOWEIFENG,56,0,0,0,56
2017/07,中級1A,9916026,岸本敏,キシモトトシ,,56,0,0,0,56
2017/07,中級1B,1604056,李晶晶,リショウショウ,LIJINGJING,56,12,0,3,44
2017/07,中級1B,1604257,,シュレスタラケシュ,SHRESTHARAKESH,56,0,0,0,56
2017/07,中級1B,1610001,柳楚卿,リュウソキョウ,LIUCHUQING,56,0,0,0,56
2017/07,中級1B,1610002,郭東勛,カクトウクン,GUODONGXUN,56,12,0,3,44
2017/07,中級1B,1610009,羅武,ラブ,LUOWU,56,0,0,0,56
2017/07,中級1B,1610011,于光普,ウコウフ,YUGUANGPU,56,30,1,7,26
2017/07,中級1B,1610019,趙立凡,チョウリツハン,ZHAOLIFAN,56,0,0,0,56
2017/07,中級1B,1610033,陳文華,チンブンカ,CHENWENHUA,56,17,2,4,39
2017/07,中級1B,1610038,董思成,トウシセイ,DONGSICHENG,56,16,1,4,40
2017/07,中級1B,1610040,黄南,コウナン,HUANGNAN,56,5,1,1,51
2017/07,中級1B,1610044,盧宇坤,ロウコン,LUYUKUN,56,4,0,1,52
2017/07,中級1B,1610053,,チャナパットソオントムグムジョンパニチ,,56,11,0,2,45
2017/07,中級1B,1704071,竺可迪,チクカテキ,ZHUKEDI,56,8,0,2,48
2017/07,中級1B,1704101,羅照軒,ラショウケン,LUOZHAOXUAN,56,24,0,6,32
2017/07,中級1B,1704119,雷米特,ライベイトク,LEIMITE,56,56,0,14,0
2017/07,中級1B,1704152,宋昌澔,ソンチャンホ,"SONGCHANG HO",56,0,0,0,56
2017/07,中級1B,1707008,李亮呈,リリョウテイ,LILIANGCHENG,56,0,0,0,56
2017/07,中級1B,1707022,郭雨蕙,カクウケイ,GUOYUHUI,56,0,0,0,56
2017/07,中級1B,1707084,簡頌賢,カンショウケン,JIANSONGXIAN,56,0,0,0,56
2017/07,中級1C,1604012,陳立志,チンリッシ,CHENLIZHI,56,12,1,3,44
2017/07,中級1C,1604067,高延,コウエン,GAOYAN,56,5,5,1,50
2017/07,中級1C,1604084,付建銘,フケンメイ,FUJIANMING,56,1,1,0,55
2017/07,中級1C,1604105,邱佳成,キュウカセイ,QIUJIACHENG,56,6,2,1,50
2017/07,中級1C,1604106,卫艺雯,エイゲイブン,WEIYIWEN,4,0,0,0,4
2017/07,中級1C,1604161,潘駿晨,ハンシュンシン,PANJUNCHEN,56,33,0,8,23
2017/07,中級1C,1604169,張夢彤,チョウムトウ,ZHANGMENGTONG,56,0,0,0,56
2017/07,中級1C,1604185,李昕雨,リキンウ,LIXINYU,56,7,2,1,49
2017/07,中級1C,1604194,張楚奇,チョウソキ,ZHANGCHUQI,56,13,1,3,43
2017/07,中級1C,1604200,呉格格,ゴカクカク,WUGEGE,56,17,0,4,39
2017/07,中級1C,1604252,,シュレスタマニス　ラル,"SHRESTHAMANISH LAL",56,0,0,0,56
2017/07,中級1C,1607023,楊禛,ヨウシン,YANGZHEN,56,12,3,2,43
2017/07,中級1C,1607061,趙翔飛,チョウショウヒ,ZHAOXIANGFEI,56,0,0,0,56
2017/07,中級1C,1607101,,グエンティ　トゥ　ハン,"NGUYENTHI THU HANG",56,8,3,1,47
2017/07,中級1C,1607104,,マハラジャンリーナ,MAHARJANREENA,56,0,0,0,56
2017/07,中級1C,1607105,,アビンゴパリ,ABINGOPALI,56,0,0,0,56
2017/07,中級1C,1607110,,ニスツスロチャナ,NHISUTUSULOCHANA,56,0,0,0,56
2017/07,中級1C,1607111,,コジュラジェス,KOJURAJESH,56,0,0,0,56
2017/07,中級1C,1607115,,"マジダル バハドゥル　","MAJHIDAL BAHADUR",56,0,0,0,56
2017/07,中級1C,9916023,,タパラジクマール,"THAPARAJ KUMAR",56,4,0,1,52
2017/07,初中級A,1610005,矯永昶,キョウエイチョウ,JIAOYONGCHANG,56,0,1,0,56
2017/07,初中級A,1610015,馮習文,ヒョウシュウブン,FENGXIWEN,56,0,0,0,56
2017/07,初中級A,1610029,劉瀚声,リュウカンセイ,LIUHANSHENG,56,13,2,3,43
2017/07,初中級A,1704029,徐銘孝,ジョメイコウ,XUMINGXIAO,56,0,2,0,56
2017/07,初中級A,1704041,郭亜含,カクアガン,GUOYAHAN,56,0,0,0,56
2017/07,初中級A,1704048,徐行,ジョコウ,XUHANG,56,1,1,0,55
2017/07,初中級A,1704052,宋宇鵬,ソウウホウ,SONGYUPENG,56,9,0,2,47
2017/07,初中級A,1704079,蘭玲,ランレイ,LANLING,56,4,0,1,52
2017/07,初中級A,1707002,周亜英,シュウアエイ,ZHOUYAYING,56,1,0,0,55
2017/07,初中級A,1707005,徐哲,ジョテツ,XUZHE,56,0,0,0,56
2017/07,初中級A,1707006,夏驕陽,カキョウヨウ,XIAJIAOYANG,56,0,1,0,56
2017/07,初中級A,1707015,羅靖雯,ラセイブン,LUOJINGWEN,56,0,0,0,56
2017/07,初中級A,1707018,王伊依,オウイイ,WANGYIYI,56,0,0,0,56
2017/07,初中級A,1707030,胡晋睿,コシンエイ,HUJINRUI,56,0,0,0,56
2017/07,初中級A,1707037,周思彤,シュウシトウ,ZHOUSITONG,56,0,0,0,56
2017/07,初中級A,1707061,艾迪,ガイテキ,AIDI,56,0,0,0,56
2017/07,初中級A,1707064,穆亜蝶,ボクアチョウ,MUYADIE,56,0,0,0,56
2017/07,初中級A,1707096,,チョウコウショウ,張宏祥,56,0,0,0,56
2017/07,初中級A,9917034,,ファムティ　タン　ヴァン,"PHAMTHI THANH VAN",56,0,0,0,56
2017/07,初中級B,1704007,文秋荻,ブンシュウテキ,WENQIUDI,56,0,0,0,56
2017/07,初中級B,1704008,張歆韵,チョウキンイン,ZHANGXINYUN,56,0,0,0,56
2017/07,初中級B,1704012,張雯菲　,チョウブンヒ,ZHANGWENFEI,56,5,2,1,51
2017/07,初中級B,1704013,陳曦,チンキ,CHENXI,56,5,2,1,51
2017/07,初中級B,1704016,韓夢倩,カンムセイ,HANMENGQIAN,56,24,0,6,32
2017/07,初中級B,1704060,張明梓,チョウメイシ,ZHANGMINGZI,56,17,2,4,39
2017/07,初中級B,1704072,姜軒,キョウソウケン,JIANGCONGXUAN,56,4,0,1,52
2017/07,初中級B,1704076,王　鵬,オウチュウホウ,WANGCHONGPENG,56,20,0,5,36
2017/07,初中級B,1704088,李春陽,リシュンヨウ,LICHUNYANG,56,16,0,4,40
2017/07,初中級B,1704099,張芳芳,チョウホウホウ,ZHANGFANGFANG,56,4,0,1,52
2017/07,初中級B,1707020,張丹妮,チョウタンジ,ZHANGDANNI,56,0,0,0,56
2017/07,初中級B,1707021,常露露,ジョウロロ,CHANGLULU,56,0,0,0,56
2017/07,初中級B,1707028,何東恩,カトウオン,HEDONGEN,56,8,0,2,48
2017/07,初中級B,1707032,林敬煒,リンケイイ,LINJINGWEI,56,0,0,0,56
2017/07,初中級B,1707042,呂佳妮,リョカジ,LYUJIANI,56,0,0,0,56
2017/07,初中級B,1707059,劉澤霏,リュウタクヒ,LIUZEFEI,56,0,0,0,56
2017/07,初中級B,1707060,瀋玥,シンゲツ,SHENYUE,56,4,0,1,52
2017/07,初中級B,1707066,韓竺苪,カンジクヘイ,HANZHURUI,56,0,1,0,56
2017/07,初中級B,1707087,黄雯雯,コウブンブン,HUANGWENWEN,56,0,0,0,56
2017/07,初中級C,1604091,郝玉辉,カクギョクキ,HAOYUHUI,56,8,0,2,48
2017/07,初中級C,1604128,劉夢奕,リュウムエキ,LIUMENGYI,56,0,3,0,55
2017/07,初中級C,1604172,蘭慧良,ランケイリョウ,LANHUILIANG,56,10,0,2,46
2017/07,初中級C,1604255,,ライユニサ,RAIYUNISHA,56,8,0,2,48
2017/07,初中級C,1607036,張雪睿,チョウセツエイ,ZHANGXUERUI,56,19,2,4,37
2017/07,初中級C,1607051,魯玲言,ロレイゲン,LULINGYAN,56,4,4,0,51
2017/07,初中級C,1607073,呉塵,ゴジン,WUCHEN,56,12,0,3,44
2017/07,初中級C,1607099,,グエンゴック　ホア,"NGUYENNGOC HOA",56,8,0,2,48
2017/07,初中級C,1607100,,ファムクォック　トアン,"PHAMQUOC TOAN",56,8,0,2,48
2017/07,初中級C,1610035,劉文萍,リュウブンヘイ,LIUWENPING,56,0,0,0,56
2017/07,初中級C,1704014,李鵬程,リホウテイ,LIPENGCHENG,56,5,0,1,51
2017/07,初中級C,1704040,張茜,チヨウセン,ZHANGXI,56,0,0,0,56
2017/07,初中級C,1704062,楊　露,ヨウレイロ,YANGLINGLU,56,0,0,0,56
2017/07,初中級C,1704064,賈雨晴,カウセイ,JIAYUQING,56,0,0,0,56
2017/07,初中級C,1704074,宋剣,ソウケン,SONGJIAN,56,9,0,1,47
2017/07,初中級C,1704087,丁一,テイイツ,DINGYI,52,0,0,0,52
2017/07,初中級C,1704090,儲冰潔,チョヒョウケツ,CHUBINGJIE,56,0,0,0,56
2017/07,初中級C,1704098,汪亦昀,オウエキイン,WANGYIYUN,56,12,0,3,44
2017/07,初中級C,1704118,張曼惠,チョウマンケイ,ZHANGMANHUI,56,9,0,2,47
2017/07,初中級D,1604052,汪順意,オウジュンイ,WANGSHUNYI,56,16,1,4,40
2017/07,初中級D,1604092,田博文,デンハクブン,TIANBOWEN,56,12,2,3,44
2017/07,初中級D,1604168,張添雅,チョウテンガ,ZHANGTIANYA,56,16,0,4,40
2017/07,初中級D,1604258,,"プラサドガウタム デリ　","PRASADGAUTAM  DILLI ",56,13,1,3,43
2017/07,初中級D,1607013,袁帥,エンスイ,YUANSHUAI,56,28,1,7,28
2017/07,初中級D,1607037,杜佳威,トカイ,DUJIAWEI,56,12,2,3,44
2017/07,初中級D,1607085,王哲,オウテツ,WANGZHE,56,24,2,6,32
2017/07,初中級D,1607098,,グエンティ　ゴック　ディエプ,"NGUYENTHI NGOC DIEP",56,9,5,2,46
2017/07,初中級D,1607102,,グエンティ　ホン,"NGUYENTHI HONG",56,8,0,2,48
2017/07,初中級D,1607113,,グルンカンチャン,GURUNGKANCHAN,56,8,1,2,48
2017/07,初中級D,1610006,鄭子渊,テイシエン,ZHENGZIYUAN,56,10,2,2,46
2017/07,初中級D,1701001,華媛媛,カエンエン,HUAYUANYUAN,56,8,1,2,48
2017/07,初中級D,1704020,賀婷婷,ガテイテイ,HETINGTING,56,12,1,3,44
2017/07,初中級D,1704034,佘鵬飛,シャホウヒ,SHEPENGFEI,56,8,0,2,48
2017/07,初中級D,1704047,黄若楠,コウジャクナン,HUANGRUONAN,56,8,0,2,48
2017/07,初中級D,1704057,王漪文,オウイブン,WANGYIWEN,56,8,2,2,48
2017/07,初中級D,1704068,朴雪英,ボクセツエイ,PIAOXUEYING,56,12,2,3,44
2017/07,初中級D,1704106,章丹丹,ショウタンタン,ZHANGDANDAN,56,16,0,4,40
2017/07,初中級D,1704109,魏佳斌,ギカヒン,WEIJIABIN,56,20,1,5,36
2017/07,初級2A,1607109,,ライスーダン,RAISUDAN,56,5,0,1,51
2017/07,初級2A,1607114,,ギリサラダ,GIRISARADA,56,4,0,1,52
2017/07,初級2A,1704005,唐可萱,トウカケン,TANGKEXUAN,56,28,0,7,28
2017/07,初級2A,1704006,李超琪,リチョウキ,LICHAOQI,56,9,0,2,47
2017/07,初級2A,1704011,周佳蓉,シュウカヨウ,ZHOUJIARONG,56,0,0,0,56
2017/07,初級2A,1704019,趙子未,チョウシミ,ZHAOZIWEI,56,3,2,0,53
2017/07,初級2A,1704037,鄧平成,トウヘイセイ,DENGPINGCHENG,56,0,0,0,56
2017/07,初級2A,1704045,呉翌陽,ゴヨクヨウ,WUYIYANG,56,0,0,0,56
2017/07,初級2A,1704046,莫鑫元,バクキンゲン,MOXINYUAN,56,6,3,1,49
2017/07,初級2A,1704069,朱玲瓏,シュレイロウ,ZHULINGLONG,56,0,0,0,56
2017/07,初級2A,1704070,姜博文,キョウハクブン,JIANGBOWEN,56,12,3,3,43
2017/07,初級2A,1704086,鄭好,テイコウ,ZHENGHAO,56,0,0,0,56
2017/07,初級2A,1704096,孫夢家,ソンムカ,SUNMENGJIA,56,0,1,0,56
2017/07,初級2A,1704103,柯俊羽,カシュンウ,KEJUNYU,56,4,3,1,51
2017/07,初級2A,1704120,,"ｽﾞｵﾝﾃｨｴﾝ ｸｪﾝ","DUONGTIEN QUYEN",56,0,1,0,56
2017/07,初級2A,1704124,,"ﾌｧﾑﾃｨ ﾏｲ","PHAMTHI MAI",56,6,1,1,50
2017/07,初級2A,1707023,賈雯倩,カブンセイ,JIAWENQIAN,56,0,0,0,56
2017/07,初級2A,1707057,徐開来,ジョカイライ,XUKAILAI,56,0,0,0,56
2017/07,初級2A,1707088,姚穎菲,ヨウエイヒ,YIUWINGFEI,56,0,0,0,56
2017/07,初級2B,1607107,,"ポカレルメガ ナット　",POKHARELMEGHANATH,56,20,0,5,36
2017/07,初級2B,1704051,万鑫,マンキン,WANXIN,56,4,2,1,52
2017/07,初級2B,1704054,焦玉衡,ショウギョクコウ,JIAOYUHENG,56,8,1,2,48
2017/07,初級2B,1704067,趙澤鳴,チョウタクメイ,ZHAOZEMING,56,8,1,2,48
2017/07,初級2B,1704080,郭亜博,カクアハク,GUOYABO,56,24,1,6,32
2017/07,初級2B,1704082,趙亜翼,チョウアヨク,ZHAOYAYI,56,28,1,7,28
2017/07,初級2B,1704084,銭豪杰,センゴウケツ,QIANHAOJIE,56,8,1,2,48
2017/07,初級2B,1704085,陳航,チンイコウ,CHENWEIHANG,56,32,3,8,23
2017/07,初級2B,1704104,趙然,チヨウゼン,ZHAORAN,56,20,0,5,36
2017/07,初級2B,1704107,韓非,カンヒ,HANFEI,56,12,3,3,43
2017/07,初級2B,1704111,連夢,レンムテキ,LIANMENGDI,56,24,1,6,32
2017/07,初級2B,1704112,金　翎,キンレイ,JINLING,56,8,2,2,48
2017/07,初級2B,1704116,張暁婧,チョウギョウセイ,ZHANGXIAOJING,56,20,3,5,35
2017/07,初級2B,1704123,,"ｸﾞｪﾝｳﾞｧﾝ ﾃｨｴﾝ","NGUYENVAN TIEN",56,8,2,2,48
2017/07,初級2B,1704125,,"ｸﾞｪﾝﾎｱﾝ ﾌｫﾝ ｳﾞｨ","NGUYENHOANG PHUONG VY",56,13,3,3,42
2017/07,初級2B,1704142,,ﾏﾊﾙｼﾞｬﾝｽｼﾞ,MAHARJANSUJI,56,8,1,2,48
2017/07,初級2B,1707014,温紫萱,オンシケン,WENZIXUAN,56,8,1,2,48
2017/07,初級2B,1707031,楊建華,ヨウケンカ,YANGJIANHUA,40,8,1,2,32
2017/07,初級2B,1707063,江佳蔚,コウカイ,JIANGJIAWEI,56,5,4,1,50
2017/07,初級2B,9917027,李雪晴,リセツセイ,LIXUEQING,56,8,1,2,48
2017/07,初級2C,1607020,李海菡,リカイカン,LIHAIHAN,56,24,0,6,32
2017/07,初級2C,1610007,姜巍,キョウギ,JIANGWEI,56,4,1,1,52
2017/07,初級2C,1610017,曲世正,キョクセセイ,QUSHIZHENG,56,16,2,4,40
2017/07,初級2C,1610049,,グエンバ　ティン,"NGUYENBA THINH",56,4,1,1,52
2017/07,初級2C,1610051,,グエンジュイ　カイン,"NGUYENDUY KHANH",56,4,1,1,52
2017/07,初級2C,1610054,,ピリヤコムシッカマーン,PIRIYAKORNSIGKAMANN,56,12,2,3,44
2017/07,初級2C,1704010,呉悠,ゴユウ,WUYOU,56,4,1,1,52
2017/07,初級2C,1704023,樊政,ハンセイ,FANZHENG,56,21,0,5,35
2017/07,初級2C,1704033,陳蕭陽,チンショウヨウ,CHENXIAOYANG,56,4,5,1,51
2017/07,初級2C,1704035,張敏,チョウビン,ZHANGMIN,56,4,1,1,52
2017/07,初級2C,1704038,黎潤絲,レイジュンシ,LIRUNSI,56,4,1,1,52
2017/07,初級2C,1704058,黄瑛,コウエイ,HUANGYING,56,4,1,1,52
2017/07,初級2C,1704063,姜惠涛,キョウケイトウ,JIANGHUITAO,56,8,4,2,47
2017/07,初級2C,1704094,伍浩聡,ゴコウソウ,WUHAOCONG,56,4,1,1,52
2017/07,初級2C,1704095,劉莉瑤,リュウリヨウ,LIULIYAO,56,12,3,2,43
2017/07,初級2C,1704113,張倩玉,チョウセイギョク,ZHANGQIANYU,56,4,1,1,52
2017/07,初級2C,1704140,,ﾗﾑﾃﾙｱﾝﾆﾝ,RAMTELANJAN,56,4,1,1,52
2017/07,初級2C,1704149,,"ﾀｸﾘﾏﾅ ｸﾏﾘ","THAKURIMANA KUMARI",56,4,1,1,52
2017/07,初級2C,1707026,劉釋伽,リュウシャクカ,LIUSHIJIA,56,4,2,1,52
2017/07,初級2C,1707029,唐竹,トウチク,TANGZHU,56,4,1,1,52
2017/07,初級2D,1604018,孫楊,ソンヨウ,SUNYANG,56,21,3,5,34
2017/07,初級2D,1604209,朱晧軒,シュコウケン,ZHUHAOXUAN,56,5,0,1,51
2017/07,初級2D,1607118,,カリモフシェフロズ,KARIMOVSHEKHROZ,56,5,0,1,51
2017/07,初級2D,1610034,王智麟,オウチリン,WANGZHILIN,56,4,0,1,52
2017/07,初級2D,1610047,,ゴティ　フオン　レ,"NGOTHI PHUONG LE",56,6,1,1,50
2017/07,初級2D,1610050,,ドヴィエット　ロン,"DOVIET LONG",56,5,0,1,51
2017/07,初級2D,1704003,蒋瑩,ショウエイ,JIANGYING,56,0,0,0,56
2017/07,初級2D,1704004,顧芸夢,コゲイム,GUYUNMENG,56,0,1,0,56
2017/07,初級2D,1704018,田金農,デンキンノウ,TIANJINNONG,56,0,0,0,56
2017/07,初級2D,1704024,呉芷瑤,ゴシヨウ,WUZHIYAO,56,0,0,0,56
2017/07,初級2D,1704028,高元昊,コウゲンコウ,GAOYUANHAO,56,12,1,3,44
2017/07,初級2D,1704032,董振博,トウシンバク,DONGZHENBO,56,4,0,1,52
2017/07,初級2D,1704042,劉思雪,リュウシセツ,LIUSIXUE,56,0,0,0,56
2017/07,初級2D,1704053,張澤,チヨウタク,ZHANGZE,56,12,1,3,44
2017/07,初級2D,1704061,尋夢,ジンム,XUNMENG,56,0,0,0,56
2017/07,初級2D,1704078,唐露莎,トウロサ,TANGLUSHA,56,12,2,3,44
2017/07,初級2D,1704128,,ｻﾌﾟｺﾀﾌﾟﾛﾃｨﾏ,SAPKOTAPRATIMA,56,4,0,1,52
2017/07,初級2D,1704141,,ﾏﾊﾙｼﾞｬﾝｻﾆｽ,MAHARJANSANISH,56,0,0,0,56
2017/07,初級2D,1707093,,シャムシエフシェロズ,SHAMSIEVSHEROZ,56,1,3,0,54
2017/07,初級2E,1607108,,"シルワルラメス プラサド　","SILWALRAMESH  PRASAD ",56,4,0,1,52
2017/07,初級2E,1704001,雷佳鳴,ライカメイ,LEIJIAMING,56,9,0,2,47
2017/07,初級2E,1704002,姚嘉穎,ヨウキエイ,YAOJIAYING,56,12,0,3,44
2017/07,初級2E,1704017,熊展銘,ユウテンメイ,XIONGZHANMING,56,8,0,2,48
2017/07,初級2E,1704022,李霖,リリン,LILIN,56,4,0,1,52
2017/07,初級2E,1704027,潘永鑫,ハンエイキン,PANYONGXIN,56,8,0,2,48
2017/07,初級2E,1704031,劉雨,リュウウ,LIUYU,56,5,0,1,51
2017/07,初級2E,1704044,劉馨楚,リュウケイソ,LIUXINCHU,56,22,1,5,34
2017/07,初級2E,1704055,宋晨燁,ソウシンヨウ,SONGCHENYE,56,4,0,1,52
2017/07,初級2E,1704056,劉弦,リュウゲン,LIUXIAN,56,9,4,2,46
2017/07,初級2E,1704066,白雨,ハクウレイ,BAIYULING,56,8,1,2,48
2017/07,初級2E,1704093,梁建礼,リョウケンレイ,LIANGJIANLI,56,4,0,1,52
2017/07,初級2E,1704110,郭亮廷,カクリョウテイ,GUOLIANGTING,56,4,0,1,52
2017/07,初級2E,1704121,,"ｸﾞｪﾝｳﾞｧﾝ ﾊﾞｸ","NGUYENVAN BAC",56,4,0,1,52
2017/07,初級2E,1704122,,"ｸﾞｪﾝﾋﾕ ﾊｲ","NGUYENHUU HAI",56,0,1,0,56
2017/07,初級2E,1704144,,ﾄﾞﾗﾙｶﾞｶﾞﾝ,DULALGAGAN,56,4,0,1,52
2017/07,初級2E,1707004,李功盛,リコウセイ,LIGONGSHENG,56,8,0,2,48
2017/07,初級2E,1707007,周成逸,シュウセイイツ,ZHOUCHENGYI,56,4,1,1,52
2017/07,初級2E,1707070,趙旭,チョウキョク,ZHAOXU,56,4,0,1,52
2017/07,初級2E,1707082,秦国棟,シンコクトウ,QINGUODONG,56,4,0,1,52
2017/07,初級1A,1707009,張知非,チョウチヒ,ZHANGZHIFEI,56,0,0,0,56
2017/07,初級1A,1707013,焦永愛,ショウエイアイ,JIAOYONGAI,56,0,0,0,56
2017/07,初級1A,1707019,張易凡,チョウエキハン,ZHANGYIFAN,56,0,0,0,56
2017/07,初級1A,1707033,孫毅,ソンキ,SUNYI,44,0,0,0,44
2017/07,初級1A,1707035,姜辰熹,キョウシンキ,JIANGCHENXI,56,0,0,0,56
2017/07,初級1A,1707036,凌佳鑫,リョウカキン,LINGJIAXIN,56,0,0,0,56
2017/07,初級1A,1707038,楊玉潔,ヨウギョクケツ,YANGYUJIE,56,0,0,0,56
2017/07,初級1A,1707039,向陽,コウヨウ,XIANGYANG,56,0,0,0,56
2017/07,初級1A,1707044,劉美玲,リュウビレイ,LIUMEILING,56,0,0,0,56
2017/07,初級1A,1707046,王依,オウイ,WANGYI,56,0,1,0,56
2017/07,初級1A,1707047,,シュトウ,ZHUTONG,56,1,0,0,55
2017/07,初級1A,1707048,朱江,シュコウ,ZHUJIANG,56,0,0,0,56
2017/07,初級1A,1707050,張爽,チョウソウ,ZHANGSHUANG,56,0,0,0,56
2017/07,初級1A,1707051,賈丁,カテイ,JIADING,56,0,0,0,56
2017/07,初級1A,1707068,譚勛儒,タンクンジュ,TANXUNRU,56,2,1,0,54
2017/07,初級1A,1707074,尤佳,ユウカ,YOUJIA,44,0,0,0,44
2017/07,初級1A,1707081,侯乙童,コウオツドウ,HOUYITONG,56,0,0,0,56
2017/07,初級1A,1707083,庄顔,ショウガン,ZHUANGYAN,20,4,0,1,16
2017/07,初級1A,1707089,,ファムティ　フォン　リン,"PHAMTHI PHUONG LINH",56,0,0,0,56
2017/07,初級1A,9917038,王楨,オウテイ,WANGZHEN,44,24,0,6,20
2017/07,初級1B,1704030,劉星雨,リュウセイウ,LIUXINGYU,56,20,0,5,36
2017/07,初級1B,1704129,,ｽﾍﾞﾃｨｽﾘｻﾞﾅ,SUBEDISRIJANA,56,3,1,0,53
2017/07,初級1B,1704138,,デザールアシク,DESARASHIK,56,3,1,0,53
2017/07,初級1B,1704150,,ｼｭﾚｽﾀﾅﾋﾞﾝ,SHRESTHANABIN,56,5,1,0,51
2017/07,初級1B,1707010,馮媛,ヒョウエン,FENGYUAN,56,3,1,0,53
2017/07,初級1B,1707012,陳家欣,チンカキン,CHENJIAXIN,56,3,4,0,52
2017/07,初級1B,1707017,孫帥雯,ソンスイブン,SUNSHUAIWEN,56,3,1,0,53
2017/07,初級1B,1707025,宮文秀,キュウブンシュウ,GONGWENXIU,56,3,1,0,53
2017/07,初級1B,1707034,叶家銘,ヨウカメイ,YEJIAMING,56,5,3,0,50
2017/07,初級1B,1707053,郝見優,カクケンユウ,HAOJIANYOU,56,3,1,0,53
2017/07,初級1B,1707056,張鵬,チョウホウ,ZHANGPENG,56,3,1,0,53
2017/07,初級1B,1707071,傅振寧,フシンネイ,FUZHENNING,56,3,2,0,53
2017/07,初級1B,1707076,秦一明,シンイチメイ,QINYIMING,56,3,5,0,52
2017/07,初級1B,1707079,郭文琦,カクブンキ,GUOWENQI,56,3,1,0,53
2017/07,初級1B,1707085,盧億,ロオク,LUYI,56,3,1,0,53
2017/07,初級1B,1707086,鄭欣瑩,テイキンエイ,ZHENGXINYING,56,3,1,0,53
2017/07,初級1B,1707092,,ジュラエフバイラム,JURAEVBAYRAM,56,3,1,0,53
2017/07,初級1B,1707095,,,ZENGPEIYUAN,56,3,4,0,52
2017/07,初級1B,9917036,姜聲俊,カンソンジュン,"KANGSEONG JUN",56,29,2,5,27
2017/07,初級1B,9917039,蔡云鹏,サイウンホウ,,40,4,0,1,36
2017/07,初級1C,1610046,,グエンラム　フィ　ヴ,"NGUYENLAM PHI VU",56,52,0,13,4
2017/07,初級1C,1704143,,ﾋﾞｽﾀﾛｻﾞﾝ,BISTAROSHAN,56,8,0,2,48
2017/07,初級1C,1704145,,ﾊﾞﾄﾗｲﾌﾞｻﾞ,BHATTARAIPUJA,56,8,0,2,48
2017/07,初級1C,1704151,,ｸﾞﾙﾝﾗｾﾞﾝﾄﾞﾗ,GURUNGRAJENDRA,56,8,0,2,48
2017/07,初級1C,1707011,曽憲耀,ソウケンヨウ,ZENGXIANYAO,56,8,1,2,48
2017/07,初級1C,1707024,殷誠,インセイ,YINCHENG,56,8,0,2,48
2017/07,初級1C,1707027,鄧迪元,トウテキゲン,DENGDIYUAN,56,8,0,2,48
2017/07,初級1C,1707043,侯佳佳,コウカカ,HOUJIAJIA,56,8,0,2,48
2017/07,初級1C,1707045,,リキョウ,LIXIANG,56,8,0,2,48
2017/07,初級1C,1707049,劉褘晨,リュウイシン,LIUYICHEN,56,8,3,2,47
2017/07,初級1C,1707052,曽路堯,ソウロギョウ,ZENGLUYAO,56,8,0,2,48
2017/07,初級1C,1707058,徐希来,ジョキライ,XUXILAI,56,8,0,2,48
2017/07,初級1C,1707062,蘇雨,ソウ,SUYU,56,8,0,2,48
2017/07,初級1C,1707067,鄧壁炎,トウヘキエン,DENGBIYAN,56,8,0,2,48
2017/07,初級1C,1707069,邢飛凡,ケイヒハン,XINGFEIFAN,56,8,0,2,48
2017/07,初級1C,1707073,魏嘉,ギカ,WEIJIA,56,8,0,2,48
2017/07,初級1C,9917030,呉億錫,オオクソク,OHOUKSUK,56,8,0,2,48
2017/07,初級1C,9917031,金賢洙,キムヒョンス,KIMHYUNSOO,56,12,0,3,44
2017/07,初級1C,9917033,,レティ　トゥ　フォン,"LETHI THU HUONG",56,12,0,3,44
2017/07,初級1C,9917037,姜銀,カンソヌン,"KANGSUN EUN",56,20,0,5,36
