﻿1,129,2017/06,大学３A,1607075,郭　昊天,中国,男,158,196,354,45,59,61,,,,147
2,129,2017/06,大学３A,1604142,邹  涛,中国,男,158,192,350,45,70,49,,,,164
3,129,2017/06,大学院３A,1607021,李　施怡,中国,女,151,193,344,45,,,,,,
4,129,2017/06,大学３美,1604226,黄　詩瑞,中国,女,156,186,342,45,,,,,,
5,129,2017/06,大学３A,1604153,李  佳安,中国,女,148,189,337,40,,,,119,107,
6,129,2017/06,大学３A,1604240,余　嘉怡,中国,女,157,179,336,35,,,,157,133,
7,129,2017/06,大学３A,1607067,鞠　印軒,中国,女,143,192,335,50,,,,138,99,
8,129,2017/06,大学３美,1610018,姜　玉敏,中国,女,147,185,332,35,,,,,,
9,129,2017/06,大学３A,1607066,陳　浩麟,中国,男,136,187,323,45,,,,153,138,
10,129,2017/06,大学２A,1604152,殷  弘睿,中国,男,140,182,322,30,,,,94,89,
11,129,2017/06,大学２A,1607022,孫　浩然,中国,男,153,168,321,40,,,,95,100,
12,129,2017/06,初中級D,1704109,魏　佳斌,中国,男,143,178,321,40,,,,,,
13,129,2017/06,大学３A,1604134,宋　承達,中国,男,139,181,320,40,,,,175,164,
14,129,2017/06,大学院３A,1604064,田 伊然,中国,女,131,185,316,40,,,,,,
15,129,2017/06,大学３A,1604104,楊　孫益,中国,男,153,161,314,35,,,,116,,
16,129,2017/06,大学２A,1604204,栄　雨婷,中国,女,128,184,312,35,,,,106,104,
17,129,2017/06,大学３A,1604051,温 振繁,中国,男,136,175,311,35,,,,125,129,
18,129,2017/06,大学３A,1604082,張　思楊,中国,女,132,179,311,45,,,,175,132,
19,129,2017/06,大学３美,1607040,王 楠,中国,女,126,184,310,40,,,,125,欠席,
20,129,2017/06,大学３美,1704081,梁　靖冉,中国,女,140,170,310,40,,,,,,
21,129,2017/06,大学３美,1604022,陸　真浩,中国,男,126,181,307,35,,,,127,,
22,129,2017/06,中級１B,1704152,宋昌澔,韓国,男,155,151,306,35,,,,83,,
23,129,2017/06,大学２A,1604221,趙　梓軒,中国,男,129,175,304,35,,,,88,,
24,129,2017/06,大学３美,1604044,杜 超杰,中国,男,115,188,303,40,,,,59,127,
25,129,2017/06,大学院３A,1607035,徐　敏,中国,女,127,175,302,35,,,,,,
26,129,2017/06,大学２A,1607091,劉　一凡,中国,男,136,164,300,45,,,,125,120,
27,129,2017/06,中級１B,1610001,柳　楚卿,中国,女,121,179,300,35,,,,147,,
28,129,2017/06,短期修了,9917024,ZHANG BAO  QIN,オーストラリア,男,141,158,299,45,,,,,,
29,129,2017/06,大学３A,1604001,汪 明琛,中国,女,118,179,297,40,,,,132,129,
30,129,2017/06,大学３美,1604029,陳　昱宏,中国,女,130,164,294,40,,,,94,,
31,129,2017/06,大学２A,1607084,張　政,中国,男,122,172,294,40,,,,137,115,
32,129,2017/06,大学３美,1604184,張　維,中国,男,119,171,290,45,,,,,,
33,129,2017/06,大学２A,1604125,楊　嘉宝,中国,女,114,168,282,35,,,,,,
34,129,2017/06,大学３美,1704108,王　怡瑋,中国,女,123,155,278,45,,,,,,
35,129,2017/06,大学２A,1604183,呉　亭薇,中国,女,113,165,278,45,,,,70,94,
36,129,2017/06,大学２美,1607032,呉　謙,中国,男,134,143,277,30,,,,57,,
37,129,2017/06,大学２美,1604238,洪　鋭深,中国,男,113,163,276,35,,,,106,,
38,129,2017/06,大学３美,1610037,方　霖穎,中国,女,118,156,274,35,,,,115,,
39,129,2017/06,大学院２A,1607019,程　嘉琳,中国,女,110,160,270,30,,,,,,
40,129,2017/06,大学院２A,1607089,張　文博,中国,男,104,166,270,35,,,,,,
41,129,2017/06,大学２A,1604233,関　宇,中国,男,110,159,269,40,58,40,,,,96
42,129,2017/06,大学２A,1604023,李 若蘭,中国,女,115,154,269,30,,,,82,75,
43,129,2017/06,大学２B,1604034,叶　遠舟,中国,男,115,152,267,40,,,,124,105,
44,129,2017/06,大学２B,1604038,牟　娟,中国,女,101,165,266,35,,,,89,104,
45,129,2017/06,初級２C,1607020,李 海菡,中国,女,94,172,266,30,,,,64,91,
46,129,2017/06,大学３A,1607046,徐 菁一,中国,女,113,151,264,40,49,34,,,,110
47,129,2017/06,中上級１A,1604087,丛 琳,中国,女,122,141,263,25,,,,,,
48,129,2017/06,初中級D,1607102,NGUYEN THI HONG ,ベトナム,女,85,178,263,0,,,,,,
49,129,2017/06,大学３美,1610045,黄　綺程,中国(マカオ),女,98,164,262,30,,,,70,,
50,129,2017/06,大学３A,1604210,饒　琳,中国,女,90,171,261,35,,,,121,131,
51,129,2017/06,大学２美,1610032,馬　暁瑩,中国,女,91,170,261,40,,,,110,,
52,129,2017/06,大学２美,1704091,干　甜,中国,女,93,163,256,35,,,,49,,
53,129,2017/06,大学３美,1610026,呉　比,中国,男,123,132,255,35,,,,41,,
54,129,2017/06,大学２A,1604100,宮　静,中国,女,108,144,252,40,,,,65,91,
55,129,2017/06,大学２A,1607119,李  季修,中国（香港）,男,127,125,252,30,55,,59,,91,
56,129,2017/06,初中級C,1604255,RAI YUNISHA,ネパール,女,105,147,252,10,,,,,,
57,129,2017/06,大学院２A,1610043,銭　柏霖,中国,男,105,146,251,35,,,,,,
58,129,2017/06,大学３美,1604045,呉　思哲,中国,男,110,139,249,30,,,,92,,
59,129,2017/06,大学２B,1604066,曾 思韵,中国,女,103,146,249,40,,,,113,92,
60,129,2017/06,大学３A,1604220,龔　奇彪,中国,男,106,142,248,45,64,58,,,,136
61,129,2017/06,大学２美,1607008,楊 力為,中国,女,103,145,248,35,,,,79,,
62,129,2017/06,退学者,1604215,李　博超,中国,男,108,140,248,40,,,,74,89,
63,129,2017/06,大学院２B,1604227,賀　雪豊,中国,男,99,147,246,35,,,,,,
64,129,2017/06,大学２A,1604154,張　澤棟,中国,男,115,130,245,35,,,,106,110,
65,129,2017/06,大学２美,1610024,羅　杰銘,中国,男,118,127,245,30,,,,50,,
66,129,2017/06,中上級2Ａ,1604108,謝 文婷,中国,女,100,144,244,40,,,,79,,
67,129,2017/06,大学院２B,1607079,胡　佩瑶,中国,女,102,139,241,35,,,,,,
68,129,2017/06,大学２B,1607058,王 艺淞,中国,男,93,148,241,25,,,,72,103,
69,129,2017/06,大学２美,1610014,王　歆儀,中国,女,115,126,241,35,,,,72,,
70,129,2017/06,中級１B,1610033,陳　文華,中国,男,117,122,239,25,,,,,,
71,129,2017/06,初級２A,1704088,李　春陽,中国,男,102,136,238,35,54,47,,,,130
72,129,2017/06,大学２A,1604138,鐘　帥,中国,男,107,128,235,35,,,,53,74,
73,129,2017/06,大学３美,1604158,傅  天宇,中国,男,109,125,234,30,,,,,,
74,129,2017/06,中上級１A,1604186,柴  嘉星,中国,女,93,141,234,35,,,,欠席,,
75,129,2017/06,大学２B,1607094,李　想,中国,男,98,134,232,25,,,,107,68,
76,129,2017/06,大学２美,1607078,程　厳,中国,男,101,131,232,35,,,,107,,
77,129,2017/06,大学２美,1604075,郭 芳竹,中国,女,98,133,231,30,,,,,,
78,129,2017/06,大学２B,1604073,李　嘉輝,中国,男,89,141,230,30,,,,75,87,
79,129,2017/06,中級２B,1604139,劉　志航,中国,男,92,137,229,35,,,,,,
80,129,2017/06,大学２美,1604173,張　文馨,中国,女,103,125,228,30,,,,77,,
81,129,2017/06,大学２A,1604222,呉　晨曦,中国,女,99,128,227,35,,,,119,96,
82,129,2017/06,大学２A,1604072,邢　哲瑋,中国,男,93,133,226,40,,,,127,128,
83,129,2017/06,中級２B,1610021,馬　藝銘,中国,男,93,132,225,35,,,,,,
84,129,2017/06,大学２B,1604099,陳　健,中国,男,96,127,223,30,,51,55,,,111
85,129,2017/06,大学２B,1607024,郭 宣蓉,中国,女,89,131,220,35,,,,137,129,
86,129,2017/06,大学３美,1610016,汪　炫佚,中国,女,93,124,217,40,,,,,,
87,129,2017/06,中級１B,1610040,黄　南,中国,男,110,107,217,25,,,,,,
88,129,2017/06,大学２美,1604077,李　天聡,中国,男,99,117,216,35,,,,54,,
89,129,2017/06,中上級１A,1604208,曹　達,中国,男,73,143,216,30,,,,,,
90,129,2017/06,中級１B,1604257,SHRESTHA RAKESH,ネパール,男,102,114,216,20,,,,,,
91,129,2017/06,大学院２B,1604020,羅　涵杏,中国,女,85,129,214,35,,,,,,
92,129,2017/06,大学２美,1604143,鄭　然,中国,男,87,127,214,35,,,,80,,
93,129,2017/06,中上級2Ａ,1604042,魯　崧,中国,男,79,135,214,35,,,,,,
94,129,2017/06,大学２B,1610010,彭　野,中国,男,80,133,213,35,,43,57,,82,
95,129,2017/06,中級１C,1604185,李  昕雨,中国,女,107,106,213,30,,,,,,
96,129,2017/06,大学２B,1604028,来　守慧,中国,女,83,129,212,35,,,,163,122,
97,129,2017/06,大学２美,1604048,王 翕,中国,男,80,132,212,35,,,,117,,
98,129,2017/06,中級２B,1604116,李 陽,中国,男,80,131,211,35,,,,62,54,
99,129,2017/06,大学２B,1607057,霍　晟,中国,男,82,128,210,30,,,,57,,
100,129,2017/06,中級１B,1604056,李　晶晶,中国,女,109,101,210,25,,,,,,
101,129,2017/06,中級１B,1610009,羅　武,中国,男,85,125,210,35,,,,,,
102,129,2017/06,初中級C,1604128,劉　夢奕,中国,女,82,128,210,30,,,,,,
103,129,2017/06,中上級１A,1604162,盧　俊杰,中国,男,72,137,209,35,,,,,,
104,129,2017/06,中上級１A,1604080,陸　欣于杭,中国,女,98,111,209,35,,,,,,
105,129,2017/06,大学院２B,1607112,SUNIL　KASULA,ネパール,男,101,107,208,30,,,,,,
106,129,2017/06,大学３A,1604002,郝 琳,中国,女,83,125,208,35,,,,81,125,
107,129,2017/06,中上級１A,1604235,周　竹曳,中国,女,99,108,207,35,,,,,,
108,129,2017/06,中級２B,1607053,周　安然,中国,女,87,120,207,35,,,,,,
109,129,2017/06,中級１B,1610011,于　光普,中国,男,92,115,207,35,,,,欠席,,
110,129,2017/06,大学２A,1604239,田　芳菲,中国,女,78,127,205,40,,,,53,,
111,129,2017/06,中級１A,1604094,付　昱偉,中国,男,86,118,204,25,,,,,,
112,129,2017/06,大学院２B,1604079,金 永山,中国,男,82,121,203,35,,,,,,
113,129,2017/06,大学２A,1604189,郭  廷展,中国,男,77,126,203,30,,,,,,
114,129,2017/06,初中級D,1610006,鄭　子渊,中国,男,77,126,203,35,,53,74,,,99
115,129,2017/06,中級２B,1604202,周  洋,中国,男,71,131,202,30,,,,,,
116,129,2017/06,大学院２B,1604126,馬　浩喧,中国,男,79,122,201,35,,,,,,
117,129,2017/06,大学２A,1604117,馬　鵬飛,中国,男,82,119,201,25,,,,158,85,
118,129,2017/06,大学２美,1604181,王  啸,中国,男,62,139,201,35,,,,,,
119,129,2017/06,中級２A,1610025,劉　藝達,中国,男,70,131,201,35,,,,,,
120,129,2017/06,大学院２A,1604036,呉　桐,中国,女,81,118,199,40,,,,,,
121,129,2017/06,大学院２B,1607093,呂　金釗,中国,男,82,117,199,35,,,,,,
122,129,2017/06,大学２A,1604217,林　延棟,中国,男,94,105,199,35,,40,40,,,113
123,129,2017/06,中級１A,1610013,李　豪,中国,男,91,108,199,35,,,,,,
124,129,2017/06,大学２B,1604110,王 心怡,中国,女,82,116,198,35,,,,107,125,
125,129,2017/06,中級１C,1604200,呉　格格,中国,女,93,105,198,25,,,,,,
126,129,2017/06,初中級C,1607036,張　雪睿,中国,女,70,128,198,25,,,,,,
127,129,2017/06,大学院２B,1604111,劉　丹,中国,女,88,109,197,35,,,,,,
128,129,2017/06,中級２A,1604040,謝　明星,中国,男,90,105,195,30,31,,64,,,108
129,129,2017/06,中級２B,1604063,李 婷,中国,女,96,99,195,25,,,,,,
130,129,2017/06,中級１A,1610031,楊　藝,中国,女,88,107,195,30,,,,,,
131,129,2017/06,中級１C,1607023,楊　禛,中国,男,90,105,195,30,,,,,,
132,129,2017/06,大学院２A,1604131,巩   妤,中国,女,97,96,193,35,,,,,,
133,129,2017/06,大学院２B,1607007,侯 舒瑜,中国,男,84,109,193,40,,,,,,
134,129,2017/06,大学２美,1604101,于 晨,中国,男,75,118,193,35,,,,,,
135,129,2017/06,中上級１A,1604234,陳　佳元,中国,女,73,120,193,40,,,,,,
136,129,2017/06,中上級１A,1604006,劉　徳才,中国,男,73,116,189,35,,,,,,
137,129,2017/06,中級２A,1604033,趙　柄宇,中国,男,59,129,188,35,,,,,,
138,129,2017/06,中級１B,1610038,董　思成,中国,男,74,112,186,30,,,,,,
139,129,2017/06,初級２A,1704103,柯　俊羽,中国,男,85,101,186,30,,,,,,
140,129,2017/06,初級２D,1604209,朱　皓軒,中国,男,86,100,186,25,,,,,,
141,129,2017/06,大学２B,1604190,姜  超,中国,男,75,109,184,35,,45,55,,,102
142,129,2017/06,中級２B,1604188,何　恩寧,中国,男,81,103,184,30,,,,,,
143,129,2017/06,中級１B,1610019,趙　立凡,中国,女,51,132,183,35,,,,,,
144,129,2017/06,中級１C,1604194,張　楚奇,中国,男,85,98,183,30,,,,124,54,
145,129,2017/06,中級１A,1610022,李　容天,中国,女,73,108,181,30,,,,,,
146,129,2017/06,中級１A,1610042,武　陽,中国,男,82,99,181,30,,,,,,
147,129,2017/06,大学２美,1607056,程　序,中国,男,78,102,180,30,,,,,,
148,129,2017/06,中級２A,1610004,季　豊裕,中国,男,63,117,180,35,,,,,,
149,129,2017/06,初中級D,1604052,汪　順意,中国,男,87,91,178,30,,,,56,,83
150,129,2017/06,初中級D,1604168,張　添雅,中国,女,92,86,178,25,,,,,,
151,129,2017/06,大学２B,1607042,馬　一督,中国,男,70,107,177,35,,,,91,,78
152,129,2017/06,大学２美,1607072,陳　劭言,中国,女,84,93,177,35,,,,100,,
153,129,2017/06,中級２B,1607030,沈 怡静,中国,女,54,120,174,35,,,,,,
154,129,2017/06,中級１C,1604084,付　建銘,中国,男,50,122,172,35,,,,,,
155,129,2017/06,初中級C,1604172,蘭　慧良,中国,女,56,116,172,0,,,,127,,
156,129,2017/06,大学２美,1604133,計　舒旻,中国,女,60,111,171,35,,,,,,
157,129,2017/06,初級２C,1610007,姜　巍,中国,男,74,94,168,30,,,,,,
158,129,2017/06,初級２D,1610034,王　智麟,中国,男,68,100,168,25,,,,,,
159,129,2017/06,大学２美,1604093,趙　澤坤,中国,男,83,83,166,35,,,,,,
160,129,2017/06,初中級C,1607051,魯　玲言,中国,女,78,86,164,10,,,,,,
161,129,2017/06,大学２B,1604068,惠 如雪,中国,女,74,84,158,30,,,,,,
162,129,2017/06,大学院２B,1604074,劉　宇,中国,女,82,73,155,35,,,,,,
163,129,2017/06,大学２B,1607060,蒋　英豪,中国,男,60,95,155,35,41,32,,,,105
164,129,2017/06,中級１C,1604169,張　夢彤,中国,女,84,71,155,20,,,,,,
165,129,2017/06,初級２B,1607107,MEGHA　NATH  POKHAREL,ネパール,男,78,77,155,10,,,,,,
166,129,2017/06,中上級１A,1604148,洪   威,中国,男,74,80,154,35,,,,,,
167,129,2017/06,初中級C,1607100,PHAM QUOC TOAN,ベトナム,男,66,88,154,0,,,,59,83,
168,129,2017/06,大学２B,1610048,VU THANH HUYEN,ベトナム,女,82,71,153,35,,,,,,
169,129,2017/06,中級１B,1610002,郭　東勛,中国,男,64,89,153,30,,,,,,
170,129,2017/06,中級１C,1604012,陳　立志,中国,男,58,95,153,35,,,,,,
171,129,2017/06,大学２B,1607029,郭  栩材,中国,男,70,81,151,30,40,,36,,78,
172,129,2017/06,中級２A,1607106,PRAJWOL SHRESTHA,ネパール,男,76,70,146,30,,,,,,
173,129,2017/06,中級１C,1607115,DAL　BAHADUR　MAJHI,ネパール,男,61,85,146,20,,,,,,
174,129,2017/06,初級２C,1610017,曲　世正,中国,男,64,76,140,25,,,,,,
175,129,2017/06,初級２E,1607108,RAMESH PRASAD SILWAL,ネパール,男,67,71,138,0,,,,69,78,
176,129,2017/06,初級２A,1607109,SUDAN　RAI,ネパール,男,71,63,134,10,,,,,,
177,129,2017/06,大学２B,1604259,SINGH SAUD SURESH ,ネパール,男,64,67,131,30,,,,69,54,
178,129,2017/06,初中級D,1607085,王　哲,中国,女,56,72,128,30,,,,34,,
179,129,2017/06,中級１B,1610053,CHANAPAT SOONTOMGUMJOHNPANICH,タイ,男,52,64,116,0,,,,,,
,129,2017/06,中級２A,1604008,丁 子桐,中国,女,忘れていた,忘れていた,,忘れていた,,,,,,
,129,2017/06,中級２B,1604140,杜　藝嘉,中国,女,行きたくなかった,行きたくなかった,,行きたくなかった,,,,,,
,129,2017/06,中級２B,1604201,呉　抒陽,中国,男,寝坊,寝坊,,寝坊,,,,,,
,129,2017/06,中級１C,1604105,邱 佳成,中国,男,寝坊,寝坊,,寝坊,,,,,,
,129,2017/06,中級１C,1604252,SHRESTHA MANISH LAL,中国,男,寝坊,寝坊,,寝坊,,,,,,
,129,2017/06,初中級A,1610015,馮　習文,中国,女,欠席,欠席,,欠席,,,,,,
,129,2017/06,初中級C,1607073,呉　塵,中国,男,大学は受けない,大学は受けない,,大学は受けない,,,,,,
