﻿,131,2017/11,大学３A,1704105,敬 芸丹,中国,女,175,196,371,45,,,,158,156,
,131,2017/11,大学院３A,1610039,郭 寧海,中国,男,175,195,370,50,,,,,,
,131,2017/11,大学３A,1604142,邹  涛,中国,男,166,196,362,45,74,67,,,,200
,131,2017/11,大学３A,1607075,郭 昊天,中国,男,164,196,360,35,,,,,,
,131,2017/11,大学３A,1604082,張 思楊,中国,女,164,186,350,40,,,,154,133,
,131,2017/11,大学３A,1604134,宋 承達,中国,男,154,194,348,40,,,,179,175,
,131,2017/11,大学３A,1607066,陳 浩麟,中国,男,152,188,340,35,,,,130,129,
,131,2017/11,大学院３A,1604156,単 晶瑩,中国,女,150,189,339,45,,,,141,122,
,131,2017/11,大学３A,1604001,汪 明琛,中国,女,156,176,332,35,,,,163,123,
,131,2017/11,大学３A,1607067,鞠 印軒,中国,女,142,185,327,45,,,,146,,
,131,2017/11,大学３A,1704059,施 宇迪,中国,男,157,170,327,45,,,,,,
,131,2017/11,大学院２A,1607089,張　文博,中国,男,130,184,314,45,,,,,,
,131,2017/11,中上級１A,1707084,簡 頌賢,中国,男,130,184,314,40,,,,,,
,131,2017/11,大学３A,1604153,李 佳安,中国,女,146,160,306,40,,,,138,113,
,131,2017/11,初中級D,1704004,顧　芸夢,中国,女,141,158,299,35,,,,,,
,131,2017/11,大学２A,1604233,関　宇,中国,男,130,168,298,45,67,54,,,,121
,131,2017/11,大学３A,1604240,余 嘉怡,中国,女,141,155,296,35,,,,,,
,131,2017/11,大学３A,1604104,楊 孫益,中国,男,124,170,294,45,,,,,,
,131,2017/11,初中級E ,1704112,金　翎,中国,女,118,176,294,40,,,,,,
,131,2017/11,大学３美,1704115,郭 軻天,中国,男,137,154,291,40,,,,,,
,131,2017/11,大学３A,1604220,龔 奇彪,中国,男,128,163,291,35,70,66,,,,140
,131,2017/11,中級１C,1610006,鄭　子渊,中国,男,120,169,289,35,,56,72,,,108
,131,2017/11,大学３A,1604051,温 振繁,中国,男,137,151,288,40,,,,111,150,
,131,2017/11,上級１Ａ,1710029,洪 成超,中国,男,129,157,286,35,,,,108,92,
,131,2017/11,中級２A,1704089,曹 彬宸,中国,男,115,163,278,40,,,,,,
,131,2017/11,大学３A,1607046,徐 菁一,中国,女,113,164,277,30,,,,82,128,
,131,2017/11,中級１D,1704074,宋   剣,中国,男,150,126,276,35,,,,,,
,131,2017/11,中級１B,1707059,劉 澤霏,中国,男,123,149,272,40,,,,,,
,131,2017/11,大学２B,1604034,叶 遠舟,中国,男,115,152,267,,,,,124,105,
,131,2017/11,初中級C,1707088,姚　穎菲,中国（香港）,女,137,130,267,30,,,,,,
,131,2017/11,中級２A,1704007,文　秋荻,中国,女,137,125,262,40,,,,,,
,131,2017/11,中級１B,1707060,瀋　玥,中国,女,110,149,259,40,,,,,,
,131,2017/11,初中級C,1704066,白　雨灵,中国,女,111,142,253,35,,,,125,126,
,131,2017/11,初級２C,1707073,魏  嘉,中国,男,125,126,251,20,,,,,,
,131,2017/11,初中級D,1704086,鄭　好,中国,女,123,128,251,40,,,,,,
,131,2017/11,大学２美,1604173,張 文馨,中国,女,87,162,249,10,,,,　,,
,131,2017/11,初中級A,1704060,張　明梓,中国,女,116,132,248,35,,,,,,
,131,2017/11,大学院２A,1607064,陳　嘉尚,中国,男,98,149,247,35,,,,,,
,131,2017/11,初中級C,1707026,劉　釋伽,中国,男,127,119,246,30,,,,,,
,131,2017/11,中級１B,1707087,黄　雯雯,中国,女,108,137,245,40,,,,,,
,131,2017/11,大学２美,1604075,郭 芳竹,中国,女,71,173,244,35,,,,,,
,131,2017/11,大学２B,1607094,李　想,中国,男,101,140,241,30,,,,76,87,
,131,2017/11,上級１Ａ,1604108,謝 文婷,中国,女,100,141,241,35,,,,149,,
,131,2017/11,大学３美,1704091,干  甜,中国,女,101,139,240,40,,,,,,
,131,2017/11,初中級B,1607036,張　雪睿,中国,女,91,146,237,30,,,,,,
,131,2017/11,大学２美,1604101,于  晨,中国,男,116,120,236,30,,,,102,,
,131,2017/11,中級１B,1704088,李 春陽,中国,男,109,125,234,35,52,53,,,,118
,131,2017/11,大学２B,1604190,姜  超,中国,男,103,128,231,30,,,,118,111,
,131,2017/11,初中級E ,1704010,呉　悠,中国,女,89,142,231,30,,,,,,
,131,2017/11,大学２美,1607008,楊 力為,中国,女,99,130,229,30,,,,75,,
,131,2017/11,大学２B,1607060,蒋 英豪,中国,男,91,135,226,35,60,47,,,,108
,131,2017/11,大学２美,1604077,李　天聡,中国,男,93,132,225,35,,,,　,,
,131,2017/11,初中級D,1704011,周　佳蓉,中国,女,99,124,223,35,,,,,,
,131,2017/11,中級１B,1704038,黎 潤絲,中国,女,117,103,220,35,,,,,,
,131,2017/11,中上級１B,1604232,任 佳敏,中国,女,74,141,215,30,,,,,,
,131,2017/11,初中級B,1604128,劉　夢奕,中国,女,96,118,214,0,,,,,,
,131,2017/11,初級２C,1707025,宮 文秀,中国,女,75,137,212,0,,,,,,
,131,2017/11,中級１A,1707002,周 亜英,中国,女,81,128,209,30,,,,,,
,131,2017/11,中級１A,1707030,胡　晋睿,中国,男,98,107,205,30,,,,,,
,131,2017/11,大学３A,1604002,郝  琳,中国,女,81,123,204,30,,,,108,119,
,131,2017/11,初級２C,1707056,張　鵬,中国,男,94,110,204,25,,,,,,
,131,2017/11,初級２B,1707081,侯　乙童,中国,女,85,118,203,25,,,,,,
,131,2017/11,大学２A,1604217,林　延棟,中国,男,83,119,202,25,44,,32,,,109
,131,2017/11,中級２A,1604246,PHAM THE VINH,ベトナム,男,74,127,201,25,,,,,,
,131,2017/11,初中級C,1704037,鄧　平成,中国,男,93,107,200,20,,,,,,
,131,2017/11,初中級D,1707023,賈　雯倩,中国,女,87,107,194,20,,,,,,
,131,2017/11,初級２A,1707051,賈　丁,中国,女,86,108,194,35,,,,,,
,131,2017/11,中級１B,1707042,呂 佳妮,中国,女,73,119,192,30,,,,,,
,131,2017/11,初級１B,1704030,劉 星雨,中国,女,67,123,190,25,,,,,,
,131,2017/11,初級２D,1707067,鄧 壁炎,中国,男,89,100,189,25,,,,,,
,131,2017/11,中級１C,1604169,張　夢彤,中国,女,76,113,189,10,,,,,,
,131,2017/11,初中級B,1610034,王　智麟,中国,男,96,91,187,30,,,,,,
,131,2017/11,中級２A,1604105,邱 佳成,中国,男,83,104,187,25,,,,,,
,131,2017/11,初中級C,1707029,唐　竹,中国,女,71,116,187,30,,,,,,
,131,2017/11,大学２美,1604048,王  翕,中国,男,82,103,185,30,,,,　,,
,131,2017/11,中級２A,1607023,楊　禛,中国,男,74,111,185,20,,,,,,
,131,2017/11,大学２B,1604084,付 建銘,中国,男,91,94,185,35,,,,,,
,131,2017/11,初中級E ,1707082,秦　国棟,中国,男,72,112,184,30,,,,,,
,131,2017/11,初中級D,1704018,田　金農,中国,男,97,86,183,20,,,,,,
,131,2017/11,中級1D,1704057,王　漪文,中国, 女,88,95,183,30,,,,,,
,131,2017/11,大学２美,1604143,鄭　然,中国,男,88,93,181,30,,,,　,,
,131,2017/11,初級２A,1707074,尤　佳,中国,女,68,112,180,35,,,,,,
,131,2017/11,中級1C,1604194,張　楚奇,中国 ,男,86,94,180,30,,,,,,
,131,2017/11,初中級D,1604052,汪　順意,中国,男,87,91,178,30,,,,56,,83
,131,2017/11,初中級D,1604168,張　添雅,中国,女,92,86,178,25,,,,,,
,131,2017/11,初級２C,1707027,鄧 迪元,中国,女,64,107,171,20,,,,,,
,131,2017/11,初中級C,1707014,温　紫萱,中国,女,92,77,169,0,,,,79,99,
,131,2017/11,初中級D,1704019,趙　子未,中国,男,71,96,167,30,,,,,,
,131,2017/11,大学２美,1604141,黄  佳怡,中国,女,69,97,166,25,,,,　,,
,131,2017/11,初級２D,1707076,秦 一明,中国,女,91,73,164,25,,,,,,
,131,2017/11,初級２D,1707079,郭 文琦,中国,男,76,87,163,35,,,,,,
,131,2017/11,初級２E,1704005,唐 可萱,中国,女,77,86,163,30,,,,57,,
,131,2017/11,初級１C,1707085,盧　億,中国,男,57,102,159,20,51,49,,,,86
,131,2017/11,初中級A,1707096,張　宏祥,中国(台湾),男,77,82,159,30,,,,,,
,131,2017/11,初級２E,1707071,傅 振寧,中国,女,84,74,158,35,,,,,,
,131,2017/11,中級１A,1604242,LE GIA CHIEN,ベトナム,男,65,90,155,0,,,,,,
,131,2017/11,初級２C,1707011,曾 宪耀　,中国,男,50,102,152,25,,,,,,
,131,2017/11,中級1C,1607073,呉　塵,中国,男,65,86,151,30,,,,,,
,131,2017/11,初級２C,1707043,侯 佳佳,中国,女,65,83,148,25,,,,,,
,131,2017/11,初級２D,1704110,郭 亮廷,中国,男,72,74,146,25,,,,,,
,131,2017/11,初級２D,1704080,郭 亜博,中国,男,67,78,145,25,,,,,,
,131,2017/11,初級２D,1707086,鄭 欣瑩,中国,女,86,56,142,30,,,,,,
,131,2017/11,初級２E,1707049,劉 褘晨,中国,女,55,83,138,0,,,,,,
,131,2017/11,中級1C,1607101,NGUYEN THI THU HANG,ベトナム,女,74,63,137,0,,,,,,
,131,2017/11,大学２A,1604204,栄　雨婷,中国,女,,,0,,,,,,,
,131,2017/11,大学２B,1604038,牟  娟,中国,女,,,0,,,,,,,
,131,2017/11,大学２A,1604100,宮　静,中国,女,,,0,,,,,,,
,131,2017/11,大学２B,1604066,曾 思韵,中国,女,,,0,,,,,,,
,131,2017/11,大学２A,1604222,呉　晨曦,中国,女,,,0,,,,,,,
,131,2017/11,大学２A,1604072,邢　哲瑋,中国,男,,,0,,,,,,,
,131,2017/11,大学２B,1607024,郭 宣蓉,中国,女,,,0,,,,,,,
,131,2017/11,大学２B,1604028,来 守慧,中国,女,,,0,,,,,,,
,131,2017/11,大学２B,1604110,王 心怡,中国,女,,,0,,,,,,,
,131,2017/11,中級１A,1707030,胡 晋睿,中国,男,,,0,,,,,,,
,131,2017/11,中級２A,1607023,楊　禛,中国,男,,,0,,,,,,,
,131,2017/11,大学２B,1604068,惠 如雪,中国,女,,,0,,,,,,,
,131,2017/11,大学３A,1604210,饒　琳,中国,女,,,,,,,,,,
,131,2017/11,大学３A,1607022,孫 浩然,中国,男,,,,,,,,,,
,131,2017/11,大学院２A,1607025,陳　孟影,中国,女,風邪,風邪,,風邪,,,,,,
,131,2017/11,大学２美,1610024,羅　杰銘,中国,男,電車間違え,＆迷子,,電＆迷,,,,　,,
,131,2017/11,大学２B,1607058,王 艺淞,中国,男,欠席,欠席,,欠席,,,,,,
,131,2017/11,大学２美,1604136,胡  家馨,中国,男,電車間違え,＆迷子,,電＆迷,,,,　,,
,131,2017/11,大学２B,1607057,霍　晟,中国,男,寝坊,寝坊,,寝坊,,,,,,
,131,2017/11,大学２美,1604181,王  啸,中国,男,腰痛,腰痛,,腰痛,,,,,,
,131,2017/11,大学２美,1607056,程　序,中国,男,N2合格で,不要と判断,,N2＆不要,,,,,,
,131,2017/11,大学２美,1607072,陳　劭言,中国,女,発熱,発熱,,発熱,,,,　,,
