﻿1,127,2016-12,Ｎ2,中上級１A,1510013,周 昊顺,シュウ コウジュン,中国,男,38,54,60,152,○
2,127,2016-12,Ｎ2,EJU,1607091,劉 一凡,リュウ　イチハン,中国,男,40,60,45,145,○
3,127,2016-12,Ｎ2,中上級１A,1604159,史 甄珺,シ　ケンクン,中国,女,49,47,46,142,○
4,127,2016-12,Ｎ2,中級１F,1607068,邵 奇星,ショウ　キセイ,中国,男,37,50,54,141,○
5,127,2016-12,Ｎ2,中級１C,1604049,周 燁琼,シュウ　　ヨウキョウ,中国,女,53,38,46,137,○
6,127,2016-12,Ｎ2,初中級D,1607065,叶  奔,ヨウ　ホン,中国,男,39,48,37,124,○
7,127,2016-12,Ｎ2,中級１E,1607044,王 潤澤,オウ　ジュンタク　　,中国,男,35,40,46,121,○
8,127,2016-12,Ｎ2,中級２C,1607026,万  麗,マン　レイ,中国,女,35,38,46,119,○
9,127,2016-12,Ｎ2,中級２C,1510041,林  晶,リン　ショウ,中国,女,42,50,27,119,○
10,127,2016-12,Ｎ2,初中級G,1607052,曹 奕涵,ソウ　エキカン,中国,女,33,34,51,118,○
11,127,2016-12,Ｎ2,初中級C,1607022,孫 浩然,ソン　コウゼン,中国,男,33,27,57,117,○
12,127,2016-12,Ｎ2,中級１D,1607076,趙 雅睿,チョウ　ガエイ,中国,女,46,27,44,117,○
13,127,2016-12,Ｎ2,退学,1604211,曲 思頴,キョク　シエイ,中国,女,38,41,37,116,○
14,127,2016-12,Ｎ2,EJU,1604096,張 鑫路,チョウ　キンロ,中国,男,44,36,36,116,○
15,127,2016-12,Ｎ2,中上級１A,1507072,周 欢欢,シュウ　カンカン,中国,女,35,39,42,116,○
16,127,2016-12,Ｎ2,初中級A,1604071,闫  可,エン　カ,中国,女,35,39,41,115,○
17,127,2016-12,Ｎ2,中上級２A,1504099,魏  萍,ギ　ヘイ,中国,女,35,36,44,115,○
18,127,2016-12,Ｎ2,大学院,1604097,劉 藝丹,リュウ　ゲイタン,中国,女,33,38,41,112,○
19,127,2016-12,Ｎ2,初中級B,1604152,殷 弘睿,イン　コウエイ,中国,男,28,39,43,110,○
20,127,2016-12,Ｎ2,初中級C,1607028 ,李  鍇,リ　カイ,中国,男,23,35,52,110,○
21,127,2016-12,Ｎ2,大学院,1607038 ,李 雨霏,リ　ウヒ,中国,女,33,44,32,109,○
22,127,2016-12,Ｎ2,中級１A,1604035,任 春燕,ニン　シュンエン,中国,女,25,37,45,107,○
23,127,2016-12,Ｎ2,初中級A,1604103,趙  瑩,チョウ　エイ,中国,女,33,35,38,106,○
24,127,2016-12,Ｎ2,EJU,1607054,劉  廷,リュウ　テイ,中国,男,35,37,33,105,○
25,127,2016-12,Ｎ2,初級２A,1610012 ,楊 金子,ヨウ　キンシ,中国,女,32,40,31,103,○
26,127,2016-12,Ｎ2,大学A,1504001,姜 孜恒,キョウ　シコウ,中国,男,31,30,42,103,○
27,127,2016-12,Ｎ2,中級１B,1604003,孟 思奇,モウ　シキ,中国,女,28,36,39,103,○
28,127,2016-12,Ｎ2,初中級C,1607041 ,裴 知秋,ハイ　チシュウ,中国,女,26,44,31,101,○
29,127,2016-12,Ｎ2,中級２B,1607046,徐 菁一,ジョ　セイイチ,中国,女,42,28,31,101,○
30,127,2016-12,Ｎ2,初中級G,1604231,李  曲,リ　キョク,中国,男,31,38,31,100,○
31,127,2016-12,Ｎ2,退学,1507060,张 欽昊,チョウ　キンコウ,中国,男,36,28,36,100,○
32,127,2016-12,Ｎ2,中級１A,1604171,王 嘉懿,オウ　カイ,中国,男,32,30,38,100,○
33,127,2016-12,Ｎ2,初中級B,1607119,李 季修,リ　キシュウ,中国,男,37,26,36,99,○
34,127,2016-12,Ｎ2,中級１B,1604017 ,盧 舒虹,ロ　ジョコウ,中国,女,28,37,34,99,○
35,127,2016-12,Ｎ2,中上級１A,1510016,刘  易,リュウ　エキ,中国,女,29,32,38,99,○
36,127,2016-12,Ｎ2,初中級D,1607010,陳 启夢,チン　ケイム,中国,女,35,37,26,98,○
37,127,2016-12,Ｎ2,大学B,1510001,钟 承恩,ショウ　ショウウン,中国,男,33,26,39,98,○
38,127,2016-12,Ｎ2,美大,1507029,咸 格格,カン　カクカク,中国,女,34,27,36,97,○
39,127,2016-12,Ｎ2,中級２B,1604123,王 佳薇,オウ　カビ,中国,女,29,37,30,96,○
40,127,2016-12,Ｎ2,初中級G,1607001,沈 欣栄,チン　キンエイ,中国,男,25,41,29,95,○
41,127,2016-12,Ｎ2,退学,1501030,王  博,オオ　ハク,中国,女,34,29,32,95,○
42,127,2016-12,Ｎ2,大学B,1504006,宋  曼,ソウ　マン,中国,男,37,28,30,95,○
43,127,2016-12,Ｎ2,中級１F,1604149,龐  楠,ホウ　ナン,中国,男,27,28,40,95,○
44,127,2016-12,Ｎ2,中級１B,1604010,鄭 瑞江,テイ　ズイコウ,中国,男,29,40,25,94,○
45,127,2016-12,Ｎ2,中級１C,1604044,杜 超杰,ト　チョウケツ,中国,男,26,27,41,94,○
46,127,2016-12,Ｎ2,初中級D,1607040,王  楠,オウ　ナン,中国,女,24,37,32,93,○
47,127,2016-12,Ｎ2,進学準備,1510017 ,李  骞,リ　ケン,中国,男,27,30,36,93,○
48,127,2016-12,Ｎ2,中級１B,1604146,李 章沖,リ　ショウチュウ,中国,女,28,31,34,93,○
49,127,2016-12,Ｎ2,中級１B,1604183,呉 亭薇,ゴ　テイビ,中国,女,30,33,30,93,○
50,127,2016-12,Ｎ2,初中級D,1607019,程 嘉琳,テイ　カリン,中国,女,21,38,33,92,○
51,127,2016-12,Ｎ2,中級１F,1607047,余 明非,ヨ　メイヒ,中国,男,31,26,35,92,○
52,127,2016-12,Ｎ2,中級１A,1604162,盧 俊杰,ロ　シュンケツ,中国,男,26,19,46,91,○
53,127,2016-12,Ｎ2,中級１C,1604127,張 之旭,チョウ　　シキョク,中国,女,23,39,29,91,○
54,127,2016-12,Ｎ2,中上級１A,1504030,斉 秋娜,サイ　シュウナ,中国,女,25,26,40,91,○
55,127,2016-12,Ｎ2,中上級２A,1507042,曹  洁,ソウ　ケツ,中国,女,32,24,35,91,○
56,127,2016-12,Ｎ2,初中級A,1604109 ,馬 焱釗,バ　エンショウ,中国,男,31,25,34,90,○
57,127,2016-12,Ｎ2,中級１E,1604074,劉  宇,リュウ　ウ,中国,女,18,36,36,90,×
58,127,2016-12,Ｎ2,中級１F,1607045,苗 欣阳,ビョウ　キンヨウ,中国,男,23,36,31,90,○
59,127,2016-12,Ｎ2,中級１F,1604205,兪 一昶,ユ　イッチョウ,中国,男,25,24,41,90,○
60,127,2016-12,Ｎ2,初中級F,1604048,王  翕,オウ　キョウ,中国,男,20,26,43,89,×
61,127,2016-12,Ｎ2,初中級G,1604145,張 加儀,チョウ　　カギ,中国,女,25,29,35,89,×
62,127,2016-12,Ｎ2,中級１D,1604233,関  宇,カン　ウ,中国,男,23,31,35,89,×
63,127,2016-12,Ｎ2,中級１D,1604180,馬 嬌嬌,バ　キョウキョウ,中国,女,31,29,29,89,×
64,127,2016-12,Ｎ2,中級１D,1607081,張 子人,チョウ　シジン,中国,男,35,25,29,89,×
65,127,2016-12,Ｎ2,美大,1510025,朱 佳闻,シュ　カブン,中国,女,32,22,35,89,×
66,127,2016-12,Ｎ2,初中級C,1607084,張  政,チョウ　セイ,中国,男,26,23,39,88,×
67,127,2016-12,Ｎ2,初中級F,1607087,楊 丞博 ,ヨウ　ショウハク,中国,男,27,22,39,88,×
68,127,2016-12,Ｎ2,中級１A,1604037,程 思雨,テイ　シウ,中国,女,25,25,38,88,×
69,127,2016-12,Ｎ2,中級１B,1604237,王 紫茜,オウ　シセン,中国,女,23,22,43,88,×
70,127,2016-12,Ｎ2,中級１F,1507022,孙 煜坤,ソン　イクコン,中国,男,25,25,38,88,×
71,127,2016-12,Ｎ2,中級２B,1604005,沙 慧德,サ　ケイトク,中国,男,25,21,42,88,×
72,127,2016-12,Ｎ2,初中級A,1604100 ,宮  静,キュウ　セイ,中国,女,23,30,34,87,×
73,127,2016-12,Ｎ2,中上級１A,1604042,魯　崧,ロ　スウ,中国,男,32,29,26,87,×
74,127,2016-12,Ｎ2,中級１B,1604055,劉 明研,リュウ　メイケン,中国,男,23,33,30,86,×
75,127,2016-12,Ｎ2,中級１D,1604160,華　菁,カ　セイ,中国,女,25,20,41,86,×
76,127,2016-12,Ｎ2,初中級B,1607033,湯　桑,トウ　ソウ,中国,女,26,29,30,85,×
77,127,2016-12,Ｎ2,初中級D,1607027 ,張 銘芳,チョウ　メイホウ,中国,女,29,30,26,85,×
78,127,2016-12,Ｎ2,初中級G,1607025,陳 孟影,チン　モウエイ,中国,女,25,28,32,85,×
79,127,2016-12,Ｎ2,初中級G,1607092,周 一倩,シュウ　イッセイ,中国,女,25,33,27,85,×
80,127,2016-12,Ｎ2,中級１E,1604111,劉  丹,リュウ　タン,中国,女,24,23,37,84,×
81,127,2016-12,Ｎ2,中級１E,1604045,呉 思哲,ゴ　シテツ,中国,男,22,32,30,84,×
82,127,2016-12,Ｎ2,進学準備,1501002,宋  超,ソウ　チョウ,中国,女,31,26,26,83,×
83,127,2016-12,Ｎ2,中級１A,1604102,盧 智淼,ロ　シュンケツ,中国,女,27,20,36,83,×
84,127,2016-12,Ｎ2,中級１B,1604131,巩  妤,キョウ　ヨ,中国,女,25,26,32,83,×
85,127,2016-12,Ｎ2,中級２A,1604175,郝 思佳,カク　シカ,中国,女,23,34,25,82,×
86,127,2016-12,Ｎ2,初中級F,1607079,胡 佩瑶,コ　ハイヨウ,中国,女,23,25,33,81,×
87,127,2016-12,Ｎ2,大学B,1504083,孫 愷澤,ソン　カイタク,中国,男,33,21,27,81,×
88,127,2016-12,Ｎ2,中級１A,1604227,賀 雪豊,ガ　セツホウ,中国,男,22,30,29,81,×
89,127,2016-12,Ｎ2,中上級２A,1504036,史 云鵬,シ　ウンホウ,中国,男,29,21,31,81,×
90,127,2016-12,Ｎ2,上級１A,1504072,李  朝,リ　チョウ,中国,男,34,27,19,80,×
91,127,2016-12,Ｎ2,中級１A,1604224,呉 文蔚,ゴ　ブンイ,中国,男,23,29,28,80,×
92,127,2016-12,Ｎ2,中級１F,1604050 ,胡 華楠,コ　カナン,中国,女,28,25,27,80,×
93,127,2016-12,Ｎ2,中上級２A,1604163,賈 翼博,カ　ヨクハク,中国,男,35,26,19,80,×
94,127,2016-12,Ｎ2,美大,1507064,徐 一梦,ジョ　イチム,中国,女,28,21,31,80,×
95,127,2016-12,Ｎ2,EJU,1604072 ,邢 哲瑋,ケイ　テツイ,中国,男,27,21,31,79,×
96,127,2016-12,Ｎ2,初中級B,1607015,胡 源青,コ　ゲンセイ,中国,女,23,23,33,79,×
97,127,2016-12,Ｎ2,初中級E,1607017 ,呉 聆雪,ゴ　リョウセツ,中国,女,21,34,24,79,×
98,127,2016-12,Ｎ2,初中級F,1607055 ,張 清越,チョウ　セイエツ,中国,女,24,34,20,78,×
99,127,2016-12,Ｎ2,初中級G,1604178,馬 雨欣,バ　ウキン,中国,女,23,20,35,78,×
100,127,2016-12,Ｎ2,初級２A,1610041 ,王 怡静,オウ　イセイ,中国,女,21,32,24,77,×
101,127,2016-12,Ｎ2,中級１B,1604080,陸 欣于杭,リク　キンウコウ,中国,女,26,28,23,77,×
102,127,2016-12,Ｎ2,中級２A,1604079,金 永山,キン　エイサン,中国,男,25,14,38,77,×
103,127,2016-12,Ｎ2,初中級E,1607078,程  厳,テイ　ゲン,中国,男,26,18,32,76,×
104,127,2016-12,Ｎ2,初中級E,1607053,周 安然,シュウ　アンゼン,中国,女,15,31,30,76,×
105,127,2016-12,Ｎ2,進学準備,1504012,王 宏宇,オウ　コウウ,中国,男,28,18,30,76,×
106,127,2016-12,Ｎ2,大学B,1507050,徐 造辰,ジョ　ゾウシン,中国,男,27,20,29,76,×
107,127,2016-12,Ｎ2,中上級１A,1510012,严 梓彤,ゲン　シトウ,中国,女,21,28,27,76,×
108,127,2016-12,Ｎ2,初中級B,1604232,任 佳敏,ニン　カビン,中国,女,26,25,24,75,×
109,127,2016-12,Ｎ2,中級１C,1604115,李  航,リ　コウ,中国,女,24,26,25,75,×
110,127,2016-12,Ｎ2,中級１C,1604235,周 竹曳,シュウ　チクエイ,中国,女,22,24,29,75,×
111,127,2016-12,Ｎ2,中級２A,1604041,蘇  茵,ソ　イン,中国,女,26,29,20,75,×
112,127,2016-12,Ｎ2,大学A,1504002 ,張 金雷,チョウ　キンライ,中国,男,27,19,28,74,×
113,127,2016-12,Ｎ2,中級１D,1604191,王 金晶,オウ　キンショウ,中国,女,21,24,28,73,×
114,127,2016-12,Ｎ2,中級２A,1607042,馬 一督,バ　イットク,中国,男,26,20,27,73,×
115,127,2016-12,Ｎ2,初中級A,1604056,李 晶晶,リ　ショウショウ,中国,女,18,27,27,72,×
116,127,2016-12,Ｎ2,上級１A,1507056 ,梁 浩瑶,リョウ　コウヨウ,中国,女,25,28,19,72,×
117,127,2016-12,Ｎ2,進学準備,1507019,张  咪,チョウ　ベイ,中国,女,25,27,20,72,×
118,127,2016-12,Ｎ2,大学B,1504011,于 寿康,ウ　ジュコウ,中国,男,27,23,22,72,×
119,127,2016-12,Ｎ2,中級１B,1604225,周 雅妮,シュウ　ガジ,中国,女,30,12,30,72,×
120,127,2016-12,Ｎ2,中級１E,1604126,馬 浩喧,バ　コウセン,中国,男,28,17,26,71,×
121,127,2016-12,Ｎ2,初中級C,1604073,李 嘉輝,リ　カキ,中国,男,24,17,29,70,×
122,127,2016-12,Ｎ2,初中級F,1604069,史 錦華,シ　キンカ,中国,男,20,18,32,70,×
123,127,2016-12,Ｎ2,中級１B,1604093,趙 澤坤,チョウ　タクコン,中国,男,25,25,20,70,×
124,127,2016-12,Ｎ2,初中級E,1604028,来 守慧,ライ　シュケイ,中国,女,24,17,28,69,×
125,127,2016-12,Ｎ2,初中級A,1604094,付 昱偉,フ　イクイ,中国,男,17,18,33,68,×
126,127,2016-12,Ｎ2,中級１C,1604036,呉  桐,ゴ　トウ,中国,女,19,24,25,68,×
127,127,2016-12,Ｎ2,初級２D,1607036,張 雪睿,チョウ　セツエイ,中国,女,22,21,24,67,×
128,127,2016-12,Ｎ2,退学,1510005 ,马 云龙,バ　ウンリュウ,中国,男,23,13,31,67,×
129,127,2016-12,Ｎ2,中級１A,1604234 ,陳 佳元,チン　カゲン,中国,女,18,23,26,67,×
130,127,2016-12,Ｎ2,中上級１A,1504069,于 冬梅,ウ　トウバイ,中国,女,17,18,32,67,×
131,127,2016-12,Ｎ2,中級１A,1604087,丛  琳,ソウ　リン,中国,女,22,14,30,66,×
132,127,2016-12,Ｎ2,中級２A,1510028,吴 子豪,ゴ　シゴウ,中国,男,20,20,26,66,×
133,127,2016-12,Ｎ2,EJU,1604070,叶 竞航,ヨウ　キョウコウ,中国,男,18,22,24,64,×
134,127,2016-12,Ｎ2,初中級E,1607093,呂 金釗,ロ　キンショウ,中国,男,15,23,26,64,×
135,127,2016-12,Ｎ2,初中級G,1607031,麻 越琳,マ　エツリン,中国,女,21,26,17,64,×
136,127,2016-12,Ｎ2,中級１D,1604193,曹  政,ソウ　セイ,中国,男,17,16,31,64,×
137,127,2016-12,Ｎ2,中級１E,1604208,曹　達,ソウ　タツ,中国,男,26,13,25,64,×
138,127,2016-12,Ｎ2,初中級A,1604117 ,馬 鵬飛,バ　ホウヒ,中国,男,24,11,28,63,×
139,127,2016-12,Ｎ2,初級２C,1604039,鄭 凱元,テイ　ガイゲン,中国,男,19,15,28,62,×
140,127,2016-12,Ｎ2,初中級C,1607056,程  序,テイ　ジョ,中国,男,17,19,24,60,×
141,127,2016-12,Ｎ2,中上級１A,1504085,官 玉茜,カン　ギョクセン,中国,女,20,13,27,60,×
142,127,2016-12,Ｎ2,初中級G,1604063,李  婷,リ　テイ,中国,女,26,13,20,59,×
143,127,2016-12,Ｎ2,中級１E,1604148,洪  威,コウ　イ,中国,男,20,17,22,59,×
144,127,2016-12,Ｎ2,中級１C,1510054 ,汪 星宇,オウ　セイウ,中国,男,19,15,24,58,×
145,127,2016-12,Ｎ2,初級２C,1607020,李 海菡,リ　カイカン,中国,女,20,17,20,57,×
146,127,2016-12,Ｎ2,初中級C,1607088,徐 天蝉,ジョ　テンセン,中国,女,14,12,31,57,×
147,127,2016-12,Ｎ2,進学準備,1507005,李  正,リ　セイ,中国,男,27,13,17,57,×
148,127,2016-12,Ｎ2,初中級D,1604190,姜  超,キョウ　チョウ,中国,男,22,23,11,56,×
149,127,2016-12,Ｎ2,初中級E,1604106,衛 藝雯,エイ　ゲイブン,中国,女,19,18,19,56,×
150,127,2016-12,Ｎ2,中級１C,1604107,宣 迎雁,セン　ゲイガン,中国,女,19,15,22,56,×
151,127,2016-12,Ｎ2,中級１E,1604176,邵 卿云,ショウ　キョウウン,中国,女,21,11,24,56,×
152,127,2016-12,Ｎ2,中級１F,1604006,劉 徳才,リュウ　トクサイ,中国,男,23,14,19,56,×
153,127,2016-12,Ｎ2,中級１F,1604110,王 心怡,オウ　シンイ,中国,女,20,12,22,54,×
154,127,2016-12,Ｎ2,中級１C,1604040 ,謝 明星,シャ　メイセイ,中国,男,19,15,19,53,×
155,127,2016-12,Ｎ2,大学B,1504066,馮 宇涛,ヒョウ　ウトウ,中国,男,19,16,9,44,×
156,127,2016-12,Ｎ2,中級１B,1604033,趙 柄宇,チョウ　ヘイウ,中国,男,11,9,23,43,×
157,127,2016-12,Ｎ2,中級２C,1507065,韩 思雨,カン　シユウ,中国,男,24,0,14,38,×
158,127,2016-12,Ｎ2,初中級F,1607014 ,景  燁,ケイ　ヨウ,中国,女,14,12,10,36,×
159,127,2016-12,Ｎ2,初級１A,1604144,呉  潔,ゴ　ケツ,中国,女,欠席,欠席,欠席,0,×
160,127,2016-12,Ｎ2,初級２C,1604018 ,孫  楊,ソン　ヨウ,中国,女,欠席,欠席,欠席,0,×
161,127,2016-12,Ｎ2,初級２C,1607051 ,魯 玲言,ロ　レイゲン,中国,女,欠席,欠席,欠席,0,×
162,127,2016-12,Ｎ2,初中級C,1604067,高  延,コウ　エン,中国,女,欠席,欠席,欠席,0,×
163,127,2016-12,Ｎ2,初中級C,1504061,趙 凱華,チョウ　ガイカ,中国,男,欠席,欠席,欠席,0,×
164,127,2016-12,Ｎ2,初中級E,1607008,楊 力為,ヨウ　リキイ,中国,女,欠席,欠席,欠席,0,×
165,127,2016-12,Ｎ2,初中級E,1507061 ,卓  埜,タク　ヤ,中国,男,欠席,欠席,欠席,0,×
166,127,2016-12,Ｎ2,初中級F,1607057,霍　晟,カク　セイ,中国,男,欠席,欠席,欠席,0,×
167,127,2016-12,Ｎ2,初中級F,1607032,呉　謙,ゴ　ケン,中国,男,欠席,欠席,欠席,0,×
168,127,2016-12,Ｎ2,初中級G,1607007,侯 舒瑜,コウ　ジョユ,中国,男,欠席,欠席,欠席,0,×
169,127,2016-12,Ｎ2,上級１A,1504054,相  偉,ソウ　イ,中国,男,欠席,欠席,欠席,0,×
170,127,2016-12,Ｎ2,上級１A,1504115,張  妍,チョウ　ケン,中国,女,欠席,欠席,欠席,0,×
171,127,2016-12,Ｎ2,進学準備,1501004,胡 玥旭,コ　ゲツキョク,中国,女,欠席,欠席,欠席,0,×
172,127,2016-12,Ｎ2,進学準備,1504080,黄 云娜,コウ　ウンナ,中国,女,欠席,欠席,欠席,0,×
173,127,2016-12,Ｎ2,退学,1510003,王 吉順,オオ　キチシュン,中国,男,欠席,欠席,欠席,0,×
174,127,2016-12,Ｎ2,退学,1507012,周 子荐,シュウ　　シセン,中国,男,欠席,欠席,欠席,0,×
175,127,2016-12,Ｎ2,中級１B,1604029,陳 昱宏,チン　イクコウ,中国,女,欠席,欠席,欠席,0,×
176,127,2016-12,Ｎ2,中級１C,1604119 ,董 航昀,トウ　コウイン,中国,男,欠席,欠席,欠席,0,×
177,127,2016-12,Ｎ2,中級１C,1604135,姚  涵,ヨウ　カン,中国,女,欠席,欠席,欠席,0,×
178,127,2016-12,Ｎ2,中級１E,1504117,李 俊昭,リ　シュンショウ,中国,男,欠席,欠席,欠席,0,×
179,127,2016-12,Ｎ2,中級１E,1604219,李 杳查,リ　ヨウサ,中国,女,欠席,欠席,欠席,0,×
180,127,2016-12,Ｎ2,中級２B,1604186,柴 嘉星,サイ　カセイ,中国,女,欠席,欠席,欠席,0,×
181,127,2016-12,Ｎ2,中級２B,1604154,張 澤棟,チョウ　タクトウ,中国,男,欠席,欠席,欠席,0,×
182,127,2016-12,Ｎ2,中級２C,1504075,何 声宾,カ　セイヒン,中国,男,欠席,欠席,欠席,0,×
183,127,2016-12,Ｎ2,中級２C,1504062,邱 煒倫,キュウ　イリン,中国,男,欠席,欠席,欠席,0,×
184,127,2016-12,Ｎ2,中級２C,1507046,曲  鑫,キョク　キン,中国,男,欠席,欠席,欠席,0,×
185,127,2016-12,Ｎ2,中級２C,1507088,THE HAY MAR AUNG,テー　ヘマ－ アウン,ミャンマー,女,欠席,欠席,欠席,0,×
