﻿C0576300,20250616,20160411,留学,20180728,20170711,00000000,00000000,,00000000,EG09237896EA,20160413,20180320,進学2年,中1A,00000000,00000000,　　　　　　,在籍,,埼玉県川口市飯塚1丁目19番11号中島マンション302号,,埼玉県川口市川口2-17-40シャトーレ山内３F303号,無,070-3832-9784,,,ベトナム語,東京工科自動車大学校品川校,,,,,,,,,,0,0
C1205400,20260115,20160616,留学,20180416,20170916,00000000,00000000,,00000000,EG16336811EA,20160707,20180320,進学1年9ヶ月,卒準備A,00000000,00000000,　　　　　　,在籍,,埼玉県川口市西川口2丁目16番14号福田第一マンション203号,,埼玉県川口市原町5番30号ユーハイム原町101号,無,090-2150-6866,,,ベトナム語,,,,,,,,,,,0,0
E68528124,20260228,20161004,留学,20180704,20180104,00000000,00000000,東学認320142,00000000,EG92592128EA,20161005,20180320,進学1年6ヶ月,中上2B,00000000,00000000,　　　　　　,在籍,,,,東京都新宿区大久保2丁目19番10号テラスハウス新大久保303,無,080-4151-0541,,中国語,文化服装学院,,,,,,,,学,,0,0
,00000000,20170429,留学,20180729,00000000,00000000,00000000,東学認320298,00000000,EG43769870GA,20170508,20190331,進学2年,初中D,00000000,00000000,　　　　　　,在籍,,,,埼玉県川口市西川口2丁目16番14号福田第一マンション203号,無,070-2791-3545,,ベトナム語,,,,,,,,,,,0,0
C2267206,20260905,20170429,留学,20180729,00000000,00000000,00000000,東学認320299,00000000,EG02905538GA,20170508,20190331,進学2年,初中D,00000000,00000000,　　　　　　,在籍,,,,埼玉県川口市飯塚1丁目19番11号中島マンション502号,無,070-4120-2766,,ベトナム語,,,,,,,,,,,0,0
C3272477,20270512,20170930,留学,20181231,00000000,00000000,00000000,東学認320314,00000000,EG49398204GA,20171006,20190331,進学1年6ヶ月,初1A,00000000,00000000,　　　　　　,在籍,,,,東京都北区志茂2丁目38番10号コーポアゼリア103号,無,070-4449-3917,,,,,,,,,,,,,0,0
1804148,0447,ＭＳ ゴシック,劉　彧,LIU YUNAN,リュウ,女,未婚,中国,19980626,張,ＭＳ ゴシック,黒龍江省哈爾浜市道外区北十道街26号,,EA6202945,20270706,00000000,留学,00000000,00000000,00000000,00000000,東学認320524,00000000,,00000000,00000000,進学2年,,00000000,00000000,　　　　　　,予入,,,,,03-3368-4931,無,,,中国語,,,,,,,,,,,0,0
1804148,0741,ＭＳ ゴシック,,,,,,中国,00000000,,ＭＳ ゴシック,,,,00000000,00000000,,00000000,00000000,00000000,00000000,,00000000,,00000000,00000000, ,,00000000,00000000,　　　　　　,予入,,,,,,,,,,,,,,,,,,,,0,0
1804149,0448,ＭＳ ゴシック,楊　欣悦,YANG XINYUE,ヨウ　シンエツ,女,未婚,中国,19950415,張,ＭＳ ゴシック,黒龍江省哈爾浜市南崗区長江路128号翔源閣2単元901室,,E22139722,20230707,00000000,留学,00000000,00000000,00000000,00000000,東学認320525,00000000,,00000000,00000000,進学2年,,00000000,00000000,　　　　　　,予入,,,,,03-3368-4931,無,,,中国語,,,,,,,,,,,0,0
1804149,0742,ＭＳ ゴシック,,,,,,中国,00000000,,ＭＳ ゴシック,,,,00000000,00000000,,00000000,00000000,00000000,00000000,,00000000,,00000000,00000000, ,,00000000,00000000,　　　　　　,予入,,,,,,,,,,,,,,,,,,,,0,0
