﻿出力月,クラス名,学籍番号,名前,フリガナ,アルファベット,授業時間（コマ数）,欠席した時間（コマ数）,遅刻/早退の回数（コマ数）,出席した時間（コマ数）,欠席日数
2017/10,大学院3A,1604019,鄒子羽,スウシウ,ZOUZIYU,52,9,1,43,1
2017/10,大学院3A,1604031,周盼,シュウハン,ZHOUPAN,52,0,0,52,0
2017/10,大学院3A,1604047,徐蔚蕾,ジョイライ,XUWEILEI,52,12,6,38,2
2017/10,大学院3A,1604064,田伊然,デンイゼン,TIANYIRAN,52,18,1,34,4
2017/10,大学院3A,1604083,王丹,オウタン,WANGDAN,52,0,0,52,0
2017/10,大学院3A,1604114,高楠,コウナン,GAONAN,52,0,0,52,0
2017/10,大学院3A,1604137,楊子揚,ヨウシヨウ,YANGZIYANG,52,10,4,41,2
2017/10,大学院3A,1604156,単晶瑩,タンショウエイ,SHANJINGYING,52,0,1,52,0
2017/10,大学院3A,1604157,蒋松燊,ショウショウセン,JIANGSONGSHEN,52,8,2,44,2
2017/10,大学院3A,1607011,梁一誠,リョウイッセイ,LIANGYICHENG,52,4,2,48,1
2017/10,大学院3A,1607018,阮国振,ゲンコクシン,RUANGUOZHEN,52,12,1,40,3
2017/10,大学院3A,1607021,李施怡,リシイ,LISHIYI,52,20,0,32,5
2017/10,大学院3A,1607034,張晨雪,チョウシンセツ,ZHANGCHENXUE,52,0,1,52,0
2017/10,大学院3A,1607035,徐敏,ジョビン,XUMIN,52,9,5,42,1
2017/10,大学院3A,1607038,李雨霏,リウヒ,LIYUFEI,52,9,2,43,1
2017/10,大学院3A,1607050,莫凡,バクハン,MOFAN,52,10,3,41,1
2017/10,大学院3A,1607076,趙雅睿,チョウガエイ,ZHAOYARUI,52,8,1,44,2
2017/10,大学院3A,1607082,赵娅冰,チョウアヒョウ,ZHAOYABING,52,3,0,49,0
2017/10,大学院3A,1607096,鄒洋,スウヨウ,ZOUYANG,52,7,2,45,1
2017/10,大学院3A,1610023,陸山青,リクサンセイ,LUSHANQING,52,0,0,52,0
2017/10,大学院3A,1610039,郭寧海,カクネイカイ,GUONINGHAI,52,0,0,52,0
2017/10,大学院2A,1604010,鄭瑞江,テイズイコウ,ZHENGRUIJIANG,52,8,0,44,2
2017/10,大学院2A,1604017,盧舒虹,ロジョコウ,LUSHUHONG,52,8,0,44,2
2017/10,大学院2A,1604036,呉桐,ゴトウ,WUTONG,52,4,3,47,1
2017/10,大学院2A,1604037,程思雨,テイシウ,CHENGSIYU,52,0,0,52,0
2017/10,大学院2A,1604041,蘇茵,ソイン,SUYIN,52,8,2,44,2
2017/10,大学院2A,1604123,王佳薇,オウカビ,WANGJIAWEI,52,0,0,52,0
2017/10,大学院2A,1604131,巩妤,キョウヨ,GONGYU,52,4,0,48,1
2017/10,大学院2A,1604175,赫思佳,カクシカ,HAOSIJIA,52,1,0,51,0
2017/10,大学院2A,1604205,兪一昶,ユイッチョウ,YUYICHANG,52,9,0,43,2
2017/10,大学院2A,1607014,景燁,ケイヨウ,JINGYE,52,8,0,44,2
2017/10,大学院2A,1607019,程嘉琳,テイカリン,CHENGJIALIN,52,6,2,46,1
2017/10,大学院2A,1607025,陳孟影,チンモウエイ,CHENMENGYING,52,12,3,39,3
2017/10,大学院2A,1607048,劉洋,リュウヨウ,LIUYANG,52,0,0,52,0
2017/10,大学院2A,1607052,曹奕涵,ソウエキカン,CAOYIHAN,52,4,0,48,1
2017/10,大学院2A,1607064,陳嘉尚,チンカショウ,CHENJIASHANG,52,8,0,44,1
2017/10,大学院2A,1607089,張文博,チョウブンハク,ZHANGWENBO,52,8,1,44,2
2017/10,大学院2A,1607095,叶金磊,ヨウキンライ,YEJINLEI,52,12,2,40,3
2017/10,大学院2A,1610043,銭柏霖,センハクリン,QIANBAILIN,52,0,0,52,0
2017/10,大学院2B,1604020,羅涵杏,ラカンアン,LUOHANXING,52,12,1,40,3
2017/10,大学院2B,1604055,劉明研,リュウメイケン,LIUMINGYAN,52,0,0,52,0
2017/10,大学院2B,1604079,金永山,キンエイサン,JINYONGSHAN,52,0,2,52,0
2017/10,大学院2B,1604124,黄銘雅,コウメイガ,HUANGMINGYA,52,10,4,41,2
2017/10,大学院2B,1604227,賀雪豊,ガセツホウ,HEXUEFENG,52,5,5,46,1
2017/10,大学院2B,1607001,沈欣栄,チンキンエイ,SHENXINRONG,28,13,2,15,2
2017/10,大学院2B,1607007,侯舒瑜,コウジョユ,HOUSHUYU,52,4,2,48,1
2017/10,大学院2B,1607012,呂音,ロオン,LYUYIN,52,8,1,44,1
2017/10,大学院2B,1607015,胡源青,コゲンセイ,HUYUANQING,52,15,1,37,3
2017/10,大学院2B,1607033,湯桑,トウソウ,TANGSANG,52,4,1,48,1
2017/10,大学院2B,1607086,肖笛,ショウテキ,XIAODI,52,8,1,44,2
2017/10,大学院2B,1607087,杨丞博,ヨウショウハク,YANGCHENGBO,52,8,2,44,2
2017/10,大学院2B,1607093,呂金釗,ロキンショウ,LYUJINZHAO,48,9,0,39,2
2017/10,大学院2B,1607112,,カスラスニル,KASULASUNIL,52,4,3,47,1
2017/10,大学院2B,1610030,柯永林,カエイリン,KEYONGLIN,52,0,1,52,0
2017/10,大学院2B,1707008,李亮呈,リリョウテイ,LILIANGCHENG,52,9,0,43,2
2017/10,大学院2B,1707022,郭雨蕙,カクウケイ,GUOYUHUI,52,4,0,48,1
2017/10,大学3A,1604001,汪明琛,オウメイチン,WANGMINGCHEN,52,4,1,48,1
2017/10,大学3A,1604002,郝琳,カクリン,HAOLIN,52,0,0,52,0
2017/10,大学3A,1604051,温振繁,オンシンハン,WENZHENFAN,52,8,0,44,2
2017/10,大学3A,1604082,張思楊,チョウシヨウ,ZHANGSIYANG,52,4,1,48,1
2017/10,大学3A,1604104,楊孫益,ヨウソンエキ,YANGSUNYI,52,6,1,46,1
2017/10,大学3A,1604134,宋承達,ソウショウタツ,SONGCHENGDA,52,4,0,48,1
2017/10,大学3A,1604142,鄒涛,スウトウ,ZOUTAO,52,10,0,42,2
2017/10,大学3A,1604152,殷弘睿,インコウエイ,YINHONGRUI,52,20,0,32,5
2017/10,大学3A,1604153,李佳安,リカアン,LIJIAAN,52,0,0,52,0
2017/10,大学3A,1604210,饒琳,ジョウリン,RAOLIN,52,4,0,48,1
2017/10,大学3A,1604220,龔奇彪,キョウキヒョウ,GONGQIBIAO,52,2,0,50,0
2017/10,大学3A,1604240,余嘉怡,ヨカイ,YUJIAYI,52,3,1,49,0
2017/10,大学3A,1607022,孫浩然,ソンコウゼン,SUNHAORAN,52,6,0,46,1
2017/10,大学3A,1607046,徐菁一,ジョセイイチ,XUJINGYI,52,0,0,52,0
2017/10,大学3A,1607066,陳浩麟,チンコウリン,CHENHAOLIN,52,4,1,48,1
2017/10,大学3A,1607067,鞠印軒,キクインケン,JUYINXUAN,52,0,0,52,0
2017/10,大学3A,1607075,郭昊天,カクコウテン,GUOHAOTIAN,52,4,0,48,1
2017/10,大学3A,1704059,施宇迪,シウテキ,SHIYUDI,52,0,0,52,0
2017/10,大学3A,1704105,敬藝丹,ケイゲイタン,JINGYIDAN,52,0,0,52,0
2017/10,大学3A,1704152,宋昌澔,ソンチャンホ,"SONGCHANG HO",52,0,0,52,0
2017/10,大学3美大,1604022,陸真浩,リクシンコウ,LUZHENHAO,52,22,4,29,5
2017/10,大学3美大,1604029,陳昱宏,チンイクコウ,CHENYUHONG,52,12,0,40,3
2017/10,大学3美大,1604044,杜超杰,トチョウケツ,DUCHAOJIE,52,8,0,44,2
2017/10,大学3美大,1604045,呉思哲,ゴシテツ,WUSIZHE,52,11,0,41,2
2017/10,大学3美大,1604158,傅天宇,フテンウ,FUTIANYU,52,7,1,45,1
2017/10,大学3美大,1604184,張維,チョウイ,ZHANGWEI,52,24,0,28,6
2017/10,大学3美大,1604226,黄詩瑞,コウシズイ,HUANGSHIRUI,52,18,3,33,4
2017/10,大学3美大,1607040,王楠,オウナン,WANGNAN,52,26,0,26,5
2017/10,大学3美大,1610001,柳楚卿,リュウソキョウ,LIUCHUQING,52,0,0,52,0
2017/10,大学3美大,1610012,楊金子,ヨウキンシ,YANGJINZI,52,4,0,48,1
2017/10,大学3美大,1610018,姜玉敏,キョウギョクビン,JIANGYUMIN,52,13,0,39,3
2017/10,大学3美大,1610026,呉比,ゴヒ,WUBI,52,1,4,50,0
2017/10,大学3美大,1610037,方霖穎,ホウリンエイ,FANGLINYING,52,4,1,48,1
2017/10,大学3美大,1610045,黄綺程,コウキテイ,WONGICHENG,52,0,0,52,0
2017/10,大学3美大,1704081,梁靖冉,リョウセイゼン,LIANGJINGRAN,52,12,4,39,2
2017/10,大学3美大,1704091,干甜,カンテン,GANTIAN,52,14,1,38,3
2017/10,大学3美大,1704108,王怡瑋,オウイイ,WANGYIWEI,52,2,0,50,0
2017/10,大学3美大,1704115,郭軻天,カクカテン,GUOKETIAN,52,0,0,52,0
2017/10,大学2A,1604023,李若蘭,リジャクラン,LIRUOLAN,52,5,0,47,1
2017/10,大学2A,1604072,邢哲玮,ケイテツイ,XINGZHEWEI,52,0,2,52,0
2017/10,大学2A,1604100,宮静,キュウセイ,GONGJING,52,10,1,42,1
2017/10,大学2A,1604117,馬鵬飛,バホウヒ,MAPENGFEI,52,12,0,40,3
2017/10,大学2A,1604125,楊嘉宝,ヨウカホウ,YANGJIABAO,52,18,0,34,4
2017/10,大学2A,1604138,鐘帥,ショウスイ,ZHONGSHUAI,52,2,1,50,0
2017/10,大学2A,1604154,張澤棟,チョウタクトウ,ZHANGZEDONG,52,4,0,48,1
2017/10,大学2A,1604183,呉亭薇,ゴテイビ,WUTINGWEI,52,0,0,52,0
2017/10,大学2A,1604189,郭廷展,カクテイテン,GUOTINGZHAN,52,4,5,47,1
2017/10,大学2A,1604204,栄雨婷,エイウテイ,RONGYUTING,52,7,1,45,1
2017/10,大学2A,1604217,林延棟,リンエントウ,LINYANDONG,52,10,2,42,2
2017/10,大学2A,1604221,趙梓軒,チョウシケン,ZHAOZIXUAN,52,15,4,36,2
2017/10,大学2A,1604222,呉晨曦,ゴシンギ,WUCHENXI,52,8,0,44,2
2017/10,大学2A,1604233,関宇,カンウ,GUANYU,52,0,0,52,0
2017/10,大学2A,1604239,田芳菲,デンホウヒ,TIANFANGFEI,52,0,0,52,0
2017/10,大学2A,1607084,張政,チョウセイ,ZHANGZHENG,52,4,0,48,1
2017/10,大学2A,1607091,劉一凡,リュウイチハン,LIUYIFAN,52,13,2,39,3
2017/10,大学2A,1607119,李季修,リキシュウ,LEECHIHSIU,52,8,1,44,2
2017/10,大学2B,1604028,来守慧,ライシュケイ,LAISHOUHUI,52,1,4,50,0
2017/10,大学2B,1604034,叶遠舟,ヨウエンシュウ,YEYUANZHOU,52,14,1,38,2
2017/10,大学2B,1604038,牟娟,ムケン,MOUJUAN,52,8,2,44,1
2017/10,大学2B,1604066,曽思韵,ソシイン,ZENGSIYUN,52,4,3,47,1
2017/10,大学2B,1604068,惠如雪,ケイジョセツ,HUIRUXUE,52,4,0,48,1
2017/10,大学2B,1604073,李嘉輝,リカキ,LIJIAHUI,52,27,3,24,3
2017/10,大学2B,1604084,付建銘,フケンメイ,FUJIANMING,52,3,0,49,0
2017/10,大学2B,1604110,王心怡,オウシンイ,WANGXINYI,52,0,2,52,0
2017/10,大学2B,1604190,姜超,キョウチョウ,JIANGCHAO,52,8,2,44,2
2017/10,大学2B,1604228,李云階,リウンカイ,LIYUNJIE,52,0,0,52,0
2017/10,大学2B,1604259,,"シングサウド  スレス　","SINGHSAUD  SURESH ",52,6,0,46,1
2017/10,大学2B,1607024,郭宣蓉,カクセンヨウ,GUOXUANRONG,52,0,1,52,0
2017/10,大学2B,1607042,馬一督,バイットク,MAYIDU,52,6,2,46,1
2017/10,大学2B,1607057,霍晟,カクセイ,HUOSHENG,52,3,1,49,0
2017/10,大学2B,1607058,王藝淞,オウゲイショウ,WANGYISONG,52,13,3,38,3
2017/10,大学2B,1607060,蒋英豪,ショウエイゴウ,JIANGYINGHAO,52,8,0,44,2
2017/10,大学2B,1607094,李想,リソウ,LIXIANG,52,9,3,42,2
2017/10,大学2B,1610048,,ヴタン　ヒュエン,"VUTHANH HUYEN",52,0,0,52,0
2017/10,大学2美大,1604048,王翕,オウキョウ,WANGXI,52,0,0,52,0
2017/10,大学2美大,1604075,郭芳竹,カクホウチク,GUOFANGZHU,52,4,0,48,1
2017/10,大学2美大,1604077,李天聡,リテンソウ,LITIANCONG,52,4,2,48,1
2017/10,大学2美大,1604093,趙澤坤,チョウタクコン,ZHAOZEKUN,52,12,2,40,3
2017/10,大学2美大,1604101,于晨,ウシン,YUCHEN,52,0,1,52,0
2017/10,大学2美大,1604133,計舒旻,ケイジョビン,JISHUMIN,52,8,0,44,2
2017/10,大学2美大,1604136,胡家馨,コカケイ,HUJIAXIN,52,0,2,52,0
2017/10,大学2美大,1604141,黄佳怡,コウカイ,HUANGJIAYI,52,1,1,51,0
2017/10,大学2美大,1604143,鄭然,テイゼン,ZHENGRAN,52,4,0,48,1
2017/10,大学2美大,1604173,張文謦,チョウブンケイ,ZHANGWENXIN,52,4,1,48,0
2017/10,大学2美大,1604181,王嘯,オウショウ,WANGXIAO,52,4,0,48,0
2017/10,大学2美大,1604238,洪鋭深,コウエイシン,HONGRUISHEN,44,8,4,35,2
2017/10,大学2美大,1607008,楊力為,ヨウリキイ,YANGLIWEI,52,8,3,43,2
2017/10,大学2美大,1607032,呉謙,ゴケン,WUQIAN,52,1,2,51,0
2017/10,大学2美大,1607056,程序,テイジョ,CHENGXU,52,2,0,50,0
2017/10,大学2美大,1607072,陳劭言,チンショウゲン,CHENSHAOYAN,52,2,0,50,0
2017/10,大学2美大,1607078,程厳,テイゲン,CHENGYAN,52,5,5,46,1
2017/10,大学2美大,1610014,王歆儀,オウキンギ,WANGXINYI,52,7,5,44,1
2017/10,大学2美大,1610016,汪炫佚,オウゲンイツ,WANGXUANYI,52,0,0,52,0
2017/10,大学2美大,1610024,羅杰銘,ラケツメイ,LUOJIEMING,52,0,0,52,0
2017/10,上級1A,1604005,沙慧徳,サケイトク,SHAHUIDE,52,8,3,43,1
2017/10,上級1A,1604108,谢文婷,シャブンテイ,XIEWENTING,52,0,0,52,0
2017/10,上級1A,1604163,賈翼博,カヨクハク,JIAYIBO,52,8,0,44,2
2017/10,上級1A,1604166,何潔怡,カケツイ,HEJIEYI,52,8,3,43,2
2017/10,上級1A,1604199,王国慶,オウコッケイ,WANGGUOQING,52,4,4,47,0
2017/10,上級1A,1604214,劉佳慧,リュウカケイ,LIUJIAHUI,52,19,3,32,4
2017/10,上級1A,1607005,孟永楽,モウエイラク,MENGYONGLE,52,13,3,38,3
2017/10,上級1A,1610027,梁渝寧,リョウユネイ,LIANGYUNING,52,1,1,51,0
2017/10,上級1A,1704025,劉玲,リュウレイ,LIULING,52,8,0,44,2
2017/10,上級1A,1704026,劉昱君,リュウイククン,LIUYUJUN,52,16,1,36,4
2017/10,上級1A,1704036,魏佳曦,ギカギ,WEIJIAXI,52,10,1,42,2
2017/10,上級1A,1704049,王雪珊,オウセツサン,WANGXUESHAN,52,16,0,36,4
2017/10,上級1A,1704077,杜皓亮,トコウリョウ,DUHAOLIANG,52,12,0,40,3
2017/10,上級1A,1707077,王佳婧,オウカセイ,WANGJIAJING,52,0,0,52,0
2017/10,上級1A,1710061,徐慧,ジョケイ,XUHUI,52,4,0,48,1
2017/10,中上級2A,1604006,劉徳才,リュウトクサイ,LIUDECAI,52,2,0,50,0
2017/10,中上級2A,1604014,王画,オウカク,WANGHUA,52,0,1,52,0
2017/10,中上級2A,1604042,魯崧,ロスウ,LUSONG,52,32,1,20,8
2017/10,中上級2A,1604080,陸欣于杭,リクキンウコウ,LUXINYUHANG,52,1,6,49,0
2017/10,中上級2A,1604087,丛琳,ソウリン,CONGLIN,52,0,0,52,0
2017/10,中上級2A,1604160,華菁,カセイ,HUAJING,52,0,0,52,0
2017/10,中上級2A,1604162,盧俊杰,ロシュンケツ,LUJUNJIE,52,0,1,52,0
2017/10,中上級2A,1604171,王嘉懿,オウカイ,WANGJIAYI,52,4,0,48,1
2017/10,中上級2A,1604186,柴嘉星,サイカセイ,CHAIJIAXING,52,14,7,36,3
2017/10,中上級2A,1604193,曹政,ソウセイ,CAOZHENG,52,8,5,43,2
2017/10,中上級2A,1604208,曹達,ソウタツ,CAODA,52,5,7,45,1
2017/10,中上級2A,1604234,陳佳元,チンカゲン,CHENJIAYUAN,52,0,4,51,0
2017/10,中上級2A,1604235,周竹曳,シュウチクエイ,ZHOUZHUYE,52,6,4,45,1
2017/10,中上級2A,1607081,張子人,チョウシジン,ZHANGZIREN,52,16,0,36,4
2017/10,中上級2A,1704092,賀文沁,カブンシン,HEWENQIN,52,4,0,48,1
2017/10,中上級2A,1707041,柴晨光,サイシンコウ,CHAICHENGUANG,52,13,0,39,2
2017/10,中上級2A,1710029,洪成超,コウセイチョウ,HONGCHENGCHAO,52,0,0,52,0
2017/10,中上級2A,1710031,茅潔,ボウケツ,MAOJIE,52,0,0,52,0
2017/10,中上級2A,1710035,鄭昊青,テイコウセイ,ZHENGHAOQING,52,0,0,52,0
2017/10,中上級2A,1710181,韋佳欣,イカキン,WEIJIAXIN,52,0,0,52,0
2017/10,中上級1A,1604033,趙柄宇,チョウヘイウ,ZHAOBINGYU,52,4,3,47,1
2017/10,中上級1A,1604040,謝明星,シャメイセイ,XIEMINGXING,52,13,2,39,2
2017/10,中上級1A,1604078,謝栄博,シャエイハク,XIERONGBO,52,12,0,40,3
2017/10,中上級1A,1604107,宣迎雁,センゲイガン,XUANYINGYAN,52,8,0,44,2
2017/10,中上級1A,1604109,马焱钊,バエンショウ,MAYANZHAO,52,0,0,52,0
2017/10,中上級1A,1604111,劉丹,リュウタン,LIUDAN,52,0,0,52,0
2017/10,中上級1A,1604195,魏全麗,ギゼンレイ,WEIQUANLI,52,1,1,51,0
2017/10,中上級1A,1604224,呉文蔚,ゴブンイ,WUWENWEI,52,14,2,38,3
2017/10,中上級1A,1604243,,ヴティ　ニュン,"VUTHI NHUNG",52,0,0,52,0
2017/10,中上級1A,1604261,,ノルブタエフボビル,NORBUTAEVBOBIR,52,0,1,52,0
2017/10,中上級1A,1607028,李锴,リカイ,LIKAI,52,0,5,51,0
2017/10,中上級1A,1607106,,シュレスタプラジョル,SHRESTHAPRAJWOL,52,4,0,48,1
2017/10,中上級1A,1610004,季豊裕,キホウユウ,JIFENGYU,52,4,3,47,1
2017/10,中上級1A,1610020,閻東明,エントウメイ,YANDONGMING,52,16,3,35,4
2017/10,中上級1A,1610025,劉藝達,リュウゲイタツ,LIUYIDA,52,0,0,52,0
2017/10,中上級1A,1704021,鄭　慧,テイシケイ,ZHENGZHIHUI,52,8,0,44,2
2017/10,中上級1A,1704102,龍一飛,リュウイツヒ,LONGYIFEI,52,0,0,52,0
2017/10,中上級1A,1707084,簡頌賢,カンショウケン,JIANSONGXIAN,52,0,0,52,0
2017/10,中上級1B,1604063,李婷,リテイ,LITING,52,4,0,48,1
2017/10,中上級1B,1604069,史錦華,シキンカ,SHIJINHUA,52,4,0,48,1
2017/10,中上級1B,1604116,李阳,リヨウ,LIYANG,52,0,0,52,0
2017/10,中上級1B,1604139,劉志航,リュウシコウ,LIUZHIHANG,52,4,0,48,1
2017/10,中上級1B,1604140,杜藝嘉,トゲイカ,DUYIJIA,52,20,3,31,5
2017/10,中上級1B,1604188,何恩寧,カオンネイ,HEENNING,52,4,0,48,1
2017/10,中上級1B,1604201,呉抒陽,ゴジョヨウ,WUSHUYANG,52,8,0,44,2
2017/10,中上級1B,1604232,任佳敏,ニンカビン,RENJIAMIN,52,12,0,40,3
2017/10,中上級1B,1607030,沈怡静,チンイセイ,SHENYIJING,52,4,1,48,1
2017/10,中上級1B,1607031,麻越琳,マエツリン,MAYUELIN,52,4,0,48,1
2017/10,中上級1B,1607088,徐天嬋,ジョテンセン,XUTIANCHAN,52,1,1,51,0
2017/10,中上級1B,1610021,馬藝銘,バゲイメイ,MAYIMING,52,0,0,52,0
2017/10,中上級1B,1710052,林少雄,リンショウユウ,LINSHAOXIONG,52,0,1,52,0
2017/10,中上級1B,1710100,崔秋月,サイシュウゲツ,CUIQIUYUE,52,0,0,52,0
2017/10,中上級1B,1710111,李淼,リビョウ,LIMIAO,52,0,0,52,0
2017/10,中上級1B,1710128,宋海洋,ソウカイヨウ,SONGHAIYANG,52,0,0,52,0
2017/10,中上級1B,1710138,劉穎霖,リュウエイリン,LIUYINGLIN,52,0,0,52,0
2017/10,中上級1B,1710144,周晟岐,シュウセイキ,ZHOUSHENGQI,52,12,0,40,3
2017/10,中上級1B,9917040,張呉越,チョウゴエツ,ZHANGWUYUE,52,0,0,52,0
2017/10,中級2A,1604012,陳立志,チンリッシ,CHENLIZHI,52,3,2,49,0
2017/10,中級2A,1604105,邱佳成,キュウカセイ,QIUJIACHENG,52,18,1,34,2
2017/10,中級2A,1604161,潘駿晨,ハンシュンシン,PANJUNCHEN,52,46,0,6,11
2017/10,中級2A,1604246,,ファムテー　ヴィン,"PHAMTHE VINH",52,4,4,47,0
2017/10,中級2A,1607023,楊禛,ヨウシン,YANGZHEN,52,36,0,16,8
2017/10,中級2A,1607061,趙翔飛,チョウショウヒ,ZHAOXIANGFEI,52,8,2,44,1
2017/10,中級2A,1610010,彭野,ホウヤ,PENGYE,52,1,1,51,0
2017/10,中級2A,1610013,李豪,リゴウ,LIHAO,52,4,1,48,1
2017/10,中級2A,1610031,楊藝,ヨウゲイ,YANGYI,52,0,0,52,0
2017/10,中級2A,1610042,武陽,ブヨウ,WUYANG,52,1,1,51,0
2017/10,中級2A,1704039,杜静雯,トセイブン,DUJINGWEN,52,11,0,41,2
2017/10,中級2A,1704065,李鈺児,リギョクジ,LIYUER,52,10,0,42,2
2017/10,中級2A,1704089,曹彬宸,ソウヒンシン,CAOBINCHEN,52,0,1,52,0
2017/10,中級2A,1704097,陸嘉,リクカイ,LUJIAWEI,52,8,0,44,2
2017/10,中級2A,1704100,昊宇,ホウコウウ,PANGHAOYU,52,5,2,47,1
2017/10,中級2A,1707003,楊陽,ヨウヨウ,YANGYANG,52,10,3,41,1
2017/10,中級2A,1707016,王鳳超,オウホウチョウ,WANGFENGCHAO,52,0,0,52,0
2017/10,中級2A,1707040,羅偉峰,ライホウ,LUOWEIFENG,52,8,1,44,2
2017/10,中級2B,1604008,丁子桐,テイシトウ,DINGZITONG,52,8,3,43,2
2017/10,中級2B,1604015,郭蕾,カクライ,GUOLEI,52,11,2,41,2
2017/10,中級2B,1604056,李晶晶,リショウショウ,LIJINGJING,52,0,0,52,0
2017/10,中級2B,1604118,孟思雨,モウシウ,MENGSIYU,52,12,2,40,3
2017/10,中級2B,1604180,馬嬌嬌,バキョウキョウ,MAJIAOJIAO,52,32,1,20,8
2017/10,中級2B,1604202,周洋,シュウヨウ,ZHOUYANG,52,0,0,52,0
2017/10,中級2B,1604231,李曲,リキョク,LIQU,52,40,1,12,10
2017/10,中級2B,1604257,,シュレスタラケシュ,SHRESTHARAKESH,52,8,0,44,2
2017/10,中級2B,1607053,周安然,シュウアンゼン,ZHOUANRAN,52,12,2,40,3
2017/10,中級2B,1610002,郭東勛,カクトウクン,GUODONGXUN,52,8,5,43,2
2017/10,中級2B,1610009,羅武,ラブ,LUOWU,52,0,3,51,0
2017/10,中級2B,1610011,于光普,ウコウフ,YUGUANGPU,52,44,0,8,11
2017/10,中級2B,1610033,陳文華,チンブンカ,CHENWENHUA,52,8,1,44,2
2017/10,中級2B,1610038,董思成,トウシセイ,DONGSICHENG,52,16,1,36,4
2017/10,中級2B,1610040,黄南,コウナン,HUANGNAN,52,4,0,48,1
2017/10,中級2B,1610044,盧宇坤,ロウコン,LUYUKUN,52,4,0,48,1
2017/10,中級2B,1610053,,チャナパットソオントムグムジョンパニチ,,52,4,0,48,1
2017/10,中級2B,1704048,徐行,ジョコウ,XUHANG,52,0,0,52,0
2017/10,中級2B,1704071,竺可迪,チクカテキ,ZHUKEDI,52,24,0,28,6
2017/10,中級2B,1704101,羅照軒,ラショウケン,LUOZHAOXUAN,52,13,2,39,3
2017/10,中級2B,1704119,雷米特,ライベイトク,LEIMITE,52,16,0,36,4
2017/10,中級1A,1604242,,レザ　チェン,"LEGIA CHIEN",52,6,3,45,0
2017/10,中級1A,1604244,,ズウンヴァン　ダン,"DUONGVAN DAN",52,5,1,47,1
2017/10,中級1A,1604245,,グェンティ　ガ,"NGUYENTHI NGA",52,5,0,47,1
2017/10,中級1A,1610005,矯永昶,キョウエイチョウ,JIAOYONGCHANG,52,0,4,51,0
2017/10,中級1A,1610029,劉瀚声,リュウカンセイ,LIUHANSHENG,52,13,2,39,2
2017/10,中級1A,1704029,徐銘孝,ジョメイコウ,XUMINGXIAO,52,10,1,42,2
2017/10,中級1A,1704041,郭亜含,カクアガン,GUOYAHAN,52,8,2,44,2
2017/10,中級1A,1704052,宋宇鵬,ソウウホウ,SONGYUPENG,52,12,1,40,3
2017/10,中級1A,1704079,蘭玲,ランレイ,LANLING,52,1,3,50,0
2017/10,中級1A,1707002,周亜英,シュウアエイ,ZHOUYAYING,52,4,0,48,1
2017/10,中級1A,1707005,徐哲,ジョテツ,XUZHE,52,16,0,36,4
2017/10,中級1A,1707006,夏驕陽,カキョウヨウ,XIAJIAOYANG,52,8,5,43,2
2017/10,中級1A,1707015,羅靖雯,ラセイブン,LUOJINGWEN,52,0,0,52,0
2017/10,中級1A,1707018,王伊依,オウイイ,WANGYIYI,52,12,0,40,3
2017/10,中級1A,1707030,胡晋睿,コシンエイ,HUJINRUI,52,4,0,48,1
2017/10,中級1A,1707037,周思彤,シュウシトウ,ZHOUSITONG,52,0,0,52,0
2017/10,中級1A,1707061,艾迪,ガイテキ,AIDI,52,5,2,47,1
2017/10,中級1A,1707064,穆亜蝶,ボクアチョウ,MUYADIE,52,4,0,48,1
2017/10,中級1A,1710015,賀士杰,ガシケツ,HESHIJIE,52,0,0,52,0
2017/10,中級1A,1710054,曹洪琛,ソウコウチン,CAOHONGCHEN,52,0,0,52,0
2017/10,中級1A,1710155,柯曜東,カヨウトウ,KEYAODONG,52,0,1,52,0
2017/10,中級1B,1607029,郭栩材,カククザイ,GUOXUCAI,52,14,2,38,2
2017/10,中級1B,1704007,文秋荻,ブンシュウテキ,WENQIUDI,52,0,0,52,0
2017/10,中級1B,1704008,張歆韵,チョウキンイン,ZHANGXINYUN,52,0,0,52,0
2017/10,中級1B,1704012,張雯菲　,チョウブンヒ,ZHANGWENFEI,52,4,1,48,1
2017/10,中級1B,1704013,陳曦,チンキ,CHENXI,52,8,1,44,2
2017/10,中級1B,1704016,韓夢倩,カンムセイ,HANMENGQIAN,52,11,3,40,2
2017/10,中級1B,1704072,姜叢軒,キョウソウケン,JIANGCONGXUAN,52,0,1,52,0
2017/10,中級1B,1704088,李春陽,リシュンヨウ,LICHUNYANG,52,6,1,46,1
2017/10,中級1B,1707020,張丹妮,チョウタンジ,ZHANGDANNI,52,4,1,48,1
2017/10,中級1B,1707021,常露露,ジョウロロ,CHANGLULU,52,0,0,52,0
2017/10,中級1B,1707028,何東恩,カトウオン,HEDONGEN,52,0,0,52,0
2017/10,中級1B,1707032,林敬煒,リンケイイ,LINJINGWEI,52,8,2,44,2
2017/10,中級1B,1707042,呂佳妮,リョカジ,LYUJIANI,52,4,0,48,1
2017/10,中級1B,1707059,劉澤霏,リュウタクヒ,LIUZEFEI,52,0,0,52,0
2017/10,中級1B,1707060,瀋玥,シンゲツ,SHENYUE,52,8,0,44,2
2017/10,中級1B,1707066,韓竺苪,カンジクヘイ,HANZHURUI,52,32,0,20,8
2017/10,中級1B,1707087,黄雯雯,コウブンブン,HUANGWENWEN,52,8,0,44,2
2017/10,中級1B,1710060,于松鑫,ウショウキン,YUSONGXIN,52,8,1,44,2
2017/10,中級1B,1710126,袁青,エンセイ,"YUAN QING袁青",52,4,1,48,1
2017/10,中級1B,1710129,刑雋怡,ケイシュンイ,XINGJUNYI,52,12,2,40,3
2017/10,中級1C,1604052,汪順意,オウジュンイ,WANGSHUNYI,52,0,0,52,0
2017/10,中級1C,1604067,高延,コウエン,GAOYAN,52,6,4,45,1
2017/10,中級1C,1604169,張夢彤,チョウムトウ,ZHANGMENGTONG,52,9,0,43,2
2017/10,中級1C,1604185,李昕雨,リキンウ,LIXINYU,52,13,3,38,3
2017/10,中級1C,1604194,張楚奇,チョウソキ,ZHANGCHUQI,52,4,0,48,1
2017/10,中級1C,1604200,呉格格,ゴカクカク,WUGEGE,52,12,0,40,3
2017/10,中級1C,1604252,,シュレスタマニス　ラル,"SHRESTHAMANISH LAL",52,28,0,24,7
2017/10,中級1C,1607013,袁帥,エンスイ,YUANSHUAI,52,16,1,36,4
2017/10,中級1C,1607073,呉塵,ゴジン,WUCHEN,52,12,0,40,3
2017/10,中級1C,1607098,,グエンティ　ゴック　ディエプ,"NGUYENTHI NGOC DIEP",52,0,2,52,0
2017/10,中級1C,1607100,,ファムクォック　トアン,"PHAMQUOC TOAN",52,0,0,52,0
2017/10,中級1C,1607101,,グエンティ　トゥ　ハン,"NGUYENTHI THU HANG",52,8,1,44,2
2017/10,中級1C,1607102,,グエンティ　ホン,"NGUYENTHI HONG",52,10,0,42,2
2017/10,中級1C,1607104,,マハラジャンリーナ,MAHARJANREENA,52,0,0,52,0
2017/10,中級1C,1607105,,アビンゴパリ,ABINGOPALI,52,0,1,52,0
2017/10,中級1C,1607110,,ニスツスロチャナ,NHISUTUSULOCHANA,52,0,0,52,0
2017/10,中級1C,1607115,,"マジダル バハドゥル　","MAJHIDAL BAHADUR",52,8,0,44,2
2017/10,中級1C,1610006,鄭子渊,テイシエン,ZHENGZIYUAN,52,6,2,46,1
2017/10,中級1C,1610035,劉文萍,リュウブンヘイ,LIUWENPING,52,0,0,52,0
2017/10,中級1C,1701001,華媛媛,カエンエン,HUAYUANYUAN,52,0,1,52,0
2017/10,中級1C,9916023,,タパラジクマール,"THAPARAJ KUMAR",52,16,0,36,4
2017/10,中級1D,1607111,,コジュラジェス,KOJURAJESH,52,0,0,52,0
2017/10,中級1D,1704014,李鵬程,リホウテイ,LIPENGCHENG,52,8,5,43,2
2017/10,中級1D,1704034,佘鵬飛,シャホウヒ,SHEPENGFEI,52,12,0,40,3
2017/10,中級1D,1704040,張茜,チヨウセン,ZHANGXI,52,0,0,52,0
2017/10,中級1D,1704047,黄若楠,コウジャクナン,HUANGRUONAN,52,0,0,52,0
2017/10,中級1D,1704057,王漪文,オウイブン,WANGYIWEN,52,0,0,52,0
2017/10,中級1D,1704062,楊　露,ヨウレイロ,YANGLINGLU,52,0,0,52,0
2017/10,中級1D,1704064,賈雨晴,カウセイ,JIAYUQING,52,0,0,52,0
2017/10,中級1D,1704068,朴雪英,ボクセツエイ,PIAOXUEYING,52,32,0,20,8
2017/10,中級1D,1704074,宋剣,ソウケン,SONGJIAN,52,8,0,44,2
2017/10,中級1D,1704087,丁一,テイイツ,DINGYI,52,6,1,46,1
2017/10,中級1D,1704090,儲冰潔,チョヒョウケツ,CHUBINGJIE,52,0,0,52,0
2017/10,中級1D,1704098,汪亦昀,オウエキイン,WANGYIYUN,52,4,0,48,1
2017/10,中級1D,1704106,章丹丹,ショウタンタン,ZHANGDANDAN,52,4,0,48,1
2017/10,中級1D,1704109,魏佳斌,ギカヒン,WEIJIABIN,52,18,2,34,4
2017/10,中級1D,1704118,張曼惠,チョウマンケイ,ZHANGMANHUI,52,9,0,43,2
2017/10,中級1D,1710148,黄書銘,コウショメイ,HUANGSHUMING,52,0,0,52,0
2017/10,中級1D,1710152,黎慧璋,レイケイショウ,LIHUIZHANG,52,0,0,52,0
2017/10,中級1D,1710164,姜南,キョウナン,JIANGNAN,52,0,0,52,0
2017/10,中級1D,1710193,張宇菲,チョウウヒ,ZHANGYUFEI,52,8,2,44,2
2017/10,中級1D,1710197,林文広,リンブンコウ,LINWENGUANG,52,2,0,50,0
2017/10,初中級A,1607020,李海菡,リカイカン,LIHAIHAN,52,28,1,24,7
2017/10,初中級A,1610015,馮習文,ヒョウシュウブン,FENGXIWEN,52,0,1,52,0
2017/10,初中級A,1704060,張明梓,チョウメイシ,ZHANGMINGZI,52,6,0,46,1
2017/10,初中級A,1704076,王　鵬,オウチュウホウ,WANGCHONGPENG,52,9,1,43,2
2017/10,初中級A,1707096,,チョウコウショウ,張宏祥,52,8,0,44,2
2017/10,初中級A,1710004,陳韜,チントウ,CHENTAO,52,0,2,52,0
2017/10,初中級A,1710014,呉建麗,ゴケンレイ,WUJIANLI,52,8,1,44,2
2017/10,初中級A,1710034,張岑,チョウシン,ZHANGCEN,52,0,1,52,0
2017/10,初中級A,1710043,陳樹立,チンジュリツ,CHENSHULI,52,4,0,48,1
2017/10,初中級A,1710078,黄洋,コウヨウ,HUANGYANG,52,0,0,52,0
2017/10,初中級A,1710081,張仲妹,チョウチュウマイ,ZHANGZHONGMEI,52,0,0,52,0
2017/10,初中級A,1710085,斉瀚,サイカン,QIHAN,52,0,1,52,0
2017/10,初中級A,1710107,周金晶,シュウキンショウ,ZHOUJINJING,52,0,0,52,0
2017/10,初中級A,1710121,張文博,チョウブンハク,ZHANGWENBO,52,0,0,52,0
2017/10,初中級A,1710130,欧陽詩鈺,オウヨウシギョク,OUYANGSHIYU,52,0,0,52,0
2017/10,初中級A,1710135,徐詩嫻,ジョシカン,XUSHIXIAN,52,4,0,48,1
2017/10,初中級A,1710190,辛歌,シンカ,XINGE,28,4,0,24,1
2017/10,初中級A,1710196,王海霞,オウカイカ,WANGHAIXIA,52,0,0,52,0
2017/10,初中級A,1710212,徐超豪,ジョチョウゴウ,XUCHAOHAO,52,0,2,52,0
2017/10,初中級B,1604091,郝玉辉,カクギョクキ,HAOYUHUI,52,11,1,41,2
2017/10,初中級B,1604092,田博文,デンハクブン,TIANBOWEN,52,11,3,40,2
2017/10,初中級B,1604128,劉夢奕,リュウムエキ,LIUMENGYI,52,2,5,49,0
2017/10,初中級B,1604168,張添雅,チョウテンガ,ZHANGTIANYA,52,20,1,32,5
2017/10,初中級B,1604172,蘭慧良,ランケイリョウ,LANHUILIANG,52,20,0,32,5
2017/10,初中級B,1604209,朱晧軒,シュコウケン,ZHUHAOXUAN,52,13,2,39,3
2017/10,初中級B,1604255,,ライユニサ,RAIYUNISHA,52,0,0,52,0
2017/10,初中級B,1604258,,"プラサドガウタム デリ　","PRASADGAUTAM  DILLI ",52,0,0,52,0
2017/10,初中級B,1607036,張雪睿,チョウセツエイ,ZHANGXUERUI,52,9,2,43,2
2017/10,初中級B,1607037,杜佳威,トカイ,DUJIAWEI,52,2,0,50,0
2017/10,初中級B,1607051,魯玲言,ロレイゲン,LULINGYAN,52,12,3,39,3
2017/10,初中級B,1607085,王哲,オウテツ,WANGZHE,52,8,0,44,2
2017/10,初中級B,1607099,,グエンゴック　ホア,"NGUYENNGOC HOA",52,12,2,40,3
2017/10,初中級B,1607108,,"シルワルラメス プラサド　","SILWALRAMESH  PRASAD ",52,0,0,52,0
2017/10,初中級B,1607109,,ライスーダン,RAISUDAN,52,4,0,48,1
2017/10,初中級B,1607113,,グルンカンチャン,GURUNGKANCHAN,52,0,1,52,0
2017/10,初中級B,1610007,姜巍,キョウギ,JIANGWEI,52,0,0,52,0
2017/10,初中級B,1610017,曲世正,キョクセセイ,QUSHIZHENG,52,8,0,44,2
2017/10,初中級B,1610034,王智麟,オウチリン,WANGZHILIN,52,8,1,44,2
2017/10,初中級B,1610054,,ピリヤコムシッカマーン,PIRIYAKORNSIGKAMANN,52,9,0,43,2
2017/10,初中級C,1704001,雷佳鳴,ライカメイ,LEIJIAMING,52,12,0,40,3
2017/10,初中級C,1704020,賀婷婷,ガテイテイ,HETINGTING,52,10,2,42,2
2017/10,初中級C,1704022,李霖,リリン,LILIN,52,4,0,48,1
2017/10,初中級C,1704023,樊政,ハンセイ,FANZHENG,52,48,0,4,12
2017/10,初中級C,1704024,呉芷瑤,ゴシヨウ,WUZHIYAO,52,0,0,52,0
2017/10,初中級C,1704033,陳蕭陽,チンショウヨウ,CHENXIAOYANG,52,8,3,43,2
2017/10,初中級C,1704037,鄧平成,トウヘイセイ,DENGPINGCHENG,52,0,0,52,0
2017/10,初中級C,1704045,呉翌陽,ゴヨクヨウ,WUYIYANG,52,0,0,52,0
2017/10,初中級C,1704054,焦玉衡,ショウギョクコウ,JIAOYUHENG,52,0,0,52,0
2017/10,初中級C,1704058,黄瑛,コウエイ,HUANGYING,52,0,0,52,0
2017/10,初中級C,1704066,白雨灵,ハクウレイ,BAIYULING,52,0,1,52,0
2017/10,初中級C,1704070,姜博文,キョウハクブン,JIANGBOWEN,52,12,2,40,3
2017/10,初中級C,1704096,孫夢家,ソンムカ,SUNMENGJIA,52,0,0,52,0
2017/10,初中級C,1704111,連夢,レンムテキ,LIANMENGDI,52,12,0,40,3
2017/10,初中級C,1704120,,ズオンティエン　クェン,"DUONGTIEN QUYEN",52,0,0,52,0
2017/10,初中級C,1704125,,グェンホアン　フォン　ヴィ,"NGUYENHOANG PHUONG VY",52,16,1,36,4
2017/10,初中級C,1707014,温紫萱,オンシケン,WENZIXUAN,52,0,0,52,0
2017/10,初中級C,1707026,劉釋伽,リュウシャクカ,LIUSHIJIA,52,0,0,52,0
2017/10,初中級C,1707029,唐竹,トウチク,TANGZHU,52,0,0,52,0
2017/10,初中級C,1707070,趙旭,チョウキョク,ZHAOXU,52,21,0,31,5
2017/10,初中級C,1707088,姚穎菲,ヨウエイヒ,YIUWINGFEI,52,0,0,52,0
2017/10,初中級D,1704003,蒋瑩,ショウエイ,JIANGYING,52,4,1,48,1
2017/10,初中級D,1704004,顧芸夢,コゲイム,GUYUNMENG,52,0,0,52,0
2017/10,初中級D,1704011,周佳蓉,シュウカヨウ,ZHOUJIARONG,52,0,0,52,0
2017/10,初中級D,1704017,熊展銘,ユウテンメイ,XIONGZHANMING,52,0,0,52,0
2017/10,初中級D,1704018,田金農,デンキンノウ,TIANJINNONG,52,4,0,48,1
2017/10,初中級D,1704019,趙子未,チョウシミ,ZHAOZIWEI,52,8,0,44,2
2017/10,初中級D,1704027,潘永鑫,ハンエイキン,PANYONGXIN,52,12,0,40,3
2017/10,初中級D,1704035,張敏,チョウビン,ZHANGMIN,52,0,0,52,0
2017/10,初中級D,1704069,朱玲瓏,シュレイロウ,ZHULINGLONG,52,0,0,52,0
2017/10,初中級D,1704078,唐露莎,トウロサ,TANGLUSHA,52,4,0,48,1
2017/10,初中級D,1704082,趙亜翼,チョウアヨク,ZHAOYAYI,52,12,0,40,3
2017/10,初中級D,1704084,銭豪杰,センゴウケツ,QIANHAOJIE,52,16,0,36,4
2017/10,初中級D,1704085,陳航,チンイコウ,CHENWEIHANG,52,34,1,18,8
2017/10,初中級D,1704086,鄭好,テイコウ,ZHENGHAO,52,0,0,52,0
2017/10,初中級D,1704094,伍浩聡,ゴコウソウ,WUHAOCONG,52,8,0,44,2
2017/10,初中級D,1704104,趙然,チヨウゼン,ZHAORAN,52,12,0,40,3
2017/10,初中級D,1704113,張倩玉,チョウセイギョク,ZHANGQIANYU,52,0,0,52,0
2017/10,初中級D,1704116,張暁婧,チョウギョウセイ,ZHANGXIAOJING,52,4,0,48,1
2017/10,初中級D,1707023,賈雯倩,カブンセイ,JIAWENQIAN,52,0,0,52,0
2017/10,初中級D,1707057,徐開来,ジョカイライ,XUKAILAI,52,0,0,52,0
2017/10,初中級D,1707093,,シャムシエフシェロズ,SHAMSIEVSHEROZ,52,2,2,50,0
2017/10,初中級E,1704006,李超琪,リチョウキ,LICHAOQI,52,12,3,39,3
2017/10,初中級E,1704010,呉悠,ゴユウ,WUYOU,52,0,0,52,0
2017/10,初中級E,1704031,劉雨,リュウウ,LIUYU,52,5,2,47,1
2017/10,初中級E,1704038,黎潤絲,レイジュンシ,LIRUNSI,52,0,0,52,0
2017/10,初中級E,1704042,劉思雪,リュウシセツ,LIUSIXUE,52,0,0,52,0
2017/10,初中級E,1704044,劉馨楚,リュウケイソ,LIUXINCHU,52,4,2,48,1
2017/10,初中級E,1704046,莫鑫元,バクキンゲン,MOXINYUAN,52,20,1,32,5
2017/10,初中級E,1704051,万鑫,マンキン,WANXIN,52,16,1,36,4
2017/10,初中級E,1704053,張澤,チヨウタク,ZHANGZE,52,16,0,36,4
2017/10,初中級E,1704055,宋晨燁,ソウシンヨウ,SONGCHENYE,52,0,0,52,0
2017/10,初中級E,1704061,尋夢,ジンム,XUNMENG,52,16,0,36,4
2017/10,初中級E,1704093,梁建礼,リョウケンレイ,LIANGJIANLI,52,0,0,52,0
2017/10,初中級E,1704095,劉莉瑤,リュウリヨウ,LIULIYAO,52,4,1,48,1
2017/10,初中級E,1704112,金　翎,キンレイ,JINLING,52,0,0,52,0
2017/10,初中級E,1704121,,グェンヴァン　バク,"NGUYENVAN BAC",52,0,0,52,0
2017/10,初中級E,1707004,李功盛,リコウセイ,LIGONGSHENG,52,0,0,52,0
2017/10,初中級E,1707007,周成逸,シュウセイイツ,ZHOUCHENGYI,52,0,0,52,0
2017/10,初中級E,1707031,楊建華,ヨウケンカ,YANGJIANHUA,52,16,1,36,4
2017/10,初中級E,1707082,秦国棟,シンコクトウ,QINGUODONG,52,0,2,52,0
2017/10,初中級E,9917027,李雪晴,リセツセイ,LIXUEQING,52,0,0,52,0
2017/10,初中級E,9917043,,リュセビン,RYUSEBIN,52,36,0,16,9
2017/10,初級2A,1607107,,"ポカレルメガ ナット　",POKHARELMEGHANATH,52,4,0,48,1
2017/10,初級2A,1607114,,ギリサラダ,GIRISARADA,52,1,0,51,0
2017/10,初級2A,1707033,孫毅,ソンキ,SUNYI,52,2,2,50,0
2017/10,初級2A,1707035,姜辰熹,キョウシンキ,JIANGCHENXI,52,0,0,52,0
2017/10,初級2A,1707036,凌佳鑫,リョウカキン,LINGJIAXIN,52,0,0,52,0
2017/10,初級2A,1707038,楊玉潔,ヨウギョクケツ,YANGYUJIE,52,4,1,48,1
2017/10,初級2A,1707044,劉美玲,リュウビレイ,LIUMEILING,52,0,2,52,0
2017/10,初級2A,1707046,王依,オウイ,WANGYI,52,4,1,48,1
2017/10,初級2A,1707047,,シュトウ,ZHUTONG,52,8,3,43,2
2017/10,初級2A,1707050,張爽,チョウソウ,ZHANGSHUANG,52,0,0,52,0
2017/10,初級2A,1707051,賈丁,カテイ,JIADING,52,0,0,52,0
2017/10,初級2A,1707074,尤佳,ユウカ,YOUJIA,52,2,1,50,0
2017/10,初級2A,1710026,張鼎,チョウテイ,ZHANGDING,52,0,0,52,0
2017/10,初級2A,1710096,張帥,チョウスイ,ZHANGSHUAI,52,0,0,52,0
2017/10,初級2A,1710106,王璐,オウロ,WANGLU,52,0,1,52,0
2017/10,初級2A,1710113,高暁燕,コウギョウエン,GAOXIAOYAN,52,0,0,52,0
2017/10,初級2A,1710159,劉逸商,リュウイツショウ,LIUYISHANG,52,0,0,52,0
2017/10,初級2A,1710160,姚振凱,ヨウシンガイ,YAOZHENKAI,24,1,0,23,0
2017/10,初級2A,1710184,戴蘇揚,タイソヨウ,DAISUYANG,52,0,0,52,0
2017/10,初級2B,1607118,,カリモフシェフロズ,KARIMOVSHEKHROZ,52,4,0,48,1
2017/10,初級2B,1610049,,グエンバ　ティン,"NGUYENBA THINH",52,12,4,39,3
2017/10,初級2B,1610051,,グエンジュイ　カイン,"NGUYENDUY KHANH",52,4,1,48,1
2017/10,初級2B,1707009,張知非,チョウチヒ,ZHANGZHIFEI,52,16,0,36,4
2017/10,初級2B,1707013,焦永愛,ショウエイアイ,JIAOYONGAI,52,16,2,36,4
2017/10,初級2B,1707019,張易凡,チョウエキハン,ZHANGYIFAN,52,4,0,48,1
2017/10,初級2B,1707039,向陽,コウヨウ,XIANGYANG,52,16,1,36,4
2017/10,初級2B,1707048,朱江,シュコウ,ZHUJIANG,52,5,2,47,1
2017/10,初級2B,1707068,譚勛儒,タンクンジュ,TANXUNRU,52,8,0,44,2
2017/10,初級2B,1707081,侯乙童,コウオツドウ,HOUYITONG,52,0,0,52,0
2017/10,初級2B,1707089,,ファムティ　フォン　リン,"PHAMTHI PHUONG LINH",52,4,0,48,1
2017/10,初級2B,1710013,陳佳楠,チンカナン,CHENJIANAN,52,8,0,44,2
2017/10,初級2B,1710080,孫愷,ソンガイ,SUNKAI,52,4,0,48,1
2017/10,初級2B,1710137,陸俣慧,リクマタケイ,LUYUHUI,52,0,0,52,0
2017/10,初級2B,1710161,楊暁剛,ヨウギョウゴウ,YANGXIAOGANG,52,0,0,52,0
2017/10,初級2B,1710167,黄子鋒,コウシホウ,HUANGZIFENG,52,8,1,44,2
2017/10,初級2B,1710170,王雨越,オウウエツ,WANGYUYUE,52,0,0,52,0
2017/10,初級2B,1710175,丁佳男,テイカナン,DINGJIANAN,52,0,0,52,0
2017/10,初級2B,1710195,曲雨,キョクウ,QUYU,52,0,0,52,0
2017/10,初級2B,1710217,林亜璇,リンアセン,,52,0,0,52,0
2017/10,初級2C,1707011,曽憲耀,ソウケンヨウ,ZENGXIANYAO,52,0,0,52,0
2017/10,初級2C,1707012,陳家欣,チンカキン,CHENJIAXIN,52,12,2,40,3
2017/10,初級2C,1707017,孫帥雯,ソンスイブン,SUNSHUAIWEN,52,0,0,52,0
2017/10,初級2C,1707024,殷誠,インセイ,YINCHENG,52,0,0,52,0
2017/10,初級2C,1707025,宮文秀,キュウブンシュウ,GONGWENXIU,52,1,0,51,0
2017/10,初級2C,1707027,鄧迪元,トウテキゲン,DENGDIYUAN,52,1,0,51,0
2017/10,初級2C,1707043,侯佳佳,コウカカ,HOUJIAJIA,52,0,0,52,0
2017/10,初級2C,1707053,郝見優,カクケンユウ,HAOJIANYOU,52,0,1,52,0
2017/10,初級2C,1707056,張鵬,チョウホウ,ZHANGPENG,52,0,0,52,0
2017/10,初級2C,1707062,蘇雨,ソウ,SUYU,52,0,0,52,0
2017/10,初級2C,1707069,邢飛凡,ケイヒハン,XINGFEIFAN,52,0,0,52,0
2017/10,初級2C,1707073,魏嘉,ギカ,WEIJIA,52,0,1,52,0
2017/10,初級2C,1710019,李歌謠,リカヨウ,LIGEYAO,52,0,0,52,0
2017/10,初級2C,1710028,陳慧瀅,チンケイエイ,CHENHUIYING,52,0,1,52,0
2017/10,初級2C,1710033,唐擎,トウケイ,TANGQING,52,0,0,52,0
2017/10,初級2C,1710045,徐悦,ジョエツ,XUYUE,52,0,0,52,0
2017/10,初級2C,1710070,陳思妍,チンシケン,CHENSIYAN,52,0,0,52,0
2017/10,初級2C,1710173,孫越,ソンエツ,SUNYUE,52,0,0,52,0
2017/10,初級2C,1710174,車振群,シャシングン,CHEZHENQUN,52,0,0,52,0
2017/10,初級2C,1710194,劉暁鈺,リュウギョウギョク,LIUXIAOYU,52,0,0,52,0
2017/10,初級2D,1704067,趙澤鳴,チョウタクメイ,ZHAOZEMING,52,4,0,48,1
2017/10,初級2D,1704080,郭亜博,カクアハク,GUOYABO,52,4,4,47,1
2017/10,初級2D,1704103,柯俊羽,カシュンウ,KEJUNYU,52,16,1,36,4
2017/10,初級2D,1704107,韓非,カンヒ,HANFEI,52,8,3,43,2
2017/10,初級2D,1704110,郭亮廷,カクリョウテイ,GUOLIANGTING,52,0,0,52,0
2017/10,初級2D,1704122,,グェンヒュ　ハイ,"NGUYENHUU HAI",52,0,0,52,0
2017/10,初級2D,1704123,,グェンヴァン　ティエン,"NGUYENVAN TIEN",52,4,1,48,1
2017/10,初級2D,1704128,,サプコタプロティマ,SAPKOTAPRATIMA,52,0,0,52,0
2017/10,初級2D,1704138,,デザールアシク,DESARASHIK,52,1,0,51,0
2017/10,初級2D,1704140,,ラムテルアンザン,RAMTELANJAN,52,1,0,51,0
2017/10,初級2D,1704141,,マハルジャンサニス,MAHARJANSANISH,52,0,2,52,0
2017/10,初級2D,1704144,,ドラルガガン,DULALGAGAN,52,0,0,52,0
2017/10,初級2D,1704145,,バトライブザ,BHATTARAIPUJA,52,0,1,52,0
2017/10,初級2D,1707067,鄧壁炎,トウヘキエン,DENGBIYAN,52,0,0,52,0
2017/10,初級2D,1707076,秦一明,シンイチメイ,QINYIMING,52,0,0,52,0
2017/10,初級2D,1707079,郭文琦,カクブンキ,GUOWENQI,52,0,0,52,0
2017/10,初級2D,1707086,鄭欣瑩,テイキンエイ,ZHENGXINYING,52,0,0,52,0
2017/10,初級2D,1710017,李志原,リシゲン,LIZHIYUAN,52,0,0,52,0
2017/10,初級2D,1710065,古楊,コヨウ,GUYANG,52,0,0,52,0
2017/10,初級2D,1710105,郭休,カクキュウ,GUOXIU,52,0,0,52,0
2017/10,初級2E,1610047,,ゴティ　フオン　レ,"NGOTHI PHUONG LE",52,0,0,52,0
2017/10,初級2E,1704005,唐可萱,トウカケン,TANGKEXUAN,52,16,0,36,4
2017/10,初級2E,1704028,高元昊,コウゲンコウ,GAOYUANHAO,52,8,0,44,2
2017/10,初級2E,1704032,董振博,トウシンバク,DONGZHENBO,52,4,0,48,1
2017/10,初級2E,1704056,劉弦,リュウゲン,LIUXIAN,52,9,0,43,2
2017/10,初級2E,1704063,姜惠涛,キョウケイトウ,JIANGHUITAO,52,4,4,47,1
2017/10,初級2E,1704124,,ファムティ　マイ,"PHAMTHI MAI",52,32,2,20,8
2017/10,初級2E,1704129,,スベティスリザナ,SUBEDISRIJANA,52,4,1,48,1
2017/10,初級2E,1704142,,マハルジャンスジ,MAHARJANSUJI,52,0,0,52,0
2017/10,初級2E,1704143,,ビスタロザン,BISTAROSHAN,52,0,1,52,0
2017/10,初級2E,1704149,,タクリマナ　クマリ,"THAKURIMANA KUMARI",52,0,0,52,0
2017/10,初級2E,1704150,,シュレスタナビン,SHRESTHANABIN,52,4,0,48,1
2017/10,初級2E,1707049,劉褘晨,リュウイシン,LIUYICHEN,52,4,3,47,1
2017/10,初級2E,1707052,曽路堯,ソウロギョウ,ZENGLUYAO,52,0,0,52,0
2017/10,初級2E,1707058,徐希来,ジョキライ,XUXILAI,52,1,0,51,0
2017/10,初級2E,1707071,傅振寧,フシンネイ,FUZHENNING,52,0,1,52,0
2017/10,初級2E,1707092,,ジュラエフバイラム,JURAEVBAYRAM,52,0,4,51,0
2017/10,初級2E,1707095,曽培源,ソウバイゲン,ZENGPEIYUAN,52,1,2,51,0
2017/10,初級2E,1710008,田冰茹,デンヒョウジョ,TIANBINGRU,52,0,0,52,0
2017/10,初級2E,1710023,韓思明,カンシメイ,HANSIMING,52,0,0,52,0
2017/10,初級1A,1710005,万玉禅,マンギョクセン,WANYUCHAN,52,0,0,52,0
2017/10,初級1A,1710032,李南静,リナンセイ,LINANJING,52,0,0,52,0
2017/10,初級1A,1710042,郭睿,カクエイ,GUORUI,52,1,0,51,0
2017/10,初級1A,1710048,陳青嵩,チンセイスウ,CHENQINGSONG,52,4,0,48,1
2017/10,初級1A,1710050,陳楚蕉,チンソショウ,CHENCHUJIAO,52,0,0,52,0
2017/10,初級1A,1710056,張婧涵,チョウセイカン,ZHANGJINGHAN,52,0,0,52,0
2017/10,初級1A,1710058,李金彤,リキントウ,LIJINTONG,52,0,1,52,0
2017/10,初級1A,1710068,李遙,リヨウ,LIYAO,52,0,0,52,0
2017/10,初級1A,1710075,林文浩,リンブンコウ,LINWENHAO,52,0,0,52,0
2017/10,初級1A,1710077,鄒娜,スウナ,ZOUNA,52,0,0,52,0
2017/10,初級1A,1710083,邵凡奇,ショウハンキ,SHAOFANQI,52,0,0,52,0
2017/10,初級1A,1710084,蘇雅,ソガ,SUYA,52,0,0,52,0
2017/10,初級1A,1710092,年瑩,ネンエイ,NIANYING,52,0,0,52,0
2017/10,初級1A,1710118,陳珣韜,チンシュントウ,CHENXUNTAO,52,0,0,52,0
2017/10,初級1A,1710158,趙雨欣,チョウウキン,ZHAOYUXIN,52,2,0,50,0
2017/10,初級1A,1710178,林振業,リンシンギョウ,LINZHENYE,52,4,0,48,1
2017/10,初級1A,1710180,李馨寧,リケイネイ,LIXINNING,52,0,0,52,0
2017/10,初級1A,1710209,李昕楠,リキンナン,LIXINNAN,52,4,1,48,1
2017/10,初級1A,1710218,,チャンヒゥ　クォン,"TRANHUU CUONG",52,0,0,52,0
2017/10,初級1A,1710219,,ルォンチュン　ヒゥ,"LUONGTRUNG HIEU",52,0,0,52,0
2017/10,初級1B,1704030,劉星雨,リュウセイウ,LIUXINGYU,52,4,0,48,1
2017/10,初級1B,1704151,,グルンラゼンドラ,GURUNGRAJENDRA,52,1,1,51,0
2017/10,初級1B,1710009,劉春建,リュウシュンケン,LIUCHUNJIAN,52,0,0,52,0
2017/10,初級1B,1710012,李欣悦,リキンエツ,LIXINYUE,52,0,0,52,0
2017/10,初級1B,1710020,李竺妍,リジクケン,LIZHUYAN,52,0,0,52,0
2017/10,初級1B,1710021,李婉欣,リエンキン,LIWANXIN,52,0,0,52,0
2017/10,初級1B,1710038,王堃,オウコン,WANGKUN,52,0,0,52,0
2017/10,初級1B,1710076,羅愫,ラソ,LUOSU,52,0,0,52,0
2017/10,初級1B,1710087,劉嘉鑫,リュウカキン,LIUJIAXIN,52,4,0,48,1
2017/10,初級1B,1710109,戴辰航舟,タイシンコウシュウ,DAICHENHANGZHOU,52,0,0,52,0
2017/10,初級1B,1710127,楊暁,ヨウギョウバイ,YANGXIAOBEI,52,2,3,49,0
2017/10,初級1B,1710136,王海燕,オウカイエン,WANGHAIYAN,52,0,0,52,0
2017/10,初級1B,1710149,李翊,リヨク,LIYI,52,0,2,52,0
2017/10,初級1B,1710150,李子陽,リシヨウ,LIZIYANG,52,0,0,52,0
2017/10,初級1B,1710156,常潤杰,ジョウジュンケツ,CHANGRUNJIE,52,1,0,51,0
2017/10,初級1B,1710182,陳莉薇,チンリビ,CHENLIWEI,52,0,0,52,0
2017/10,初級1B,1710191,李昕心,リキンシン,LIXINXIN,52,0,0,52,0
2017/10,初級1B,1710199,曹曦木,ソウギボク,CAOXIMU,52,0,0,52,0
2017/10,初級1B,1710222,,ドァンジェウ　リン,"DOANDIEU LINH",52,1,0,51,0
2017/10,初級1B,1710224,,チャンティ　フェン,"TRANTHI HUYEN",52,4,0,48,1
2017/10,初級1C,1707034,叶家銘,ヨウカメイ,YEJIAMING,52,0,0,52,0
2017/10,初級1C,1707085,盧億,ロオク,LUYI,52,2,0,50,0
2017/10,初級1C,1710001,倪意遙,ゲイイヨウ,NIYIYAO,52,0,0,52,0
2017/10,初級1C,1710011,張灵昊,チョウレイコウ,ZHANGLINGHAO,52,0,0,52,0
2017/10,初級1C,1710025,曹安琪,ソウアンキ,CAOANQI,52,0,0,52,0
2017/10,初級1C,1710039,羅晗,ライカン,LUOYIHAN,52,0,3,51,0
2017/10,初級1C,1710044,張旭,チョウキョク,ZHANGXU,52,0,0,52,0
2017/10,初級1C,1710053,関梓彤,カンシトウ,GUANZITONG,52,0,0,52,0
2017/10,初級1C,1710082,趙珈慧,チョウカケイ,ZHAOJIAHUI,52,4,0,48,1
2017/10,初級1C,1710088,羅竣天,ラシュンテン,LUOJUNTIAN,52,0,0,52,0
2017/10,初級1C,1710098,趙子韜,チョウシトウ,ZHAOZITAO,52,0,0,52,0
2017/10,初級1C,1710102,陳詩雨,チンシウ,CHENSHIYU,52,0,0,52,0
2017/10,初級1C,1710110,謝玉婷,シャギョクテイ,XIEYUTING,52,0,0,52,0
2017/10,初級1C,1710112,朱墨,,ZHUMO,52,0,0,52,0
2017/10,初級1C,1710133,陳琦,チンキ,CHENQI,52,0,0,52,0
2017/10,初級1C,1710157,銭江,センコウ,QIANJIANG,52,0,0,52,0
2017/10,初級1C,1710169,王芷漪,オウシイ,WANGZHIYI,52,0,0,52,0
2017/10,初級1C,1710198,温昶杉,オンチョウサン,WENCHANGSHAN,52,0,0,52,0
2017/10,初級1C,1710202,向嫣然,コウエンゼン,XIANGYANRAN,52,0,1,52,0
2017/10,初級1C,1710207,王佳欣,オウカキン,WANGJIAXIN,52,0,0,52,0
2017/10,初級1D,1610050,,ドヴィエット　ロン,"DOVIET LONG",52,4,2,48,0
2017/10,初級1D,1707083,庄顔,ショウガン,ZHUANGYAN,52,8,5,43,1
2017/10,初級1D,1710010,孫雪,ソンセツ,SUNXUE,52,0,0,52,0
2017/10,初級1D,1710016,周彦冰,シュウゲンヒョウ,ZHOUYANBING,52,0,0,52,0
2017/10,初級1D,1710046,周予誠,シュウヨセイ,ZHOUYUCHENG,52,0,1,52,0
2017/10,初級1D,1710063,張嘉辰,チョウカシン,ZHANGJIACHEN,52,3,2,49,0
2017/10,初級1D,1710064,趙婉伊,チョウエンイ,ZHAOWANYI,52,0,1,52,0
2017/10,初級1D,1710071,郭小菁,カクショウセイ,GUOXIAOJING,52,4,2,48,1
2017/10,初級1D,1710073,傅霖,フリン,FULIN,52,0,0,52,0
2017/10,初級1D,1710090,張智泓,チョウチオウ,ZHANGZHIHONG,52,13,2,39,3
2017/10,初級1D,1710091,于淞華,ウショウカ,YUSONGHUA,52,0,0,52,0
2017/10,初級1D,1710104,張瑜,チョウユ,ZHANGYU,52,0,0,52,0
2017/10,初級1D,1710141,陳奕熹,チンエキキ,CHENYIXI,52,0,0,52,0
2017/10,初級1D,1710204,韓雲峰,カンウンホウ,HANYUNFENG,52,4,0,48,0
2017/10,初級1D,1710208,劉俊駒,リュウシュンク,LIUJUNJU,52,0,0,52,0
2017/10,初級1D,1710211,陳暁杉,チンギョウサン,CHENXIAOSHAN,52,0,2,52,0
2017/10,初級1D,1710241,,ルペシュヨンジャン,RUPESHYONJAN,44,16,0,28,4
2017/10,初級1D,1710243,,タパラマ　クマル,"THAPA RAM KUMAR ",44,0,0,44,0
2017/10,初級1E,1707045,,リキョウ,LIXIANG,52,4,0,48,1
2017/10,初級1E,1710002,丘琳,キュウリン,QIULIN,52,0,0,52,0
2017/10,初級1E,1710022,呉昊鵬,ゴコウホウ,WUHAOPENG,52,0,0,52,0
2017/10,初級1E,1710027,張亜妮,チョウアジ,ZHANGYANI,52,0,0,52,0
2017/10,初級1E,1710037,王東晗,オウトウカン,WANGDONGHAN,52,0,0,52,0
2017/10,初級1E,1710049,宋声伶,ソウセイレイ,SONGSHENGLING,52,0,0,52,0
2017/10,初級1E,1710051,姚卓,ヨウタク,YAOZHUO,52,0,0,52,0
2017/10,初級1E,1710055,魏傳哲,ギテンテツ,WEICHUANZHE,52,0,0,52,0
2017/10,初級1E,1710062,王逸飛,オウイツヒ,WANGYIFEI,52,0,0,52,0
2017/10,初級1E,1710086,陳壮奇,チンソウキ,CHENZHUANGQI,52,0,0,52,0
2017/10,初級1E,1710095,白恩達,ハクオンタツ,BAIENDA,52,0,0,52,0
2017/10,初級1E,1710139,何佳雯,カカブン,HEJIAWEN,52,0,0,52,0
2017/10,初級1E,1710151,毛凡,モウハン,MAOFAN,52,0,0,52,0
2017/10,初級1E,1710153,呉偉康,ゴイコウ,WUWEIKANG,52,0,0,52,0
2017/10,初級1E,1710171,徐艶紅,ジョエンコウ,XUYANHONG,40,16,0,24,4
2017/10,初級1E,1710210,鄭婧,テイセイ,ZHENGJING,52,0,0,52,0
2017/10,初級1E,9917039,蔡云鹏,サイウンホウ,,52,0,0,52,0
2017/10,初級1F,1710006,劉晢言,リュウテツゲン,LIUZHEYAN,52,0,1,52,0
2017/10,初級1F,1710067,張倩,チョウセイ,ZHANGQIAN,52,0,0,52,0
2017/10,初級1F,1710089,劉崇徳,リュウスウトク,LIUCHONGDE,52,0,0,52,0
2017/10,初級1F,1710094,楊謹鳴,ヨウキンメイ,YANGJINMING,52,0,1,52,0
2017/10,初級1F,1710097,孔暁暉,コウギョウキ,KONGXIAOHUI,52,0,0,52,0
2017/10,初級1F,1710116,曲奇,キョクキ,QUQI,52,0,0,52,0
2017/10,初級1F,1710162,劉継龍,リュウケイリュウ,LIUJILONG,52,0,0,52,0
2017/10,初級1F,1710166,丁九州,テイキュウシュウ,DINGJIUZHOU,52,0,0,52,0
2017/10,初級1F,1710179,李波云,リハウン,LIBOYUN,52,0,0,52,0
2017/10,初級1F,1710192,黄雨嫣,コウウエン,HUANGYUYAN,52,4,0,48,1
2017/10,初級1F,1710206,彭軼兆,ホウイッチョウ,PENGYIZHAO,40,0,0,40,0
2017/10,初級1F,1710213,秦琦翔,シンキショウ,QINQIXIANG,52,0,0,52,0
2017/10,初級1F,1710214,耿継業,コウケイギョウ,GENGJIYE,52,0,0,52,0
2017/10,初級1F,1710215,曽志豪,ソウシゴウ,ZENGZHIHAO,52,0,0,52,0
2017/10,初級1F,1710223,,レヒェン　ホア,"LEHIEN HOA",52,0,0,52,0
2017/10,初級1F,1710225,,コンティ　リン,"KHONGTHI LINH",52,0,0,52,0
2017/10,初級1F,9917044,陳微,チンビ,,52,8,3,43,2
2017/10,初級1G,1710003,袁杰,エンケツ,YUANJIE,52,0,0,52,0
2017/10,初級1G,1710059,王聖淇,オウコツキ,WANGSHENGQI,52,16,0,36,4
2017/10,初級1G,1710099,姚褘明,ヨウイメイ,YAOYIMING,52,0,0,52,0
2017/10,初級1G,1710101,呉廸,ゴテキ,WUDI,52,0,0,52,0
2017/10,初級1G,1710117,魯怡瑩,ロイエイ,LUYIYING,52,0,0,52,0
2017/10,初級1G,1710119,万佳穎,マンカエイ,WANJIAYING,52,21,0,31,5
2017/10,初級1G,1710122,王鶴霖,オウカクリン,WANGHELIN,52,0,0,52,0
2017/10,初級1G,1710123,曹馨元,ソウケイゲン,CAOXINYUAN,52,0,0,52,0
2017/10,初級1G,1710125,陳逢天,チンホウテン,CHENFENGTIAN,52,0,0,52,0
2017/10,初級1G,1710131,蘇澤,ソタク,SUZE,52,0,0,52,0
2017/10,初級1G,1710163,樊万青,ハンマンセイ,FANWANQING,52,4,0,48,1
2017/10,初級1G,1710165,卓冉,タクゼン,ZHUORAN,52,0,0,52,0
2017/10,初級1G,1710176,洪　昕,コウイキン,HONGWEIXIN,52,0,0,52,0
2017/10,初級1G,1710183,陳侯宇,チンコウウ,CHENHOUYU,52,0,0,52,0
2017/10,初級1G,1710186,翁慶暁,オウケイギョウ,WENGQINGXIAO,52,0,0,52,0
2017/10,初級1G,1710189,何学良,カガクリョウ,HEXUELIANG,52,0,0,52,0
2017/10,初級1G,1710220,,ズォンバン　カン,"DUONGVAN KHANH",52,0,1,52,0
2017/10,初級1G,1710221,,ゴバ　ソン,"NGOBA SON",52,0,1,52,0
2017/10,初級1H,1710018,張凱,チョウガイ,ZHANGKAI,52,1,0,51,0
2017/10,初級1H,1710030,李辰洋,リシンヨウ,LICHENYANG,52,0,0,52,0
2017/10,初級1H,1710036,王徳強,オウトクキョウ,WANGDEQIANG,52,0,1,52,0
2017/10,初級1H,1710040,包雯蕊,ホウブンズイ,BAOWENRUI,52,0,0,52,0
2017/10,初級1H,1710047,関義霖,カンギリン,GUANYILIN,52,0,0,52,0
2017/10,初級1H,1710066,張　煜,チョウイク,ZHANGYU,52,4,1,48,1
2017/10,初級1H,1710069,謝天林,シャテンリン,XIETIANLIN,52,0,0,52,0
2017/10,初級1H,1710108,丁志民,テイシミン,DINGZHIMIN,52,0,0,52,0
2017/10,初級1H,1710120,邢澤美,ケイタクビ,XINGZEMEI,52,1,4,50,0
2017/10,初級1H,1710140,陳俊霖,チンシュウリン,CHENJUNLIN,52,0,0,52,0
2017/10,初級1H,1710142,張丹丹,チョウタンタン,ZHANGDANDAN,52,0,2,52,0
2017/10,初級1H,1710143,林枝瑩,リンシエイ,LINZHIYING,52,0,0,52,0
2017/10,初級1H,1710187,李詩倩,リシセイ,LISHIQIAN,52,0,1,52,0
2017/10,初級1H,1710200,黄景波,コウケイハ,HUANGJINGBO,52,0,0,52,0
2017/10,初級1H,1710216,陳嘉昕,チンカキン,CHANKAIAN,52,0,2,52,0
2017/10,初級1H,1710229,,ラナムハンマド　ソビアヤル,"RANAMUHAMMAD SOBIAYAL",52,0,0,52,0
2017/10,初級1H,1710234,,ドゥルガシュレスタ,DURGASHRESTHA,36,1,0,35,0
2017/10,初級1H,1710246,,スクマヤ　グルン,"SUKUMAYA GURUNG",36,0,0,36,0
