﻿id,school_year_id,school_term_id,date,is_public_holiday,is_school_holiday,lastup_account_id,create_datetime,lastup_datetime,disable
1,33,129,2017-04-01,1,1,0,2017-07-04 09:11:09,2017-07-04 09:11:09,0
2,33,129,2017-04-02,1,1,0,2017-07-04 09:11:09,2017-07-04 09:11:09,0
3,33,129,2017-04-03,0,1,0,2017-07-04 09:11:09,2017-07-04 09:11:09,0
4,33,129,2017-04-04,0,1,0,2017-07-04 09:11:09,2017-07-04 09:11:09,0
5,33,129,2017-04-05,0,1,0,2017-07-04 09:11:09,2017-07-04 09:11:09,0
6,33,129,2017-04-06,0,1,0,2017-07-04 09:11:09,2017-07-04 09:11:09,0
7,33,129,2017-04-07,0,1,0,2017-07-04 09:11:09,2017-07-04 09:11:09,0
8,33,129,2017-04-08,1,1,0,2017-07-04 09:11:09,2017-07-04 09:11:09,0
9,33,129,2017-04-09,1,1,0,2017-07-04 09:11:09,2017-07-04 09:11:09,0
10,33,129,2017-04-10,0,1,0,2017-07-04 09:11:09,2017-07-04 09:11:09,0
11,33,129,2017-04-11,0,1,0,2017-07-04 09:11:09,2017-07-04 09:11:09,0
12,33,129,2017-04-12,0,0,0,2017-07-04 09:11:09,2017-07-04 09:11:09,0
13,33,129,2017-04-13,0,0,0,2017-07-04 09:11:09,2017-07-04 09:11:09,0
14,33,129,2017-04-14,0,0,0,2017-07-04 09:11:09,2017-07-04 09:11:09,0
15,33,129,2017-04-15,1,1,0,2017-07-04 09:11:09,2017-07-04 09:11:09,0
16,33,129,2017-04-16,1,1,0,2017-07-04 09:11:09,2017-07-04 09:11:09,0
17,33,129,2017-04-17,0,0,0,2017-07-04 09:11:09,2017-07-04 09:11:09,0
18,33,129,2017-04-18,0,0,0,2017-07-04 09:11:09,2017-07-04 09:11:09,0
19,33,129,2017-04-19,0,0,0,2017-07-04 09:11:09,2017-07-04 09:11:09,0
20,33,129,2017-04-20,0,0,0,2017-07-04 09:11:09,2017-07-04 09:11:09,0
21,33,129,2017-04-21,0,0,0,2017-07-04 09:11:09,2017-07-04 09:11:09,0
22,33,129,2017-04-22,1,1,0,2017-07-04 09:11:09,2017-07-04 09:11:09,0
23,33,129,2017-04-23,1,1,0,2017-07-04 09:11:09,2017-07-04 09:11:09,0
24,33,129,2017-04-24,0,0,0,2017-07-04 09:11:09,2017-07-04 09:11:09,0
25,33,129,2017-04-25,0,0,0,2017-07-04 09:11:09,2017-07-04 09:11:09,0
26,33,129,2017-04-26,0,0,0,2017-07-04 09:11:09,2017-07-04 09:11:09,0
27,33,129,2017-04-27,0,0,0,2017-07-04 09:11:09,2017-07-04 09:11:09,0
28,33,129,2017-04-28,0,0,0,2017-07-04 09:11:09,2017-07-04 09:11:09,0
29,33,129,2017-04-29,1,1,0,2017-07-04 09:11:09,2017-07-04 09:11:09,0
30,33,129,2017-04-30,1,1,0,2017-07-04 09:11:09,2017-07-04 09:11:09,0
31,33,129,2017-05-01,0,1,0,2017-07-04 09:11:09,2017-07-04 09:11:09,0
32,33,129,2017-05-02,0,1,0,2017-07-04 09:11:09,2017-07-04 09:11:09,0
33,33,129,2017-05-03,1,1,0,2017-07-04 09:11:09,2017-07-04 09:11:09,0
34,33,129,2017-05-04,1,1,0,2017-07-04 09:11:09,2017-07-04 09:11:09,0
35,33,129,2017-05-05,1,1,0,2017-07-04 09:11:09,2017-07-04 09:11:09,0
36,33,129,2017-05-06,1,1,0,2017-07-04 09:11:09,2017-07-04 09:11:09,0
37,33,129,2017-05-07,1,1,0,2017-07-04 09:11:09,2017-07-04 09:11:09,0
38,33,129,2017-05-08,0,0,0,2017-07-04 09:11:09,2017-07-04 09:11:09,0
39,33,129,2017-05-09,0,0,0,2017-07-04 09:11:09,2017-07-04 09:11:09,0
40,33,129,2017-05-10,0,0,0,2017-07-04 09:11:09,2017-07-04 09:11:09,0
41,33,129,2017-05-11,0,0,0,2017-07-04 09:11:09,2017-07-04 09:11:09,0
42,33,129,2017-05-12,0,0,0,2017-07-04 09:11:09,2017-07-04 09:11:09,0
43,33,129,2017-05-13,1,1,0,2017-07-04 09:11:09,2017-07-04 09:11:09,0
44,33,129,2017-05-14,1,1,0,2017-07-04 09:11:09,2017-07-04 09:11:09,0
45,33,129,2017-05-15,0,0,0,2017-07-04 09:11:09,2017-07-04 09:11:09,0
46,33,129,2017-05-16,0,0,0,2017-07-04 09:11:09,2017-07-04 09:11:09,0
47,33,129,2017-05-17,0,0,0,2017-07-04 09:11:09,2017-07-04 09:11:09,0
48,33,129,2017-05-18,0,0,0,2017-07-04 09:11:09,2017-07-04 09:11:09,0
49,33,129,2017-05-19,0,0,0,2017-07-04 09:11:09,2017-07-04 09:11:09,0
50,33,129,2017-05-20,1,1,0,2017-07-04 09:11:09,2017-07-04 09:11:09,0
51,33,129,2017-05-21,1,1,0,2017-07-04 09:11:09,2017-07-04 09:11:09,0
52,33,129,2017-05-22,0,0,0,2017-07-04 09:11:09,2017-07-04 09:11:09,0
53,33,129,2017-05-23,0,0,0,2017-07-04 09:11:09,2017-07-04 09:11:09,0
54,33,129,2017-05-24,0,0,0,2017-07-04 09:11:09,2017-07-04 09:11:09,0
55,33,129,2017-05-25,0,0,0,2017-07-04 09:11:09,2017-07-04 09:11:09,0
56,33,129,2017-05-26,0,0,0,2017-07-04 09:11:09,2017-07-04 09:11:09,0
57,33,129,2017-05-27,1,1,0,2017-07-04 09:11:09,2017-07-04 09:11:09,0
58,33,129,2017-05-28,1,1,0,2017-07-04 09:11:09,2017-07-04 09:11:09,0
59,33,129,2017-05-29,0,0,0,2017-07-04 09:11:09,2017-07-04 09:11:09,0
60,33,129,2017-05-30,0,0,0,2017-07-04 09:11:09,2017-07-04 09:11:09,0
61,33,129,2017-05-31,0,0,0,2017-07-04 09:11:09,2017-07-04 09:11:09,0
62,33,129,2017-06-01,0,0,0,2017-07-04 09:11:09,2017-07-04 09:11:09,0
63,33,129,2017-06-02,0,0,0,2017-07-04 09:11:09,2017-07-04 09:11:09,0
64,33,129,2017-06-03,1,1,0,2017-07-04 09:11:09,2017-07-04 09:11:09,0
65,33,129,2017-06-04,1,1,0,2017-07-04 09:11:09,2017-07-04 09:11:09,0
66,33,129,2017-06-05,0,0,0,2017-07-04 09:11:09,2017-07-04 09:11:09,0
67,33,129,2017-06-06,0,0,0,2017-07-04 09:11:09,2017-07-04 09:11:09,0
68,33,129,2017-06-07,0,0,0,2017-07-04 09:11:09,2017-07-04 09:11:09,0
69,33,129,2017-06-08,0,0,0,2017-07-04 09:11:09,2017-07-04 09:11:09,0
70,33,129,2017-06-09,0,0,0,2017-07-04 09:11:09,2017-07-04 09:11:09,0
71,33,129,2017-06-10,1,1,0,2017-07-04 09:11:09,2017-07-04 09:11:09,0
72,33,129,2017-06-11,1,1,0,2017-07-04 09:11:09,2017-07-04 09:11:09,0
73,33,129,2017-06-12,0,0,0,2017-07-04 09:11:09,2017-07-04 09:11:09,0
74,33,129,2017-06-13,0,0,0,2017-07-04 09:11:09,2017-07-04 09:11:09,0
75,33,129,2017-06-14,0,0,0,2017-07-04 09:11:09,2017-07-04 09:11:09,0
76,33,129,2017-06-15,0,0,0,2017-07-04 09:11:09,2017-07-04 09:11:09,0
77,33,129,2017-06-16,0,0,0,2017-07-04 09:11:09,2017-07-04 09:11:09,0
78,33,129,2017-06-17,1,1,0,2017-07-04 09:11:09,2017-07-04 09:11:09,0
79,33,129,2017-06-18,1,1,0,2017-07-04 09:11:09,2017-07-04 09:11:09,0
80,33,129,2017-06-19,0,0,0,2017-07-04 09:11:09,2017-07-04 09:11:09,0
81,33,129,2017-06-20,0,0,0,2017-07-04 09:11:09,2017-07-04 09:11:09,0
82,33,129,2017-06-21,0,0,0,2017-07-04 09:11:09,2017-07-04 09:11:09,0
83,33,129,2017-06-22,0,0,0,2017-07-04 09:11:09,2017-07-04 09:11:09,0
84,33,129,2017-06-23,0,0,0,2017-07-04 09:11:09,2017-07-04 09:11:09,0
85,33,129,2017-06-24,1,1,0,2017-07-04 09:11:09,2017-07-04 09:11:09,0
86,33,129,2017-06-25,1,1,0,2017-07-04 09:11:09,2017-07-04 09:11:09,0
87,33,129,2017-06-26,0,1,0,2017-07-04 09:11:09,2017-07-04 09:11:09,0
88,33,129,2017-06-27,0,1,0,2017-07-04 09:11:09,2017-07-04 09:11:09,0
89,33,129,2017-06-28,0,1,0,2017-07-04 09:11:09,2017-07-04 09:11:09,0
90,33,129,2017-06-29,0,1,0,2017-07-04 09:11:09,2017-07-04 09:11:09,0
91,33,129,2017-06-30,0,1,0,2017-07-04 09:11:09,2017-07-04 09:11:09,0
92,33,130,2017-07-01,1,1,0,2017-07-04 09:11:09,2017-07-04 09:11:09,0
93,33,130,2017-07-02,1,1,0,2017-07-04 09:11:09,2017-07-04 09:11:09,0
94,33,130,2017-07-03,0,1,0,2017-07-04 09:11:09,2017-07-04 09:11:09,0
95,33,130,2017-07-04,0,1,0,2017-07-04 09:11:09,2017-07-04 09:11:09,0
96,33,130,2017-07-05,0,1,0,2017-07-04 09:11:09,2017-07-04 09:11:09,0
97,33,130,2017-07-06,0,1,0,2017-07-04 09:11:09,2017-07-04 09:11:09,0
98,33,130,2017-07-07,0,1,0,2017-07-04 09:11:09,2017-07-04 09:11:09,0
99,33,130,2017-07-08,1,1,0,2017-07-04 09:11:09,2017-07-04 09:11:09,0
100,33,130,2017-07-09,1,1,0,2017-07-04 09:11:09,2017-07-04 09:11:09,0
101,33,130,2017-07-10,0,1,0,2017-07-04 09:11:09,2017-07-04 09:11:09,0
102,33,130,2017-07-11,0,0,0,2017-07-04 09:11:09,2017-07-04 09:11:09,0
103,33,130,2017-07-12,0,0,0,2017-07-04 09:11:09,2017-07-04 09:11:09,0
104,33,130,2017-07-13,0,0,0,2017-07-04 09:11:09,2017-07-04 09:11:09,0
105,33,130,2017-07-14,0,0,0,2017-07-04 09:11:09,2017-07-04 09:11:09,0
106,33,130,2017-07-15,1,1,0,2017-07-04 09:11:09,2017-07-04 09:11:09,0
107,33,130,2017-07-16,1,1,0,2017-07-04 09:11:09,2017-07-04 09:11:09,0
108,33,130,2017-07-17,1,1,0,2017-07-04 09:11:09,2017-07-04 09:11:09,0
109,33,130,2017-07-18,0,0,0,2017-07-04 09:11:09,2017-07-04 09:11:09,0
110,33,130,2017-07-19,0,0,0,2017-07-04 09:11:09,2017-07-04 09:11:09,0
111,33,130,2017-07-20,0,0,0,2017-07-04 09:11:09,2017-07-04 09:11:09,0
112,33,130,2017-07-21,0,0,0,2017-07-04 09:11:09,2017-07-04 09:11:09,0
113,33,130,2017-07-22,1,1,0,2017-07-04 09:11:09,2017-07-04 09:11:09,0
114,33,130,2017-07-23,1,1,0,2017-07-04 09:11:09,2017-07-04 09:11:09,0
115,33,130,2017-07-24,0,0,0,2017-07-04 09:11:09,2017-07-04 09:11:09,0
116,33,130,2017-07-25,0,0,0,2017-07-04 09:11:09,2017-07-04 09:11:09,0
117,33,130,2017-07-26,0,0,0,2017-07-04 09:11:09,2017-07-04 09:11:09,0
118,33,130,2017-07-27,0,0,0,2017-07-04 09:11:09,2017-07-04 09:11:09,0
119,33,130,2017-07-28,0,0,0,2017-07-04 09:11:09,2017-07-04 09:11:09,0
120,33,130,2017-07-29,1,1,0,2017-07-04 09:11:09,2017-07-04 09:11:09,0
121,33,130,2017-07-30,1,1,0,2017-07-04 09:11:09,2017-07-04 09:11:09,0
122,33,130,2017-07-31,0,0,0,2017-07-04 09:11:09,2017-07-04 09:11:09,0
123,33,130,2017-08-01,0,0,0,2017-07-04 09:11:09,2017-07-04 09:11:09,0
124,33,130,2017-08-02,0,0,0,2017-07-04 09:11:09,2017-07-04 09:11:09,0
125,33,130,2017-08-03,0,0,0,2017-07-04 09:11:09,2017-07-04 09:11:09,0
126,33,130,2017-08-04,0,0,0,2017-07-04 09:11:09,2017-07-04 09:11:09,0
127,33,130,2017-08-05,1,1,0,2017-07-04 09:11:09,2017-07-04 09:11:09,0
128,33,130,2017-08-06,1,1,0,2017-07-04 09:11:09,2017-07-04 09:11:09,0
129,33,130,2017-08-07,0,1,0,2017-07-04 09:11:09,2017-07-04 09:11:09,0
130,33,130,2017-08-08,0,1,0,2017-07-04 09:11:09,2017-07-04 09:11:09,0
131,33,130,2017-08-09,0,1,0,2017-07-04 09:11:09,2017-07-04 09:11:09,0
132,33,130,2017-08-10,0,1,0,2017-07-04 09:11:09,2017-07-04 09:11:09,0
133,33,130,2017-08-11,0,1,0,2017-07-04 09:11:09,2017-07-04 09:11:09,0
134,33,130,2017-08-12,1,1,0,2017-07-04 09:11:09,2017-07-04 09:11:09,0
135,33,130,2017-08-13,1,1,0,2017-07-04 09:11:09,2017-07-04 09:11:09,0
136,33,130,2017-08-14,0,1,0,2017-07-04 09:11:09,2017-07-04 09:11:09,0
137,33,130,2017-08-15,0,1,0,2017-07-04 09:11:09,2017-07-04 09:11:09,0
138,33,130,2017-08-16,0,1,0,2017-07-04 09:11:09,2017-07-04 09:11:09,0
139,33,130,2017-08-17,0,0,0,2017-07-04 09:11:09,2017-07-04 09:11:09,0
140,33,130,2017-08-18,0,0,0,2017-07-04 09:11:09,2017-07-04 09:11:09,0
141,33,130,2017-08-19,1,1,0,2017-07-04 09:11:09,2017-07-04 09:11:09,0
142,33,130,2017-08-20,1,1,0,2017-07-04 09:11:09,2017-07-04 09:11:09,0
143,33,130,2017-08-21,0,0,0,2017-07-04 09:11:09,2017-07-04 09:11:09,0
144,33,130,2017-08-22,0,0,0,2017-07-04 09:11:09,2017-07-04 09:11:09,0
145,33,130,2017-08-23,0,0,0,2017-07-04 09:11:09,2017-07-04 09:11:09,0
146,33,130,2017-08-24,0,0,0,2017-07-04 09:11:09,2017-07-04 09:11:09,0
147,33,130,2017-08-25,0,0,0,2017-07-04 09:11:09,2017-07-04 09:11:09,0
148,33,130,2017-08-26,1,1,0,2017-07-04 09:11:09,2017-07-04 09:11:09,0
149,33,130,2017-08-27,1,1,0,2017-07-04 09:11:09,2017-07-04 09:11:09,0
150,33,130,2017-08-28,0,0,0,2017-07-04 09:11:09,2017-07-04 09:11:09,0
151,33,130,2017-08-29,0,0,0,2017-07-04 09:11:09,2017-07-04 09:11:09,0
152,33,130,2017-08-30,0,0,0,2017-07-04 09:11:09,2017-07-04 09:11:09,0
153,33,130,2017-08-31,0,0,0,2017-07-04 09:11:09,2017-07-04 09:11:09,0
154,33,130,2017-09-01,0,0,0,2017-07-04 09:11:09,2017-07-04 09:11:09,0
155,33,130,2017-09-02,1,1,0,2017-07-04 09:11:09,2017-07-04 09:11:09,0
156,33,130,2017-09-03,1,1,0,2017-07-04 09:11:09,2017-07-04 09:11:09,0
157,33,130,2017-09-04,0,0,0,2017-07-04 09:11:09,2017-07-04 09:11:09,0
158,33,130,2017-09-05,0,0,0,2017-07-04 09:11:09,2017-07-04 09:11:09,0
159,33,130,2017-09-06,0,0,0,2017-07-04 09:11:09,2017-07-04 09:11:09,0
160,33,130,2017-09-07,0,0,0,2017-07-04 09:11:09,2017-07-04 09:11:09,0
161,33,130,2017-09-08,0,0,0,2017-07-04 09:11:09,2017-07-04 09:11:09,0
162,33,130,2017-09-09,1,1,0,2017-07-04 09:11:09,2017-07-04 09:11:09,0
163,33,130,2017-09-10,1,1,0,2017-07-04 09:11:09,2017-07-04 09:11:09,0
164,33,130,2017-09-11,0,0,0,2017-07-04 09:11:09,2017-07-04 09:11:09,0
165,33,130,2017-09-12,0,0,0,2017-07-04 09:11:09,2017-07-04 09:11:09,0
166,33,130,2017-09-13,0,0,0,2017-07-04 09:11:09,2017-07-04 09:11:09,0
167,33,130,2017-09-14,0,0,0,2017-07-04 09:11:09,2017-07-04 09:11:09,0
168,33,130,2017-09-15,0,0,0,2017-07-04 09:11:09,2017-07-04 09:11:09,0
169,33,130,2017-09-16,1,1,0,2017-07-04 09:11:09,2017-07-04 09:11:09,0
170,33,130,2017-09-17,1,1,0,2017-07-04 09:11:09,2017-07-04 09:11:09,0
171,33,130,2017-09-18,1,1,0,2017-07-04 09:11:09,2017-07-04 09:11:09,0
172,33,130,2017-09-19,0,0,0,2017-07-04 09:11:09,2017-07-04 09:11:09,0
173,33,130,2017-09-20,0,0,0,2017-07-04 09:11:09,2017-07-04 09:11:09,0
174,33,130,2017-09-21,0,0,0,2017-07-04 09:11:09,2017-07-04 09:11:09,0
175,33,130,2017-09-22,0,0,0,2017-07-04 09:11:09,2017-07-04 09:11:09,0
176,33,130,2017-09-23,1,1,0,2017-07-04 09:11:09,2017-07-04 09:11:09,0
177,33,130,2017-09-24,1,1,0,2017-07-04 09:11:09,2017-07-04 09:11:09,0
178,33,130,2017-09-25,0,0,0,2017-07-04 09:11:09,2017-07-04 09:11:09,0
179,33,130,2017-09-26,0,0,0,2017-07-04 09:11:09,2017-07-04 09:11:09,0
180,33,130,2017-09-27,0,0,0,2017-07-04 09:11:09,2017-07-04 09:11:09,0
181,33,130,2017-09-28,0,0,0,2017-07-04 09:11:09,2017-07-04 09:11:09,0
182,33,130,2017-09-29,0,0,0,2017-07-04 09:11:09,2017-07-04 09:11:09,0
183,33,130,2017-09-30,1,1,0,2017-07-04 09:11:09,2017-07-04 09:11:09,0
184,33,131,2017-10-01,1,1,0,2017-07-04 09:11:09,2017-07-04 09:11:09,0
185,33,131,2017-10-02,0,1,0,2017-07-04 09:11:09,2017-07-04 09:11:09,0
186,33,131,2017-10-03,0,1,0,2017-07-04 09:11:09,2017-07-04 09:11:09,0
187,33,131,2017-10-04,0,1,0,2017-07-04 09:11:09,2017-07-04 09:11:09,0
188,33,131,2017-10-05,0,1,0,2017-07-04 09:11:09,2017-07-04 09:11:09,0
189,33,131,2017-10-06,0,1,0,2017-07-04 09:11:09,2017-07-04 09:11:09,0
190,33,131,2017-10-07,1,1,0,2017-07-04 09:11:09,2017-07-04 09:11:09,0
191,33,131,2017-10-08,1,1,0,2017-07-04 09:11:09,2017-07-04 09:11:09,0
192,33,131,2017-10-09,1,1,0,2017-07-04 09:11:09,2017-07-04 09:11:09,0
193,33,131,2017-10-10,0,1,0,2017-07-04 09:11:09,2017-07-04 09:11:09,0
194,33,131,2017-10-11,0,1,0,2017-07-04 09:11:09,2017-07-04 09:11:09,0
195,33,131,2017-10-12,0,0,0,2017-07-04 09:11:09,2017-07-04 09:11:09,0
196,33,131,2017-10-13,0,0,0,2017-07-04 09:11:09,2017-07-04 09:11:09,0
197,33,131,2017-10-14,1,1,0,2017-07-04 09:11:09,2017-07-04 09:11:09,0
198,33,131,2017-10-15,1,1,0,2017-07-04 09:11:09,2017-07-04 09:11:09,0
199,33,131,2017-10-16,0,0,0,2017-07-04 09:11:09,2017-07-04 09:11:09,0
200,33,131,2017-10-17,0,0,0,2017-07-04 09:11:09,2017-07-04 09:11:09,0
201,33,131,2017-10-18,0,0,0,2017-07-04 09:11:09,2017-07-04 09:11:09,0
202,33,131,2017-10-19,0,0,0,2017-07-04 09:11:09,2017-07-04 09:11:09,0
203,33,131,2017-10-20,0,0,0,2017-07-04 09:11:09,2017-07-04 09:11:09,0
204,33,131,2017-10-21,1,1,0,2017-07-04 09:11:09,2017-07-04 09:11:09,0
205,33,131,2017-10-22,1,1,0,2017-07-04 09:11:09,2017-07-04 09:11:09,0
206,33,131,2017-10-23,0,1,0,2017-07-04 09:11:09,2017-07-04 09:11:09,0
207,33,131,2017-10-24,0,0,0,2017-07-04 09:11:09,2017-07-04 09:11:09,0
208,33,131,2017-10-25,0,0,0,2017-07-04 09:11:09,2017-07-04 09:11:09,0
209,33,131,2017-10-26,0,0,0,2017-07-04 09:11:09,2017-07-04 09:11:09,0
210,33,131,2017-10-27,0,0,0,2017-07-04 09:11:09,2017-07-04 09:11:09,0
211,33,131,2017-10-28,1,1,0,2017-07-04 09:11:09,2017-07-04 09:11:09,0
212,33,131,2017-10-29,1,1,0,2017-07-04 09:11:09,2017-07-04 09:11:09,0
213,33,131,2017-10-30,0,0,0,2017-07-04 09:11:09,2017-07-04 09:11:09,0
214,33,131,2017-10-31,0,0,0,2017-07-04 09:11:09,2017-07-04 09:11:09,0
215,33,131,2017-11-01,0,0,0,2017-07-04 09:11:09,2017-07-04 09:11:09,0
216,33,131,2017-11-02,0,0,0,2017-07-04 09:11:09,2017-07-04 09:11:09,0
217,33,131,2017-11-03,1,1,0,2017-07-04 09:11:09,2017-07-04 09:11:09,0
218,33,131,2017-11-04,1,1,0,2017-07-04 09:11:09,2017-07-04 09:11:09,0
219,33,131,2017-11-05,1,1,0,2017-07-04 09:11:09,2017-07-04 09:11:09,0
220,33,131,2017-11-06,0,0,0,2017-07-04 09:11:09,2017-07-04 09:11:09,0
221,33,131,2017-11-07,0,0,0,2017-07-04 09:11:09,2017-07-04 09:11:09,0
222,33,131,2017-11-08,0,0,0,2017-07-04 09:11:09,2017-07-04 09:11:09,0
223,33,131,2017-11-09,0,0,0,2017-07-04 09:11:09,2017-07-04 09:11:09,0
224,33,131,2017-11-10,0,0,0,2017-07-04 09:11:09,2017-07-04 09:11:09,0
225,33,131,2017-11-11,1,1,0,2017-07-04 09:11:09,2017-07-04 09:11:09,0
226,33,131,2017-11-12,1,1,0,2017-07-04 09:11:09,2017-07-04 09:11:09,0
227,33,131,2017-11-13,0,0,0,2017-07-04 09:11:09,2017-07-04 09:11:09,0
228,33,131,2017-11-14,0,0,0,2017-07-04 09:11:09,2017-07-04 09:11:09,0
229,33,131,2017-11-15,0,0,0,2017-07-04 09:11:09,2017-07-04 09:11:09,0
230,33,131,2017-11-16,0,0,0,2017-07-04 09:11:09,2017-07-04 09:11:09,0
231,33,131,2017-11-17,0,0,0,2017-07-04 09:11:09,2017-07-04 09:11:09,0
232,33,131,2017-11-18,1,1,0,2017-07-04 09:11:09,2017-07-04 09:11:09,0
233,33,131,2017-11-19,1,1,0,2017-07-04 09:11:09,2017-07-04 09:11:09,0
234,33,131,2017-11-20,0,0,0,2017-07-04 09:11:09,2017-07-04 09:11:09,0
235,33,131,2017-11-21,0,0,0,2017-07-04 09:11:09,2017-07-04 09:11:09,0
236,33,131,2017-11-22,0,0,0,2017-07-04 09:11:09,2017-07-04 09:11:09,0
237,33,131,2017-11-23,1,1,0,2017-07-04 09:11:09,2017-07-04 09:11:09,0
238,33,131,2017-11-24,0,1,0,2017-07-04 09:11:09,2017-07-04 09:11:09,0
239,33,131,2017-11-25,1,1,0,2017-07-04 09:11:09,2017-07-04 09:11:09,0
240,33,131,2017-11-26,1,1,0,2017-07-04 09:11:09,2017-07-04 09:11:09,0
241,33,131,2017-11-27,0,1,0,2017-07-04 09:11:09,2017-07-04 09:11:09,0
242,33,131,2017-11-28,0,0,0,2017-07-04 09:11:09,2017-07-04 09:11:09,0
243,33,131,2017-11-29,0,0,0,2017-07-04 09:11:09,2017-07-04 09:11:09,0
244,33,131,2017-11-30,0,0,0,2017-07-04 09:11:09,2017-07-04 09:11:09,0
245,33,131,2017-12-01,0,0,0,2017-07-04 09:11:09,2017-07-04 09:11:09,0
246,33,131,2017-12-02,1,1,0,2017-07-04 09:11:09,2017-07-04 09:11:09,0
247,33,131,2017-12-03,1,1,0,2017-07-04 09:11:09,2017-07-04 09:11:09,0
248,33,131,2017-12-04,0,0,0,2017-07-04 09:11:09,2017-07-04 09:11:09,0
249,33,131,2017-12-05,0,0,0,2017-07-04 09:11:09,2017-07-04 09:11:09,0
250,33,131,2017-12-06,0,0,0,2017-07-04 09:11:09,2017-07-04 09:11:09,0
251,33,131,2017-12-07,0,0,0,2017-07-04 09:11:09,2017-07-04 09:11:09,0
252,33,131,2017-12-08,0,0,0,2017-07-04 09:11:09,2017-07-04 09:11:09,0
253,33,131,2017-12-09,1,1,0,2017-07-04 09:11:09,2017-07-04 09:11:09,0
254,33,131,2017-12-10,1,1,0,2017-07-04 09:11:09,2017-07-04 09:11:09,0
255,33,131,2017-12-11,0,0,0,2017-07-04 09:11:09,2017-07-04 09:11:09,0
256,33,131,2017-12-12,0,0,0,2017-07-04 09:11:09,2017-07-04 09:11:09,0
257,33,131,2017-12-13,0,0,0,2017-07-04 09:11:09,2017-07-04 09:11:09,0
258,33,131,2017-12-14,0,0,0,2017-07-04 09:11:09,2017-07-04 09:11:09,0
259,33,131,2017-12-15,0,0,0,2017-07-04 09:11:09,2017-07-04 09:11:09,0
260,33,131,2017-12-16,1,1,0,2017-07-04 09:11:09,2017-07-04 09:11:09,0
261,33,131,2017-12-17,1,1,0,2017-07-04 09:11:09,2017-07-04 09:11:09,0
262,33,131,2017-12-18,0,0,0,2017-07-04 09:11:09,2017-07-04 09:11:09,0
263,33,131,2017-12-19,0,0,0,2017-07-04 09:11:09,2017-07-04 09:11:09,0
264,33,131,2017-12-20,0,0,0,2017-07-04 09:11:09,2017-07-04 09:11:09,0
265,33,131,2017-12-21,0,0,0,2017-07-04 09:11:09,2017-07-04 09:11:09,0
266,33,131,2017-12-22,0,0,0,2017-07-04 09:11:09,2017-07-04 09:11:09,0
267,33,131,2017-12-23,1,1,0,2017-07-04 09:11:09,2017-07-04 09:11:09,0
268,33,131,2017-12-24,1,1,0,2017-07-04 09:11:09,2017-07-04 09:11:09,0
269,33,131,2017-12-25,0,1,0,2017-07-04 09:11:09,2017-07-04 09:11:09,0
270,33,131,2017-12-26,0,1,0,2017-07-04 09:11:09,2017-07-04 09:11:09,0
271,33,131,2017-12-27,0,1,0,2017-07-04 09:11:09,2017-07-04 09:11:09,0
272,33,131,2017-12-28,0,1,0,2017-07-04 09:11:09,2017-07-04 09:11:09,0
273,33,131,2017-12-29,0,1,0,2017-07-04 09:11:09,2017-07-04 09:11:09,0
274,33,131,2017-12-30,1,1,0,2017-07-04 09:11:09,2017-07-04 09:11:09,0
275,33,131,2017-12-31,1,1,0,2017-07-04 09:11:09,2017-07-04 09:11:09,0
276,33,132,2018-01-01,1,1,0,2017-07-04 09:11:09,2017-07-04 09:11:09,0
277,33,132,2018-01-02,1,1,0,2017-07-04 09:11:09,2017-07-04 09:11:09,0
278,33,132,2018-01-03,1,1,0,2017-07-04 09:11:09,2017-07-04 09:11:09,0
279,33,132,2018-01-04,0,1,0,2017-07-04 09:11:09,2017-07-04 09:11:09,0
280,33,132,2018-01-05,0,1,0,2017-07-04 09:11:09,2017-07-04 09:11:09,0
281,33,132,2018-01-06,1,1,0,2017-07-04 09:11:09,2017-07-04 09:11:09,0
282,33,132,2018-01-07,1,1,0,2017-07-04 09:11:09,2017-07-04 09:11:09,0
283,33,132,2018-01-08,1,1,0,2017-07-04 09:11:09,2017-07-04 09:11:09,0
284,33,132,2018-01-09,0,1,0,2017-07-04 09:11:09,2017-07-04 09:11:09,0
285,33,132,2018-01-10,0,1,0,2017-07-04 09:11:09,2017-07-04 09:11:09,0
286,33,132,2018-01-11,0,0,0,2017-07-04 09:11:09,2017-07-04 09:11:09,0
287,33,132,2018-01-12,0,0,0,2017-07-04 09:11:09,2017-07-04 09:11:09,0
288,33,132,2018-01-13,1,1,0,2017-07-04 09:11:09,2017-07-04 09:11:09,0
289,33,132,2018-01-14,1,1,0,2017-07-04 09:11:09,2017-07-04 09:11:09,0
290,33,132,2018-01-15,0,0,0,2017-07-04 09:11:09,2017-07-04 09:11:09,0
291,33,132,2018-01-16,0,0,0,2017-07-04 09:11:09,2017-07-04 09:11:09,0
292,33,132,2018-01-17,0,0,0,2017-07-04 09:11:09,2017-07-04 09:11:09,0
293,33,132,2018-01-18,0,0,0,2017-07-04 09:11:09,2017-07-04 09:11:09,0
294,33,132,2018-01-19,0,0,0,2017-07-04 09:11:09,2017-07-04 09:11:09,0
295,33,132,2018-01-20,1,1,0,2017-07-04 09:11:09,2017-07-04 09:11:09,0
296,33,132,2018-01-21,1,1,0,2017-07-04 09:11:09,2017-07-04 09:11:09,0
297,33,132,2018-01-22,0,0,0,2017-07-04 09:11:09,2017-07-04 09:11:09,0
298,33,132,2018-01-23,0,0,0,2017-07-04 09:11:09,2017-07-04 09:11:09,0
299,33,132,2018-01-24,0,0,0,2017-07-04 09:11:09,2017-07-04 09:11:09,0
300,33,132,2018-01-25,0,0,0,2017-07-04 09:11:09,2017-07-04 09:11:09,0
301,33,132,2018-01-26,0,0,0,2017-07-04 09:11:09,2017-07-04 09:11:09,0
302,33,132,2018-01-27,1,1,0,2017-07-04 09:11:09,2017-07-04 09:11:09,0
303,33,132,2018-01-28,1,1,0,2017-07-04 09:11:09,2017-07-04 09:11:09,0
304,33,132,2018-01-29,0,0,0,2017-07-04 09:11:09,2017-07-04 09:11:09,0
305,33,132,2018-01-30,0,0,0,2017-07-04 09:11:09,2017-07-04 09:11:09,0
306,33,132,2018-01-31,0,0,0,2017-07-04 09:11:09,2017-07-04 09:11:09,0
307,33,132,2018-02-01,0,0,0,2017-07-04 09:11:09,2017-07-04 09:11:09,0
308,33,132,2018-02-02,0,0,0,2017-07-04 09:11:09,2017-07-04 09:11:09,0
309,33,132,2018-02-03,1,1,0,2017-07-04 09:11:09,2017-07-04 09:11:09,0
310,33,132,2018-02-04,1,1,0,2017-07-04 09:11:09,2017-07-04 09:11:09,0
311,33,132,2018-02-05,0,0,0,2017-07-04 09:11:09,2017-07-04 09:11:09,0
312,33,132,2018-02-06,0,0,0,2017-07-04 09:11:09,2017-07-04 09:11:09,0
313,33,132,2018-02-07,0,0,0,2017-07-04 09:11:09,2017-07-04 09:11:09,0
314,33,132,2018-02-08,0,0,0,2017-07-04 09:11:09,2017-07-04 09:11:09,0
315,33,132,2018-02-09,0,0,0,2017-07-04 09:11:09,2017-07-04 09:11:09,0
316,33,132,2018-02-10,1,1,0,2017-07-04 09:11:09,2017-07-04 09:11:09,0
317,33,132,2018-02-11,1,1,0,2017-07-04 09:11:09,2017-07-04 09:11:09,0
318,33,132,2018-02-12,1,1,0,2017-07-04 09:11:09,2017-07-04 09:11:09,0
319,33,132,2018-02-13,0,0,0,2017-07-04 09:11:09,2017-07-04 09:11:09,0
320,33,132,2018-02-14,0,0,0,2017-07-04 09:11:09,2017-07-04 09:11:09,0
321,33,132,2018-02-15,0,0,0,2017-07-04 09:11:09,2017-07-04 09:11:09,0
322,33,132,2018-02-16,0,0,0,2017-07-04 09:11:09,2017-07-04 09:11:09,0
323,33,132,2018-02-17,1,1,0,2017-07-04 09:11:09,2017-07-04 09:11:09,0
324,33,132,2018-02-18,1,1,0,2017-07-04 09:11:09,2017-07-04 09:11:09,0
325,33,132,2018-02-19,0,0,0,2017-07-04 09:11:09,2017-07-04 09:11:09,0
326,33,132,2018-02-20,0,0,0,2017-07-04 09:11:09,2017-07-04 09:11:09,0
327,33,132,2018-02-21,0,0,0,2017-07-04 09:11:09,2017-07-04 09:11:09,0
328,33,132,2018-02-22,0,0,0,2017-07-04 09:11:09,2017-07-04 09:11:09,0
329,33,132,2018-02-23,0,0,0,2017-07-04 09:11:09,2017-07-04 09:11:09,0
330,33,132,2018-02-24,1,1,0,2017-07-04 09:11:09,2017-07-04 09:11:09,0
331,33,132,2018-02-25,1,1,0,2017-07-04 09:11:09,2017-07-04 09:11:09,0
332,33,132,2018-02-26,0,0,0,2017-07-04 09:11:09,2017-07-04 09:11:09,0
333,33,132,2018-02-27,0,0,0,2017-07-04 09:11:09,2017-07-04 09:11:09,0
334,33,132,2018-02-28,0,0,0,2017-07-04 09:11:09,2017-07-04 09:11:09,0
335,33,132,2018-03-01,0,0,0,2017-07-04 09:11:09,2017-07-04 09:11:09,0
336,33,132,2018-03-02,0,0,0,2017-07-04 09:11:09,2017-07-04 09:11:09,0
337,33,132,2018-03-03,1,1,0,2017-07-04 09:11:09,2017-07-04 09:11:09,0
338,33,132,2018-03-04,1,1,0,2017-07-04 09:11:09,2017-07-04 09:11:09,0
339,33,132,2018-03-05,0,0,0,2017-07-04 09:11:09,2017-07-04 09:11:09,0
340,33,132,2018-03-06,0,0,0,2017-07-04 09:11:09,2017-07-04 09:11:09,0
341,33,132,2018-03-07,0,0,0,2017-07-04 09:11:09,2017-07-04 09:11:09,0
342,33,132,2018-03-08,0,0,0,2017-07-04 09:11:09,2017-07-04 09:11:09,0
343,33,132,2018-03-09,0,0,0,2017-07-04 09:11:09,2017-07-04 09:11:09,0
344,33,132,2018-03-10,1,1,0,2017-07-04 09:11:09,2017-07-04 09:11:09,0
345,33,132,2018-03-11,1,1,0,2017-07-04 09:11:09,2017-07-04 09:11:09,0
346,33,132,2018-03-12,0,0,0,2017-07-04 09:11:09,2017-07-04 09:11:09,0
347,33,132,2018-03-13,0,0,0,2017-07-04 09:11:09,2017-07-04 09:11:09,0
348,33,132,2018-03-14,0,0,0,2017-07-04 09:11:09,2017-07-04 09:11:09,0
349,33,132,2018-03-15,0,0,0,2017-07-04 09:11:09,2017-07-04 09:11:09,0
350,33,132,2018-03-16,0,0,0,2017-07-04 09:11:09,2017-07-04 09:11:09,0
351,33,132,2018-03-17,1,1,0,2017-07-04 09:11:09,2017-07-04 09:11:09,0
352,33,132,2018-03-18,1,1,0,2017-07-04 09:11:09,2017-07-04 09:11:09,0
353,33,132,2018-03-19,0,0,0,2017-07-04 09:11:09,2017-07-04 09:11:09,0
354,33,132,2018-03-20,0,1,0,2017-07-04 09:11:09,2017-07-04 09:11:09,0
355,33,132,2018-03-21,1,1,0,2017-07-04 09:11:09,2017-07-04 09:11:09,0
356,33,132,2018-03-22,0,1,0,2017-07-04 09:11:09,2017-07-04 09:11:09,0
357,33,132,2018-03-23,0,1,0,2017-07-04 09:11:09,2017-07-04 09:11:09,0
358,33,132,2018-03-24,1,1,0,2017-07-04 09:11:09,2017-07-04 09:11:09,0
359,33,132,2018-03-25,1,1,0,2017-07-04 09:11:09,2017-07-04 09:11:09,0
360,33,132,2018-03-26,0,1,0,2017-07-04 09:11:09,2017-07-04 09:11:09,0
361,33,132,2018-03-27,0,1,0,2017-07-04 09:11:09,2017-07-04 09:11:09,0
362,33,132,2018-03-28,0,1,0,2017-07-04 09:11:09,2017-07-04 09:11:09,0
363,33,132,2018-03-29,0,1,0,2017-07-04 09:11:09,2017-07-04 09:11:09,0
364,33,132,2018-03-30,0,1,0,2017-07-04 09:11:09,2017-07-04 09:11:09,0
365,33,132,2018-03-31,1,1,0,2017-07-04 09:11:09,2017-07-04 09:11:09,0
366,34,133,2018-04-01,1,1,0,2017-07-04 09:11:18,2017-07-04 09:11:18,0
367,34,133,2018-04-02,0,0,0,2017-07-04 09:11:18,2017-07-04 09:11:18,0
368,34,133,2018-04-03,0,0,0,2017-07-04 09:11:18,2017-07-04 09:11:18,0
369,34,133,2018-04-04,0,0,0,2017-07-04 09:11:18,2017-07-04 09:11:18,0
370,34,133,2018-04-05,0,0,0,2017-07-04 09:11:18,2017-07-04 09:11:18,0
371,34,133,2018-04-06,0,0,0,2017-07-04 09:11:18,2017-07-04 09:11:18,0
372,34,133,2018-04-07,1,1,0,2017-07-04 09:11:18,2017-07-04 09:11:18,0
373,34,133,2018-04-08,1,1,0,2017-07-04 09:11:18,2017-07-04 09:11:18,0
374,34,133,2018-04-09,0,0,0,2017-07-04 09:11:18,2017-07-04 09:11:18,0
375,34,133,2018-04-10,0,0,0,2017-07-04 09:11:18,2017-07-04 09:11:18,0
376,34,133,2018-04-11,0,0,0,2017-07-04 09:11:18,2017-07-04 09:11:18,0
377,34,133,2018-04-12,0,0,0,2017-07-04 09:11:18,2017-07-04 09:11:18,0
378,34,133,2018-04-13,0,0,0,2017-07-04 09:11:18,2017-07-04 09:11:18,0
379,34,133,2018-04-14,1,1,0,2017-07-04 09:11:18,2017-07-04 09:11:18,0
380,34,133,2018-04-15,1,1,0,2017-07-04 09:11:18,2017-07-04 09:11:18,0
381,34,133,2018-04-16,0,0,0,2017-07-04 09:11:18,2017-07-04 09:11:18,0
382,34,133,2018-04-17,0,0,0,2017-07-04 09:11:18,2017-07-04 09:11:18,0
383,34,133,2018-04-18,0,0,0,2017-07-04 09:11:18,2017-07-04 09:11:18,0
384,34,133,2018-04-19,0,0,0,2017-07-04 09:11:18,2017-07-04 09:11:18,0
385,34,133,2018-04-20,0,0,0,2017-07-04 09:11:18,2017-07-04 09:11:18,0
386,34,133,2018-04-21,1,1,0,2017-07-04 09:11:18,2017-07-04 09:11:18,0
387,34,133,2018-04-22,1,1,0,2017-07-04 09:11:18,2017-07-04 09:11:18,0
388,34,133,2018-04-23,0,0,0,2017-07-04 09:11:18,2017-07-04 09:11:18,0
389,34,133,2018-04-24,0,0,0,2017-07-04 09:11:18,2017-07-04 09:11:18,0
390,34,133,2018-04-25,0,0,0,2017-07-04 09:11:18,2017-07-04 09:11:18,0
391,34,133,2018-04-26,0,0,0,2017-07-04 09:11:18,2017-07-04 09:11:18,0
392,34,133,2018-04-27,0,0,0,2017-07-04 09:11:18,2017-07-04 09:11:18,0
393,34,133,2018-04-28,1,1,0,2017-07-04 09:11:18,2017-07-04 09:11:18,0
394,34,133,2018-04-29,1,1,0,2017-07-04 09:11:18,2017-07-04 09:11:18,0
395,34,133,2018-04-30,1,1,0,2017-07-04 09:11:18,2017-07-04 09:11:18,0
396,34,133,2018-05-01,0,0,0,2017-07-04 09:11:18,2017-07-04 09:11:18,0
397,34,133,2018-05-02,0,0,0,2017-07-04 09:11:18,2017-07-04 09:11:18,0
398,34,133,2018-05-03,1,1,0,2017-07-04 09:11:18,2017-07-04 09:11:18,0
399,34,133,2018-05-04,1,1,0,2017-07-04 09:11:18,2017-07-04 09:11:18,0
400,34,133,2018-05-05,1,1,0,2017-07-04 09:11:18,2017-07-04 09:11:18,0
401,34,133,2018-05-06,1,1,0,2017-07-04 09:11:18,2017-07-04 09:11:18,0
402,34,133,2018-05-07,0,0,0,2017-07-04 09:11:18,2017-07-04 09:11:18,0
403,34,133,2018-05-08,0,0,0,2017-07-04 09:11:18,2017-07-04 09:11:18,0
404,34,133,2018-05-09,0,0,0,2017-07-04 09:11:18,2017-07-04 09:11:18,0
405,34,133,2018-05-10,0,0,0,2017-07-04 09:11:18,2017-07-04 09:11:18,0
406,34,133,2018-05-11,0,0,0,2017-07-04 09:11:18,2017-07-04 09:11:18,0
407,34,133,2018-05-12,1,1,0,2017-07-04 09:11:18,2017-07-04 09:11:18,0
408,34,133,2018-05-13,1,1,0,2017-07-04 09:11:18,2017-07-04 09:11:18,0
409,34,133,2018-05-14,0,0,0,2017-07-04 09:11:18,2017-07-04 09:11:18,0
410,34,133,2018-05-15,0,0,0,2017-07-04 09:11:18,2017-07-04 09:11:18,0
411,34,133,2018-05-16,0,0,0,2017-07-04 09:11:18,2017-07-04 09:11:18,0
412,34,133,2018-05-17,0,0,0,2017-07-04 09:11:18,2017-07-04 09:11:18,0
413,34,133,2018-05-18,0,0,0,2017-07-04 09:11:18,2017-07-04 09:11:18,0
414,34,133,2018-05-19,1,1,0,2017-07-04 09:11:18,2017-07-04 09:11:18,0
415,34,133,2018-05-20,1,1,0,2017-07-04 09:11:18,2017-07-04 09:11:18,0
416,34,133,2018-05-21,0,0,0,2017-07-04 09:11:18,2017-07-04 09:11:18,0
417,34,133,2018-05-22,0,0,0,2017-07-04 09:11:18,2017-07-04 09:11:18,0
418,34,133,2018-05-23,0,0,0,2017-07-04 09:11:18,2017-07-04 09:11:18,0
419,34,133,2018-05-24,0,0,0,2017-07-04 09:11:18,2017-07-04 09:11:18,0
420,34,133,2018-05-25,0,0,0,2017-07-04 09:11:18,2017-07-04 09:11:18,0
421,34,133,2018-05-26,1,1,0,2017-07-04 09:11:18,2017-07-04 09:11:18,0
422,34,133,2018-05-27,1,1,0,2017-07-04 09:11:18,2017-07-04 09:11:18,0
423,34,133,2018-05-28,0,0,0,2017-07-04 09:11:18,2017-07-04 09:11:18,0
424,34,133,2018-05-29,0,0,0,2017-07-04 09:11:18,2017-07-04 09:11:18,0
425,34,133,2018-05-30,0,0,0,2017-07-04 09:11:18,2017-07-04 09:11:18,0
426,34,133,2018-05-31,0,0,0,2017-07-04 09:11:18,2017-07-04 09:11:18,0
427,34,133,2018-06-01,0,0,0,2017-07-04 09:11:18,2017-07-04 09:11:18,0
428,34,133,2018-06-02,1,1,0,2017-07-04 09:11:18,2017-07-04 09:11:18,0
429,34,133,2018-06-03,1,1,0,2017-07-04 09:11:18,2017-07-04 09:11:18,0
430,34,133,2018-06-04,0,0,0,2017-07-04 09:11:18,2017-07-04 09:11:18,0
431,34,133,2018-06-05,0,0,0,2017-07-04 09:11:18,2017-07-04 09:11:18,0
432,34,133,2018-06-06,0,0,0,2017-07-04 09:11:18,2017-07-04 09:11:18,0
433,34,133,2018-06-07,0,0,0,2017-07-04 09:11:18,2017-07-04 09:11:18,0
434,34,133,2018-06-08,0,0,0,2017-07-04 09:11:18,2017-07-04 09:11:18,0
435,34,133,2018-06-09,1,1,0,2017-07-04 09:11:18,2017-07-04 09:11:18,0
436,34,133,2018-06-10,1,1,0,2017-07-04 09:11:18,2017-07-04 09:11:18,0
437,34,133,2018-06-11,0,0,0,2017-07-04 09:11:18,2017-07-04 09:11:18,0
438,34,133,2018-06-12,0,0,0,2017-07-04 09:11:18,2017-07-04 09:11:18,0
439,34,133,2018-06-13,0,0,0,2017-07-04 09:11:18,2017-07-04 09:11:18,0
440,34,133,2018-06-14,0,0,0,2017-07-04 09:11:18,2017-07-04 09:11:18,0
441,34,133,2018-06-15,0,0,0,2017-07-04 09:11:18,2017-07-04 09:11:18,0
442,34,133,2018-06-16,1,1,0,2017-07-04 09:11:18,2017-07-04 09:11:18,0
443,34,133,2018-06-17,1,1,0,2017-07-04 09:11:18,2017-07-04 09:11:18,0
444,34,133,2018-06-18,0,0,0,2017-07-04 09:11:18,2017-07-04 09:11:18,0
445,34,133,2018-06-19,0,0,0,2017-07-04 09:11:18,2017-07-04 09:11:18,0
446,34,133,2018-06-20,0,0,0,2017-07-04 09:11:18,2017-07-04 09:11:18,0
447,34,133,2018-06-21,0,0,0,2017-07-04 09:11:18,2017-07-04 09:11:18,0
448,34,133,2018-06-22,0,0,0,2017-07-04 09:11:18,2017-07-04 09:11:18,0
449,34,133,2018-06-23,1,1,0,2017-07-04 09:11:18,2017-07-04 09:11:18,0
450,34,133,2018-06-24,1,1,0,2017-07-04 09:11:18,2017-07-04 09:11:18,0
451,34,133,2018-06-25,0,0,0,2017-07-04 09:11:18,2017-07-04 09:11:18,0
452,34,133,2018-06-26,0,0,0,2017-07-04 09:11:18,2017-07-04 09:11:18,0
453,34,133,2018-06-27,0,0,0,2017-07-04 09:11:18,2017-07-04 09:11:18,0
454,34,133,2018-06-28,0,0,0,2017-07-04 09:11:18,2017-07-04 09:11:18,0
455,34,133,2018-06-29,0,0,0,2017-07-04 09:11:18,2017-07-04 09:11:18,0
456,34,133,2018-06-30,1,1,0,2017-07-04 09:11:18,2017-07-04 09:11:18,0
457,34,134,2018-07-01,1,1,0,2017-07-04 09:11:18,2017-07-04 09:11:18,0
458,34,134,2018-07-02,0,0,0,2017-07-04 09:11:18,2017-07-04 09:11:18,0
459,34,134,2018-07-03,0,0,0,2017-07-04 09:11:18,2017-07-04 09:11:18,0
460,34,134,2018-07-04,0,0,0,2017-07-04 09:11:18,2017-07-04 09:11:18,0
461,34,134,2018-07-05,0,0,0,2017-07-04 09:11:18,2017-07-04 09:11:18,0
462,34,134,2018-07-06,0,0,0,2017-07-04 09:11:18,2017-07-04 09:11:18,0
463,34,134,2018-07-07,1,1,0,2017-07-04 09:11:18,2017-07-04 09:11:18,0
464,34,134,2018-07-08,1,1,0,2017-07-04 09:11:18,2017-07-04 09:11:18,0
465,34,134,2018-07-09,0,0,0,2017-07-04 09:11:18,2017-07-04 09:11:18,0
466,34,134,2018-07-10,0,0,0,2017-07-04 09:11:18,2017-07-04 09:11:18,0
467,34,134,2018-07-11,0,0,0,2017-07-04 09:11:18,2017-07-04 09:11:18,0
468,34,134,2018-07-12,0,0,0,2017-07-04 09:11:18,2017-07-04 09:11:18,0
469,34,134,2018-07-13,0,0,0,2017-07-04 09:11:18,2017-07-04 09:11:18,0
470,34,134,2018-07-14,1,1,0,2017-07-04 09:11:18,2017-07-04 09:11:18,0
471,34,134,2018-07-15,1,1,0,2017-07-04 09:11:18,2017-07-04 09:11:18,0
472,34,134,2018-07-16,1,1,0,2017-07-04 09:11:18,2017-07-04 09:11:18,0
473,34,134,2018-07-17,0,0,0,2017-07-04 09:11:18,2017-07-04 09:11:18,0
474,34,134,2018-07-18,0,0,0,2017-07-04 09:11:18,2017-07-04 09:11:18,0
475,34,134,2018-07-19,0,0,0,2017-07-04 09:11:18,2017-07-04 09:11:18,0
476,34,134,2018-07-20,0,0,0,2017-07-04 09:11:18,2017-07-04 09:11:18,0
477,34,134,2018-07-21,1,1,0,2017-07-04 09:11:18,2017-07-04 09:11:18,0
478,34,134,2018-07-22,1,1,0,2017-07-04 09:11:18,2017-07-04 09:11:18,0
479,34,134,2018-07-23,0,0,0,2017-07-04 09:11:18,2017-07-04 09:11:18,0
480,34,134,2018-07-24,0,0,0,2017-07-04 09:11:18,2017-07-04 09:11:18,0
481,34,134,2018-07-25,0,0,0,2017-07-04 09:11:18,2017-07-04 09:11:18,0
482,34,134,2018-07-26,0,0,0,2017-07-04 09:11:18,2017-07-04 09:11:18,0
483,34,134,2018-07-27,0,0,0,2017-07-04 09:11:18,2017-07-04 09:11:18,0
484,34,134,2018-07-28,1,1,0,2017-07-04 09:11:18,2017-07-04 09:11:18,0
485,34,134,2018-07-29,1,1,0,2017-07-04 09:11:18,2017-07-04 09:11:18,0
486,34,134,2018-07-30,0,0,0,2017-07-04 09:11:18,2017-07-04 09:11:18,0
487,34,134,2018-07-31,0,0,0,2017-07-04 09:11:18,2017-07-04 09:11:18,0
488,34,134,2018-08-01,0,0,0,2017-07-04 09:11:18,2017-07-04 09:11:18,0
489,34,134,2018-08-02,0,0,0,2017-07-04 09:11:18,2017-07-04 09:11:18,0
490,34,134,2018-08-03,0,0,0,2017-07-04 09:11:18,2017-07-04 09:11:18,0
491,34,134,2018-08-04,1,1,0,2017-07-04 09:11:18,2017-07-04 09:11:18,0
492,34,134,2018-08-05,1,1,0,2017-07-04 09:11:18,2017-07-04 09:11:18,0
493,34,134,2018-08-06,0,0,0,2017-07-04 09:11:18,2017-07-04 09:11:18,0
494,34,134,2018-08-07,0,0,0,2017-07-04 09:11:18,2017-07-04 09:11:18,0
495,34,134,2018-08-08,0,0,0,2017-07-04 09:11:18,2017-07-04 09:11:18,0
496,34,134,2018-08-09,0,0,0,2017-07-04 09:11:18,2017-07-04 09:11:18,0
497,34,134,2018-08-10,0,0,0,2017-07-04 09:11:18,2017-07-04 09:11:18,0
498,34,134,2018-08-11,1,1,0,2017-07-04 09:11:18,2017-07-04 09:11:18,0
499,34,134,2018-08-12,1,1,0,2017-07-04 09:11:18,2017-07-04 09:11:18,0
500,34,134,2018-08-13,0,0,0,2017-07-04 09:11:18,2017-07-04 09:11:18,0
501,34,134,2018-08-14,0,0,0,2017-07-04 09:11:18,2017-07-04 09:11:18,0
502,34,134,2018-08-15,0,0,0,2017-07-04 09:11:18,2017-07-04 09:11:18,0
503,34,134,2018-08-16,0,0,0,2017-07-04 09:11:18,2017-07-04 09:11:18,0
504,34,134,2018-08-17,0,0,0,2017-07-04 09:11:18,2017-07-04 09:11:18,0
505,34,134,2018-08-18,1,1,0,2017-07-04 09:11:18,2017-07-04 09:11:18,0
506,34,134,2018-08-19,1,1,0,2017-07-04 09:11:18,2017-07-04 09:11:18,0
507,34,134,2018-08-20,0,0,0,2017-07-04 09:11:18,2017-07-04 09:11:18,0
508,34,134,2018-08-21,0,0,0,2017-07-04 09:11:18,2017-07-04 09:11:18,0
509,34,134,2018-08-22,0,0,0,2017-07-04 09:11:18,2017-07-04 09:11:18,0
510,34,134,2018-08-23,0,0,0,2017-07-04 09:11:18,2017-07-04 09:11:18,0
511,34,134,2018-08-24,0,0,0,2017-07-04 09:11:18,2017-07-04 09:11:18,0
512,34,134,2018-08-25,1,1,0,2017-07-04 09:11:18,2017-07-04 09:11:18,0
513,34,134,2018-08-26,1,1,0,2017-07-04 09:11:18,2017-07-04 09:11:18,0
514,34,134,2018-08-27,0,0,0,2017-07-04 09:11:18,2017-07-04 09:11:18,0
515,34,134,2018-08-28,0,0,0,2017-07-04 09:11:18,2017-07-04 09:11:18,0
516,34,134,2018-08-29,0,0,0,2017-07-04 09:11:18,2017-07-04 09:11:18,0
517,34,134,2018-08-30,0,0,0,2017-07-04 09:11:18,2017-07-04 09:11:18,0
518,34,134,2018-08-31,0,0,0,2017-07-04 09:11:18,2017-07-04 09:11:18,0
519,34,134,2018-09-01,1,1,0,2017-07-04 09:11:18,2017-07-04 09:11:18,0
520,34,134,2018-09-02,1,1,0,2017-07-04 09:11:18,2017-07-04 09:11:18,0
521,34,134,2018-09-03,0,0,0,2017-07-04 09:11:18,2017-07-04 09:11:18,0
522,34,134,2018-09-04,0,0,0,2017-07-04 09:11:18,2017-07-04 09:11:18,0
523,34,134,2018-09-05,0,0,0,2017-07-04 09:11:18,2017-07-04 09:11:18,0
524,34,134,2018-09-06,0,0,0,2017-07-04 09:11:18,2017-07-04 09:11:18,0
525,34,134,2018-09-07,0,0,0,2017-07-04 09:11:18,2017-07-04 09:11:18,0
526,34,134,2018-09-08,1,1,0,2017-07-04 09:11:18,2017-07-04 09:11:18,0
527,34,134,2018-09-09,1,1,0,2017-07-04 09:11:18,2017-07-04 09:11:18,0
528,34,134,2018-09-10,0,0,0,2017-07-04 09:11:18,2017-07-04 09:11:18,0
529,34,134,2018-09-11,0,0,0,2017-07-04 09:11:18,2017-07-04 09:11:18,0
530,34,134,2018-09-12,0,0,0,2017-07-04 09:11:18,2017-07-04 09:11:18,0
531,34,134,2018-09-13,0,0,0,2017-07-04 09:11:18,2017-07-04 09:11:18,0
532,34,134,2018-09-14,0,0,0,2017-07-04 09:11:18,2017-07-04 09:11:18,0
533,34,134,2018-09-15,1,1,0,2017-07-04 09:11:18,2017-07-04 09:11:18,0
534,34,134,2018-09-16,1,1,0,2017-07-04 09:11:18,2017-07-04 09:11:18,0
535,34,134,2018-09-17,1,1,0,2017-07-04 09:11:18,2017-07-04 09:11:18,0
536,34,134,2018-09-18,0,0,0,2017-07-04 09:11:18,2017-07-04 09:11:18,0
537,34,134,2018-09-19,0,0,0,2017-07-04 09:11:18,2017-07-04 09:11:18,0
538,34,134,2018-09-20,0,0,0,2017-07-04 09:11:18,2017-07-04 09:11:18,0
539,34,134,2018-09-21,0,0,0,2017-07-04 09:11:18,2017-07-04 09:11:18,0
540,34,134,2018-09-22,1,1,0,2017-07-04 09:11:18,2017-07-04 09:11:18,0
541,34,134,2018-09-23,1,1,0,2017-07-04 09:11:18,2017-07-04 09:11:18,0
542,34,134,2018-09-24,1,1,0,2017-07-04 09:11:18,2017-07-04 09:11:18,0
543,34,134,2018-09-25,0,0,0,2017-07-04 09:11:18,2017-07-04 09:11:18,0
544,34,134,2018-09-26,0,0,0,2017-07-04 09:11:18,2017-07-04 09:11:18,0
545,34,134,2018-09-27,0,0,0,2017-07-04 09:11:18,2017-07-04 09:11:18,0
546,34,134,2018-09-28,0,0,0,2017-07-04 09:11:18,2017-07-04 09:11:18,0
547,34,134,2018-09-29,1,1,0,2017-07-04 09:11:18,2017-07-04 09:11:18,0
548,34,134,2018-09-30,1,1,0,2017-07-04 09:11:18,2017-07-04 09:11:18,0
549,34,135,2018-10-01,0,0,0,2017-07-04 09:11:18,2017-07-04 09:11:18,0
550,34,135,2018-10-02,0,0,0,2017-07-04 09:11:18,2017-07-04 09:11:18,0
551,34,135,2018-10-03,0,0,0,2017-07-04 09:11:18,2017-07-04 09:11:18,0
552,34,135,2018-10-04,0,0,0,2017-07-04 09:11:18,2017-07-04 09:11:18,0
553,34,135,2018-10-05,0,0,0,2017-07-04 09:11:18,2017-07-04 09:11:18,0
554,34,135,2018-10-06,1,1,0,2017-07-04 09:11:18,2017-07-04 09:11:18,0
555,34,135,2018-10-07,1,1,0,2017-07-04 09:11:18,2017-07-04 09:11:18,0
556,34,135,2018-10-08,1,1,0,2017-07-04 09:11:18,2017-07-04 09:11:18,0
557,34,135,2018-10-09,0,0,0,2017-07-04 09:11:18,2017-07-04 09:11:18,0
558,34,135,2018-10-10,0,0,0,2017-07-04 09:11:18,2017-07-04 09:11:18,0
559,34,135,2018-10-11,0,0,0,2017-07-04 09:11:18,2017-07-04 09:11:18,0
560,34,135,2018-10-12,0,0,0,2017-07-04 09:11:18,2017-07-04 09:11:18,0
561,34,135,2018-10-13,1,1,0,2017-07-04 09:11:18,2017-07-04 09:11:18,0
562,34,135,2018-10-14,1,1,0,2017-07-04 09:11:18,2017-07-04 09:11:18,0
563,34,135,2018-10-15,0,0,0,2017-07-04 09:11:18,2017-07-04 09:11:18,0
564,34,135,2018-10-16,0,0,0,2017-07-04 09:11:18,2017-07-04 09:11:18,0
565,34,135,2018-10-17,0,0,0,2017-07-04 09:11:18,2017-07-04 09:11:18,0
566,34,135,2018-10-18,0,0,0,2017-07-04 09:11:18,2017-07-04 09:11:18,0
567,34,135,2018-10-19,0,0,0,2017-07-04 09:11:18,2017-07-04 09:11:18,0
568,34,135,2018-10-20,1,1,0,2017-07-04 09:11:18,2017-07-04 09:11:18,0
569,34,135,2018-10-21,1,1,0,2017-07-04 09:11:18,2017-07-04 09:11:18,0
570,34,135,2018-10-22,0,0,0,2017-07-04 09:11:18,2017-07-04 09:11:18,0
571,34,135,2018-10-23,0,0,0,2017-07-04 09:11:18,2017-07-04 09:11:18,0
572,34,135,2018-10-24,0,0,0,2017-07-04 09:11:18,2017-07-04 09:11:18,0
573,34,135,2018-10-25,0,0,0,2017-07-04 09:11:18,2017-07-04 09:11:18,0
574,34,135,2018-10-26,0,0,0,2017-07-04 09:11:18,2017-07-04 09:11:18,0
575,34,135,2018-10-27,1,1,0,2017-07-04 09:11:18,2017-07-04 09:11:18,0
576,34,135,2018-10-28,1,1,0,2017-07-04 09:11:18,2017-07-04 09:11:18,0
577,34,135,2018-10-29,0,0,0,2017-07-04 09:11:18,2017-07-04 09:11:18,0
578,34,135,2018-10-30,0,0,0,2017-07-04 09:11:18,2017-07-04 09:11:18,0
579,34,135,2018-10-31,0,0,0,2017-07-04 09:11:18,2017-07-04 09:11:18,0
580,34,135,2018-11-01,0,0,0,2017-07-04 09:11:18,2017-07-04 09:11:18,0
581,34,135,2018-11-02,0,0,0,2017-07-04 09:11:18,2017-07-04 09:11:18,0
582,34,135,2018-11-03,1,1,0,2017-07-04 09:11:18,2017-07-04 09:11:18,0
583,34,135,2018-11-04,1,1,0,2017-07-04 09:11:18,2017-07-04 09:11:18,0
584,34,135,2018-11-05,0,0,0,2017-07-04 09:11:18,2017-07-04 09:11:18,0
585,34,135,2018-11-06,0,0,0,2017-07-04 09:11:18,2017-07-04 09:11:18,0
586,34,135,2018-11-07,0,0,0,2017-07-04 09:11:18,2017-07-04 09:11:18,0
587,34,135,2018-11-08,0,0,0,2017-07-04 09:11:18,2017-07-04 09:11:18,0
588,34,135,2018-11-09,0,0,0,2017-07-04 09:11:18,2017-07-04 09:11:18,0
589,34,135,2018-11-10,1,1,0,2017-07-04 09:11:18,2017-07-04 09:11:18,0
590,34,135,2018-11-11,1,1,0,2017-07-04 09:11:18,2017-07-04 09:11:18,0
591,34,135,2018-11-12,0,0,0,2017-07-04 09:11:18,2017-07-04 09:11:18,0
592,34,135,2018-11-13,0,0,0,2017-07-04 09:11:18,2017-07-04 09:11:18,0
593,34,135,2018-11-14,0,0,0,2017-07-04 09:11:18,2017-07-04 09:11:18,0
594,34,135,2018-11-15,0,0,0,2017-07-04 09:11:18,2017-07-04 09:11:18,0
595,34,135,2018-11-16,0,0,0,2017-07-04 09:11:18,2017-07-04 09:11:18,0
596,34,135,2018-11-17,1,1,0,2017-07-04 09:11:18,2017-07-04 09:11:18,0
597,34,135,2018-11-18,1,1,0,2017-07-04 09:11:18,2017-07-04 09:11:18,0
598,34,135,2018-11-19,0,0,0,2017-07-04 09:11:18,2017-07-04 09:11:18,0
599,34,135,2018-11-20,0,0,0,2017-07-04 09:11:18,2017-07-04 09:11:18,0
600,34,135,2018-11-21,0,0,0,2017-07-04 09:11:18,2017-07-04 09:11:18,0
601,34,135,2018-11-22,0,0,0,2017-07-04 09:11:18,2017-07-04 09:11:18,0
602,34,135,2018-11-23,1,1,0,2017-07-04 09:11:18,2017-07-04 09:11:18,0
603,34,135,2018-11-24,1,1,0,2017-07-04 09:11:18,2017-07-04 09:11:18,0
604,34,135,2018-11-25,1,1,0,2017-07-04 09:11:18,2017-07-04 09:11:18,0
605,34,135,2018-11-26,0,0,0,2017-07-04 09:11:18,2017-07-04 09:11:18,0
606,34,135,2018-11-27,0,0,0,2017-07-04 09:11:18,2017-07-04 09:11:18,0
607,34,135,2018-11-28,0,0,0,2017-07-04 09:11:18,2017-07-04 09:11:18,0
608,34,135,2018-11-29,0,0,0,2017-07-04 09:11:18,2017-07-04 09:11:18,0
609,34,135,2018-11-30,0,0,0,2017-07-04 09:11:18,2017-07-04 09:11:18,0
610,34,135,2018-12-01,1,1,0,2017-07-04 09:11:18,2017-07-04 09:11:18,0
611,34,135,2018-12-02,1,1,0,2017-07-04 09:11:18,2017-07-04 09:11:18,0
612,34,135,2018-12-03,0,0,0,2017-07-04 09:11:18,2017-07-04 09:11:18,0
613,34,135,2018-12-04,0,0,0,2017-07-04 09:11:18,2017-07-04 09:11:18,0
614,34,135,2018-12-05,0,0,0,2017-07-04 09:11:18,2017-07-04 09:11:18,0
615,34,135,2018-12-06,0,0,0,2017-07-04 09:11:18,2017-07-04 09:11:18,0
616,34,135,2018-12-07,0,0,0,2017-07-04 09:11:18,2017-07-04 09:11:18,0
617,34,135,2018-12-08,1,1,0,2017-07-04 09:11:18,2017-07-04 09:11:18,0
618,34,135,2018-12-09,1,1,0,2017-07-04 09:11:18,2017-07-04 09:11:18,0
619,34,135,2018-12-10,0,0,0,2017-07-04 09:11:18,2017-07-04 09:11:18,0
620,34,135,2018-12-11,0,0,0,2017-07-04 09:11:18,2017-07-04 09:11:18,0
621,34,135,2018-12-12,0,0,0,2017-07-04 09:11:18,2017-07-04 09:11:18,0
622,34,135,2018-12-13,0,0,0,2017-07-04 09:11:18,2017-07-04 09:11:18,0
623,34,135,2018-12-14,0,0,0,2017-07-04 09:11:18,2017-07-04 09:11:18,0
624,34,135,2018-12-15,1,1,0,2017-07-04 09:11:18,2017-07-04 09:11:18,0
625,34,135,2018-12-16,1,1,0,2017-07-04 09:11:18,2017-07-04 09:11:18,0
626,34,135,2018-12-17,0,0,0,2017-07-04 09:11:18,2017-07-04 09:11:18,0
627,34,135,2018-12-18,0,0,0,2017-07-04 09:11:18,2017-07-04 09:11:18,0
628,34,135,2018-12-19,0,0,0,2017-07-04 09:11:18,2017-07-04 09:11:18,0
629,34,135,2018-12-20,0,0,0,2017-07-04 09:11:18,2017-07-04 09:11:18,0
630,34,135,2018-12-21,0,0,0,2017-07-04 09:11:18,2017-07-04 09:11:18,0
631,34,135,2018-12-22,1,1,0,2017-07-04 09:11:18,2017-07-04 09:11:18,0
632,34,135,2018-12-23,1,1,0,2017-07-04 09:11:18,2017-07-04 09:11:18,0
633,34,135,2018-12-24,1,1,0,2017-07-04 09:11:18,2017-07-04 09:11:18,0
634,34,135,2018-12-25,0,0,0,2017-07-04 09:11:18,2017-07-04 09:11:18,0
635,34,135,2018-12-26,0,0,0,2017-07-04 09:11:18,2017-07-04 09:11:18,0
636,34,135,2018-12-27,0,0,0,2017-07-04 09:11:18,2017-07-04 09:11:18,0
637,34,135,2018-12-28,0,0,0,2017-07-04 09:11:18,2017-07-04 09:11:18,0
638,34,135,2018-12-29,1,1,0,2017-07-04 09:11:18,2017-07-04 09:11:18,0
639,34,135,2018-12-30,1,1,0,2017-07-04 09:11:18,2017-07-04 09:11:18,0
640,34,135,2018-12-31,0,0,0,2017-07-04 09:11:18,2017-07-04 09:11:18,0
641,34,136,2019-01-01,1,1,0,2017-07-04 09:11:18,2017-07-04 09:11:18,0
642,34,136,2019-01-02,0,0,0,2017-07-04 09:11:18,2017-07-04 09:11:18,0
643,34,136,2019-01-03,0,0,0,2017-07-04 09:11:18,2017-07-04 09:11:18,0
644,34,136,2019-01-04,0,0,0,2017-07-04 09:11:18,2017-07-04 09:11:18,0
645,34,136,2019-01-05,1,1,0,2017-07-04 09:11:18,2017-07-04 09:11:18,0
646,34,136,2019-01-06,1,1,0,2017-07-04 09:11:18,2017-07-04 09:11:18,0
647,34,136,2019-01-07,0,0,0,2017-07-04 09:11:18,2017-07-04 09:11:18,0
648,34,136,2019-01-08,0,0,0,2017-07-04 09:11:18,2017-07-04 09:11:18,0
649,34,136,2019-01-09,0,0,0,2017-07-04 09:11:18,2017-07-04 09:11:18,0
650,34,136,2019-01-10,0,0,0,2017-07-04 09:11:18,2017-07-04 09:11:18,0
651,34,136,2019-01-11,0,0,0,2017-07-04 09:11:18,2017-07-04 09:11:18,0
652,34,136,2019-01-12,1,1,0,2017-07-04 09:11:18,2017-07-04 09:11:18,0
653,34,136,2019-01-13,1,1,0,2017-07-04 09:11:18,2017-07-04 09:11:18,0
654,34,136,2019-01-14,1,1,0,2017-07-04 09:11:18,2017-07-04 09:11:18,0
655,34,136,2019-01-15,0,0,0,2017-07-04 09:11:18,2017-07-04 09:11:18,0
656,34,136,2019-01-16,0,0,0,2017-07-04 09:11:18,2017-07-04 09:11:18,0
657,34,136,2019-01-17,0,0,0,2017-07-04 09:11:18,2017-07-04 09:11:18,0
658,34,136,2019-01-18,0,0,0,2017-07-04 09:11:18,2017-07-04 09:11:18,0
659,34,136,2019-01-19,1,1,0,2017-07-04 09:11:18,2017-07-04 09:11:18,0
660,34,136,2019-01-20,1,1,0,2017-07-04 09:11:18,2017-07-04 09:11:18,0
661,34,136,2019-01-21,0,0,0,2017-07-04 09:11:18,2017-07-04 09:11:18,0
662,34,136,2019-01-22,0,0,0,2017-07-04 09:11:18,2017-07-04 09:11:18,0
663,34,136,2019-01-23,0,0,0,2017-07-04 09:11:18,2017-07-04 09:11:18,0
664,34,136,2019-01-24,0,0,0,2017-07-04 09:11:18,2017-07-04 09:11:18,0
665,34,136,2019-01-25,0,0,0,2017-07-04 09:11:18,2017-07-04 09:11:18,0
666,34,136,2019-01-26,1,1,0,2017-07-04 09:11:18,2017-07-04 09:11:18,0
667,34,136,2019-01-27,1,1,0,2017-07-04 09:11:18,2017-07-04 09:11:18,0
668,34,136,2019-01-28,0,0,0,2017-07-04 09:11:18,2017-07-04 09:11:18,0
669,34,136,2019-01-29,0,0,0,2017-07-04 09:11:18,2017-07-04 09:11:18,0
670,34,136,2019-01-30,0,0,0,2017-07-04 09:11:18,2017-07-04 09:11:18,0
671,34,136,2019-01-31,0,0,0,2017-07-04 09:11:18,2017-07-04 09:11:18,0
672,34,136,2019-02-01,0,0,0,2017-07-04 09:11:18,2017-07-04 09:11:18,0
673,34,136,2019-02-02,1,1,0,2017-07-04 09:11:18,2017-07-04 09:11:18,0
674,34,136,2019-02-03,1,1,0,2017-07-04 09:11:18,2017-07-04 09:11:18,0
675,34,136,2019-02-04,0,0,0,2017-07-04 09:11:18,2017-07-04 09:11:18,0
676,34,136,2019-02-05,0,0,0,2017-07-04 09:11:18,2017-07-04 09:11:18,0
677,34,136,2019-02-06,0,0,0,2017-07-04 09:11:18,2017-07-04 09:11:18,0
678,34,136,2019-02-07,0,0,0,2017-07-04 09:11:18,2017-07-04 09:11:18,0
679,34,136,2019-02-08,0,0,0,2017-07-04 09:11:18,2017-07-04 09:11:18,0
680,34,136,2019-02-09,1,1,0,2017-07-04 09:11:18,2017-07-04 09:11:18,0
681,34,136,2019-02-10,1,1,0,2017-07-04 09:11:18,2017-07-04 09:11:18,0
682,34,136,2019-02-11,1,1,0,2017-07-04 09:11:18,2017-07-04 09:11:18,0
683,34,136,2019-02-12,0,0,0,2017-07-04 09:11:18,2017-07-04 09:11:18,0
684,34,136,2019-02-13,0,0,0,2017-07-04 09:11:18,2017-07-04 09:11:18,0
685,34,136,2019-02-14,0,0,0,2017-07-04 09:11:18,2017-07-04 09:11:18,0
686,34,136,2019-02-15,0,0,0,2017-07-04 09:11:18,2017-07-04 09:11:18,0
687,34,136,2019-02-16,1,1,0,2017-07-04 09:11:18,2017-07-04 09:11:18,0
688,34,136,2019-02-17,1,1,0,2017-07-04 09:11:18,2017-07-04 09:11:18,0
689,34,136,2019-02-18,0,0,0,2017-07-04 09:11:18,2017-07-04 09:11:18,0
690,34,136,2019-02-19,0,0,0,2017-07-04 09:11:18,2017-07-04 09:11:18,0
691,34,136,2019-02-20,0,0,0,2017-07-04 09:11:18,2017-07-04 09:11:18,0
692,34,136,2019-02-21,0,0,0,2017-07-04 09:11:18,2017-07-04 09:11:18,0
693,34,136,2019-02-22,0,0,0,2017-07-04 09:11:18,2017-07-04 09:11:18,0
694,34,136,2019-02-23,1,1,0,2017-07-04 09:11:18,2017-07-04 09:11:18,0
695,34,136,2019-02-24,1,1,0,2017-07-04 09:11:18,2017-07-04 09:11:18,0
696,34,136,2019-02-25,0,0,0,2017-07-04 09:11:18,2017-07-04 09:11:18,0
697,34,136,2019-02-26,0,0,0,2017-07-04 09:11:18,2017-07-04 09:11:18,0
698,34,136,2019-02-27,0,0,0,2017-07-04 09:11:18,2017-07-04 09:11:18,0
699,34,136,2019-02-28,0,0,0,2017-07-04 09:11:18,2017-07-04 09:11:18,0
700,34,136,2019-03-01,0,0,0,2017-07-04 09:11:18,2017-07-04 09:11:18,0
701,34,136,2019-03-02,1,1,0,2017-07-04 09:11:18,2017-07-04 09:11:18,0
702,34,136,2019-03-03,1,1,0,2017-07-04 09:11:18,2017-07-04 09:11:18,0
703,34,136,2019-03-04,0,0,0,2017-07-04 09:11:18,2017-07-04 09:11:18,0
704,34,136,2019-03-05,0,0,0,2017-07-04 09:11:18,2017-07-04 09:11:18,0
705,34,136,2019-03-06,0,0,0,2017-07-04 09:11:18,2017-07-04 09:11:18,0
706,34,136,2019-03-07,0,0,0,2017-07-04 09:11:18,2017-07-04 09:11:18,0
707,34,136,2019-03-08,0,0,0,2017-07-04 09:11:18,2017-07-04 09:11:18,0
708,34,136,2019-03-09,1,1,0,2017-07-04 09:11:18,2017-07-04 09:11:18,0
709,34,136,2019-03-10,1,1,0,2017-07-04 09:11:18,2017-07-04 09:11:18,0
710,34,136,2019-03-11,0,0,0,2017-07-04 09:11:18,2017-07-04 09:11:18,0
711,34,136,2019-03-12,0,0,0,2017-07-04 09:11:18,2017-07-04 09:11:18,0
712,34,136,2019-03-13,0,0,0,2017-07-04 09:11:18,2017-07-04 09:11:18,0
713,34,136,2019-03-14,0,0,0,2017-07-04 09:11:18,2017-07-04 09:11:18,0
714,34,136,2019-03-15,0,0,0,2017-07-04 09:11:18,2017-07-04 09:11:18,0
715,34,136,2019-03-16,1,1,0,2017-07-04 09:11:18,2017-07-04 09:11:18,0
716,34,136,2019-03-17,1,1,0,2017-07-04 09:11:18,2017-07-04 09:11:18,0
717,34,136,2019-03-18,0,0,0,2017-07-04 09:11:18,2017-07-04 09:11:18,0
718,34,136,2019-03-19,0,0,0,2017-07-04 09:11:18,2017-07-04 09:11:18,0
719,34,136,2019-03-20,0,0,0,2017-07-04 09:11:18,2017-07-04 09:11:18,0
720,34,136,2019-03-21,1,1,0,2017-07-04 09:11:18,2017-07-04 09:11:18,0
721,34,136,2019-03-22,0,0,0,2017-07-04 09:11:18,2017-07-04 09:11:18,0
722,34,136,2019-03-23,1,1,0,2017-07-04 09:11:18,2017-07-04 09:11:18,0
723,34,136,2019-03-24,1,1,0,2017-07-04 09:11:18,2017-07-04 09:11:18,0
724,34,136,2019-03-25,0,0,0,2017-07-04 09:11:18,2017-07-04 09:11:18,0
725,34,136,2019-03-26,0,0,0,2017-07-04 09:11:18,2017-07-04 09:11:18,0
726,34,136,2019-03-27,0,0,0,2017-07-04 09:11:18,2017-07-04 09:11:18,0
727,34,136,2019-03-28,0,0,0,2017-07-04 09:11:18,2017-07-04 09:11:18,0
728,34,136,2019-03-29,0,0,0,2017-07-04 09:11:18,2017-07-04 09:11:18,0
729,34,136,2019-03-30,1,1,0,2017-07-04 09:11:18,2017-07-04 09:11:18,0
730,34,136,2019-03-31,1,1,0,2017-07-04 09:11:18,2017-07-04 09:11:18,0
