﻿id,function_group_id,name,path,is_in_menu,sequence,lastup_account_id,create_datetime,lastup_datetime,disable
1,1,学生カルテ,staff/student/student_search_list,1,1,2000,2017-12-26 00:00:00,0000-00-00 00:00:00,0
2,1,クラス名簿出力(EXCEL),staff/curriculum/class_list_output,1,2,2000,2017-12-26 00:00:00,0000-00-00 00:00:00,0
3,1,卒業・修了証書印刷,staff/export_graduated_certificate/search,0,3,2000,2017-12-26 00:00:00,0000-00-00 00:00:00,0
4,1,褒章管理,"",0,4,2000,2017-12-26 00:00:00,0000-00-00 00:00:00,0
5,1,進路情報検索,"",0,5,2000,2017-12-26 00:00:00,0000-00-00 00:00:00,1
6,1,自己評価チェック,"",0,6,2000,2017-12-26 00:00:00,0000-00-00 00:00:00,1
7,2,入学生CSV一括登録,staff/admission/bulk_register,0,1,2000,2017-12-26 00:00:00,0000-00-00 00:00:00,0
8,2,合格通知書発行,staff/admission/issue_passing_certificate,1,2,2000,2017-12-26 00:00:00,0000-00-00 00:00:00,0
9,2,入国管理情報確認,staff/admission/confirm_for_immigration_bureau,1,4,2000,2017-12-26 00:00:00,0000-00-00 00:00:00,0
10,2,在留資格認定証明書交付申請,staff/admission/apply_residence_status,1,5,2000,2017-12-26 00:00:00,0000-00-00 00:00:00,0
11,2,入学許可証発行,staff/admission/issue_acceptance_letter,1,6,2000,2017-12-26 00:00:00,0000-00-00 00:00:00,0
12,2,入学プレースメントテスト,"",0,10,2000,2017-12-26 00:00:00,0000-00-00 00:00:00,0
13,2,申請番号付与,staff/student/student_application_no_list,1,3,2000,2017-12-26 00:00:00,0000-00-00 00:00:00,0
14,2,入管帳票管理,staff/student/student_output_list,0,0,2000,2017-12-26 00:00:00,0000-00-00 00:00:00,1
15,2,中長期在留者の受け入れ情報,staff/admission/grant_residence,1,7,2000,2017-12-26 00:00:00,0000-00-00 00:00:00,0
16,2,請求書発行,staff/admission/issue_invoice,0,8,2000,2017-12-26 00:00:00,0000-00-00 00:00:00,0
17,2,入金確認,staff/admission/confirm_payment,0,9,2000,2017-12-26 00:00:00,0000-00-00 00:00:00,0
18,3,出席状況,staff/school_record/attendance_list,1,1,2000,2017-12-26 00:00:00,0000-00-00 00:00:00,0
19,3,出欠訂正一覧,staff/school_record/correct_attendance_list,1,2,2000,2017-12-26 00:00:00,0000-00-00 00:00:00,0
20,3,出席率ランキング,staff/export/ranking_attendance_rate,1,3,2000,2017-12-26 00:00:00,0000-00-00 00:00:00,0
21,4,出欠訂正承認一覧,staff/school_record/correct_attendance_approval_list,1,1,2000,2017-12-26 00:00:00,0000-00-00 00:00:00,0
22,4,強制退学・除籍,"",0,2,2000,2017-12-26 00:00:00,0000-00-00 00:00:00,0
23,5,届出・申請書,staff/application/search_student/,1,1,2000,2017-12-26 00:00:00,0000-00-00 00:00:00,0
24,5,申請状況一覧,staff/application/narrow_down,1,2,2000,2017-12-26 00:00:00,0000-00-00 00:00:00,0
25,5,各種証明書出力一覧,staff/report/certificates_output_list,1,3,2000,2017-12-26 00:00:00,0000-00-00 00:00:00,0
26,6,年間カレンダー,staff/event/calendar_in_year,1,1,2000,2017-12-26 00:00:00,0000-00-00 00:00:00,0
27,6,お知らせ編集,staff/notice/show,1,2,2000,2017-12-26 00:00:00,0000-00-00 00:00:00,0
28,7,成績一覧,staff/school_record/result_list,1,1,2000,2017-12-26 00:00:00,0000-00-00 00:00:00,0
29,7,期末テスト一覧,staff/school_record/term_end_exam_list,1,2,2000,2017-12-26 00:00:00,0000-00-00 00:00:00,0
30,7,まとめテスト一覧,staff/school_record/term_middle_exam_list,1,3,2000,2017-12-26 00:00:00,0000-00-00 00:00:00,0
31,7,クラスアップテスト,"",0,4,2000,2017-12-26 00:00:00,0000-00-00 00:00:00,0
32,7,入学プレースメントテスト,"",0,0,2000,2017-12-26 00:00:00,0000-00-00 00:00:00,1
33,7,外部テスト,staff/school_record/external_test_result_list,1,5,2000,2017-12-26 00:00:00,0000-00-00 00:00:00,0
34,8,テスト問題管理,staff/exam_test,1,1,2000,2017-12-26 00:00:00,0000-00-00 00:00:00,0
35,8,動画コンテンツ管理,staff/video_content/show,1,2,2000,2017-12-26 00:00:00,0000-00-00 00:00:00,0
36,8,マークシート管理,staff/marksheet_exam,1,3,2000,2017-12-26 00:00:00,0000-00-00 00:00:00,0
37,8,宿題,"",0,4,2000,2017-12-26 00:00:00,0000-00-00 00:00:00,0
38,8,学生動画コンテンツ一覧,staff/video_content/list_student_video,0,5,2000,2017-12-26 00:00:00,0000-00-00 00:00:00,0
39,9,職員名簿,staff/staff_list,1,1,2000,2017-12-26 00:00:00,0000-00-00 00:00:00,0
40,9,勤怠管理(月別),staff/attendance_list/attendance_list_monthly,1,2,2000,2017-12-26 00:00:00,0000-00-00 00:00:00,0
41,9,勤怠管理(日別),staff/attendance_list/attendance_list_daily,1,3,2000,2017-12-26 00:00:00,0000-00-00 00:00:00,0
42,9,エージェント情報,staff/agent/show,1,4,2000,2017-12-26 00:00:00,0000-00-00 00:00:00,0
43,9,自己評価チェック,"",0,5,2000,2017-12-26 00:00:00,0000-00-00 00:00:00,1
44,10,職員面談,"",0,1,2000,2017-12-26 00:00:00,0000-00-00 00:00:00,0
45,10,給与明細,"",0,2,2000,2017-12-26 00:00:00,0000-00-00 00:00:00,0
46,10,源泉徴収,"",0,3,2000,2017-12-26 00:00:00,0000-00-00 00:00:00,0
47,10,コマ給定義,"",0,4,2000,2017-12-26 00:00:00,0000-00-00 00:00:00,0
48,11,レベル一覧,staff/curriculum/level_list,1,1,2000,2017-12-26 00:00:00,0000-00-00 00:00:00,0
49,11,クラス編成,staff/curriculum/bulk_class_create,1,2,2000,2017-12-26 00:00:00,0000-00-00 00:00:00,0
50,11,シフト希望,staff/curriculum/shift_request_list,1,3,2000,2017-12-26 00:00:00,0000-00-00 00:00:00,0
51,11,シフト作成,staff/curriculum/create_class_shift,1,4,2000,2017-12-26 00:00:00,0000-00-00 00:00:00,0
52,11,クラス分,staff/curriculum/student_classify_top,1,5,2000,2017-12-26 00:00:00,0000-00-00 00:00:00,0
53,12,月次締め処理,staff/export/attendance_rate,1,1,2000,2017-12-26 00:00:00,0000-00-00 00:00:00,0
54,12,出席率更新,staff/attendance_rate/update_attendance_rate,1,2,2000,2017-12-26 00:00:00,0000-00-00 00:00:00,0
55,12,イベント種別管理,staff/event/show,1,3,2000,2017-12-26 00:00:00,0000-00-00 00:00:00,0
56,12,イベント管理,staff/event/calendar_management,1,4,2000,2017-12-26 00:00:00,0000-00-00 00:00:00,0
57,12,休校日管理,staff/event/event_holiday_calendar,1,5,2000,2017-12-26 00:00:00,0000-00-00 00:00:00,0
58,12,シフト表アップロード,staff/upload_pdf/upload_class_shift_pdf,1,6,2000,2017-12-26 00:00:00,0000-00-00 00:00:00,0
59,12,各種帳票管理※テンプレートの入れ替え＆印刷,"",0,7,2000,2017-12-26 00:00:00,0000-00-00 00:00:00,0
60,12,お知らせ編集,"",0,0,2000,2017-12-26 00:00:00,0000-00-00 00:00:00,1
61,12,進学学校編集,"",0,0,2000,2017-12-26 00:00:00,0000-00-00 00:00:00,1
62,12,連続欠席学生更新,staff/attendance_rate/update_absent_continuity,1,8,2000,2017-12-26 00:00:00,0000-00-00 00:00:00,0
63,13,パスワード再設定,staff/account/forgot_password,1,2,2000,2017-12-26 00:00:00,0000-00-00 00:00:00,0
64,13,権限設定画面,staff/account/authority_setting,1,3,2000,2017-12-26 00:00:00,0000-00-00 00:00:00,0
75,10,タブレットアプリケーション管理,staff/tablet_application_update/show,0,0,0,2017-12-26 00:00:00,0000-00-00 00:00:00,0
76,13,ヘルプ文言管理,staff/helper/show,1,1,2000,2018-01-31 17:00:00,0000-00-00 00:00:00,0
79,13,出席インポート,staff/import/class_attendance,0,0,0,0000-00-00 00:00:00,0000-00-00 00:00:00,0
