﻿id,name,sequence,lastup_account_id,create_datetime,lastup_datetime,disable
1,職員管理,1,0,0000-00-00 00:00:00,0000-00-00 00:00:00,0
2,お知らせ,2,0,0000-00-00 00:00:00,0000-00-00 00:00:00,0
3,カレンダー,3,0,0000-00-00 00:00:00,0000-00-00 00:00:00,0
4,学生管理,4,0,0000-00-00 00:00:00,0000-00-00 00:00:00,0
5,教務,5,0,0000-00-00 00:00:00,0000-00-00 00:00:00,0
6,事務局,6,0,0000-00-00 00:00:00,0000-00-00 00:00:00,0
7,教職員,7,0,0000-00-00 00:00:00,0000-00-00 00:00:00,0
8,教育コンテンツ,8,0,0000-00-00 00:00:00,0000-00-00 00:00:00,0
9,メンテナンス,9,0,0000-00-00 00:00:00,0000-00-00 00:00:00,0
10,システム管理,10,0,0000-00-00 00:00:00,0000-00-00 00:00:00,0
11,カリキュラム,11,2000,2017-10-04 00:00:00,0000-00-00 00:00:00,0
